<?xml version="1.0" encoding="utf-8"?>
<!-- Generator: Adobe Illustrator 19.2.1, SVG Export Plug-In . SVG Version: 6.00 Build 0)  -->
<svg version="1.2" baseProfile="tiny" id="Layer_1" xmlns="http://www.w3.org/2000/svg" xmlns:xlink="http://www.w3.org/1999/xlink"
	 x="0px" y="0px" viewBox="0 0 255.1 141.7" xml:space="preserve">
<g>
	<path fill="#004278" d="M53,90.5c-1.6,0-3.2,0.5-4.6,1.6c2.3-5.7,3.8-9.3,4.5-10.8c0.7,1.3,2.1,4.9,4.2,10.7
		C55.9,91,54.5,90.5,53,90.5 M61,75.9H50.4c-1.9,4.8-3.7,9.1-5.3,13c-3,6.6-5.1,11.1-6.5,13.7h5.7c0.5-1.4,1.7-4.6,3.8-9.7
		c0,0,6.8-2.1,12.4,9.7H73c-1.4-1.6-3.8-6.2-7.1-13.9C63.5,82.8,61.9,78.5,61,75.9"/>
	<path fill="#004278" d="M196.4,81.3c0.7,1.3,2.1,4.9,4.2,10.7c-1.2-1-2.6-1.6-4.1-1.6c-1.7,0-3.2,0.5-4.6,1.6
		C194.2,86.4,195.7,82.8,196.4,81.3 M191.6,92.9c0,0,6.8-2.1,12.4,9.7h12.4c-1.4-1.6-3.8-6.2-7.1-13.9c-2.3-5.9-3.9-10.2-4.9-12.8
		h-10.6c-1.9,4.8-3.7,9.1-5.3,13c-3,6.6-5.1,11.1-6.5,13.7h5.7C188.4,101.2,189.6,98,191.6,92.9"/>
	<path fill="#004278" d="M120.2,90.5c-1.7,0-3.2,0.5-4.6,1.6c2.3-5.7,3.8-9.3,4.5-10.8c0.7,1.3,2.1,4.9,4.2,10.7
		C123.1,91,121.7,90.5,120.2,90.5 M117.6,75.9c-1.9,4.8-3.7,9.1-5.3,13c-3,6.6-5.1,11.1-6.5,13.7h5.7c0.5-1.4,1.7-4.6,3.8-9.7
		c0,0,6.8-2.1,12.4,9.7h12.4c-1.4-1.6-3.8-6.2-7.1-13.9c-2.3-5.9-3.9-10.2-4.9-12.8H117.6z"/>
	<path fill="#004278" d="M85.8,89.5c4-1.9,8.7,0.2,9.9,2.9c1.2,2.7-0.2,6.8-4.7,6.8c-2.6,0-4.8-0.9-6.5-2.6c-2.1-2.1-3-5.1-2.8-9
		c0.1-2.8,0.9-4.8,2.2-6.1c1-1,2.7-1.7,4.9-2.1c0.5-0.1,1.1-0.1,1.6-0.1c3.4,0,7.2,1.3,11.6,3.8l-1.6-6.4c-0.5-0.5-1.7-0.9-3.5-1.3
		c-2-0.4-4.1-0.7-6.4-0.7c-3,0-5.8,0.4-8.2,1.1c-3.9,1.2-6.8,3.1-8.7,5.7c-1.6,2.2-2.4,4.7-2.4,7.5c0,2.3,0.5,4.5,1.5,6.4
		c2.6,5,8.6,8.5,18,7.8c9.2-0.7,13.7-5.9,13.6-11C104.2,83.5,88.7,83.2,85.8,89.5"/>
	<path fill="#004278" d="M147.4,102.6c-0.3-4.7-0.5-9.2-0.5-13.4c0-1.6,0-3.6,0.1-6c1.4,1.3,6.4,10.6,9.3,20.1
		c5.2-2.6,11.9-17.2,13.8-20.7c0.1,2.7,0.2,4.9,0.2,6.6c0,3.2-0.2,7.7-0.7,13.4h11c-0.5-5.7-0.7-10.1-0.7-13.4
		c0-3.3,0.2-7.7,0.7-13.4h-12.4c-1.2,3-2.8,6.4-4.6,10c-0.8,1.5-1.6,3.1-2.4,4.6c-1.9-6-4.3-11.7-6.3-14.5h-12.3
		c0.2,5.7,0.3,10.1,0.3,13.4c0,4.4-0.2,8.9-0.5,13.4H147.4z"/>
	<g>
		<path fill="#004278" d="M43.3,71c48.9-37.4,133-29.9,170.6,0.1C187.5,55.1,106,36.1,43.3,71"/>
		<path fill="#004278" d="M115.6,53.1c-4.2-2.8-5.5-3.8-5.7-4.1c0.5-0.3,2.8-1.2,4.8-2c0.1,0,0.1-0.1,0.1-0.2c0-0.1-0.1-0.2-0.2-0.2
			c-2.5,0.1-5.3,0-5.8-0.1c0.1-0.3,0.6-1.5,1.1-2.4c0-0.1,0-0.2,0-0.2c-0.1-0.1-0.2-0.1-0.2,0c-1.4,0.7-3.2,1.4-3.6,1.4
			c0-0.5,1.1-3.1,1.5-4.1c0.4-1.1,0.4-1.1,0.4-1.2c0-0.1-0.1-0.1-0.1-0.2c-0.2,0-0.2,0-1.6,1.5c-1,1-2.6,2.7-3,3
			c-0.3-0.4-0.8-2.2-1.2-3.7c0-0.1-0.1-0.2-0.2-0.2c-0.1,0-0.2,0.1-0.2,0.1c-0.5,1.5-1.2,3.3-1.5,3.6c-0.4-0.4-1.8-3.1-3-5.5
			c0-0.1-0.2-0.1-0.3-0.1c-0.1,0-0.2,0.1-0.1,0.2c0.4,2.1,1,5.3,1,6.3c-0.5-0.4-1.9-1.7-3.1-3c-0.1-0.1-0.2-0.1-0.2,0
			c-0.1,0-0.1,0.1-0.1,0.2l0.7,3.1l-6.1-3.5c-0.1-0.1-0.2,0-0.3,0c-0.1,0.1-0.1,0.2,0,0.3c1.6,1.9,3.3,4,3.6,4.7
			c-0.7,0-3.3-0.3-5.7-0.7c-0.1,0-0.2,0-0.2,0.1c0,0.1,0,0.2,0.1,0.2c1.8,1,3.6,2.3,3.5,2.7c-0.2,0.4-3.1,1.6-5.8,2.6
			c-0.1,0-0.2,0.1-0.1,0.2c0,0.1,0.1,0.2,0.2,0.2c3.2-0.1,6.7,0,7.2,0.3c-0.2,0.6-3,3.6-5.7,6.2c-0.1,0.1-0.1,0.2,0,0.3
			c0.1,0.1,0.2,0.1,0.3,0.1c2.5-1,6.4-2.4,7.4-2.7c-0.3,0.9-2.1,4.3-3.2,6.4c0,0.1,0,0.2,0.1,0.3c0,0,0.1,0,0.1,0
			c0.1,0,0.1,0,0.1-0.1c1.9-1.9,4.9-4.8,5.7-5.5c0,0.6-0.2,2.6-0.4,4.3c0,0.1,0,0.2,0.1,0.2c0.1,0,0.2,0,0.2-0.1
			c0.8-1.4,1.7-2.9,2.1-3.4c0.2,0.8,0.4,3.7,0.4,4.1c0,0.1,0.1,0.2,0.2,0.2c0.2,0,0.2,0,0.3-0.6c0.9-3.1,1.2-3.9,1.4-4.1
			c0.3,0.2,1.4,1.9,2.1,3.3c0,0.1,0.2,0.1,0.2,0.1c0.1,0,0.2-0.1,0.1-0.2c-0.2-1.5-0.4-3.2-0.3-3.8c0.5,0.5,1.7,1.9,2.8,3.3
			c0.1,0.1,0.2,0.1,0.3,0c0.1-0.1,0.1-0.2,0.1-0.3c-0.6-1.5-1.3-3.3-1.3-3.8c0.5,0.3,2.3,1.8,4.4,3.8c0,0,0,0,0,0c0,0,0,0,0,0l0,0
			c0.1,0.1,0.2,0.1,0.3,0c0.1-0.1,0.1-0.2,0-0.3c-0.3-0.4-2.3-4.5-2.2-5.1c0.3,0,1.7,0.6,3.9,1.8c0.7,0.4,0.7,0.4,0.8,0.3
			c0.1-0.1,0.1-0.1,0.1-0.2c0,0,0,0-0.3-0.4c-1.7-2.5-2.1-3.3-2.1-3.5c0.7-0.2,5.9,0.6,6.3,0.7c0.1,0,0.2,0,0.3-0.1
			C116.3,53.5,116.3,53.5,115.6,53.1z"/>
	</g>
</g>
</svg>
