<?xml version="1.0" encoding="utf-8"?>
<!-- Generator: Adobe Illustrator 19.2.1, SVG Export Plug-In . SVG Version: 6.00 Build 0)  -->
<svg version="1.1" id="Layer_1" xmlns="http://www.w3.org/2000/svg" xmlns:xlink="http://www.w3.org/1999/xlink" x="0px" y="0px"
	 viewBox="0 0 151.7 71.7" style="enable-background:new 0 0 151.7 71.7;" xml:space="preserve">
<style type="text/css">
	.st0{fill:#C40040;}
	.st1{fill:#EC7404;}
	.st2{fill:#A40133;}
	.st3{fill:#FDC500;}
	.st4{fill:#FFDD00;}
	.st5{fill:#F49E00;}
</style>
<g>
	<path d="M137.3,53.2h-10.7c2.5-4.5,4.6-13.4,4.6-19.3h6.2v19.3C137.4,53.2,137.3,53.2,137.3,53.2z M142.5,53.2V30.8
		c0-0.7-0.4-1-1.1-1h-14.5c-0.7,0-1,0.3-1,1c0,7.5-1.2,15.3-4.9,22.4h-1.9c-0.7,0-1,0.3-1,1v6c0,0.7,0.4,1,1.1,1h3.1
		c0.7,0,1-0.3,1-1v-2.9h16.4v2.9c0,0.7,0.3,1,1,1h3.2c0.7,0,1-0.3,1-1v-6c0-0.7-0.4-1-1.1-1H142.5L142.5,53.2z M88.4,54.3
		c0-0.7-0.4-1-1-1h-2c-0.6,0-1.1,0.3-1.1,1v2.1c0,0.7,0.4,1,1.1,1h2c0.7,0,1-0.3,1-1V54.3L88.4,54.3z M150.5,54.3c0-0.7-0.4-1-1-1
		h-2c-0.6,0-1.1,0.3-1.1,1v2.1c0,0.7,0.4,1,1.1,1h2c0.7,0,1-0.3,1-1V54.3L150.5,54.3z M116.9,54.3c0-0.7-0.4-1-1-1h-2
		c-0.6,0-1.1,0.3-1.1,1v2.1c0,0.7,0.4,1,1.1,1h2c0.7,0,1-0.3,1-1V54.3L116.9,54.3z M111.4,56.4V30.7c0-0.7-0.3-1-1-1h-3.2
		c-0.6,0-1,0.3-1,1v10.4H95V30.7c0-0.7-0.4-1-1-1h-3.1c-0.6,0-1.1,0.3-1.1,1v25.7c0,0.7,0.4,1,1.1,1H94c0.7,0,1-0.3,1-1V45.3h11.3
		v11.1c0,0.7,0.3,1,1,1h3.2C111.2,57.4,111.4,57.1,111.4,56.4L111.4,56.4z M74.1,46.7h-7.4l2.8-8.4c0.4-1.1,0.6-2,0.8-2.6h0.1
		c0.2,0.6,0.4,1.5,0.8,2.6L74.1,46.7L74.1,46.7z M83.1,56.8c0-0.2,0-0.3-0.1-0.5l-9.8-25.7c-0.2-0.4-0.5-0.7-1.1-0.7h-3.2
		c-0.6,0-0.9,0.3-1.1,0.8l-9.7,25.9C58,56.8,58,56.9,58,57c0,0.3,0.2,0.5,0.6,0.5h3.6c0.6,0,0.9-0.3,1.1-0.8l2.1-6h10.1l2.1,5.9
		c0.2,0.6,0.5,1,1.4,1h3.6C82.9,57.4,83.1,57.2,83.1,56.8L83.1,56.8z M140,18.9c0,0,1.1,0,1.4,0c0-0.3,0-3.6,0-4c-0.3,0-1.1,0-1.1,0
		c-1.9,0-2.7,0.6-2.7,1.9C137.7,18.1,138.5,18.9,140,18.9L140,18.9z M142.1,14c0.2,0,0.3,0.1,0.3,0.3v9.2c0,0.2-0.1,0.3-0.3,0.3
		h-0.4c-0.2,0-0.3-0.1-0.3-0.3c0,0,0-3.5,0-3.9c-0.3,0-1.4,0-1.6,0c-0.1,0.2-2.4,4-2.4,4c-0.1,0.1-0.2,0.2-0.4,0.2h-0.4
		c-0.3,0-0.3-0.2-0.3-0.3l0.1-0.2c0,0,2.2-3.5,2.4-3.9c-1.4-0.3-2.3-1.4-2.3-2.7c0-1.9,1.2-2.8,3.6-2.8h2L142.1,14L142.1,14z
		 M134.2,14l-0.3,0.2c0,0-4.5,6.1-5.7,7.8c0-1,0-7.6,0-7.6c0-0.2-0.1-0.3-0.3-0.3h-0.4c-0.2,0-0.3,0.1-0.3,0.3v9.2
		c0,0.2,0.1,0.3,0.3,0.3h0.3c0.2,0,0.3-0.1,0.4-0.3c0,0,4.4-6,5.7-7.8c0,1,0,7.7,0,7.7c0,0.1,0,0.3,0.3,0.3h0.3
		c0.3,0,0.3-0.2,0.3-0.3v-9.2c0-0.2-0.1-0.3-0.3-0.3L134.2,14L134.2,14z M110.5,19.9c0.5,0,2.9,0,3.4,0c-0.2-0.4-1.4-3.5-1.6-4.3
		C111.9,16.3,110.7,19.4,110.5,19.9L110.5,19.9z M112.4,14c0.2,0,0.3,0.2,0.3,0.2l3.6,9.2v0.2c0,0.2-0.1,0.3-0.3,0.3h-0.5
		c-0.1,0-0.3,0-0.3-0.2c0,0-1-2.7-1.1-3c-0.3,0-3.7,0-4,0c-0.2,0.6-1.2,3-1.2,3c-0.1,0.2-0.2,0.2-0.3,0.2h-0.4
		c-0.3,0-0.3-0.1-0.3-0.2c0,0,0-0.2,0-0.1l3.7-9.2c0-0.1,0.1-0.3,0.3-0.3h0.5V14z M103.7,14.9c0,0.3,0,4,0,4.3c0.3,0,1,0,1,0
		c1.2,0,2.7-0.4,2.7-2.2c0-1.5-0.8-2.1-2.8-2.1C104.6,14.9,104,14.9,103.7,14.9L103.7,14.9z M104.7,14c2.4,0,3.7,1,3.7,2.9
		S107,20,104.7,20c0,0-0.8,0-1.1,0c0,0.4,0,3.5,0,3.5c0,0.2-0.1,0.3-0.3,0.3H103c-0.2,0-0.3-0.1-0.3-0.3v-9.2c0-0.2,0.1-0.3,0.3-0.3
		H104.7L104.7,14z M96.7,23.1c1.9,0,3.1-1.7,3.1-4.2c0-2.7-1.1-4.2-3.1-4.2c-1.8,0-3.1,1.7-3.1,4.2C93.7,21.6,94.8,23.1,96.7,23.1
		L96.7,23.1z M96.8,13.9c2.5,0,4.1,1.9,4.1,5S99.2,24,96.6,24s-4.1-1.9-4.1-5C92.6,15.9,94.3,13.9,96.8,13.9L96.8,13.9z M124.2,14
		c-0.2,0-0.3,0.1-0.3,0.3c0,0,0,8.3,0,8.7c-0.4,0-4.9,0-5.2,0c0-0.4,0-8.7,0-8.7c0-0.3-0.3-0.3-0.3-0.3H118c-0.2,0-0.3,0.1-0.3,0.3
		v9.2c0,0.2,0.1,0.3,0.3,0.3c0,0,6.2,0,6.6,0c0,0.2,0,0.4,0,0.4c0,0.3,0.3,0.3,0.3,0.3h0.4c0.2,0,0.3-0.1,0.3-0.3v-0.9
		c0-0.2-0.1-0.3-0.3-0.3c0,0-0.1,0-0.3,0c0-0.4,0-8.7,0-8.7c0-0.2-0.1-0.3-0.3-0.3H124.2L124.2,14z M83.9,14c-0.2,0-0.3,0.1-0.3,0.3
		v9.2c0,0.2,0.1,0.3,0.3,0.3h0.4c0.2,0,0.3-0.1,0.3-0.3c0,0,0-8.3,0-8.7c0.4,0,4.9,0,5.2,0c0,0.4,0,8.7,0,8.7c0,0.3,0.3,0.3,0.3,0.3
		h0.4c0.2,0,0.3-0.1,0.3-0.3v-9.2c0-0.2-0.1-0.3-0.3-0.3H83.9L83.9,14z M77.2,14.9c0,0.3,0,4,0,4.3c0.3,0,1,0,1,0
		c1.2,0,2.7-0.4,2.7-2.2c0-1.5-0.8-2.1-2.8-2.1C78.1,14.9,77.5,14.9,77.2,14.9L77.2,14.9z M78.3,14c2.4,0,3.7,1,3.7,2.9
		S80.6,20,78.3,20c0,0-0.8,0-1.1,0c0,0.4,0,3.5,0,3.5c0,0.2-0.1,0.3-0.3,0.3h-0.4c-0.2,0-0.3-0.1-0.3-0.3v-9.2
		c0-0.2,0.1-0.3,0.3-0.3H78.3L78.3,14z M70.3,23.1c1.9,0,3.1-1.7,3.1-4.2c0-2.7-1.1-4.2-3.1-4.2c-1.8,0-3.1,1.7-3.1,4.2
		C67.2,21.6,68.3,23.1,70.3,23.1L70.3,23.1z M70.4,13.9c2.5,0,4.1,1.9,4.1,5S72.8,24,70.2,24c-2.6,0-4.1-1.9-4.1-5
		S67.8,13.9,70.4,13.9L70.4,13.9z M65.3,14c0.2,0,0.3,0.1,0.3,0.3v0.1c0,0-3.9,4.1-4.2,4.4c0.7,0.7,4.4,4.6,4.4,4.6l0.1,0.2
		c0,0.1-0.1,0.3-0.3,0.3h-0.5c-0.2,0-0.3,0-0.5-0.2c0,0-3.4-3.6-3.9-4.2c0,0.8,0,4.1,0,4.1c0,0.2-0.1,0.3-0.3,0.3H60
		c-0.1,0-0.3-0.1-0.3-0.3v-9.2c0-0.2,0.1-0.3,0.3-0.3h0.4c0.2,0,0.3,0.1,0.3,0.3c0,0,0,3.1,0,3.8c1-1,3.8-4,3.8-4
		c0.1-0.1,0.2-0.1,0.3-0.1L65.3,14L65.3,14z"/>
	<polygon class="st0" points="28.2,18.7 22.5,20 22.6,28.2 47.9,25.3 	"/>
	<polygon class="st1" points="28.2,18.7 28.2,0.2 0.6,14 22.5,20 	"/>
	<polygon class="st2" points="0.6,25.3 22.6,28.2 22.5,20 	"/>
	<polygon class="st0" points="22.5,20 0.6,14 0.6,25.3 	"/>
	<polygon class="st0" points="47.9,14 28.2,0.2 28.2,18.7 	"/>
	<polygon class="st2" points="28.2,18.7 47.9,25.3 47.9,14 	"/>
	<polygon class="st3" points="22.5,51.3 0.6,46.1 0.6,57.4 	"/>
	<polygon class="st3" points="23,51.4 28.2,52.6 47.9,46 22.6,43.1 22.6,51.3 	"/>
	<polygon class="st4" points="22.6,43.1 0.6,46 22.5,51.3 	"/>
	<polygon class="st4" points="22.6,51.3 22.5,51.3 0.6,57.4 28.2,71.1 28.2,52.6 	"/>
	<polygon class="st5" points="28.2,52.6 28.2,52.6 47.9,57.3 47.9,46 	"/>
	<polygon class="st3" points="28.2,71.1 47.9,57.3 28.2,52.6 	"/>
	<polygon class="st1" points="28.2,31.2 28.2,40.1 47.9,41.3 47.9,30 	"/>
	<polygon class="st3" points="22.6,39.7 28.2,40.1 28.2,31.2 22.6,31.6 	"/>
	<polygon class="st5" points="22.6,31.6 0.6,30 0.6,41.3 22.6,39.7 	"/>
	<polygon class="st5" points="28.2,44.9 47.9,41.3 28.2,40.1 	"/>
	<polygon class="st1" points="22.6,39.7 0.6,41.3 28.2,44.9 28.2,40.1 	"/>
	<polygon class="st5" points="47.9,30 28.2,26.4 28.2,31.2 	"/>
	<polygon class="st1" points="28.2,31.2 28.2,26.4 0.6,30 22.6,31.6 	"/>
</g>
</svg>
