<?xml version="1.0" encoding="utf-8"?>
<!-- Generator: Adobe Illustrator 20.0.0, SVG Export Plug-In . SVG Version: 6.00 Build 0)  -->
<svg version="1.1" id="logo" xmlns="http://www.w3.org/2000/svg" xmlns:xlink="http://www.w3.org/1999/xlink" x="0px" y="0px"
	 viewBox="0 0 465.3 465.3" style="enable-background:new 0 0 465.3 465.3;" xml:space="preserve">
<style type="text/css">
	.st0{fill:#FFFFFF;}
	.st1{fill:#0056A2;}
	.st2{fill:#ECB02E;}
	.st3{fill:#F4DDA1;}
	.st4{fill:#EE365D;}
</style>
<g>
	<path class="st0" d="M232.6,88.3C153,88.3,88.3,153,88.3,232.6C88.3,312.2,153,377,232.6,377c79.6,0,144.4-64.8,144.4-144.4
		C377,153,312.2,88.3,232.6,88.3"/>
	<path class="st1" d="M232.6,88.3C153,88.3,88.3,153,88.3,232.6C88.3,312.2,153,377,232.6,377c79.6,0,144.4-64.8,144.4-144.4
		C377,153,312.2,88.3,232.6,88.3 M232.6,382.4c-82.6,0-149.8-67.2-149.8-149.8C82.8,150,150,82.8,232.6,82.8
		c82.6,0,149.8,67.2,149.8,149.8C382.4,315.2,315.2,382.4,232.6,382.4"/>
	<g>
		<g>
			<path class="st1" d="M121.2,274.4c-5.4-0.9-12.1-6-11.2-12.1c0.3-2.3,1.8-3.8,3.9-4.5c1-0.3,2.1-0.5,3.2-0.5
				c0.4,0,3.6,0.7,3.6,0.7c1.9-1.9,4.5-3.8,7.4-3.7c2.4,0,5.1,2,5.8,4.4c1.4,5.2-3.2,12.5-7.6,15c-0.2,0.1-0.5,0.2-0.7,0.3
				C124.2,274.6,122.5,274.7,121.2,274.4"/>
			<g>
				<path class="st1" d="M132.8,251.6c-0.2,0.3-0.6,0.6-1,0.9c-0.3,0.2-0.7,0.5-1.1,0.7c-0.5,0.2-1,0.2-1.5,0.2
					c-0.5,0-1.1,0-1.5-0.1c-0.5-0.1-0.9-0.4-1.3-0.7c-0.4-0.3-0.6-0.6-0.8-1c-0.1-0.4-0.3-0.7-0.4-1.2c-0.1-0.4,0.1-0.8,0.1-1.3
					c0.1-0.4,0.1-0.8,0.4-1.2c0.3-0.4,0.6-0.6,1.1-0.8c0.5-0.2,1-0.3,1.6-0.3c0.6,0,1.2,0.1,1.8,0.2c0.6,0.2,1,0.5,1.5,0.9
					c0.5,0.3,0.8,0.7,0.9,1.2c0.2,0.4,0.3,0.8,0.3,1.2C133,250.9,133,251.3,132.8,251.6"/>
				<path class="st1" d="M120.2,254.9c0.5-0.2,0.9-0.3,1.3-0.6c0.4-0.3,0.6-0.7,0.9-1.2c0.2-0.4,0.3-1,0.3-1.6
					c-0.1-0.4-0.2-0.9-0.5-1.3c-0.2-0.5-0.5-0.9-0.8-1.2c-0.4-0.3-0.8-0.5-1.3-0.5c-0.5,0-1.1,0.1-1.7,0.5c-0.4,0.2-0.8,0.5-1.1,0.8
					c-0.3,0.3-0.7,0.7-0.9,1c-0.2,0.3-0.4,0.7-0.6,1c-0.2,0.4-0.2,0.8-0.2,1.1c0,0.7,0.2,1.2,0.7,1.6c0.3,0.3,0.7,0.5,1.2,0.6
					c0.4,0.1,0.9,0.1,1.4,0.1C119.3,255.3,119.7,255.1,120.2,254.9"/>
				<path class="st1" d="M111.3,257.2c-0.4,0.3-0.8,0.7-1.2,1c-0.4,0.2-0.9,0.3-1.4,0.4c-0.4,0.1-0.8,0-1.1-0.1
					c-0.3-0.2-0.5-0.4-0.7-0.7c-0.1-0.3-0.2-0.6-0.2-1c0-0.4,0-0.8,0.1-1.2c0.1-0.4,0.4-0.8,0.7-1.2c0.2-0.4,0.5-0.7,0.9-0.9
					s0.8-0.4,1.3-0.5c0.4-0.1,0.9,0,1.3,0c0.4,0.1,0.8,0.2,1.1,0.4c0.3,0.2,0.5,0.4,0.6,0.6c0.1,0.2,0.2,0.4,0.2,0.6
					c0,0.2-0.1,0.5-0.2,0.7c-0.1,0.3-0.3,0.6-0.6,1C112.1,256.6,111.7,256.9,111.3,257.2"/>
			</g>
		</g>
		<g>
			<path class="st1" d="M344,274.4c5.4-0.9,12.1-6,11.2-12.1c-0.3-2.3-1.8-3.8-3.9-4.5c-1-0.3-2.1-0.5-3.2-0.5
				c-0.4,0-3.6,0.7-3.6,0.7c-1.9-1.9-4.5-3.8-7.4-3.7c-2.4,0-5.1,2-5.8,4.4c-1.4,5.2,3.2,12.5,7.6,15c0.2,0.1,0.5,0.2,0.7,0.3
				C341,274.6,342.7,274.7,344,274.4"/>
			<g>
				<path class="st1" d="M332.4,251.6c0.2,0.3,0.6,0.6,1,0.9c0.3,0.2,0.7,0.5,1.1,0.7c0.5,0.2,1,0.2,1.5,0.2c0.5,0,1.1,0,1.5-0.1
					c0.5-0.1,0.9-0.4,1.3-0.7c0.4-0.3,0.6-0.6,0.8-1c0.1-0.4,0.3-0.7,0.4-1.2c0.1-0.4-0.1-0.8-0.1-1.3c-0.1-0.4-0.1-0.8-0.4-1.2
					c-0.3-0.4-0.6-0.6-1.1-0.8c-0.5-0.2-1-0.3-1.6-0.3c-0.6,0-1.2,0.1-1.8,0.2c-0.6,0.2-1,0.5-1.5,0.9c-0.5,0.3-0.8,0.7-0.9,1.2
					c-0.2,0.4-0.3,0.8-0.3,1.2C332.2,250.9,332.2,251.3,332.4,251.6"/>
				<path class="st1" d="M345,254.9c-0.5-0.2-0.9-0.3-1.3-0.6c-0.4-0.3-0.6-0.7-0.9-1.2c-0.2-0.4-0.3-1-0.3-1.6
					c0.1-0.4,0.2-0.9,0.5-1.3c0.2-0.5,0.5-0.9,0.8-1.2c0.4-0.3,0.8-0.5,1.3-0.5c0.5,0,1.1,0.1,1.7,0.5c0.4,0.2,0.8,0.5,1.1,0.8
					c0.3,0.3,0.7,0.7,0.9,1c0.2,0.3,0.4,0.7,0.6,1c0.2,0.4,0.2,0.8,0.2,1.1c0,0.7-0.2,1.2-0.7,1.6c-0.3,0.3-0.7,0.5-1.2,0.6
					c-0.4,0.1-0.9,0.1-1.4,0.1C345.9,255.3,345.5,255.1,345,254.9"/>
				<path class="st1" d="M353.8,257.2c0.4,0.3,0.8,0.7,1.2,1c0.5,0.2,0.9,0.3,1.4,0.4c0.4,0.1,0.8,0,1.1-0.1
					c0.3-0.2,0.5-0.4,0.7-0.7c0.1-0.3,0.2-0.6,0.2-1c0-0.4,0-0.8-0.1-1.2c-0.1-0.4-0.4-0.8-0.7-1.2c-0.2-0.4-0.5-0.7-0.9-0.9
					c-0.4-0.2-0.8-0.4-1.3-0.5c-0.4-0.1-0.9,0-1.3,0c-0.4,0.1-0.8,0.2-1.1,0.4c-0.3,0.2-0.5,0.4-0.6,0.6c-0.1,0.2-0.2,0.4-0.2,0.6
					c0,0.2,0.1,0.5,0.2,0.7c0.1,0.3,0.3,0.6,0.6,1C353.1,256.6,353.5,256.9,353.8,257.2"/>
			</g>
		</g>
	</g>
	<g>
		<path class="st1" d="M242.6,334.7l-3.7,0.2l0,0.1c0,0-1.3,1.9-2.4,2.7c-1.2,1-3.7,1.7-3.7,1.7l-0.1,0l0.2,3.9l0.2,0
			c0.1,0,2.5-0.6,3.8-1.2c0.2-0.1,0.5-0.3,0.7-0.4l0.9,16.6l0,0.2l5.3-0.3l-1.3-23.2L242.6,334.7z"/>
		<path class="st1" d="M258,331.8c-0.8,0-1.7,0.1-2.6,0.3c-2.5,0.6-4.4,1.9-5.6,3.7c-1.2,1.9-1.5,4.2-0.9,6.7c0.9,3.6,4,6.1,7.8,6.1
			c0.7,0,1.4-0.1,2.1-0.2c0.6-0.1,1.4-0.4,2-0.8c-0.9,2.4-2.6,5.2-3.5,6.5l-0.1,0.2l4.2,2l0.1-0.1c0.6-0.6,2.9-5.2,3.7-7.1
			c1.4-3.3,1.7-7.1,1-10.1C265,334.5,262.1,331.8,258,331.8z M258.1,343.6c-0.3,0.1-0.5,0.1-0.8,0.1c-1.3,0-3-0.7-3.5-2.8
			c-0.3-1.3,0.2-2.2,0.6-2.8c0.5-0.7,1.3-1.2,2-1.4c0.3-0.1,0.7-0.1,1-0.1c1.4,0,3,0.7,3.4,2.5C261.3,341.3,260.2,343.1,258.1,343.6
			z"/>
		<path class="st1" d="M278.4,324.7c-1.3,0-2.7,0.3-4.1,1c-2.3,1.1-4,2.7-4.8,4.8c-0.8,2.1-0.7,4.4,0.4,6.8c1.3,2.8,4.1,4.6,7.2,4.6
			h0c1.2,0,2.4-0.3,3.6-0.8c0.6-0.3,1.3-0.6,1.8-1.2c-0.5,2.5-1.5,5.6-2.2,7.1l-0.1,0.2l4.5,1.1l0.1-0.1c0.4-0.7,1.8-5.7,2.2-7.7
			c0.7-3.5,0.3-7.3-1-10.1C284.4,326.8,281.6,324.7,278.4,324.7z M276.1,330.1c0.6-0.3,1.2-0.4,1.8-0.4c1.4,0,2.5,0.7,3,1.9
			c0.4,1,0.5,2,0.2,2.8c-0.3,0.9-1,1.5-2,2c-0.5,0.2-1,0.3-1.5,0.3c-0.7,0-2.4-0.2-3.2-2.1C273.4,332.5,274.8,330.6,276.1,330.1z"/>
		<polygon class="st1" points="299.8,310.6 284.7,321.7 287.3,325.2 295.9,318.9 298.6,340.5 303.6,336.9 		"/>
		<polygon class="st1" points="168.4,318.2 175.1,323.1 177.8,319.5 166.7,311.3 152.7,330.1 164.2,338.6 164.4,338.7 167.2,334.9 
			160,329.6 162.9,325.6 168.8,330 171.5,326.4 165.6,322 		"/>
		<path class="st1" d="M188.4,324.9c-1.4-0.6-2.8-1-4.1-1c-2.7,0-4.8,1.3-5.9,3.6c-1.1,2.4-0.6,5,1.6,7.9l2.8,3.6
			c0.3,0.4,1,1.5,0.5,2.6c-0.6,1.3-1.7,1.6-3.2,0.9c-2-0.9-3.2-2.9-3.9-4.4l-0.1-0.1l-4.5,2.5l0.1,0.1c1.8,3.5,4.5,5.1,6.3,5.9
			c1.6,0.7,3.1,1.1,4.5,1.1c2.7,0,4.8-1.4,6-3.9c1.5-3.2-0.3-6.1-2.1-8.3l-2.2-2.8c-0.8-1-1.3-1.8-0.7-3c0.3-0.7,0.9-1,1.6-1
			c0.4,0,0.9,0.1,1.4,0.4c1.1,0.5,2.5,1.7,3.3,3.4l0.1,0.2l4.3-2.4l-0.1-0.1C192.9,327.8,191,326.2,188.4,324.9z"/>
		<polygon class="st1" points="212.7,333.4 198.1,329.5 197,333.8 201.6,335.1 196.6,353.3 201.9,354.8 206.9,336.5 211.5,337.8 		
			"/>
		<circle class="st1" cx="211.1" cy="354" r="3.3"/>
	</g>
	<g>
		<path class="st1" d="M133,185c-0.7-0.2-1.4-0.3-2.1-0.3c-1.8,0-3.5,0.8-4.5,2.1c-0.2-1.8-1.6-3.5-3.6-4.1c-4-1.3-7,0.9-8.8,6.5
			l-2.3,7.3l22.3,7.2l2.9-9.1C138.7,189,136,186,133,185z M117.7,192.5l0.7-2.1c0.5-1.6,1.5-2.6,2.6-2.6c0.2,0,0.4,0,0.6,0.1
			c0.7,0.2,1.2,0.6,1.5,1.2c0.3,0.7,0.3,1.6-0.1,2.8l-0.7,2.1L117.7,192.5z M132.2,193.9l-1,3l-4.7-1.5l0.9-2.7
			c0.6-1.9,1.5-2.9,2.6-2.9c0.3,0,0.6,0.1,1,0.2c0.8,0.2,1.2,0.7,1.4,1.4C132.6,192.1,132.5,192.9,132.2,193.9z"/>
		<path class="st1" d="M144.2,163.2l-11.6-7.6l-3,4.6l11.3,7.4c1.5,1,2.4,1.9,2.7,2.8c0.3,1,0.1,2-0.7,3.2c-0.9,1.4-1.9,2.1-3.1,2.1
			c-0.9,0-2-0.4-3.3-1.3l-11.3-7.4l-3,4.6l11.6,7.6c1.9,1.2,3.8,1.9,5.6,1.9c2.9,0,5.5-1.6,7.6-4.7c1.8-2.7,2.3-5.3,1.6-7.7
			C148,166.6,146.5,164.7,144.2,163.2z"/>
		
			<rect x="146.9" y="141.9" transform="matrix(0.6885 -0.7252 0.7252 0.6885 -64.7824 156.3271)" class="st1" width="5.5" height="23.4"/>
		<polygon class="st1" points="166,148.1 154.3,133.4 150,136.9 164.6,155.2 175.3,146.7 172.4,143 		"/>
		<path class="st1" d="M191.3,125.5c-2.3-4.6-5.6-7-9.7-7c-2.2,0-4.8,0.7-7.5,2.1l-5.8,2.9l10.5,20.9l7.1-3.6
			C193.1,137.2,193.8,130.5,191.3,125.5z M183,137l-1.4,0.7l-6.4-12.7l0.9-0.4c4.5-2.3,8-1.2,10.2,3c0.9,1.9,1.1,3.7,0.6,5.4
			C186.3,134.6,184.9,136,183,137z"/>
	</g>
	<g>
		
			<rect x="203.1" y="118.8" transform="matrix(0.9741 -0.2263 0.2263 0.9741 -22.0101 50.0545)" class="st1" width="8.4" height="4.5"/>
		<path class="st1" d="M220.9,129.5l5.8,0.1l2.5-5.2l6.8,0.1l2.3,5.3l5.9,0.1L232.9,105L220.9,129.5z M234.4,120.4l-3.5-0.1l1.7-3.7
			L234.4,120.4z"/>
		
			<rect x="255.6" y="116.9" transform="matrix(0.2265 -0.974 0.974 0.2265 81.5211 344.7881)" class="st1" width="4.5" height="8.4"/>
	</g>
	<g>
		<path class="st1" d="M289,131.7c1.8,0.1,3.7-1.2,4.5-3c0.9-1.9,0.9-3.6,0.1-5.2c-0.9-1.6-2.7-3.1-5.3-4.4l-6.9-3.3l-10,21
			l-0.1,0.1l8.6,4.1c1.5,0.7,2.9,1.1,4.2,1.1c2.5,0,4.6-1.4,5.7-3.8C291.2,135.6,290.4,133.1,289,131.7z M284.5,122.2l2,0.9
			c1,0.5,1.7,1.1,2,1.8c0.3,0.6,0.3,1.2,0,1.7c-0.5,0.9-1.1,1.4-2,1.4c-0.6,0-1.3-0.2-2.1-0.6l-2-1L284.5,122.2z M285.2,135.7
			c-0.7,1.4-2,1.6-4,0.6l-2.8-1.4l2.1-4.5l2.6,1.2C285.4,132.9,286,134.1,285.2,135.7z"/>
		<polygon class="st1" points="297.5,146.8 300.6,142.9 306.3,147.5 309.1,144 303.4,139.4 306.3,135.7 312.8,140.9 315.6,137.4 
			304.8,128.8 290.3,147 290.2,147.1 301.6,156.1 304.5,152.4 		"/>
		<path class="st1" d="M303.5,157.3l3.8,4.5l5.6-1.6l4.3,5.2l-2.5,5.2l3.8,4.5l11.4-24.8L303.5,157.3z M320.9,157.7l-1.7,3.8
			l-2.3-2.7L320.9,157.7z"/>
		<path class="st1" d="M344.5,174.5l-3.6-7l-20.7,10.7l-0.1,0.1l2.5,4.9l9.3-4.8l-6.1,10.9l3.2,6.2l5.5-11.2
			c1.2,1.3,2.8,2.1,4.5,2.1c1.1,0,2.2-0.3,3.3-0.9c2-1,3.2-2.6,3.6-4.6C346.1,179,345.7,176.8,344.5,174.5z M335.5,179l-1-2l4.9-2.5
			l1,2c1,1.9,0.7,3.4-0.7,4.1c-0.5,0.3-1,0.4-1.5,0.4C337.1,181,336.2,180.3,335.5,179z"/>
	</g>
	<path class="st1" d="M317,232.3c0,46.6-37.8,84.4-84.4,84.4c-46.6,0-84.4-37.8-84.4-84.4c0-46.6,37.8-84.4,84.4-84.4
		C279.2,147.9,317,185.7,317,232.3"/>
	<g>
		<path class="st2" d="M299.5,249.1c5.8-2,10-7.3,10-13.6c0-7.8-6.4-14.1-14.4-14.4v0l-0.2,0c-0.2,0-0.3,0-0.5,0
			c-0.6,0-1.1,0-1.7,0.1l-0.1,0c0,0-0.1,0-0.1,0c-0.9,0.1-1.9,0.3-2.7,0.6c-3.8,0.8-5.6,1.8-9.6,2.8c-5.8,1.5-11.2,0.6-15.4-0.8
			c-2.8-1-6.2-2.4-8.8-4c5.5-4.2,9.7-9.9,11.7-16.9c0.7-1.9,1.1-3.7,1.2-5.5c7.2-1.8,12.2-8.7,11.4-16.3
			c-0.8-8.4-8.3-14.5-16.7-13.7c-3.6,0.4-6.7,1.9-9.1,4.2c-2-0.6-5.4-1.5-9.8-2.1c-1.8-1.8-5.5-5-9-4.4c0,0-0.7,0.1-0.1,0.6
			c0,0,0.1,0.1,0.1,0.1c0.4,0.3,0.7,0.6,1,0.9c0.6,0.5,1,0.9,1.2,1.2c0.2,0.2,0.3,0.3,0.3,0.3c0,0,0,0,0,0c0.1,0.2,0.1,0.3,0.1,0.4
			c-0.1,0.2-0.2,0.2-0.4,0.2c-0.1,0-0.1,0-0.2,0c-3.9-2.2-8.3-3.3-12.5-2.9c-0.8,0.1-1.6,0.2-2.4,0.4c-0.6,0.3-0.9,0.6-0.6,1
			c0.2,0.3,3.3,1.3,4.7,2.3c-9.4,1.5-16.7,4.8-19.9,6.5c-2.8-1.8-6.1-2.6-9.7-2.3c-8.4,0.8-14.5,8.3-13.7,16.7
			c0.8,7.6,7,13.4,14.4,13.8c0.5,1.7,1.2,3.4,2.3,5.1c2.2,4.2,5.2,7.7,8.8,10.5c-2.6,1.5-5.8,2.8-8.4,3.8c-4.2,1.5-9.6,2.3-15.4,0.8
			c-4-1-5.9-2-9.6-2.8c-0.9-0.3-1.8-0.5-2.7-0.6c-0.1,0-0.1,0-0.1,0l-0.1,0c-0.6-0.1-1.1-0.1-1.7-0.1c-0.2,0-0.3,0-0.5,0l-0.2,0l0,0
			c-8,0.4-14.4,6.7-14.4,14.4c0,6.3,4.2,11.6,10,13.6c0,0,0.1,0,0.1,0c9.2,4.4,27.4,4.8,27.4,4.8s-2.4,9.5-5.1,11.6
			c-1.6,1.3-4.7,0.5-6.8-0.3c-0.8-0.4-1.6-0.7-2.4-1c0,0,0,0,0,0l-0.1,0c-1.1-0.3-2.2-0.5-3.3-0.6l-0.2,0c0,0,0,0,0,0
			c-1.5-0.1-2.9,0.1-4.3,0.6c-8.4,2.8-12.1,14.6-8.2,26.3c3.4,10.3,11.6,17.1,19.3,16.7c3.7-0.1,7.1-1.1,10-2.6
			c3.4-1.6,5.2-2.3,17.5-6.3c7.6-2.4,22.9-2.4,23.1-2.4c0.2,0,15.6,0,23.1,2.4c12.3,3.9,14,4.6,17.5,6.3c3,1.4,6.3,2.5,10,2.6
			c7.7,0.5,15.9-6.4,19.3-16.7c3.9-11.7,0.2-23.5-8.2-26.3c-1.4-0.5-2.9-0.6-4.3-0.6c0,0,0,0,0,0l-0.2,0c-1.1,0.1-2.2,0.3-3.3,0.6
			l-0.1,0c0,0,0,0,0,0c-0.8,0.3-1.6,0.6-2.4,1c-2.2,0.8-5.2,1.5-6.8,0.3c-2.7-2.1-5.1-11.6-5.1-11.6S290.2,253.5,299.5,249.1
			C299.4,249.1,299.5,249.1,299.5,249.1z"/>
		<g>
			<path class="st3" d="M187.6,282.5c2.3,6.8,0.5,15-4.6,16.8c-5.2,1.7-11.8-3.7-14.1-10.5c-2.3-6.8-0.1-14.9,5-16.6
				C179.1,270.4,185.3,275.6,187.6,282.5"/>
			<path class="st3" d="M278.3,282.5c-2.3,6.8-0.5,15,4.6,16.8c5.2,1.7,11.8-3.7,14.1-10.5c2.3-6.8,0.1-14.9-5-16.6
				C286.8,270.4,280.5,275.6,278.3,282.5"/>
			<path class="st3" d="M246.9,201.9c-3.3-4.2-8.4-9.5-14.2-8.8c-5.8,0.5-9.8,6.7-12.2,11.5c-2.3,4.5-4.9,11.9-0.7,16.1
				c4,4,10.6,4.4,16.1,4c5.4-0.5,11.9-2.4,15-7.1C254,212.7,250,205.9,246.9,201.9"/>
		</g>
		<path class="st4" d="M246.4,240c-1.9-2.2-3.9-3.1-6.3-2.7c-3.2,0.5-5.1,3.2-4.6,6.2c0.6,3.8,1.7,6.9,12.7,13.3
			c0.5,0.3,0.7,0.4,0.9,0.4c0.2,0,0.4-0.2,0.7-0.6c8.5-9.3,8.8-12.6,8.2-16.5c-0.4-3-3.1-5-6.3-4.5
			C249.1,235.9,247.6,237.3,246.4,240"/>
		<path class="st1" d="M233,196c-5.2,0.5-7.3,1.7-4.8,5c1.5,1.9,3.7,3,5.5,2.8c1.8-0.2,3.8-1.6,4.9-3.8
			C240.5,196.3,238.2,195.5,233,196"/>
		<path class="st1" d="M242.4,213.2c-0.1-0.1-0.2,0-0.3,0c-0.5,0.3-2.2,1.4-3.8,1.7c-1.8,0.3-3-0.3-3.6-1.8
			c-0.1-0.1-0.2-0.2-0.3-0.2c-0.1,0-0.1,0-0.2,0.1c0,0,0,0,0,0c-0.8,1.2-1.7,1.9-2.6,2c-0.7,0.1-1.5,0-2.1-0.2
			c-1.7-0.5-3.1-1.7-3.8-3.6c-0.1-0.2-0.3-0.2-0.3-0.2c-0.1,0-0.2,0.1-0.2,0.2c0,0,0,0.1,0,0.1c0.1,2.6,2.9,4.6,5.4,5.4
			c0.6,0.2,1.1,0.3,1.7,0.4c0.6,0.1,1.1,0.1,1.8,0.1c0.8,0,1.6-0.1,2.3-0.2c2.7-0.5,4.9-1.7,6.4-3.5c0,0,0-0.1,0-0.1
			C242.5,213.3,242.5,213.2,242.4,213.2"/>
		<path class="st1" d="M195.5,181.6c-0.2-0.4-0.6-0.8-1.1-0.8c-0.1,0-0.3,0.1-0.4,0.1c-2.2,1.1-3.5,3.1-3.9,5.7
			c-0.2,2,0.2,3.6,0.2,3.6c0,0,0,0,0,0c0.1,0.2,0.2,0.2,0.3,0.2c0.2,0,0.3-0.1,0.3-0.3c0.4-3.3,2-6.1,4.4-7.8
			C195.5,182.3,195.6,181.9,195.5,181.6"/>
		<path class="st1" d="M273.4,178.6c-0.8-2.5-2.5-4.2-4.9-4.9c-0.2,0-0.3-0.1-0.5,0c-0.6,0.1-0.9,0.5-0.9,0.9
			c-0.1,0.4,0.1,0.8,0.4,0.9c2.7,1.2,4.8,3.7,5.7,6.8c0,0.1,0.2,0.2,0.4,0.2c0.1,0,0.3-0.1,0.3-0.3c0,0,0,0,0,0
			C273.9,182.2,274,180.5,273.4,178.6"/>
		<path class="st1" d="M220.4,180.4c-0.1,0-0.3,0.1-0.4,0.1c-4.1,1.9-3.3,5.5-3.3,5.6c0,0,0,0.1,0.1,0.1c0,0,0.1,0.1,0.2,0
			c0.1,0,0.1-0.1,0.2-0.1c1.1-2.4,3.9-3.8,3.9-3.8c0.4-0.2,0.6-0.6,0.5-1C221.5,180.7,221,180.3,220.4,180.4"/>
		<path class="st1" d="M242.3,178.3c0.1,0,0.3,0,0.4,0.1c4.3,1.1,4.3,4.8,4.3,4.8c0,0,0,0.1-0.1,0.1c0,0-0.1,0.1-0.2,0.1
			c-0.1,0-0.2,0-0.2-0.1c-1.6-2.1-4.5-3-4.6-3c-0.4-0.1-0.7-0.5-0.7-0.9C241.3,178.8,241.7,178.3,242.3,178.3"/>
		<g>
			
				<ellipse transform="matrix(0.9982 -6.052367e-02 6.052367e-02 0.9982 -11.1432 13.8573)" class="st3" cx="223.2" cy="190.9" rx="2.8" ry="3.7"/>
			<g>
				<path class="st1" d="M225.3,190.5c-0.3-1.5-1.5-2.5-2.5-2.2c-0.2,0-0.3,0.1-0.4,0.2c0.5,0.1,0.8,0.6,0.7,1.2
					c-0.1,0.6-0.6,1-1.1,0.9c-0.3,0-0.5-0.2-0.6-0.4c-0.1,0.4,0,0.8,0.1,1.2c0.3,1.5,1.5,2.4,2.5,2.2
					C225,193.3,225.6,191.9,225.3,190.5z"/>
			</g>
		</g>
		<g>
			
				<ellipse transform="matrix(0.9981 -6.107115e-02 6.107115e-02 0.9981 -11.0993 15.0836)" class="st3" cx="241.2" cy="189.1" rx="2.8" ry="3.7"/>
			<g>
				<path class="st1" d="M243.3,188.7c-0.3-1.5-1.5-2.5-2.5-2.2c-0.2,0-0.3,0.1-0.4,0.2c0.5,0.1,0.8,0.6,0.7,1.2
					c-0.1,0.6-0.6,1-1.1,0.9c-0.3,0-0.5-0.2-0.6-0.4c-0.1,0.4,0,0.8,0.1,1.2c0.3,1.5,1.5,2.5,2.5,2.2
					C243.1,191.6,243.7,190.2,243.3,188.7z"/>
			</g>
		</g>
	</g>
	<g>
		<path class="st1" d="M347.3,186.2l1.1,2.8l-0.6,0.2l-0.4-1l-3.1,1.2l-0.3-0.7l3.1-1.2l-0.4-1L347.3,186.2z"/>
		<path class="st1" d="M349.8,192.7l0.2,0.6l-3.5,1.9l-0.3-0.7l2.4-1.2l-2.4-0.2l-0.2-0.5l1.7-1.8l-2.6,0.7l-0.3-0.7l3.9-1l0.2,0.6
			l-2.1,2.1L349.8,192.7z"/>
	</g>
</g>
</svg>
