<?xml version="1.0" encoding="utf-8"?>
<!-- Generator: Adobe Illustrator 20.0.0, SVG Export Plug-In . SVG Version: 6.00 Build 0)  -->
<svg version="1.1" id="logo" xmlns="http://www.w3.org/2000/svg" xmlns:xlink="http://www.w3.org/1999/xlink" x="0px" y="0px"
	 viewBox="0 0 465.3 465.3" style="enable-background:new 0 0 465.3 465.3;" xml:space="preserve">
<style type="text/css">
	.st0{fill:#FFFFFF;}
	.st1{fill:#0056A2;}
	.st2{fill:#ECB02E;}
	.st3{fill:#F4DDA1;}
	.st4{fill:#EE365D;}
</style>
<g>
	<path class="st0" d="M232.6,63.2c-93.4,0-169.4,76-169.4,169.4c0,93.4,76,169.4,169.4,169.4C326,402,402,326,402,232.6
		C402,139.2,326,63.2,232.6,63.2"/>
	<path class="st1" d="M232.6,63.2c-93.4,0-169.4,76-169.4,169.4c0,93.4,76,169.4,169.4,169.4C326,402,402,326,402,232.6
		C402,139.2,326,63.2,232.6,63.2 M232.6,408.4c-96.9,0-175.8-78.8-175.8-175.8c0-96.9,78.8-175.8,175.8-175.8
		c96.9,0,175.8,78.8,175.8,175.8C408.4,329.5,329.5,408.4,232.6,408.4"/>
	<g>
		<g>
			<path class="st1" d="M101.9,281.7c-6.4-1.1-14.2-7-13.2-14.1c0.4-2.7,2.1-4.5,4.6-5.3c1.2-0.4,2.5-0.5,3.8-0.5
				c0.4,0,4.2,0.8,4.2,0.8c2.3-2.2,5.3-4.4,8.6-4.4c2.8,0,6,2.3,6.8,5.2c1.6,6.1-3.8,14.7-8.9,17.6c-0.3,0.1-0.5,0.3-0.8,0.4
				C105.4,281.8,103.4,281.9,101.9,281.7"/>
			<g>
				<path class="st1" d="M115.4,254.9c-0.3,0.4-0.7,0.7-1.1,1c-0.4,0.3-0.8,0.6-1.3,0.8c-0.6,0.2-1.2,0.3-1.8,0.3
					c-0.6,0-1.2,0-1.8-0.2c-0.6-0.2-1-0.5-1.5-0.8c-0.4-0.3-0.7-0.7-0.9-1.1c-0.1-0.4-0.4-0.9-0.4-1.4c-0.1-0.5,0.1-1,0.1-1.5
					c0.1-0.5,0.2-1,0.4-1.4c0.3-0.4,0.8-0.7,1.3-0.9c0.6-0.2,1.2-0.4,1.9-0.4c0.7,0,1.5,0.1,2.1,0.3c0.7,0.2,1.2,0.6,1.8,1
					c0.6,0.4,0.9,0.8,1.1,1.4c0.2,0.5,0.3,1,0.3,1.4C115.7,254,115.7,254.5,115.4,254.9"/>
				<path class="st1" d="M100.7,258.8c0.5-0.2,1.1-0.4,1.5-0.8c0.4-0.4,0.7-0.8,1-1.4c0.3-0.5,0.4-1.1,0.3-1.8
					c-0.1-0.5-0.3-1-0.5-1.6c-0.3-0.5-0.6-1-1-1.4c-0.4-0.4-0.9-0.6-1.5-0.6c-0.6-0.1-1.3,0.1-2,0.6c-0.5,0.3-0.9,0.6-1.3,0.9
					c-0.4,0.4-0.8,0.8-1.1,1.2c-0.3,0.4-0.5,0.8-0.7,1.2c-0.2,0.4-0.2,0.9-0.3,1.3c0,0.8,0.3,1.4,0.9,1.9c0.4,0.3,0.8,0.6,1.5,0.6
					c0.5,0.1,1,0.2,1.6,0.1C99.6,259.2,100.1,259,100.7,258.8"/>
				<path class="st1" d="M90.3,261.5c-0.5,0.4-0.9,0.8-1.4,1.1c-0.5,0.3-1.1,0.4-1.6,0.5c-0.5,0.1-0.9,0.1-1.3-0.2
					c-0.4-0.2-0.6-0.5-0.8-0.9c-0.2-0.4-0.2-0.8-0.2-1.2c0-0.4,0-0.9,0.2-1.4c0.2-0.5,0.5-0.9,0.8-1.4c0.3-0.4,0.6-0.8,1.1-1.1
					c0.5-0.2,1-0.5,1.5-0.5c0.5-0.1,1,0,1.5,0c0.5,0.1,0.9,0.2,1.3,0.4c0.3,0.2,0.6,0.5,0.8,0.7c0.2,0.2,0.3,0.5,0.3,0.7
					c0,0.3-0.1,0.5-0.3,0.9c-0.2,0.3-0.4,0.7-0.7,1.2C91.2,260.8,90.8,261.1,90.3,261.5"/>
			</g>
		</g>
		<g>
			<path class="st1" d="M363.3,281.7c6.4-1.1,14.2-7,13.2-14.1c-0.4-2.7-2.1-4.5-4.6-5.3c-1.2-0.4-2.5-0.5-3.8-0.5
				c-0.4,0-4.2,0.8-4.2,0.8c-2.3-2.2-5.3-4.4-8.6-4.4c-2.8,0-6,2.3-6.8,5.2c-1.6,6.1,3.8,14.7,8.9,17.6c0.3,0.1,0.5,0.3,0.8,0.4
				C359.8,281.8,361.8,281.9,363.3,281.7"/>
			<g>
				<path class="st1" d="M349.8,254.9c0.3,0.4,0.7,0.7,1.1,1c0.4,0.3,0.8,0.6,1.3,0.8c0.6,0.2,1.2,0.3,1.8,0.3c0.6,0,1.2,0,1.8-0.2
					c0.6-0.2,1-0.5,1.5-0.8c0.4-0.3,0.7-0.7,0.9-1.1c0.1-0.4,0.4-0.9,0.4-1.4c0.1-0.5-0.1-1-0.1-1.5c-0.1-0.5-0.2-1-0.4-1.4
					c-0.3-0.4-0.8-0.7-1.3-0.9c-0.6-0.2-1.2-0.4-1.9-0.4c-0.7,0-1.5,0.1-2.1,0.3c-0.7,0.2-1.2,0.6-1.8,1c-0.5,0.4-0.9,0.8-1.1,1.4
					c-0.2,0.5-0.3,1-0.3,1.4C349.5,254,349.5,254.5,349.8,254.9"/>
				<path class="st1" d="M364.5,258.8c-0.5-0.2-1.1-0.4-1.5-0.8c-0.4-0.4-0.7-0.8-1-1.4c-0.3-0.5-0.4-1.1-0.3-1.8
					c0.1-0.5,0.3-1,0.6-1.6c0.3-0.5,0.6-1,1-1.4c0.4-0.4,0.9-0.6,1.5-0.6c0.6-0.1,1.2,0.1,2,0.6c0.5,0.3,0.9,0.6,1.3,0.9
					c0.4,0.4,0.8,0.8,1.1,1.2c0.3,0.4,0.5,0.8,0.7,1.2c0.2,0.4,0.2,0.9,0.2,1.3c0,0.8-0.3,1.4-0.9,1.9c-0.4,0.3-0.8,0.6-1.5,0.6
					c-0.5,0.1-1,0.2-1.6,0.1C365.6,259.2,365,259,364.5,258.8"/>
				<path class="st1" d="M374.9,261.5c0.5,0.4,0.9,0.8,1.4,1.1c0.5,0.3,1.1,0.4,1.6,0.5c0.5,0.1,0.9,0.1,1.3-0.2
					c0.4-0.2,0.6-0.5,0.8-0.9c0.2-0.4,0.2-0.8,0.2-1.2c0-0.4,0-0.9-0.2-1.4c-0.2-0.5-0.5-0.9-0.8-1.4c-0.3-0.4-0.6-0.8-1.1-1.1
					c-0.5-0.2-1-0.5-1.5-0.5c-0.5-0.1-1,0-1.5,0c-0.5,0.1-0.9,0.2-1.3,0.4c-0.3,0.2-0.6,0.5-0.8,0.7c-0.2,0.2-0.3,0.5-0.3,0.7
					c0,0.3,0.1,0.5,0.3,0.9c0.2,0.3,0.4,0.7,0.7,1.2C374,260.8,374.4,261.1,374.9,261.5"/>
			</g>
		</g>
	</g>
	<g>
		<path class="st1" d="M244.3,352.4l-4.3,0.2l-0.1,0.1c0,0-1.5,2.2-2.8,3.1c-1.4,1.1-4.3,2-4.4,2l-0.1,0l0.3,4.6l0.2-0.1
			c0.1,0,2.9-0.7,4.5-1.4c0.3-0.1,0.6-0.3,0.9-0.5l1.1,19.5l0,0.2l6.3-0.3l-1.5-27.3L244.3,352.4z"/>
		<path class="st1" d="M262.4,349.1c-1,0-2,0.1-3,0.4c-2.9,0.7-5.2,2.2-6.6,4.4c-1.4,2.2-1.8,5-1.1,7.9c1,4.2,4.7,7.2,9.1,7.2
			c0.8,0,1.6-0.1,2.4-0.3c0.7-0.2,1.6-0.4,2.3-1c-1.1,2.8-3,6.1-4.1,7.6l-0.1,0.2l4.9,2.3l0.1-0.1c0.7-0.8,3.4-6.1,4.3-8.4
			c1.6-3.9,2-8.3,1.2-11.8C270.6,352.1,267.2,349.1,262.4,349.1z M262.5,362.8c-0.3,0.1-0.6,0.1-0.9,0.1c-1.5,0-3.5-0.9-4.1-3.3
			c-0.4-1.5,0.2-2.6,0.7-3.2c0.6-0.8,1.5-1.4,2.4-1.6c0.4-0.1,0.8-0.1,1.2-0.1c1.6,0,3.5,0.8,4,3C266.3,360.2,265,362.2,262.5,362.8
			z"/>
		<path class="st1" d="M286.4,340.7c-1.5,0-3.2,0.4-4.8,1.2c-2.7,1.2-4.6,3.2-5.6,5.6c-1,2.5-0.8,5.2,0.5,8c1.5,3.3,4.8,5.5,8.5,5.5
			h0c1.4,0,2.8-0.3,4.2-0.9c0.7-0.3,1.5-0.8,2.1-1.4c-0.5,3-1.8,6.6-2.5,8.3l-0.1,0.2l5.3,1.3l0.1-0.1c0.5-0.9,2.1-6.7,2.6-9
			c0.8-4.1,0.4-8.5-1.1-11.8C293.4,343.1,290.1,340.7,286.4,340.7z M283.7,347c0.7-0.3,1.4-0.5,2.1-0.5c1.6,0,2.9,0.8,3.5,2.2
			c0.5,1.1,0.6,2.3,0.2,3.3c-0.4,1-1.2,1.8-2.3,2.3c-0.5,0.2-1.2,0.4-1.8,0.4c-0.8,0-2.8-0.2-3.8-2.5
			C280.5,349.8,282.2,347.6,283.7,347z"/>
		<polygon class="st1" points="311.5,324.1 293.8,337.1 296.8,341.3 306.9,333.8 310,359.2 315.9,354.9 		"/>
		<polygon class="st1" points="157.3,333 165.1,338.8 168.3,334.6 155.3,324.9 138.9,347 152.4,357 152.5,357.1 155.8,352.7 
			147.3,346.4 150.8,341.7 157.8,346.8 160.9,342.6 154,337.5 		"/>
		<path class="st1" d="M180.7,341c-1.6-0.7-3.3-1.1-4.8-1.1c-3.1,0-5.7,1.5-6.9,4.2c-1.3,2.9-0.7,5.9,1.8,9.3l3.3,4.3
			c0.4,0.5,1.2,1.8,0.6,3c-0.7,1.5-2,1.9-3.8,1c-2.3-1.1-3.8-3.4-4.6-5.1l-0.1-0.2l-5.3,2.9l0.1,0.2c2.1,4.1,5.2,6,7.4,7
			c1.9,0.9,3.6,1.3,5.3,1.3c3.2,0,5.7-1.6,7.1-4.6c1.8-3.8-0.4-7.2-2.4-9.8l-2.6-3.3c-0.9-1.2-1.5-2.1-0.9-3.5
			c0.4-0.8,1-1.2,1.9-1.2c0.5,0,1.1,0.1,1.7,0.4c1.3,0.6,3,1.9,3.8,3.9l0.1,0.2l5-2.9l-0.1-0.2C186,344.4,183.8,342.4,180.7,341z"/>
		<polygon class="st1" points="209.2,350.9 192.2,346.3 190.8,351.4 196.2,352.8 190.4,374.3 196.6,375.9 202.4,354.5 207.8,356 		
			"/>
		<circle class="st1" cx="207.4" cy="375.1" r="3.9"/>
	</g>
	<g>
		<path class="st1" d="M115.7,176.7c-0.8-0.3-1.6-0.4-2.4-0.4c-2.1,0-4.1,0.9-5.2,2.5c-0.2-2.1-1.9-4.1-4.2-4.8
			c-4.7-1.5-8.2,1-10.3,7.6l-2.7,8.5l26.1,8.4l3.4-10.7C122.4,181.4,119.3,177.9,115.7,176.7z M97.8,185.6l0.8-2.4
			c0.6-1.9,1.7-3,3-3c0.2,0,0.5,0,0.7,0.1c0.9,0.3,1.4,0.7,1.7,1.4c0.4,0.8,0.3,1.9-0.1,3.2l-0.8,2.5L97.8,185.6z M114.7,187.2
			l-1.1,3.5l-5.5-1.8l1-3.2c0.7-2.3,1.7-3.3,3.1-3.3c0.4,0,0.7,0.1,1.2,0.2c0.9,0.3,1.5,0.8,1.7,1.7
			C115.2,185,115.1,186,114.7,187.2z"/>
		<path class="st1" d="M128.9,151.2l-13.6-9l-3.5,5.4l13.2,8.7c1.8,1.2,2.8,2.2,3.1,3.3c0.4,1.1,0.1,2.3-0.8,3.8
			c-1.1,1.6-2.2,2.4-3.6,2.4c-1.1,0-2.4-0.5-3.9-1.5l-13.2-8.7l-3.5,5.4l13.6,9c2.2,1.5,4.4,2.2,6.6,2.2c3.4,0,6.5-1.9,8.9-5.6
			c2.1-3.1,2.7-6.2,1.9-9C133.3,155.1,131.5,152.9,128.9,151.2z"/>
		
			<rect x="132" y="126.1" transform="matrix(0.6885 -0.7252 0.7252 0.6885 -59.3248 141.6122)" class="st1" width="6.4" height="27.5"/>
		<polygon class="st1" points="154.4,133.4 140.7,116.2 135.7,120.2 152.8,141.8 165.4,131.8 161.9,127.4 		"/>
		<path class="st1" d="M184.1,106.9c-2.7-5.4-6.6-8.2-11.4-8.2c-2.6,0-5.6,0.8-8.8,2.4l-6.8,3.4l12.3,24.6l8.4-4.2
			C186.3,120.7,187.1,112.8,184.1,106.9z M174.4,120.4l-1.7,0.8l-7.5-14.9l1-0.5c5.3-2.7,9.4-1.4,11.9,3.5c1.1,2.2,1.3,4.4,0.7,6.3
			C178.2,117.7,176.7,119.3,174.4,120.4z"/>
	</g>
	<g>
		<rect x="198" y="99" transform="matrix(0.9741 -0.2263 0.2263 0.9741 -17.7437 48.5591)" class="st1" width="9.9" height="5.3"/>
		<path class="st1" d="M218.9,111.6l6.9,0.1l2.9-6.1l7.9,0.1l2.7,6.2l6.9,0.1l-13.2-29.2L218.9,111.6z M234.7,100.9l-4.1-0.1l2-4.3
			L234.7,100.9z"/>
		
			<rect x="259.6" y="96.8" transform="matrix(0.2265 -0.974 0.974 0.2265 103.7514 334.0803)" class="st1" width="5.3" height="9.9"/>
	</g>
	<g>
		<path class="st1" d="M298.8,114.1c2.1,0.1,4.3-1.4,5.3-3.5c1.1-2.2,1.1-4.3,0.1-6.1c-1-1.9-3.1-3.6-6.3-5.1l-8.1-3.9l-11.8,24.6
			l-0.1,0.2l10.1,4.8c1.8,0.8,3.4,1.3,5,1.3c2.9,0,5.3-1.6,6.7-4.4C301.4,118.8,300.5,115.8,298.8,114.1z M293.5,103.1l2.3,1.1
			c1.2,0.6,2,1.3,2.4,2.1c0.3,0.7,0.3,1.4,0,2c-0.5,1.1-1.3,1.7-2.4,1.7c-0.7,0-1.5-0.2-2.4-0.7l-2.3-1.1L293.5,103.1z M294.3,118.9
			c-0.8,1.6-2.4,1.9-4.7,0.8l-3.3-1.6l2.5-5.2l3,1.4C294.5,115.6,295.3,117,294.3,118.9z"/>
		<polygon class="st1" points="308.7,132 312.4,127.4 319.1,132.7 322.4,128.6 315.6,123.3 319.1,118.9 326.7,125 330,120.8 
			317.3,110.8 300.4,132.1 300.2,132.3 313.5,142.8 317,138.5 		"/>
		<path class="st1" d="M315.8,144.3l4.4,5.3l6.5-1.8l5.1,6.1l-2.9,6.1l4.4,5.3l13.4-29.1L315.8,144.3z M336.2,144.7l-2,4.5l-2.7-3.2
			L336.2,144.7z"/>
		<path class="st1" d="M363.9,164.4l-4.3-8.2l-24.2,12.5l-0.2,0.1l3,5.7l10.9-5.6l-7.2,12.8l3.8,7.3l6.4-13.1
			c1.4,1.5,3.3,2.4,5.3,2.4c1.3,0,2.6-0.3,3.9-1c2.3-1.2,3.8-3.1,4.2-5.5C365.8,169.6,365.3,167.1,363.9,164.4z M353.4,169.7
			l-1.2-2.3l5.8-3l1.2,2.3c1.1,2.2,0.8,4-0.9,4.8c-0.6,0.3-1.2,0.5-1.8,0.5C355.2,172,354.2,171.2,353.4,169.7z"/>
	</g>
	<path class="st1" d="M331.6,232.2c0,54.7-44.3,99-99,99c-54.7,0-99-44.3-99-99c0-54.7,44.3-99,99-99
		C287.3,133.2,331.6,177.6,331.6,232.2"/>
	<g>
		<path class="st2" d="M311.1,251.9c6.8-2.4,11.7-8.6,11.7-16c0-9.1-7.5-16.5-16.8-16.9v0l-0.3,0c-0.2,0-0.4,0-0.6,0
			c-0.7,0-1.3,0-2,0.1l-0.1,0c0,0-0.1,0-0.2,0c-1.1,0.1-2.2,0.4-3.2,0.7c-4.4,0.9-6.6,2.1-11.3,3.2c-6.8,1.7-13.2,0.7-18.1-1
			c-3.3-1.2-7.3-2.9-10.3-4.7c6.5-5,11.3-11.7,13.8-19.9c0.8-2.2,1.3-4.4,1.5-6.4c8.5-2.1,14.3-10.2,13.4-19.1
			c-1-9.9-9.8-17.1-19.6-16.1c-4.2,0.4-7.9,2.2-10.7,5c-2.3-0.7-6.3-1.8-11.5-2.4c-2.1-2.1-6.5-5.8-10.6-5.1c0,0-0.8,0.2-0.1,0.7
			c0,0,0.1,0.1,0.1,0.1c0.4,0.4,0.8,0.7,1.2,1c0.7,0.6,1.1,1.1,1.4,1.4c0.2,0.2,0.3,0.4,0.3,0.4c0,0,0,0,0,0
			c0.1,0.2,0.1,0.4,0.1,0.5c-0.1,0.2-0.3,0.3-0.4,0.3c-0.1,0-0.2,0-0.2,0c-4.6-2.6-9.8-3.8-14.6-3.4c-1,0.1-1.9,0.3-2.8,0.5
			c-0.7,0.3-1,0.7-0.7,1.2c0.3,0.4,3.9,1.5,5.6,2.7c-11.1,1.7-19.6,5.7-23.3,7.6c-3.3-2.1-7.2-3.1-11.3-2.7
			c-9.9,1-17.1,9.8-16.1,19.6c0.9,8.9,8.2,15.7,16.9,16.1c0.6,2,1.4,4,2.7,6c2.6,5,6.1,9.1,10.3,12.3c-3,1.7-6.7,3.3-9.9,4.4
			c-4.9,1.7-11.2,2.7-18.1,1c-4.7-1.2-6.9-2.3-11.3-3.2c-1-0.3-2.1-0.5-3.2-0.7c-0.1,0-0.2,0-0.2,0l-0.1,0c-0.7-0.1-1.3-0.1-2-0.1
			c-0.2,0-0.4,0-0.6,0l-0.3,0l0,0c-9.4,0.4-16.8,7.8-16.8,16.9c0,7.4,4.9,13.6,11.7,16c0,0,0.1,0,0.1,0.1
			c10.8,5.1,32.1,5.7,32.1,5.7s-2.9,11.1-6,13.6c-1.9,1.5-5.5,0.6-8-0.3c-0.9-0.5-1.9-0.9-2.8-1.2c0,0-0.1,0-0.1,0l-0.1,0
			c-1.3-0.4-2.6-0.6-3.9-0.7l-0.2,0c0,0,0,0,0,0c-1.7-0.1-3.4,0.1-5.1,0.7c-9.9,3.3-14.2,17.1-9.6,30.9c4,12.1,13.7,20.1,22.7,19.6
			c4.4-0.1,8.3-1.3,11.8-3c4-1.9,6.1-2.7,20.5-7.4c8.9-2.8,26.9-2.8,27.1-2.8c0.3,0,18.3,0,27.1,2.8c14.4,4.6,16.4,5.4,20.5,7.4
			c3.5,1.7,7.4,2.9,11.8,3c9,0.5,18.6-7.5,22.7-19.6c4.6-13.8,0.3-27.6-9.6-30.9c-1.6-0.6-3.3-0.7-5.1-0.7c0,0,0,0,0,0l-0.2,0
			c-1.3,0.1-2.6,0.3-3.9,0.7l-0.1,0c0,0,0,0-0.1,0c-1,0.3-1.9,0.7-2.8,1.2c-2.5,0.9-6.1,1.8-8,0.3c-3.2-2.4-6-13.6-6-13.6
			S300.2,257.1,311.1,251.9C311,252,311.1,251.9,311.1,251.9z"/>
		<g>
			<path class="st3" d="M179.8,291.1c2.7,8,0.6,17.7-5.4,19.7c-6.1,2-13.8-4.4-16.5-12.4c-2.7-8-0.2-17.4,5.9-19.5
				C169.8,276.9,177.1,283.1,179.8,291.1"/>
			<path class="st3" d="M286.2,291.1c-2.7,8-0.6,17.7,5.4,19.7c6.1,2,13.8-4.4,16.5-12.4c2.7-8,0.2-17.4-5.9-19.5
				C296.1,277,288.8,283.1,286.2,291.1"/>
			<path class="st3" d="M249.3,196.6c-3.9-4.9-9.9-11.1-16.7-10.4c-6.8,0.6-11.5,7.9-14.4,13.4c-2.7,5.3-5.8,14-0.8,18.9
				c4.7,4.7,12.5,5.1,18.9,4.7c6.4-0.6,13.9-2.8,17.6-8.3C257.7,209.2,253,201.3,249.3,196.6"/>
		</g>
		<path class="st4" d="M248.7,241.2c-2.3-2.5-4.5-3.6-7.4-3.2c-3.7,0.6-6,3.8-5.4,7.2c0.7,4.4,2,8.1,14.8,15.6
			c0.5,0.3,0.8,0.5,1,0.5c0.3,0,0.4-0.3,0.8-0.7c10-10.9,10.3-14.7,9.6-19.3c-0.5-3.5-3.6-5.9-7.3-5.3
			C252,236.4,250.2,238.1,248.7,241.2"/>
		<path class="st1" d="M233,189.6c-6.2,0.6-8.6,2-5.6,5.8c1.8,2.2,4.4,3.5,6.5,3.3c2.1-0.2,4.4-1.9,5.8-4.5
			C241.9,190,239.2,189.1,233,189.6"/>
		<path class="st1" d="M244.1,209.8c-0.1-0.1-0.3-0.1-0.4,0c-0.6,0.4-2.5,1.6-4.5,2c-2.1,0.4-3.6-0.3-4.3-2.1
			c-0.1-0.2-0.2-0.2-0.3-0.2c-0.1,0-0.1,0-0.2,0.1c0,0,0,0,0,0c-0.9,1.4-2,2.2-3.1,2.4c-0.9,0.2-1.8,0-2.5-0.2c-2-0.5-3.6-2-4.5-4.2
			c-0.1-0.2-0.3-0.2-0.4-0.2c-0.2,0-0.2,0.2-0.3,0.2c0,0,0,0.1,0,0.1c0.2,3.1,3.4,5.4,6.3,6.3c0.7,0.2,1.3,0.4,2,0.4
			c0.7,0.1,1.3,0.1,2.1,0.1c0.9,0,1.8-0.1,2.7-0.3c3.2-0.6,5.7-2,7.5-4.1c0,0,0.1-0.1,0-0.2C244.3,210,244.2,209.9,244.1,209.8"/>
		<path class="st1" d="M189,172.7c-0.2-0.5-0.6-0.9-1.3-0.9c-0.2,0-0.3,0.1-0.5,0.2c-2.6,1.3-4.2,3.6-4.5,6.7
			c-0.3,2.3,0.2,4.2,0.2,4.3c0,0,0,0,0,0c0.1,0.2,0.3,0.3,0.4,0.3c0.2,0,0.4-0.2,0.4-0.3c0.4-3.8,2.3-7.1,5.1-9.1
			C189.1,173.6,189.2,173.2,189,172.7"/>
		<path class="st1" d="M280.5,169.2c-1-3-2.9-4.9-5.7-5.7c-0.2-0.1-0.4-0.1-0.5-0.1c-0.7,0.1-1,0.6-1.1,1.1
			c-0.1,0.5,0.1,0.9,0.4,1.1c3.1,1.4,5.6,4.3,6.7,8c0.1,0.2,0.2,0.3,0.4,0.2c0.1,0,0.3-0.1,0.3-0.3c0,0,0,0,0,0
			C281.1,173.4,281.2,171.4,280.5,169.2"/>
		<path class="st1" d="M218.3,171.3c-0.2,0-0.3,0.1-0.5,0.2c-4.8,2.2-3.9,6.5-3.9,6.5c0,0,0,0.1,0.1,0.1c0,0,0.1,0.1,0.2,0.1
			c0.1,0,0.2-0.1,0.2-0.1c1.3-2.8,4.6-4.4,4.6-4.5c0.4-0.2,0.7-0.7,0.6-1.2C219.5,171.7,218.9,171.2,218.3,171.3"/>
		<path class="st1" d="M244,168.8c0.2,0,0.3,0,0.5,0.1c5.1,1.2,5.1,5.6,5.1,5.7c0,0,0,0.1-0.1,0.1c0,0-0.1,0.1-0.2,0.1
			c-0.1,0-0.2,0-0.2-0.1c-1.8-2.5-5.3-3.5-5.4-3.5c-0.5-0.2-0.8-0.6-0.8-1C242.8,169.5,243.3,168.9,244,168.8"/>
		<g>
			
				<ellipse transform="matrix(0.9982 -6.052367e-02 6.052367e-02 0.9982 -10.7079 13.7448)" class="st3" cx="221.5" cy="183.6" rx="3.2" ry="4.4"/>
			<g>
				<path class="st1" d="M224,183.2c-0.4-1.7-1.7-2.9-3-2.6c-0.2,0-0.4,0.1-0.5,0.2c0.5,0.1,0.9,0.7,0.8,1.4
					c-0.1,0.7-0.7,1.2-1.2,1.1c-0.3,0-0.5-0.2-0.7-0.5c-0.1,0.4,0,0.9,0.1,1.4c0.4,1.7,1.7,2.9,3,2.6
					C223.7,186.5,224.4,184.9,224,183.2z"/>
			</g>
		</g>
		<g>
			
				<ellipse transform="matrix(0.9981 -6.107115e-02 6.107115e-02 0.9981 -10.6357 15.1604)" class="st3" cx="242.7" cy="181.6" rx="3.2" ry="4.4"/>
			<g>
				<path class="st1" d="M245.2,181.1c-0.4-1.7-1.7-2.9-3-2.6c-0.2,0-0.4,0.1-0.5,0.2c0.5,0.1,0.9,0.7,0.8,1.4
					c-0.1,0.7-0.7,1.2-1.2,1.1c-0.3,0-0.5-0.2-0.7-0.5c-0.1,0.4,0,0.9,0.1,1.4c0.4,1.7,1.7,2.9,3,2.6
					C244.9,184.4,245.6,182.8,245.2,181.1z"/>
			</g>
		</g>
	</g>
	<g>
		<path class="st1" d="M367.2,178.1l1.3,3.3l-0.7,0.3l-0.5-1.2l-3.6,1.4l-0.3-0.8l3.6-1.4l-0.5-1.2L367.2,178.1z"/>
		<path class="st1" d="M370.1,185.8l0.3,0.7l-4.2,2.2l-0.3-0.8l2.8-1.5l-2.8-0.2l-0.2-0.6l2-2.1l-3,0.8l-0.3-0.8l4.6-1.1l0.3,0.7
			l-2.4,2.5L370.1,185.8z"/>
	</g>
</g>
</svg>
