<?xml version="1.0" encoding="utf-8"?>
<!-- Generator: Adobe Illustrator 19.2.1, SVG Export Plug-In . SVG Version: 6.00 Build 0)  -->
<svg version="1.1" id="Layer_1" xmlns="http://www.w3.org/2000/svg" xmlns:xlink="http://www.w3.org/1999/xlink" x="0px" y="0px"
	 viewBox="0 0 408.3 232.4" style="enable-background:new 0 0 408.3 232.4;" xml:space="preserve">
<metadata><?xpacket begin="﻿" id="W5M0MpCehiHzreSzNTczkc9d"?>
<x:xmpmeta xmlns:x="adobe:ns:meta/" x:xmptk="Adobe XMP Core 5.6-c111 79.158366, 2015/09/25-01:12:00        ">
   <rdf:RDF xmlns:rdf="http://www.w3.org/1999/02/22-rdf-syntax-ns#">
      <rdf:Description rdf:about=""/>
   </rdf:RDF>
</x:xmpmeta>
                                                                                                    
                                                                                                    
                                                                                                    
                                                                                                    
                                                                                                    
                                                                                                    
                                                                                                    
                                                                                                    
                                                                                                    
                                                                                                    
                                                                                                    
                                                                                                    
                                                                                                    
                                                                                                    
                                                                                                    
                                                                                                    
                                                                                                    
                                                                                                    
                                                                                                    
                                                                                                    
                           
<?xpacket end="w"?></metadata>
<style type="text/css">
	.st0{fill:#00867B;}
	.st1{fill:#007952;}
	.st2{fill:#00B098;}
</style>
<g>
	<path class="st0" d="M49.3,149.1c4.4,0,10.6-4,10.6-12.9c0-9.8-17.4-11.2-17.4-24.7C42.4,98.2,59.9,93,59.9,83
		c0-7.8-4.7-11.7-9.5-11.7H36.9c5,0,10.7,3.2,10.7,11.7c0,10-17.5,15.2-17.4,28.5c0.1,13.4,17.4,14.9,17.4,24.7
		c0,8.9-6.2,12.8-10.6,12.8h0.4l12.3,0H49.3z"/>
</g>
<path class="st1" d="M68.5,111.5c0-13.3,17.2-18.5,17.2-28.4c0-8.5-5.3-11.7-10.3-11.7h-25c4.8,0,9.5,3.8,9.5,11.6
	c0,10-17.5,15.2-17.4,28.5c0,13.4,17.4,14.9,17.4,24.7c0,8.9-6.2,12.9-10.6,12.9h0.4h26.6c4.4-0.5,9.4-4.3,9.4-12.6
	C85.7,126.7,68.5,125.2,68.5,111.5z"/>
<path class="st2" d="M80.6,111.5C80.6,98.2,97.8,93,97.8,83c0-8.5-5.3-11.7-10.3-11.7H75.2c5.1,0,10.3,3.2,10.3,11.7
	c0,10-17.2,15.1-17.2,28.4c0,13.7,17.2,15.2,17.2,25c0,8.3-5,12.1-9.4,12.6h11.3c4.5,0,10.3-3.7,10.3-12.6
	C97.8,126.7,80.6,125.2,80.6,111.5z"/>
<path class="st0" d="M106.6,72.4h13.6c1.3,0,2.6,0.2,3.9,0.5c1.3,0.3,2.4,0.8,3.4,1.5c1,0.7,1.8,1.6,2.4,2.7c0.6,1.1,0.9,2.5,0.9,4
	c0,2-0.6,3.6-1.7,4.9c-1.1,1.3-2.6,2.2-4.4,2.8v0.1c1.1,0.1,2.1,0.4,3,0.9c0.9,0.5,1.7,1.1,2.4,1.8c0.7,0.7,1.2,1.6,1.5,2.6
	c0.4,1,0.6,2,0.6,3.1c0,1.9-0.4,3.5-1.1,4.7c-0.8,1.3-1.7,2.3-3,3c-1.2,0.8-2.6,1.3-4.2,1.6c-1.6,0.3-3.2,0.5-4.8,0.5h-12.5V72.4z
	 M112.8,86.5h5.7c2.1,0,3.6-0.4,4.6-1.2c1-0.8,1.5-1.9,1.5-3.2c0-1.5-0.5-2.6-1.6-3.4c-1.1-0.7-2.8-1.1-5.1-1.1h-5.1V86.5z
	 M112.8,101.9h5.7c0.8,0,1.6,0,2.5-0.1c0.9-0.1,1.7-0.3,2.5-0.7c0.8-0.4,1.4-0.9,1.9-1.6c0.5-0.7,0.7-1.6,0.7-2.7
	c0-1.8-0.6-3.1-1.8-3.8c-1.2-0.7-3.1-1.1-5.6-1.1h-6V101.9z"/>
<path class="st0" d="M137.5,72.4h6.2v29.2h14.8v5.6h-21V72.4z"/>
<path class="st0" d="M188.8,94.4c0,2.1-0.4,4-1.1,5.7c-0.7,1.7-1.7,3.1-3,4.3c-1.2,1.2-2.7,2.1-4.4,2.7c-1.7,0.6-3.6,1-5.6,1
	c-2,0-3.9-0.3-5.6-1c-1.7-0.6-3.2-1.6-4.5-2.7c-1.3-1.2-2.2-2.6-3-4.3c-0.7-1.7-1.1-3.6-1.1-5.7v-22h6.2v21.8c0,0.9,0.1,1.7,0.4,2.7
	c0.3,0.9,0.7,1.8,1.3,2.6c0.6,0.8,1.4,1.4,2.4,1.9c1,0.5,2.2,0.8,3.7,0.8c1.5,0,2.7-0.3,3.7-0.8c1-0.5,1.8-1.2,2.4-1.9
	c0.6-0.8,1-1.6,1.3-2.6c0.3-0.9,0.4-1.8,0.4-2.7V72.4h6.2V94.4z"/>
<path class="st0" d="M193.9,72.4H217V78h-16.9v8.6h16v5.6h-16v9.4h17.8v5.6h-24V72.4z"/>
<path class="st0" d="M254,104.6c-4.3,2.3-9.1,3.4-14.4,3.4c-2.7,0-5.2-0.4-7.4-1.3c-2.2-0.9-4.2-2.1-5.8-3.7
	c-1.6-1.6-2.9-3.5-3.8-5.7c-0.9-2.2-1.4-4.7-1.4-7.4c0-2.8,0.5-5.3,1.4-7.6c0.9-2.3,2.2-4.2,3.8-5.8c1.6-1.6,3.6-2.8,5.8-3.7
	c2.2-0.9,4.7-1.3,7.4-1.3c2.7,0,5.1,0.3,7.5,1c2.3,0.6,4.4,1.8,6.2,3.4l-4.6,4.6c-1.1-1.1-2.5-1.9-4.1-2.5c-1.6-0.6-3.3-0.9-5-0.9
	c-1.8,0-3.4,0.3-4.9,1c-1.5,0.6-2.7,1.5-3.8,2.7c-1.1,1.1-1.9,2.5-2.4,4c-0.6,1.5-0.9,3.1-0.9,4.9c0,1.9,0.3,3.6,0.9,5.2
	c0.6,1.6,1.4,2.9,2.4,4.1c1,1.1,2.3,2.1,3.8,2.7c1.5,0.7,3.1,1,4.9,1c1.6,0,3.1-0.1,4.5-0.4c1.4-0.3,2.6-0.8,3.7-1.4v-8.2h-7.1v-5.6
	H254V104.6z"/>
<path class="st0" d="M258.8,72.4h12.1c1.7,0,3.3,0.2,4.8,0.5c1.6,0.3,2.9,0.8,4.2,1.6c1.2,0.8,2.2,1.8,2.9,3.1
	c0.7,1.3,1.1,2.9,1.1,4.9c0,2.5-0.7,4.6-2.1,6.3c-1.4,1.7-3.4,2.7-6,3.1l9.2,15.4h-7.5l-8.1-14.8H265v14.8h-6.2V72.4z M269.9,87.1
	c0.9,0,1.8,0,2.7-0.1c0.9-0.1,1.7-0.3,2.4-0.6c0.7-0.3,1.3-0.8,1.8-1.4c0.5-0.6,0.7-1.5,0.7-2.7c0-1-0.2-1.8-0.6-2.5
	c-0.4-0.6-1-1.1-1.7-1.4c-0.7-0.3-1.5-0.5-2.3-0.6c-0.8-0.1-1.6-0.1-2.4-0.1H265v9.4H269.9z"/>
<path class="st0" d="M301.6,72.4h5.4l15,34.8h-7.1l-3.2-8h-15.1l-3.1,8h-6.9L301.6,72.4z M309.5,93.9l-5.4-14.2l-5.5,14.2H309.5z"/>
<path class="st0" d="M342.9,79.8c-0.7-1-1.5-1.6-2.6-2.1c-1.1-0.4-2.3-0.7-3.5-0.7c-0.7,0-1.4,0.1-2.1,0.2c-0.7,0.2-1.3,0.4-1.8,0.8
	c-0.5,0.4-1,0.8-1.3,1.4c-0.3,0.6-0.5,1.3-0.5,2c0,1.2,0.4,2.1,1.2,2.7c0.8,0.6,1.8,1.2,3.1,1.6c1.2,0.5,2.5,0.9,4,1.3
	c1.4,0.4,2.8,1,4,1.8c1.2,0.8,2.2,1.8,3,3c0.8,1.2,1.2,2.9,1.2,5c0,1.9-0.3,3.5-1,4.9c-0.7,1.4-1.6,2.6-2.8,3.5
	c-1.2,0.9-2.5,1.6-4.1,2.1c-1.5,0.5-3.2,0.7-4.9,0.7c-2.2,0-4.2-0.4-6.3-1.1c-2-0.7-3.7-1.9-5.2-3.6l4.7-4.5c0.8,1.1,1.7,2,3,2.7
	c1.2,0.6,2.5,1,3.9,1c0.7,0,1.4-0.1,2.2-0.3c0.7-0.2,1.4-0.5,2-0.9c0.6-0.4,1.1-0.9,1.4-1.5c0.4-0.6,0.5-1.3,0.5-2.1
	c0-1.3-0.4-2.3-1.2-3c-0.8-0.7-1.8-1.3-3-1.7c-1.2-0.5-2.5-0.9-4-1.4c-1.4-0.4-2.8-1-4-1.7c-1.2-0.7-2.2-1.7-3.1-3
	c-0.8-1.2-1.2-2.9-1.2-4.9c0-1.8,0.4-3.4,1.1-4.7c0.7-1.3,1.7-2.4,2.9-3.3c1.2-0.9,2.6-1.5,4.1-1.9c1.5-0.4,3.1-0.6,4.7-0.6
	c1.8,0,3.6,0.3,5.3,0.8c1.7,0.6,3.3,1.5,4.7,2.8L342.9,79.8z"/>
<path class="st0" d="M370.7,79.8c-0.7-1-1.5-1.6-2.6-2.1c-1.1-0.4-2.3-0.7-3.5-0.7c-0.7,0-1.4,0.1-2.1,0.2c-0.7,0.2-1.3,0.4-1.8,0.8
	c-0.5,0.4-1,0.8-1.3,1.4c-0.3,0.6-0.5,1.3-0.5,2c0,1.2,0.4,2.1,1.2,2.7c0.8,0.6,1.8,1.2,3.1,1.6c1.2,0.5,2.5,0.9,4,1.3
	c1.4,0.4,2.8,1,4,1.8c1.2,0.8,2.2,1.8,3,3c0.8,1.2,1.2,2.9,1.2,5c0,1.9-0.3,3.5-1,4.9c-0.7,1.4-1.6,2.6-2.8,3.5
	c-1.2,0.9-2.5,1.6-4.1,2.1c-1.5,0.5-3.2,0.7-4.9,0.7c-2.2,0-4.2-0.4-6.2-1.1c-2-0.7-3.7-1.9-5.2-3.6l4.7-4.5c0.8,1.1,1.7,2,3,2.7
	c1.2,0.6,2.5,1,3.9,1c0.7,0,1.4-0.1,2.2-0.3c0.7-0.2,1.4-0.5,2-0.9c0.6-0.4,1.1-0.9,1.4-1.5c0.4-0.6,0.5-1.3,0.5-2.1
	c0-1.3-0.4-2.3-1.2-3c-0.8-0.7-1.8-1.3-3.1-1.7c-1.2-0.5-2.5-0.9-4-1.4c-1.4-0.4-2.8-1-4-1.7c-1.2-0.7-2.2-1.7-3.1-3
	c-0.8-1.2-1.2-2.9-1.2-4.9c0-1.8,0.4-3.4,1.1-4.7c0.7-1.3,1.7-2.4,2.9-3.3c1.2-0.9,2.6-1.5,4.1-1.9c1.5-0.4,3.1-0.6,4.7-0.6
	c1.8,0,3.6,0.3,5.3,0.8c1.7,0.6,3.3,1.5,4.7,2.8L370.7,79.8z"/>
<path class="st0" d="M130.5,121.4c-1.3-1.4-2.5-2.3-3.7-2.8c-1.2-0.5-2.4-0.7-3.6-0.7c-1.8,0-3.4,0.3-4.9,1
	c-1.5,0.6-2.7,1.5-3.8,2.7c-1.1,1.1-1.9,2.5-2.4,4c-0.6,1.5-0.9,3.1-0.9,4.9c0,1.9,0.3,3.6,0.9,5.2c0.6,1.6,1.4,2.9,2.4,4.1
	c1,1.1,2.3,2,3.8,2.7c1.5,0.7,3.1,1,4.9,1c1.4,0,2.8-0.3,4.1-1c1.3-0.7,2.6-1.7,3.7-3.2l5.1,3.6c-1.6,2.2-3.5,3.7-5.8,4.7
	c-2.3,1-4.7,1.5-7.2,1.5c-2.7,0-5.2-0.4-7.4-1.3c-2.2-0.9-4.2-2.1-5.8-3.7c-1.6-1.6-2.9-3.5-3.8-5.7c-0.9-2.2-1.4-4.7-1.4-7.4
	c0-2.8,0.5-5.3,1.4-7.6c0.9-2.3,2.2-4.2,3.8-5.8c1.6-1.6,3.6-2.8,5.8-3.7c2.2-0.9,4.7-1.3,7.4-1.3c2.4,0,4.6,0.4,6.6,1.3
	c2,0.8,3.9,2.3,5.6,4.3L130.5,121.4z"/>
<path class="st0" d="M140.1,113.2h23.1v5.6h-16.9v8.6h16v5.6h-16v9.4h17.8v5.6h-24V113.2z"/>
<path class="st0" d="M168.5,113.2h6.2v29.2h14.8v5.6h-21V113.2z"/>
<path class="st0" d="M193,113.2h6.2v29.2H214v5.6h-21V113.2z"/>
<path class="st0" d="M243.9,135.3c0,2.1-0.4,4-1.1,5.7c-0.7,1.7-1.7,3.1-3,4.3c-1.2,1.2-2.7,2.1-4.4,2.7c-1.7,0.6-3.6,1-5.6,1
	c-2,0-3.9-0.3-5.6-1c-1.7-0.6-3.2-1.5-4.5-2.7c-1.3-1.2-2.2-2.6-3-4.3c-0.7-1.7-1.1-3.6-1.1-5.7v-22h6.2v21.8c0,0.9,0.1,1.7,0.4,2.7
	c0.3,0.9,0.7,1.8,1.3,2.6c0.6,0.8,1.4,1.4,2.4,1.9c1,0.5,2.2,0.8,3.7,0.8c1.5,0,2.7-0.3,3.7-0.8c1-0.5,1.8-1.2,2.4-1.9
	c0.6-0.8,1-1.6,1.3-2.6c0.3-0.9,0.4-1.8,0.4-2.7v-21.8h6.2V135.3z"/>
<path class="st0" d="M248.4,113.2h6.2v29.2h14.8v5.6h-21V113.2z"/>
<path class="st0" d="M286,113.2h5.4l15,34.8h-7.1l-3.2-8H281l-3.2,8h-6.9L286,113.2z M293.9,134.8l-5.4-14.2l-5.5,14.2H293.9z"/>
<path class="st0" d="M308.2,113.2h12.1c1.7,0,3.3,0.2,4.8,0.5c1.6,0.3,2.9,0.8,4.2,1.6c1.2,0.8,2.2,1.8,2.9,3.1
	c0.7,1.3,1.1,2.9,1.1,4.9c0,2.5-0.7,4.6-2.1,6.3c-1.4,1.7-3.4,2.7-6,3.1l9.2,15.4H327l-8.1-14.8h-4.5v14.8h-6.2V113.2z M319.2,128
	c0.9,0,1.8,0,2.7-0.1c0.9-0.1,1.7-0.3,2.4-0.6c0.7-0.3,1.3-0.8,1.8-1.4c0.5-0.6,0.7-1.5,0.7-2.7c0-1-0.2-1.8-0.6-2.5
	c-0.4-0.6-1-1.1-1.7-1.4c-0.7-0.3-1.5-0.5-2.3-0.6c-0.8-0.1-1.7-0.1-2.4-0.1h-5.4v9.4H319.2z"/>
</svg>
