<?xml version="1.0" encoding="utf-8"?>
<!-- Generator: Adobe Illustrator 19.2.1, SVG Export Plug-In . SVG Version: 6.00 Build 0)  -->
<svg version="1.1" id="Layer_1" xmlns="http://www.w3.org/2000/svg" xmlns:xlink="http://www.w3.org/1999/xlink" x="0px" y="0px"
	 viewBox="0 0 329.5 118.8" style="enable-background:new 0 0 329.5 118.8;" xml:space="preserve">
<style type="text/css">
	.st0{fill:#1E437A;}
	.st1{fill:none;stroke:#1E437A;stroke-width:0.37;}
	.st2{fill:#0099D9;}
</style>
<path class="st0" d="M171.2,47.7c1.8,4.8,3.4,7.7-5.3,8.6v1.6h27.5v-1.6c-5.5-0.4-6.8-1.5-10.4-11L166,0.5h-7.7l-16.1,43.1
	c-3.5,9.7-4.9,12-10.5,12.8V58h18.1v-1.6c-6.1-1-7.3-2.5-4.5-9.8l2.8-7.5H168L171.2,47.7 M166.5,35.1h-16.7l8.1-22.7L166.5,35.1z"/>
<path class="st0" d="M108.7,53.8c-10.6,0-20.2-7.1-20.2-25.9c0-14.8,6.6-24.3,17-24.3c9.5,0,16.4,6.5,19,17.8h1.5V0.9h-1.5
	c-0.8,2.2-2,3.3-3.4,3.3c-2.8,0-7.5-3.8-15.8-3.8c-17.2,0-30.2,13-30.2,30.2c0,17,11.8,28.6,28.9,28.6c9.7,0,17-3.6,22.7-11.4
	l-1.3-1.6C120,51.4,114.9,53.8,108.7,53.8"/>
<path class="st0" d="M46.9,31.1H20v17.3c0,6,0.5,7.1,6.9,7.9v1.6H1v-1.6c7.7-0.9,7.1-2.6,7.1-9.1V11.4c0-6-0.8-7.1-7.1-7.9V1.9h25.9
	v1.6C21,4.2,20,5.3,20,11v16.2h26.9V10.9c0-5.7-1-6.8-6.9-7.5V1.9h26v1.6c-6.3,0.8-7.1,1.9-7.1,7.9v35.8c0,6.5-0.6,8.2,7.1,9.1v1.6
	H40v-1.6c6.4-0.7,6.9-1.9,6.9-7.9V31.1"/>
<path class="st0" d="M15,113.2H9.5v-0.8c0.1,0,0.4,0,0.6-0.1c0.3,0,0.5-0.1,0.6-0.1c0.2-0.1,0.3-0.2,0.4-0.4
	c0.1-0.2,0.1-0.4,0.1-0.7v-5.8H5v5.7c0,0.3,0,0.5,0.1,0.7s0.2,0.3,0.4,0.5c0.1,0.1,0.3,0.1,0.6,0.2s0.5,0.1,0.6,0.1v0.8H1.2v-0.8
	c0.1,0,0.4,0,0.6-0.1c0.3,0,0.5-0.1,0.6-0.1c0.2-0.1,0.3-0.2,0.4-0.4c0.1-0.2,0.1-0.4,0.1-0.7V99.3c0-0.2,0-0.5-0.1-0.7
	s-0.2-0.4-0.4-0.5S2,97.9,1.8,97.8c-0.2-0.1-0.4-0.1-0.6-0.1v-0.8h5.5v0.8c-0.2,0-0.4,0-0.6,0.1c-0.3,0.1-0.4,0.1-0.6,0.2
	c-0.2,0.1-0.4,0.2-0.4,0.5C5,98.7,5,99,5,99.2v5.1h6.2v-5c0-0.2,0-0.5-0.1-0.7s-0.2-0.4-0.4-0.5s-0.4-0.2-0.6-0.3
	c-0.2-0.1-0.4-0.1-0.6-0.1v-0.8H15v0.8c-0.2,0-0.4,0-0.6,0.1c-0.3,0.1-0.4,0.1-0.6,0.2c-0.2,0.1-0.4,0.2-0.4,0.5
	c-0.1,0.2-0.1,0.5-0.1,0.7v11.9c0,0.3,0,0.5,0.1,0.7s0.2,0.3,0.4,0.5c0.1,0.1,0.3,0.1,0.6,0.2s0.5,0.1,0.6,0.1V113.2z"/>
<path class="st1" d="M15,113.2H9.5v-0.8c0.1,0,0.4,0,0.6-0.1c0.3,0,0.5-0.1,0.6-0.1c0.2-0.1,0.3-0.2,0.4-0.4
	c0.1-0.2,0.1-0.4,0.1-0.7v-5.8H5v5.7c0,0.3,0,0.5,0.1,0.7s0.2,0.3,0.4,0.5c0.1,0.1,0.3,0.1,0.6,0.2s0.5,0.1,0.6,0.1v0.8H1.2v-0.8
	c0.1,0,0.4,0,0.6-0.1c0.3,0,0.5-0.1,0.6-0.1c0.2-0.1,0.3-0.2,0.4-0.4c0.1-0.2,0.1-0.4,0.1-0.7V99.3c0-0.2,0-0.5-0.1-0.7
	s-0.2-0.4-0.4-0.5S2,97.9,1.8,97.8c-0.2-0.1-0.4-0.1-0.6-0.1v-0.8h5.5v0.8c-0.2,0-0.4,0-0.6,0.1c-0.3,0.1-0.4,0.1-0.6,0.2
	c-0.2,0.1-0.4,0.2-0.4,0.5C5,98.7,5,99,5,99.2v5.1h6.2v-5c0-0.2,0-0.5-0.1-0.7s-0.2-0.4-0.4-0.5s-0.4-0.2-0.6-0.3
	c-0.2-0.1-0.4-0.1-0.6-0.1v-0.8H15v0.8c-0.2,0-0.4,0-0.6,0.1c-0.3,0.1-0.4,0.1-0.6,0.2c-0.2,0.1-0.4,0.2-0.4,0.5
	c-0.1,0.2-0.1,0.5-0.1,0.7v11.9c0,0.3,0,0.5,0.1,0.7s0.2,0.3,0.4,0.5c0.1,0.1,0.3,0.1,0.6,0.2s0.5,0.1,0.6,0.1V113.2z"/>
<path class="st0" d="M25.1,107.3c0-0.6,0-1.2-0.1-1.9c-0.1-0.6-0.2-1.2-0.4-1.7s-0.5-0.9-0.8-1.2c-0.3-0.3-0.7-0.4-1.2-0.4
	s-0.9,0.1-1.2,0.4s-0.6,0.7-0.8,1.2s-0.3,1-0.4,1.6c-0.1,0.6-0.1,1.2-0.1,1.8c0,0.7,0,1.4,0.1,2.1c0.1,0.6,0.2,1.2,0.5,1.7
	c0.2,0.5,0.5,0.9,0.8,1.2c0.3,0.3,0.7,0.4,1.2,0.4c0.8,0,1.4-0.5,1.8-1.4C24.8,110.3,25.1,109,25.1,107.3z M27,107.3
	c0,0.8-0.1,1.6-0.3,2.4s-0.5,1.4-0.9,2s-0.9,1.1-1.5,1.4s-1.2,0.5-1.9,0.5c-0.6,0-1.1-0.1-1.7-0.4c-0.5-0.3-1-0.7-1.4-1.2
	s-0.7-1.2-1-1.9c-0.2-0.7-0.4-1.6-0.4-2.5c0-1.8,0.4-3.3,1.3-4.4c0.8-1.1,1.9-1.7,3.3-1.7c1.3,0,2.3,0.5,3.2,1.6
	C26.6,104.1,27,105.5,27,107.3z"/>
<path class="st1" d="M25.1,107.3c0-0.6,0-1.2-0.1-1.9c-0.1-0.6-0.2-1.2-0.4-1.7s-0.5-0.9-0.8-1.2c-0.3-0.3-0.7-0.4-1.2-0.4
	s-0.9,0.1-1.2,0.4s-0.6,0.7-0.8,1.2s-0.3,1-0.4,1.6c-0.1,0.6-0.1,1.2-0.1,1.8c0,0.7,0,1.4,0.1,2.1c0.1,0.6,0.2,1.2,0.5,1.7
	c0.2,0.5,0.5,0.9,0.8,1.2c0.3,0.3,0.7,0.4,1.2,0.4c0.8,0,1.4-0.5,1.8-1.4C24.8,110.3,25.1,109,25.1,107.3z M27,107.3
	c0,0.8-0.1,1.6-0.3,2.4s-0.5,1.4-0.9,2s-0.9,1.1-1.5,1.4s-1.2,0.5-1.9,0.5c-0.6,0-1.1-0.1-1.7-0.4c-0.5-0.3-1-0.7-1.4-1.2
	s-0.7-1.2-1-1.9c-0.2-0.7-0.4-1.6-0.4-2.5c0-1.8,0.4-3.3,1.3-4.4c0.8-1.1,1.9-1.7,3.3-1.7c1.3,0,2.3,0.5,3.2,1.6
	C26.6,104.1,27,105.5,27,107.3z"/>
<path class="st0" d="M35.8,107.6c0.3,0.3,0.5,0.6,0.6,1s0.2,0.8,0.2,1.3c0,1.1-0.3,1.9-1,2.6c-0.6,0.7-1.5,1-2.5,1
	c-0.5,0-1-0.1-1.5-0.4c-0.5-0.2-0.8-0.5-1-0.7l-0.2,0.8h-0.7l-0.1-4h0.6c0,0.3,0.2,0.7,0.3,1.1c0.2,0.4,0.4,0.8,0.6,1.1
	c0.2,0.3,0.5,0.6,0.9,0.9c0.3,0.2,0.7,0.4,1.1,0.4c0.6,0,1.1-0.2,1.4-0.5c0.3-0.3,0.5-0.8,0.5-1.5c0-0.3,0-0.6-0.2-0.8
	c-0.1-0.2-0.3-0.4-0.5-0.6s-0.5-0.3-0.8-0.5c-0.3-0.1-0.6-0.3-1-0.4c-0.3-0.1-0.6-0.3-1-0.5s-0.7-0.4-0.9-0.7
	c-0.3-0.3-0.5-0.6-0.7-1s-0.3-0.9-0.3-1.4c0-0.9,0.3-1.7,0.8-2.4c0.6-0.7,1.3-1,2.2-1c0.4,0,0.7,0.1,1.1,0.2
	c0.4,0.1,0.7,0.3,0.9,0.4l0.2-0.6h0.7l0.1,3.7H35c-0.1-0.8-0.4-1.5-0.9-2c-0.4-0.5-1-0.8-1.6-0.8c-0.5,0-0.9,0.2-1.2,0.5
	s-0.4,0.7-0.4,1.2c0,0.3,0,0.6,0.1,0.9c0.1,0.2,0.2,0.4,0.4,0.6s0.4,0.3,0.7,0.4s0.6,0.3,1,0.5s0.8,0.4,1.2,0.6
	C35.3,107,35.6,107.3,35.8,107.6z"/>
<path class="st1" d="M35.8,107.6c0.3,0.3,0.5,0.6,0.6,1s0.2,0.8,0.2,1.3c0,1.1-0.3,1.9-1,2.6c-0.6,0.7-1.5,1-2.5,1
	c-0.5,0-1-0.1-1.5-0.4c-0.5-0.2-0.8-0.5-1-0.7l-0.2,0.8h-0.7l-0.1-4h0.6c0,0.3,0.2,0.7,0.3,1.1c0.2,0.4,0.4,0.8,0.6,1.1
	c0.2,0.3,0.5,0.6,0.9,0.9c0.3,0.2,0.7,0.4,1.1,0.4c0.6,0,1.1-0.2,1.4-0.5c0.3-0.3,0.5-0.8,0.5-1.5c0-0.3,0-0.6-0.2-0.8
	c-0.1-0.2-0.3-0.4-0.5-0.6s-0.5-0.3-0.8-0.5c-0.3-0.1-0.6-0.3-1-0.4c-0.3-0.1-0.6-0.3-1-0.5s-0.7-0.4-0.9-0.7
	c-0.3-0.3-0.5-0.6-0.7-1s-0.3-0.9-0.3-1.4c0-0.9,0.3-1.7,0.8-2.4c0.6-0.7,1.3-1,2.2-1c0.4,0,0.7,0.1,1.1,0.2
	c0.4,0.1,0.7,0.3,0.9,0.4l0.2-0.6h0.7l0.1,3.7H35c-0.1-0.8-0.4-1.5-0.9-2c-0.4-0.5-1-0.8-1.6-0.8c-0.5,0-0.9,0.2-1.2,0.5
	s-0.4,0.7-0.4,1.2c0,0.3,0,0.6,0.1,0.9c0.1,0.2,0.2,0.4,0.4,0.6s0.4,0.3,0.7,0.4s0.6,0.3,1,0.5s0.8,0.4,1.2,0.6
	C35.3,107,35.6,107.3,35.8,107.6z"/>
<path class="st0" d="M46.3,111.3c0.2-0.5,0.4-1,0.5-1.7c0.1-0.6,0.2-1.3,0.2-2.1c0-0.6-0.1-1.2-0.2-1.8c-0.1-0.6-0.3-1.1-0.5-1.6
	c-0.2-0.4-0.5-0.8-0.8-1.1c-0.3-0.3-0.7-0.4-1.2-0.4s-0.8,0.1-1.2,0.4c-0.3,0.3-0.6,0.6-0.8,0.9v6.8c0.1,0.2,0.2,0.4,0.3,0.7
	c0.1,0.2,0.3,0.4,0.4,0.6c0.2,0.2,0.4,0.4,0.6,0.5c0.2,0.1,0.5,0.2,0.8,0.2s0.7-0.1,1-0.3C45.8,112,46.1,111.7,46.3,111.3z
	 M47.8,103.1c0.4,0.5,0.6,1.2,0.8,1.9c0.2,0.7,0.3,1.5,0.3,2.5c0,0.9-0.1,1.7-0.4,2.5c-0.2,0.8-0.6,1.4-1,1.9s-0.9,0.9-1.4,1.2
	c-0.5,0.3-1,0.4-1.6,0.4c-0.5,0-1-0.1-1.3-0.2c-0.4-0.2-0.6-0.3-0.9-0.5h-0.1v3.4c0,0.3,0,0.5,0.1,0.7s0.2,0.3,0.4,0.4
	c0.1,0.1,0.4,0.1,0.6,0.2c0.3,0.1,0.5,0.1,0.7,0.1v0.8h-5.2v-0.8c0.2,0,0.4,0,0.6-0.1c0.2,0,0.3-0.1,0.5-0.1
	c0.2-0.1,0.3-0.2,0.4-0.4c0.1-0.2,0.1-0.4,0.1-0.7v-12.2c0-0.2,0-0.5-0.1-0.7s-0.2-0.4-0.4-0.5c-0.1-0.1-0.3-0.2-0.5-0.2
	c-0.2-0.1-0.4-0.1-0.6-0.1v-0.8l3.2-0.2l0.1,0.1v1.3h0.1c0.3-0.5,0.7-0.9,1.2-1.2c0.5-0.3,0.9-0.5,1.4-0.5c0.6,0,1.1,0.2,1.6,0.5
	C47.1,102.2,47.5,102.6,47.8,103.1z"/>
<path class="st1" d="M46.3,111.3c0.2-0.5,0.4-1,0.5-1.7c0.1-0.6,0.2-1.3,0.2-2.1c0-0.6-0.1-1.2-0.2-1.8c-0.1-0.6-0.3-1.1-0.5-1.6
	c-0.2-0.4-0.5-0.8-0.8-1.1c-0.3-0.3-0.7-0.4-1.2-0.4s-0.8,0.1-1.2,0.4c-0.3,0.3-0.6,0.6-0.8,0.9v6.8c0.1,0.2,0.2,0.4,0.3,0.7
	c0.1,0.2,0.3,0.4,0.4,0.6c0.2,0.2,0.4,0.4,0.6,0.5c0.2,0.1,0.5,0.2,0.8,0.2s0.7-0.1,1-0.3C45.8,112,46.1,111.7,46.3,111.3z
	 M47.8,103.1c0.4,0.5,0.6,1.2,0.8,1.9c0.2,0.7,0.3,1.5,0.3,2.5c0,0.9-0.1,1.7-0.4,2.5c-0.2,0.8-0.6,1.4-1,1.9s-0.9,0.9-1.4,1.2
	c-0.5,0.3-1,0.4-1.6,0.4c-0.5,0-1-0.1-1.3-0.2c-0.4-0.2-0.6-0.3-0.9-0.5h-0.1v3.4c0,0.3,0,0.5,0.1,0.7s0.2,0.3,0.4,0.4
	c0.1,0.1,0.4,0.1,0.6,0.2c0.3,0.1,0.5,0.1,0.7,0.1v0.8h-5.2v-0.8c0.2,0,0.4,0,0.6-0.1c0.2,0,0.3-0.1,0.5-0.1
	c0.2-0.1,0.3-0.2,0.4-0.4c0.1-0.2,0.1-0.4,0.1-0.7v-12.2c0-0.2,0-0.5-0.1-0.7s-0.2-0.4-0.4-0.5c-0.1-0.1-0.3-0.2-0.5-0.2
	c-0.2-0.1-0.4-0.1-0.6-0.1v-0.8l3.2-0.2l0.1,0.1v1.3h0.1c0.3-0.5,0.7-0.9,1.2-1.2c0.5-0.3,0.9-0.5,1.4-0.5c0.6,0,1.1,0.2,1.6,0.5
	C47.1,102.2,47.5,102.6,47.8,103.1z"/>
<path class="st0" d="M55,97c0,0.4-0.1,0.8-0.4,1.2c-0.2,0.3-0.5,0.5-0.9,0.5c-0.3,0-0.6-0.2-0.8-0.5s-0.4-0.7-0.4-1.1
	s0.1-0.8,0.4-1.1c0.2-0.3,0.5-0.5,0.8-0.5c0.4,0,0.6,0.2,0.9,0.4C54.9,96.3,55,96.6,55,97z M56.2,113.2h-4.5v-0.8c0.1,0,0.3,0,0.4,0
	c0.2,0,0.3,0,0.4-0.1c0.2-0.1,0.3-0.2,0.4-0.4c0.1-0.2,0.1-0.4,0.1-0.7v-7.1c0-0.2,0-0.5-0.1-0.7s-0.2-0.4-0.4-0.5
	c-0.1-0.1-0.3-0.2-0.5-0.2c-0.2-0.1-0.4-0.1-0.6-0.1v-0.8l3.2-0.2l0.1,0.2v9.3c0,0.3,0,0.5,0.1,0.7s0.2,0.3,0.4,0.4
	c0.1,0.1,0.3,0.1,0.4,0.2c0.1,0,0.3,0.1,0.4,0.1v0.7H56.2z"/>
<path class="st1" d="M55,97c0,0.4-0.1,0.8-0.4,1.2c-0.2,0.3-0.5,0.5-0.9,0.5c-0.3,0-0.6-0.2-0.8-0.5s-0.4-0.7-0.4-1.1
	s0.1-0.8,0.4-1.1c0.2-0.3,0.5-0.5,0.8-0.5c0.4,0,0.6,0.2,0.9,0.4C54.9,96.3,55,96.6,55,97z M56.2,113.2h-4.5v-0.8c0.1,0,0.3,0,0.4,0
	c0.2,0,0.3,0,0.4-0.1c0.2-0.1,0.3-0.2,0.4-0.4c0.1-0.2,0.1-0.4,0.1-0.7v-7.1c0-0.2,0-0.5-0.1-0.7s-0.2-0.4-0.4-0.5
	c-0.1-0.1-0.3-0.2-0.5-0.2c-0.2-0.1-0.4-0.1-0.6-0.1v-0.8l3.2-0.2l0.1,0.2v9.3c0,0.3,0,0.5,0.1,0.7s0.2,0.3,0.4,0.4
	c0.1,0.1,0.3,0.1,0.4,0.2c0.1,0,0.3,0.1,0.4,0.1v0.7H56.2z"/>
<path class="st0" d="M64.4,112.7c-0.4,0.2-0.8,0.4-1.2,0.5s-0.8,0.2-1.3,0.2c-0.8,0-1.3-0.2-1.6-0.7s-0.5-1.2-0.5-2.1v-7.7h-1.6
	v-1.1h1.7v-3.6h1.7v3.6h2.7v1.1h-2.6v6.4c0,0.5,0,0.9,0,1.2c0,0.3,0.1,0.6,0.2,0.8c0.1,0.2,0.3,0.4,0.5,0.5s0.5,0.2,0.8,0.2
	c0.2,0,0.4,0,0.7-0.1c0.3,0,0.5-0.1,0.6-0.1L64.4,112.7L64.4,112.7z"/>
<path class="st1" d="M64.4,112.7c-0.4,0.2-0.8,0.4-1.2,0.5s-0.8,0.2-1.3,0.2c-0.8,0-1.3-0.2-1.6-0.7s-0.5-1.2-0.5-2.1v-7.7h-1.6
	v-1.1h1.7v-3.6h1.7v3.6h2.7v1.1h-2.6v6.4c0,0.5,0,0.9,0,1.2c0,0.3,0.1,0.6,0.2,0.8c0.1,0.2,0.3,0.4,0.5,0.5s0.5,0.2,0.8,0.2
	c0.2,0,0.4,0,0.7-0.1c0.3,0,0.5-0.1,0.6-0.1L64.4,112.7L64.4,112.7z"/>
<path class="st0" d="M72.2,106.8c-0.5,0.2-1,0.4-1.4,0.6s-0.8,0.4-1.1,0.7c-0.3,0.3-0.6,0.6-0.7,0.9c-0.2,0.4-0.3,0.8-0.3,1.3
	c0,0.6,0.1,1.1,0.4,1.4c0.3,0.3,0.6,0.5,1,0.5s0.8-0.1,1.2-0.4c0.3-0.3,0.6-0.6,0.8-1L72.2,106.8z M75.4,113
	c-0.3,0.1-0.5,0.2-0.8,0.3c-0.2,0.1-0.5,0.1-0.8,0.1c-0.5,0-0.9-0.1-1.2-0.4s-0.5-0.7-0.5-1.2H72c-0.4,0.6-0.8,1-1.3,1.3
	s-1,0.4-1.7,0.4s-1.2-0.3-1.7-0.8c-0.4-0.5-0.7-1.2-0.7-2.1c0-0.4,0.1-0.8,0.2-1.2c0.1-0.4,0.3-0.7,0.5-0.9c0.2-0.2,0.4-0.4,0.6-0.6
	c0.3-0.2,0.5-0.3,0.7-0.4c0.3-0.1,0.8-0.4,1.7-0.7c0.8-0.4,1.4-0.6,1.7-0.8v-1.1c0-0.1,0-0.3,0-0.6c0-0.3-0.1-0.6-0.2-0.8
	c-0.1-0.3-0.3-0.5-0.5-0.7s-0.5-0.3-1-0.3c-0.3,0-0.5,0.1-0.8,0.2c-0.2,0.1-0.4,0.2-0.5,0.4c0,0.2,0,0.4,0.1,0.7
	c0.1,0.3,0.1,0.6,0.1,0.8c0,0.3-0.1,0.5-0.3,0.7s-0.5,0.3-0.8,0.3s-0.5-0.1-0.7-0.4c-0.1-0.3-0.2-0.6-0.2-0.9c0-0.4,0.1-0.7,0.3-1
	s0.5-0.6,0.8-0.9c0.3-0.2,0.6-0.4,1-0.6s0.8-0.2,1.2-0.2c0.5,0,1,0,1.4,0.1s0.7,0.3,1.1,0.6c0.3,0.3,0.5,0.7,0.7,1.2
	s0.2,1.1,0.2,1.9c0,1.1,0,2.1,0,3s0,1.8,0,2.8c0,0.3,0,0.5,0.1,0.7s0.2,0.3,0.4,0.5c0.1,0.1,0.2,0.1,0.4,0.1s0.4,0,0.6,0V113z"/>
<path class="st1" d="M72.2,106.8c-0.5,0.2-1,0.4-1.4,0.6s-0.8,0.4-1.1,0.7c-0.3,0.3-0.6,0.6-0.7,0.9c-0.2,0.4-0.3,0.8-0.3,1.3
	c0,0.6,0.1,1.1,0.4,1.4c0.3,0.3,0.6,0.5,1,0.5s0.8-0.1,1.2-0.4c0.3-0.3,0.6-0.6,0.8-1L72.2,106.8z M75.4,113
	c-0.3,0.1-0.5,0.2-0.8,0.3c-0.2,0.1-0.5,0.1-0.8,0.1c-0.5,0-0.9-0.1-1.2-0.4s-0.5-0.7-0.5-1.2H72c-0.4,0.6-0.8,1-1.3,1.3
	s-1,0.4-1.7,0.4s-1.2-0.3-1.7-0.8c-0.4-0.5-0.7-1.2-0.7-2.1c0-0.4,0.1-0.8,0.2-1.2c0.1-0.4,0.3-0.7,0.5-0.9c0.2-0.2,0.4-0.4,0.6-0.6
	c0.3-0.2,0.5-0.3,0.7-0.4c0.3-0.1,0.8-0.4,1.7-0.7c0.8-0.4,1.4-0.6,1.7-0.8v-1.1c0-0.1,0-0.3,0-0.6c0-0.3-0.1-0.6-0.2-0.8
	c-0.1-0.3-0.3-0.5-0.5-0.7s-0.5-0.3-1-0.3c-0.3,0-0.5,0.1-0.8,0.2c-0.2,0.1-0.4,0.2-0.5,0.4c0,0.2,0,0.4,0.1,0.7
	c0.1,0.3,0.1,0.6,0.1,0.8c0,0.3-0.1,0.5-0.3,0.7s-0.5,0.3-0.8,0.3s-0.5-0.1-0.7-0.4c-0.1-0.3-0.2-0.6-0.2-0.9c0-0.4,0.1-0.7,0.3-1
	s0.5-0.6,0.8-0.9c0.3-0.2,0.6-0.4,1-0.6s0.8-0.2,1.2-0.2c0.5,0,1,0,1.4,0.1s0.7,0.3,1.1,0.6c0.3,0.3,0.5,0.7,0.7,1.2
	s0.2,1.1,0.2,1.9c0,1.1,0,2.1,0,3s0,1.8,0,2.8c0,0.3,0,0.5,0.1,0.7s0.2,0.3,0.4,0.5c0.1,0.1,0.2,0.1,0.4,0.1s0.4,0,0.6,0V113z"/>
<path class="st0" d="M82.1,113.2h-4.5v-0.8c0.1,0,0.3,0,0.5-0.1c0.2,0,0.3,0,0.4-0.1c0.2-0.1,0.3-0.2,0.4-0.4
	c0.1-0.2,0.1-0.4,0.1-0.7V97.9c0-0.3,0-0.5-0.1-0.8c-0.1-0.2-0.2-0.4-0.4-0.6c-0.1-0.1-0.3-0.2-0.6-0.3c-0.3-0.1-0.5-0.1-0.7-0.1
	v-0.8l3.4-0.2l0.1,0.2V111c0,0.3,0,0.5,0.1,0.7s0.2,0.3,0.4,0.4c0.1,0.1,0.3,0.1,0.4,0.2c0.1,0,0.3,0.1,0.5,0.1L82.1,113.2
	L82.1,113.2z"/>
<path class="st1" d="M82.1,113.2h-4.5v-0.8c0.1,0,0.3,0,0.5-0.1c0.2,0,0.3,0,0.4-0.1c0.2-0.1,0.3-0.2,0.4-0.4
	c0.1-0.2,0.1-0.4,0.1-0.7V97.9c0-0.3,0-0.5-0.1-0.8c-0.1-0.2-0.2-0.4-0.4-0.6c-0.1-0.1-0.3-0.2-0.6-0.3c-0.3-0.1-0.5-0.1-0.7-0.1
	v-0.8l3.4-0.2l0.1,0.2V111c0,0.3,0,0.5,0.1,0.7s0.2,0.3,0.4,0.4c0.1,0.1,0.3,0.1,0.4,0.2c0.1,0,0.3,0.1,0.5,0.1L82.1,113.2
	L82.1,113.2z"/>
<path class="st0" d="M96.8,113.6c-0.8,0-1.5-0.2-2.3-0.6c-0.7-0.4-1.4-0.9-1.9-1.7c-0.5-0.7-1-1.6-1.3-2.7s-0.5-2.2-0.5-3.6
	c0-1.3,0.2-2.5,0.5-3.6s0.8-2,1.3-2.8c0.6-0.8,1.2-1.4,2-1.8s1.6-0.6,2.5-0.6c0.7,0,1.2,0.1,1.8,0.3c0.5,0.2,1,0.5,1.5,0.9l0.4-0.8
	h0.7l0.1,5.9h-0.8c-0.1-0.6-0.2-1.2-0.4-1.9c-0.2-0.7-0.4-1.3-0.7-1.7c-0.3-0.5-0.6-1-1.1-1.3c-0.4-0.3-0.9-0.5-1.4-0.5
	c-0.6,0-1.1,0.2-1.7,0.5c-0.5,0.3-1,0.8-1.3,1.5c-0.4,0.6-0.6,1.4-0.8,2.4s-0.3,2.1-0.3,3.3c0,1.1,0.1,2,0.3,2.9s0.5,1.7,0.9,2.3
	c0.4,0.7,0.9,1.2,1.4,1.6s1.1,0.6,1.8,0.6c0.5,0,1-0.1,1.4-0.3c0.4-0.2,0.8-0.5,1.1-0.8c0.3-0.3,0.6-0.7,0.8-1.2
	c0.2-0.4,0.4-0.9,0.6-1.4l0.7,0.4c-0.5,1.6-1.2,2.8-2.1,3.5C99,113.2,98,113.6,96.8,113.6z"/>
<path class="st1" d="M96.8,113.6c-0.8,0-1.5-0.2-2.3-0.6c-0.7-0.4-1.4-0.9-1.9-1.7c-0.5-0.7-1-1.6-1.3-2.7s-0.5-2.2-0.5-3.6
	c0-1.3,0.2-2.5,0.5-3.6s0.8-2,1.3-2.8c0.6-0.8,1.2-1.4,2-1.8s1.6-0.6,2.5-0.6c0.7,0,1.2,0.1,1.8,0.3c0.5,0.2,1,0.5,1.5,0.9l0.4-0.8
	h0.7l0.1,5.9h-0.8c-0.1-0.6-0.2-1.2-0.4-1.9c-0.2-0.7-0.4-1.3-0.7-1.7c-0.3-0.5-0.6-1-1.1-1.3c-0.4-0.3-0.9-0.5-1.4-0.5
	c-0.6,0-1.1,0.2-1.7,0.5c-0.5,0.3-1,0.8-1.3,1.5c-0.4,0.6-0.6,1.4-0.8,2.4s-0.3,2.1-0.3,3.3c0,1.1,0.1,2,0.3,2.9s0.5,1.7,0.9,2.3
	c0.4,0.7,0.9,1.2,1.4,1.6s1.1,0.6,1.8,0.6c0.5,0,1-0.1,1.4-0.3c0.4-0.2,0.8-0.5,1.1-0.8c0.3-0.3,0.6-0.7,0.8-1.2
	c0.2-0.4,0.4-0.9,0.6-1.4l0.7,0.4c-0.5,1.6-1.2,2.8-2.1,3.5C99,113.2,98,113.6,96.8,113.6z"/>
<path class="st0" d="M111.4,107.3c0-0.6,0-1.2-0.1-1.9c-0.1-0.6-0.2-1.2-0.4-1.7c-0.2-0.5-0.5-0.9-0.8-1.2c-0.3-0.3-0.7-0.4-1.2-0.4
	s-0.9,0.1-1.2,0.4c-0.3,0.3-0.6,0.7-0.8,1.2c-0.2,0.5-0.3,1-0.4,1.6s-0.1,1.2-0.1,1.8c0,0.7,0,1.4,0.1,2.1c0.1,0.6,0.3,1.2,0.5,1.7
	s0.5,0.9,0.8,1.2c0.3,0.3,0.7,0.4,1.2,0.4c0.8,0,1.4-0.5,1.8-1.4C111.2,110.3,111.4,109,111.4,107.3z M113.3,107.3
	c0,0.8-0.1,1.6-0.3,2.4c-0.2,0.8-0.5,1.4-0.9,2s-0.9,1.1-1.5,1.4s-1.2,0.5-1.9,0.5c-0.6,0-1.1-0.1-1.7-0.4c-0.5-0.3-1-0.7-1.4-1.2
	s-0.7-1.2-1-1.9c-0.2-0.7-0.4-1.6-0.4-2.5c0-1.8,0.4-3.3,1.3-4.4c0.8-1.1,1.9-1.7,3.3-1.7c1.3,0,2.3,0.5,3.2,1.6
	C112.9,104.1,113.3,105.5,113.3,107.3z"/>
<path class="st1" d="M111.4,107.3c0-0.6,0-1.2-0.1-1.9c-0.1-0.6-0.2-1.2-0.4-1.7c-0.2-0.5-0.5-0.9-0.8-1.2c-0.3-0.3-0.7-0.4-1.2-0.4
	s-0.9,0.1-1.2,0.4c-0.3,0.3-0.6,0.7-0.8,1.2c-0.2,0.5-0.3,1-0.4,1.6s-0.1,1.2-0.1,1.8c0,0.7,0,1.4,0.1,2.1c0.1,0.6,0.3,1.2,0.5,1.7
	s0.5,0.9,0.8,1.2c0.3,0.3,0.7,0.4,1.2,0.4c0.8,0,1.4-0.5,1.8-1.4C111.2,110.3,111.4,109,111.4,107.3z M113.3,107.3
	c0,0.8-0.1,1.6-0.3,2.4c-0.2,0.8-0.5,1.4-0.9,2s-0.9,1.1-1.5,1.4s-1.2,0.5-1.9,0.5c-0.6,0-1.1-0.1-1.7-0.4c-0.5-0.3-1-0.7-1.4-1.2
	s-0.7-1.2-1-1.9c-0.2-0.7-0.4-1.6-0.4-2.5c0-1.8,0.4-3.3,1.3-4.4c0.8-1.1,1.9-1.7,3.3-1.7c1.3,0,2.3,0.5,3.2,1.6
	C112.9,104.1,113.3,105.5,113.3,107.3z"/>
<path class="st0" d="M123.1,103.2c0,0.4-0.1,0.7-0.2,1.1c-0.2,0.3-0.4,0.5-0.7,0.5c-0.3,0-0.6-0.1-0.8-0.3c-0.2-0.2-0.3-0.5-0.3-0.8
	c0-0.2,0-0.3,0-0.5c0-0.1,0-0.3,0.1-0.4c-0.3,0-0.6,0.2-1,0.5s-0.7,0.7-1,1.3v6.7c0,0.3,0,0.5,0.1,0.7s0.2,0.3,0.4,0.4
	c0.2,0.1,0.4,0.1,0.6,0.2c0.2,0,0.5,0.1,0.6,0.1v0.8H116v-0.8c0.1,0,0.3,0,0.4,0c0.2,0,0.3,0,0.4-0.1c0.2-0.1,0.3-0.2,0.4-0.4
	c0.1-0.2,0.1-0.4,0.1-0.7v-7.1c0-0.2,0-0.5-0.1-0.7s-0.2-0.4-0.4-0.6c-0.1-0.1-0.3-0.2-0.4-0.2c-0.2,0-0.3-0.1-0.5-0.1V102l3.1-0.2
	l0.1,0.2v1.6l0,0c0.4-0.6,0.8-1.1,1.3-1.4s0.9-0.5,1.3-0.5s0.7,0.2,1,0.5C123,102.2,123.1,102.7,123.1,103.2z"/>
<path class="st1" d="M123.1,103.2c0,0.4-0.1,0.7-0.2,1.1c-0.2,0.3-0.4,0.5-0.7,0.5c-0.3,0-0.6-0.1-0.8-0.3c-0.2-0.2-0.3-0.5-0.3-0.8
	c0-0.2,0-0.3,0-0.5c0-0.1,0-0.3,0.1-0.4c-0.3,0-0.6,0.2-1,0.5s-0.7,0.7-1,1.3v6.7c0,0.3,0,0.5,0.1,0.7s0.2,0.3,0.4,0.4
	c0.2,0.1,0.4,0.1,0.6,0.2c0.2,0,0.5,0.1,0.6,0.1v0.8H116v-0.8c0.1,0,0.3,0,0.4,0c0.2,0,0.3,0,0.4-0.1c0.2-0.1,0.3-0.2,0.4-0.4
	c0.1-0.2,0.1-0.4,0.1-0.7v-7.1c0-0.2,0-0.5-0.1-0.7s-0.2-0.4-0.4-0.6c-0.1-0.1-0.3-0.2-0.4-0.2c-0.2,0-0.3-0.1-0.5-0.1V102l3.1-0.2
	l0.1,0.2v1.6l0,0c0.4-0.6,0.8-1.1,1.3-1.4s0.9-0.5,1.3-0.5s0.7,0.2,1,0.5C123,102.2,123.1,102.7,123.1,103.2z"/>
<path class="st0" d="M132.2,111.3c0.2-0.5,0.4-1,0.5-1.7c0.1-0.6,0.2-1.3,0.2-2.1c0-0.6-0.1-1.2-0.2-1.8c-0.1-0.6-0.3-1.1-0.5-1.6
	c-0.2-0.4-0.5-0.8-0.8-1.1c-0.3-0.3-0.7-0.4-1.2-0.4s-0.8,0.1-1.2,0.4c-0.3,0.3-0.6,0.6-0.8,0.9v6.8c0.1,0.2,0.2,0.4,0.3,0.7
	c0.1,0.2,0.3,0.4,0.4,0.6c0.2,0.2,0.4,0.4,0.6,0.5s0.5,0.2,0.8,0.2s0.7-0.1,1-0.3C131.7,112,132,111.7,132.2,111.3z M133.7,103.1
	c0.4,0.5,0.6,1.2,0.8,1.9c0.2,0.7,0.3,1.5,0.3,2.5c0,0.9-0.1,1.7-0.4,2.5c-0.2,0.8-0.6,1.4-1,1.9s-0.9,0.9-1.4,1.2
	c-0.5,0.3-1,0.4-1.6,0.4c-0.5,0-1-0.1-1.3-0.2c-0.4-0.2-0.6-0.3-0.9-0.5h-0.1v3.4c0,0.3,0,0.5,0.1,0.7s0.2,0.3,0.4,0.4
	c0.1,0.1,0.4,0.1,0.6,0.2c0.3,0.1,0.5,0.1,0.7,0.1v0.8H125v-0.8c0.2,0,0.4,0,0.6-0.1c0.2,0,0.3-0.1,0.5-0.1c0.2-0.1,0.3-0.2,0.4-0.4
	c0.1-0.2,0.1-0.4,0.1-0.7v-12.2c0-0.2,0-0.5-0.1-0.7s-0.2-0.4-0.4-0.5c-0.1-0.1-0.3-0.2-0.5-0.2c-0.2-0.1-0.4-0.1-0.6-0.1v-0.8
	l3.2-0.2l0.1,0.1v1.3h0.1c0.3-0.5,0.7-0.9,1.2-1.2c0.5-0.3,0.9-0.5,1.4-0.5c0.6,0,1.1,0.2,1.6,0.5
	C133,102.2,133.4,102.6,133.7,103.1z"/>
<path class="st1" d="M132.2,111.3c0.2-0.5,0.4-1,0.5-1.7c0.1-0.6,0.2-1.3,0.2-2.1c0-0.6-0.1-1.2-0.2-1.8c-0.1-0.6-0.3-1.1-0.5-1.6
	c-0.2-0.4-0.5-0.8-0.8-1.1c-0.3-0.3-0.7-0.4-1.2-0.4s-0.8,0.1-1.2,0.4c-0.3,0.3-0.6,0.6-0.8,0.9v6.8c0.1,0.2,0.2,0.4,0.3,0.7
	c0.1,0.2,0.3,0.4,0.4,0.6c0.2,0.2,0.4,0.4,0.6,0.5s0.5,0.2,0.8,0.2s0.7-0.1,1-0.3C131.7,112,132,111.7,132.2,111.3z M133.7,103.1
	c0.4,0.5,0.6,1.2,0.8,1.9c0.2,0.7,0.3,1.5,0.3,2.5c0,0.9-0.1,1.7-0.4,2.5c-0.2,0.8-0.6,1.4-1,1.9s-0.9,0.9-1.4,1.2
	c-0.5,0.3-1,0.4-1.6,0.4c-0.5,0-1-0.1-1.3-0.2c-0.4-0.2-0.6-0.3-0.9-0.5h-0.1v3.4c0,0.3,0,0.5,0.1,0.7s0.2,0.3,0.4,0.4
	c0.1,0.1,0.4,0.1,0.6,0.2c0.3,0.1,0.5,0.1,0.7,0.1v0.8H125v-0.8c0.2,0,0.4,0,0.6-0.1c0.2,0,0.3-0.1,0.5-0.1c0.2-0.1,0.3-0.2,0.4-0.4
	c0.1-0.2,0.1-0.4,0.1-0.7v-12.2c0-0.2,0-0.5-0.1-0.7s-0.2-0.4-0.4-0.5c-0.1-0.1-0.3-0.2-0.5-0.2c-0.2-0.1-0.4-0.1-0.6-0.1v-0.8
	l3.2-0.2l0.1,0.1v1.3h0.1c0.3-0.5,0.7-0.9,1.2-1.2c0.5-0.3,0.9-0.5,1.4-0.5c0.6,0,1.1,0.2,1.6,0.5
	C133,102.2,133.4,102.6,133.7,103.1z"/>
<path class="st0" d="M144.7,107.3c0-0.6,0-1.2-0.1-1.9c-0.1-0.6-0.2-1.2-0.4-1.7c-0.2-0.5-0.5-0.9-0.8-1.2c-0.3-0.3-0.7-0.4-1.2-0.4
	s-0.9,0.1-1.2,0.4c-0.3,0.3-0.6,0.7-0.8,1.2c-0.2,0.5-0.3,1-0.4,1.6s-0.1,1.2-0.1,1.8c0,0.7,0,1.4,0.1,2.1c0.1,0.6,0.2,1.2,0.5,1.7
	c0.2,0.5,0.5,0.9,0.8,1.2c0.3,0.3,0.7,0.4,1.2,0.4c0.8,0,1.4-0.5,1.8-1.4C144.4,110.3,144.7,109,144.7,107.3z M146.6,107.3
	c0,0.8-0.1,1.6-0.3,2.4c-0.2,0.8-0.5,1.4-0.9,2s-0.9,1.1-1.5,1.4s-1.2,0.5-1.9,0.5c-0.6,0-1.1-0.1-1.7-0.4c-0.5-0.3-1-0.7-1.4-1.2
	s-0.7-1.2-1-1.9c-0.2-0.7-0.4-1.6-0.4-2.5c0-1.8,0.4-3.3,1.3-4.4c0.8-1.1,1.9-1.7,3.3-1.7c1.3,0,2.3,0.5,3.2,1.6
	C146.2,104.1,146.6,105.5,146.6,107.3z"/>
<path class="st1" d="M144.7,107.3c0-0.6,0-1.2-0.1-1.9c-0.1-0.6-0.2-1.2-0.4-1.7c-0.2-0.5-0.5-0.9-0.8-1.2c-0.3-0.3-0.7-0.4-1.2-0.4
	s-0.9,0.1-1.2,0.4c-0.3,0.3-0.6,0.7-0.8,1.2c-0.2,0.5-0.3,1-0.4,1.6s-0.1,1.2-0.1,1.8c0,0.7,0,1.4,0.1,2.1c0.1,0.6,0.2,1.2,0.5,1.7
	c0.2,0.5,0.5,0.9,0.8,1.2c0.3,0.3,0.7,0.4,1.2,0.4c0.8,0,1.4-0.5,1.8-1.4C144.4,110.3,144.7,109,144.7,107.3z M146.6,107.3
	c0,0.8-0.1,1.6-0.3,2.4c-0.2,0.8-0.5,1.4-0.9,2s-0.9,1.1-1.5,1.4s-1.2,0.5-1.9,0.5c-0.6,0-1.1-0.1-1.7-0.4c-0.5-0.3-1-0.7-1.4-1.2
	s-0.7-1.2-1-1.9c-0.2-0.7-0.4-1.6-0.4-2.5c0-1.8,0.4-3.3,1.3-4.4c0.8-1.1,1.9-1.7,3.3-1.7c1.3,0,2.3,0.5,3.2,1.6
	C146.2,104.1,146.6,105.5,146.6,107.3z"/>
<path class="st0" d="M156.4,103.2c0,0.4-0.1,0.7-0.2,1.1c-0.2,0.3-0.4,0.5-0.7,0.5c-0.3,0-0.6-0.1-0.8-0.3c-0.2-0.2-0.3-0.5-0.3-0.8
	c0-0.2,0-0.3,0-0.5c0-0.1,0-0.3,0.1-0.4c-0.3,0-0.6,0.2-1,0.5s-0.7,0.7-1,1.3v6.7c0,0.3,0,0.5,0.1,0.7s0.2,0.3,0.4,0.4
	c0.2,0.1,0.4,0.1,0.6,0.2c0.2,0,0.5,0.1,0.6,0.1v0.8h-4.9v-0.8c0.1,0,0.3,0,0.4,0c0.2,0,0.3,0,0.4-0.1c0.2-0.1,0.3-0.2,0.4-0.4
	c0.1-0.2,0.1-0.4,0.1-0.7v-7.1c0-0.2,0-0.5-0.1-0.7s-0.2-0.4-0.4-0.6c-0.1-0.1-0.3-0.2-0.4-0.2c-0.2,0-0.3-0.1-0.5-0.1V102l3.1-0.2
	l0.1,0.2v1.6l0,0c0.4-0.6,0.8-1.1,1.3-1.4s0.9-0.5,1.3-0.5s0.7,0.2,1,0.5C156.3,102.2,156.4,102.7,156.4,103.2z"/>
<path class="st1" d="M156.4,103.2c0,0.4-0.1,0.7-0.2,1.1c-0.2,0.3-0.4,0.5-0.7,0.5c-0.3,0-0.6-0.1-0.8-0.3c-0.2-0.2-0.3-0.5-0.3-0.8
	c0-0.2,0-0.3,0-0.5c0-0.1,0-0.3,0.1-0.4c-0.3,0-0.6,0.2-1,0.5s-0.7,0.7-1,1.3v6.7c0,0.3,0,0.5,0.1,0.7s0.2,0.3,0.4,0.4
	c0.2,0.1,0.4,0.1,0.6,0.2c0.2,0,0.5,0.1,0.6,0.1v0.8h-4.9v-0.8c0.1,0,0.3,0,0.4,0c0.2,0,0.3,0,0.4-0.1c0.2-0.1,0.3-0.2,0.4-0.4
	c0.1-0.2,0.1-0.4,0.1-0.7v-7.1c0-0.2,0-0.5-0.1-0.7s-0.2-0.4-0.4-0.6c-0.1-0.1-0.3-0.2-0.4-0.2c-0.2,0-0.3-0.1-0.5-0.1V102l3.1-0.2
	l0.1,0.2v1.6l0,0c0.4-0.6,0.8-1.1,1.3-1.4s0.9-0.5,1.3-0.5s0.7,0.2,1,0.5C156.3,102.2,156.4,102.7,156.4,103.2z"/>
<path class="st0" d="M164,106.8c-0.5,0.2-1,0.4-1.4,0.6s-0.8,0.4-1.1,0.7c-0.3,0.3-0.6,0.6-0.7,0.9c-0.2,0.4-0.3,0.8-0.3,1.3
	c0,0.6,0.1,1.1,0.4,1.4s0.6,0.5,1,0.5s0.8-0.1,1.2-0.4c0.3-0.3,0.6-0.6,0.8-1L164,106.8z M167.2,113c-0.3,0.1-0.5,0.2-0.8,0.3
	c-0.2,0.1-0.5,0.1-0.8,0.1c-0.5,0-0.9-0.1-1.2-0.4c-0.3-0.3-0.5-0.7-0.5-1.2h-0.1c-0.4,0.6-0.8,1-1.3,1.3s-1,0.4-1.6,0.4
	c-0.7,0-1.2-0.3-1.7-0.8c-0.4-0.5-0.7-1.2-0.7-2.1c0-0.4,0-0.8,0.2-1.2c0.1-0.4,0.3-0.7,0.5-0.9c0.2-0.2,0.4-0.4,0.6-0.6
	c0.3-0.2,0.5-0.3,0.7-0.4c0.3-0.1,0.8-0.4,1.7-0.7c0.8-0.4,1.4-0.6,1.7-0.8v-1.1c0-0.1,0-0.3,0-0.6c0-0.3-0.1-0.6-0.2-0.8
	c-0.1-0.3-0.3-0.5-0.5-0.7s-0.5-0.3-1-0.3c-0.3,0-0.6,0.1-0.8,0.2c-0.2,0.1-0.4,0.2-0.5,0.4c0,0.2,0,0.4,0.1,0.7
	c0.1,0.3,0.1,0.6,0.1,0.8c0,0.3-0.1,0.5-0.3,0.7c-0.2,0.2-0.5,0.3-0.8,0.3s-0.5-0.1-0.7-0.4c-0.1-0.3-0.2-0.6-0.2-0.9
	c0-0.4,0.1-0.7,0.3-1c0.2-0.3,0.5-0.6,0.8-0.9c0.3-0.2,0.6-0.4,1-0.6s0.8-0.2,1.2-0.2c0.5,0,1,0,1.4,0.1s0.7,0.3,1.1,0.6
	c0.3,0.3,0.5,0.7,0.7,1.2s0.3,1.1,0.3,1.9c0,1.1,0,2.1,0,3s0,1.8,0,2.8c0,0.3,0,0.5,0.1,0.7s0.2,0.3,0.4,0.5
	c0.1,0.1,0.2,0.1,0.4,0.1c0.2,0,0.4,0,0.6,0v0.5H167.2z"/>
<path class="st1" d="M164,106.8c-0.5,0.2-1,0.4-1.4,0.6s-0.8,0.4-1.1,0.7c-0.3,0.3-0.6,0.6-0.7,0.9c-0.2,0.4-0.3,0.8-0.3,1.3
	c0,0.6,0.1,1.1,0.4,1.4s0.6,0.5,1,0.5s0.8-0.1,1.2-0.4c0.3-0.3,0.6-0.6,0.8-1L164,106.8z M167.2,113c-0.3,0.1-0.5,0.2-0.8,0.3
	c-0.2,0.1-0.5,0.1-0.8,0.1c-0.5,0-0.9-0.1-1.2-0.4c-0.3-0.3-0.5-0.7-0.5-1.2h-0.1c-0.4,0.6-0.8,1-1.3,1.3s-1,0.4-1.6,0.4
	c-0.7,0-1.2-0.3-1.7-0.8c-0.4-0.5-0.7-1.2-0.7-2.1c0-0.4,0-0.8,0.2-1.2c0.1-0.4,0.3-0.7,0.5-0.9c0.2-0.2,0.4-0.4,0.6-0.6
	c0.3-0.2,0.5-0.3,0.7-0.4c0.3-0.1,0.8-0.4,1.7-0.7c0.8-0.4,1.4-0.6,1.7-0.8v-1.1c0-0.1,0-0.3,0-0.6c0-0.3-0.1-0.6-0.2-0.8
	c-0.1-0.3-0.3-0.5-0.5-0.7s-0.5-0.3-1-0.3c-0.3,0-0.6,0.1-0.8,0.2c-0.2,0.1-0.4,0.2-0.5,0.4c0,0.2,0,0.4,0.1,0.7
	c0.1,0.3,0.1,0.6,0.1,0.8c0,0.3-0.1,0.5-0.3,0.7c-0.2,0.2-0.5,0.3-0.8,0.3s-0.5-0.1-0.7-0.4c-0.1-0.3-0.2-0.6-0.2-0.9
	c0-0.4,0.1-0.7,0.3-1c0.2-0.3,0.5-0.6,0.8-0.9c0.3-0.2,0.6-0.4,1-0.6s0.8-0.2,1.2-0.2c0.5,0,1,0,1.4,0.1s0.7,0.3,1.1,0.6
	c0.3,0.3,0.5,0.7,0.7,1.2s0.3,1.1,0.3,1.9c0,1.1,0,2.1,0,3s0,1.8,0,2.8c0,0.3,0,0.5,0.1,0.7s0.2,0.3,0.4,0.5
	c0.1,0.1,0.2,0.1,0.4,0.1c0.2,0,0.4,0,0.6,0v0.5H167.2z"/>
<path class="st0" d="M175.3,112.7c-0.4,0.2-0.8,0.4-1.2,0.5c-0.4,0.1-0.8,0.2-1.3,0.2c-0.8,0-1.3-0.2-1.6-0.7
	c-0.3-0.5-0.5-1.2-0.5-2.1v-7.7h-1.6v-1.1h1.7v-3.6h1.7v3.6h2.7v1.1h-2.6v6.4c0,0.5,0,0.9,0,1.2c0,0.3,0.1,0.6,0.2,0.8
	c0.1,0.2,0.3,0.4,0.5,0.5s0.5,0.2,0.8,0.2c0.2,0,0.4,0,0.7-0.1c0.3,0,0.5-0.1,0.6-0.1v0.9H175.3z"/>
<path class="st1" d="M175.3,112.7c-0.4,0.2-0.8,0.4-1.2,0.5c-0.4,0.1-0.8,0.2-1.3,0.2c-0.8,0-1.3-0.2-1.6-0.7
	c-0.3-0.5-0.5-1.2-0.5-2.1v-7.7h-1.6v-1.1h1.7v-3.6h1.7v3.6h2.7v1.1h-2.6v6.4c0,0.5,0,0.9,0,1.2c0,0.3,0.1,0.6,0.2,0.8
	c0.1,0.2,0.3,0.4,0.5,0.5s0.5,0.2,0.8,0.2c0.2,0,0.4,0,0.7-0.1c0.3,0,0.5-0.1,0.6-0.1v0.9H175.3z"/>
<path class="st0" d="M180.9,97c0,0.4-0.1,0.8-0.4,1.2c-0.2,0.3-0.5,0.5-0.9,0.5c-0.3,0-0.6-0.2-0.8-0.5c-0.2-0.3-0.3-0.7-0.3-1.1
	s0.1-0.8,0.3-1.1c0.2-0.3,0.5-0.5,0.8-0.5c0.4,0,0.7,0.2,0.9,0.4C180.8,96.3,180.9,96.6,180.9,97z M182.1,113.2h-4.5v-0.8
	c0.1,0,0.3,0,0.4,0c0.2,0,0.3,0,0.4-0.1c0.2-0.1,0.3-0.2,0.4-0.4c0.1-0.2,0.1-0.4,0.1-0.7v-7.1c0-0.2,0-0.5-0.1-0.7
	s-0.2-0.4-0.4-0.5c-0.1-0.1-0.3-0.2-0.5-0.2c-0.2-0.1-0.4-0.1-0.6-0.1v-0.8l3.2-0.2l0.1,0.2v9.3c0,0.3,0,0.5,0.1,0.7
	s0.2,0.3,0.4,0.4c0.1,0.1,0.3,0.1,0.4,0.2c0.1,0,0.3,0.1,0.4,0.1v0.7H182.1z"/>
<path class="st1" d="M180.9,97c0,0.4-0.1,0.8-0.4,1.2c-0.2,0.3-0.5,0.5-0.9,0.5c-0.3,0-0.6-0.2-0.8-0.5c-0.2-0.3-0.3-0.7-0.3-1.1
	s0.1-0.8,0.3-1.1c0.2-0.3,0.5-0.5,0.8-0.5c0.4,0,0.7,0.2,0.9,0.4C180.8,96.3,180.9,96.6,180.9,97z M182.1,113.2h-4.5v-0.8
	c0.1,0,0.3,0,0.4,0c0.2,0,0.3,0,0.4-0.1c0.2-0.1,0.3-0.2,0.4-0.4c0.1-0.2,0.1-0.4,0.1-0.7v-7.1c0-0.2,0-0.5-0.1-0.7
	s-0.2-0.4-0.4-0.5c-0.1-0.1-0.3-0.2-0.5-0.2c-0.2-0.1-0.4-0.1-0.6-0.1v-0.8l3.2-0.2l0.1,0.2v9.3c0,0.3,0,0.5,0.1,0.7
	s0.2,0.3,0.4,0.4c0.1,0.1,0.3,0.1,0.4,0.2c0.1,0,0.3,0.1,0.4,0.1v0.7H182.1z"/>
<path class="st0" d="M191.7,107.3c0-0.6,0-1.2-0.1-1.9c-0.1-0.6-0.2-1.2-0.4-1.7c-0.2-0.5-0.5-0.9-0.8-1.2c-0.3-0.3-0.7-0.4-1.2-0.4
	s-0.9,0.1-1.2,0.4c-0.3,0.3-0.6,0.7-0.8,1.2c-0.2,0.5-0.3,1-0.4,1.6s-0.1,1.2-0.1,1.8c0,0.7,0,1.4,0.1,2.1c0.1,0.6,0.2,1.2,0.5,1.7
	c0.2,0.5,0.5,0.9,0.8,1.2c0.3,0.3,0.7,0.4,1.2,0.4c0.8,0,1.4-0.5,1.8-1.4C191.4,110.3,191.7,109,191.7,107.3z M193.6,107.3
	c0,0.8-0.1,1.6-0.3,2.4c-0.2,0.8-0.5,1.4-0.9,2s-0.9,1.1-1.5,1.4s-1.2,0.5-1.9,0.5c-0.6,0-1.1-0.1-1.7-0.4c-0.5-0.3-1-0.7-1.4-1.2
	s-0.7-1.2-1-1.9c-0.2-0.7-0.4-1.6-0.4-2.5c0-1.8,0.4-3.3,1.3-4.4c0.8-1.1,1.9-1.7,3.3-1.7c1.3,0,2.3,0.5,3.2,1.6
	C193.2,104.1,193.6,105.5,193.6,107.3z"/>
<path class="st1" d="M191.7,107.3c0-0.6,0-1.2-0.1-1.9c-0.1-0.6-0.2-1.2-0.4-1.7c-0.2-0.5-0.5-0.9-0.8-1.2c-0.3-0.3-0.7-0.4-1.2-0.4
	s-0.9,0.1-1.2,0.4c-0.3,0.3-0.6,0.7-0.8,1.2c-0.2,0.5-0.3,1-0.4,1.6s-0.1,1.2-0.1,1.8c0,0.7,0,1.4,0.1,2.1c0.1,0.6,0.2,1.2,0.5,1.7
	c0.2,0.5,0.5,0.9,0.8,1.2c0.3,0.3,0.7,0.4,1.2,0.4c0.8,0,1.4-0.5,1.8-1.4C191.4,110.3,191.7,109,191.7,107.3z M193.6,107.3
	c0,0.8-0.1,1.6-0.3,2.4c-0.2,0.8-0.5,1.4-0.9,2s-0.9,1.1-1.5,1.4s-1.2,0.5-1.9,0.5c-0.6,0-1.1-0.1-1.7-0.4c-0.5-0.3-1-0.7-1.4-1.2
	s-0.7-1.2-1-1.9c-0.2-0.7-0.4-1.6-0.4-2.5c0-1.8,0.4-3.3,1.3-4.4c0.8-1.1,1.9-1.7,3.3-1.7c1.3,0,2.3,0.5,3.2,1.6
	C193.2,104.1,193.6,105.5,193.6,107.3z"/>
<path class="st0" d="M206.5,113.2H202v-0.8c0.1,0,0.3,0,0.5,0s0.3,0,0.4-0.1c0.2-0.1,0.3-0.2,0.4-0.4c0.1-0.2,0.1-0.4,0.1-0.7v-5.9
	c0-0.8-0.2-1.4-0.5-1.9c-0.3-0.4-0.7-0.7-1.1-0.7c-0.3,0-0.6,0.1-0.9,0.2s-0.5,0.3-0.7,0.5s-0.4,0.4-0.5,0.6s-0.2,0.4-0.3,0.5v6.6
	c0,0.3,0,0.5,0.1,0.6c0.1,0.2,0.2,0.3,0.4,0.4c0.1,0.1,0.3,0.1,0.4,0.2c0.2,0,0.3,0.1,0.5,0.1v0.8h-4.6v-0.8c0.1,0,0.3,0,0.4,0
	c0.2,0,0.3,0,0.4-0.1c0.2-0.1,0.3-0.2,0.4-0.4c0.1-0.2,0.1-0.4,0.1-0.7v-7.1c0-0.3,0-0.5-0.1-0.7s-0.2-0.4-0.4-0.5
	c-0.1-0.1-0.3-0.2-0.4-0.2c-0.2,0-0.3-0.1-0.5-0.1v-0.8l3.1-0.2l0.1,0.2v1.6l0,0c0.1-0.2,0.3-0.4,0.6-0.7c0.2-0.3,0.4-0.5,0.6-0.6
	c0.2-0.2,0.5-0.3,0.8-0.5c0.3-0.1,0.7-0.2,1.1-0.2c0.9,0,1.5,0.3,1.9,1s0.6,1.6,0.6,2.7v6c0,0.3,0,0.5,0.1,0.7s0.2,0.3,0.4,0.4
	c0.2,0.1,0.3,0.1,0.4,0.2c0.1,0,0.3,0.1,0.5,0.1v0.7H206.5z"/>
<path class="st1" d="M206.5,113.2H202v-0.8c0.1,0,0.3,0,0.5,0s0.3,0,0.4-0.1c0.2-0.1,0.3-0.2,0.4-0.4c0.1-0.2,0.1-0.4,0.1-0.7v-5.9
	c0-0.8-0.2-1.4-0.5-1.9c-0.3-0.4-0.7-0.7-1.1-0.7c-0.3,0-0.6,0.1-0.9,0.2s-0.5,0.3-0.7,0.5s-0.4,0.4-0.5,0.6s-0.2,0.4-0.3,0.5v6.6
	c0,0.3,0,0.5,0.1,0.6c0.1,0.2,0.2,0.3,0.4,0.4c0.1,0.1,0.3,0.1,0.4,0.2c0.2,0,0.3,0.1,0.5,0.1v0.8h-4.6v-0.8c0.1,0,0.3,0,0.4,0
	c0.2,0,0.3,0,0.4-0.1c0.2-0.1,0.3-0.2,0.4-0.4c0.1-0.2,0.1-0.4,0.1-0.7v-7.1c0-0.3,0-0.5-0.1-0.7s-0.2-0.4-0.4-0.5
	c-0.1-0.1-0.3-0.2-0.4-0.2c-0.2,0-0.3-0.1-0.5-0.1v-0.8l3.1-0.2l0.1,0.2v1.6l0,0c0.1-0.2,0.3-0.4,0.6-0.7c0.2-0.3,0.4-0.5,0.6-0.6
	c0.2-0.2,0.5-0.3,0.8-0.5c0.3-0.1,0.7-0.2,1.1-0.2c0.9,0,1.5,0.3,1.9,1s0.6,1.6,0.6,2.7v6c0,0.3,0,0.5,0.1,0.7s0.2,0.3,0.4,0.4
	c0.2,0.1,0.3,0.1,0.4,0.2c0.1,0,0.3,0.1,0.5,0.1v0.7H206.5z"/>
<path class="st0" d="M222.1,107.3c0-0.6,0-1.2-0.1-1.9c-0.1-0.6-0.2-1.2-0.4-1.7c-0.2-0.5-0.5-0.9-0.8-1.2c-0.3-0.3-0.7-0.4-1.2-0.4
	s-0.9,0.1-1.2,0.4c-0.3,0.3-0.6,0.7-0.8,1.2c-0.2,0.5-0.3,1-0.4,1.6s-0.1,1.2-0.1,1.8c0,0.7,0,1.4,0.1,2.1c0.1,0.6,0.3,1.2,0.5,1.7
	s0.5,0.9,0.8,1.2c0.3,0.3,0.7,0.4,1.2,0.4c0.8,0,1.4-0.5,1.8-1.4C221.9,110.3,222.1,109,222.1,107.3z M224,107.3
	c0,0.8-0.1,1.6-0.3,2.4c-0.2,0.8-0.5,1.4-0.9,2s-0.9,1.1-1.5,1.4s-1.2,0.5-1.9,0.5c-0.6,0-1.1-0.1-1.7-0.4c-0.5-0.3-1-0.7-1.4-1.2
	s-0.7-1.2-1-1.9c-0.2-0.7-0.4-1.6-0.4-2.5c0-1.8,0.4-3.3,1.3-4.4c0.8-1.1,1.9-1.7,3.3-1.7c1.3,0,2.3,0.5,3.2,1.6
	C223.6,104.1,224,105.5,224,107.3z"/>
<path class="st1" d="M222.1,107.3c0-0.6,0-1.2-0.1-1.9c-0.1-0.6-0.2-1.2-0.4-1.7c-0.2-0.5-0.5-0.9-0.8-1.2c-0.3-0.3-0.7-0.4-1.2-0.4
	s-0.9,0.1-1.2,0.4c-0.3,0.3-0.6,0.7-0.8,1.2c-0.2,0.5-0.3,1-0.4,1.6s-0.1,1.2-0.1,1.8c0,0.7,0,1.4,0.1,2.1c0.1,0.6,0.3,1.2,0.5,1.7
	s0.5,0.9,0.8,1.2c0.3,0.3,0.7,0.4,1.2,0.4c0.8,0,1.4-0.5,1.8-1.4C221.9,110.3,222.1,109,222.1,107.3z M224,107.3
	c0,0.8-0.1,1.6-0.3,2.4c-0.2,0.8-0.5,1.4-0.9,2s-0.9,1.1-1.5,1.4s-1.2,0.5-1.9,0.5c-0.6,0-1.1-0.1-1.7-0.4c-0.5-0.3-1-0.7-1.4-1.2
	s-0.7-1.2-1-1.9c-0.2-0.7-0.4-1.6-0.4-2.5c0-1.8,0.4-3.3,1.3-4.4c0.8-1.1,1.9-1.7,3.3-1.7c1.3,0,2.3,0.5,3.2,1.6
	C223.6,104.1,224,105.5,224,107.3z"/>
<path class="st0" d="M233.6,96.6c0,0.3-0.1,0.6-0.2,0.9c-0.1,0.2-0.4,0.4-0.7,0.4c-0.2,0-0.4-0.1-0.5-0.1c-0.1-0.1-0.3-0.2-0.4-0.4
	c-0.1-0.2-0.2-0.4-0.3-0.6c-0.1-0.2-0.2-0.4-0.3-0.5c-0.4,0-0.7,0.4-1,1.1c-0.2,0.7-0.3,1.8-0.3,3.3v1.2h2.4v1.1h-2.4v8.2
	c0,0.3,0,0.5,0.1,0.7s0.2,0.3,0.4,0.4c0.1,0.1,0.3,0.1,0.6,0.2c0.2,0,0.5,0.1,0.6,0.1v0.8h-4.9v-0.8c0.1,0,0.3,0,0.4,0
	c0.2,0,0.3,0,0.4-0.1c0.2-0.1,0.3-0.2,0.4-0.4c0.1-0.2,0.1-0.4,0.1-0.7v-8.5h-1.8v-1.1h1.8v-0.7c0-1.7,0.4-3.2,1.1-4.2
	c0.7-1.1,1.6-1.6,2.7-1.6c0.6,0,1,0.1,1.3,0.4C233.5,95.8,233.6,96.2,233.6,96.6z"/>
<path class="st1" d="M233.6,96.6c0,0.3-0.1,0.6-0.2,0.9c-0.1,0.2-0.4,0.4-0.7,0.4c-0.2,0-0.4-0.1-0.5-0.1c-0.1-0.1-0.3-0.2-0.4-0.4
	c-0.1-0.2-0.2-0.4-0.3-0.6c-0.1-0.2-0.2-0.4-0.3-0.5c-0.4,0-0.7,0.4-1,1.1c-0.2,0.7-0.3,1.8-0.3,3.3v1.2h2.4v1.1h-2.4v8.2
	c0,0.3,0,0.5,0.1,0.7s0.2,0.3,0.4,0.4c0.1,0.1,0.3,0.1,0.6,0.2c0.2,0,0.5,0.1,0.6,0.1v0.8h-4.9v-0.8c0.1,0,0.3,0,0.4,0
	c0.2,0,0.3,0,0.4-0.1c0.2-0.1,0.3-0.2,0.4-0.4c0.1-0.2,0.1-0.4,0.1-0.7v-8.5h-1.8v-1.1h1.8v-0.7c0-1.7,0.4-3.2,1.1-4.2
	c0.7-1.1,1.6-1.6,2.7-1.6c0.6,0,1,0.1,1.3,0.4C233.5,95.8,233.6,96.2,233.6,96.6z"/>
<path class="st0" d="M247.7,106.4l-2-6.4l-2,6.4H247.7z M253,113.2h-5.5v-0.8c0.5,0,0.9-0.1,1.2-0.2c0.3-0.1,0.5-0.3,0.5-0.4
	s0-0.2,0-0.3c0-0.1,0-0.2-0.1-0.3l-1.1-3.7h-4.6c-0.2,0.5-0.3,1-0.4,1.4s-0.2,0.8-0.3,1.1c-0.1,0.3-0.1,0.6-0.2,0.8
	c0,0.2,0,0.4,0,0.5c0,0.3,0.2,0.5,0.6,0.7s0.8,0.3,1.3,0.3v0.8h-4.9v-0.8c0.2,0,0.4-0.1,0.6-0.1c0.2-0.1,0.4-0.2,0.6-0.3
	c0.2-0.2,0.4-0.4,0.6-0.7c0.1-0.2,0.3-0.5,0.4-0.9c0.7-2.1,1.4-4.4,2.2-7c0.8-2.6,1.5-4.9,2.1-6.9h0.7l4.4,14.2
	c0.1,0.3,0.2,0.5,0.3,0.7c0.1,0.2,0.3,0.4,0.5,0.5c0.1,0.1,0.3,0.2,0.6,0.3c0.2,0.1,0.4,0.1,0.6,0.1v1H253z"/>
<path class="st1" d="M247.7,106.4l-2-6.4l-2,6.4H247.7z M253,113.2h-5.5v-0.8c0.5,0,0.9-0.1,1.2-0.2c0.3-0.1,0.5-0.3,0.5-0.4
	s0-0.2,0-0.3c0-0.1,0-0.2-0.1-0.3l-1.1-3.7h-4.6c-0.2,0.5-0.3,1-0.4,1.4s-0.2,0.8-0.3,1.1c-0.1,0.3-0.1,0.6-0.2,0.8
	c0,0.2,0,0.4,0,0.5c0,0.3,0.2,0.5,0.6,0.7s0.8,0.3,1.3,0.3v0.8h-4.9v-0.8c0.2,0,0.4-0.1,0.6-0.1c0.2-0.1,0.4-0.2,0.6-0.3
	c0.2-0.2,0.4-0.4,0.6-0.7c0.1-0.2,0.3-0.5,0.4-0.9c0.7-2.1,1.4-4.4,2.2-7c0.8-2.6,1.5-4.9,2.1-6.9h0.7l4.4,14.2
	c0.1,0.3,0.2,0.5,0.3,0.7c0.1,0.2,0.3,0.4,0.5,0.5c0.1,0.1,0.3,0.2,0.6,0.3c0.2,0.1,0.4,0.1,0.6,0.1v1H253z"/>
<path class="st0" d="M270.3,113.2h-4.5v-0.8c0.2,0,0.3,0,0.4,0s0.3,0,0.4-0.1c0.2-0.1,0.3-0.2,0.4-0.4c0.1-0.2,0.1-0.4,0.1-0.7v-5.9
	c0-0.8-0.1-1.4-0.4-1.9c-0.3-0.4-0.7-0.7-1.1-0.7c-0.3,0-0.6,0.1-0.9,0.2s-0.5,0.3-0.7,0.5s-0.3,0.4-0.4,0.6s-0.2,0.4-0.3,0.5v6.6
	c0,0.3,0,0.5,0.1,0.7s0.2,0.3,0.4,0.4c0.2,0.1,0.3,0.1,0.4,0.2c0.1,0,0.3,0.1,0.5,0.1v0.8h-4.4v-0.8c0.1,0,0.3,0,0.4,0
	s0.3,0,0.4-0.1c0.2-0.1,0.3-0.2,0.4-0.4c0.1-0.2,0.1-0.4,0.1-0.7v-5.9c0-0.8-0.1-1.4-0.4-1.9c-0.3-0.4-0.7-0.7-1.1-0.7
	c-0.3,0-0.6,0.1-0.9,0.2s-0.5,0.3-0.7,0.5s-0.3,0.4-0.5,0.6c-0.1,0.2-0.2,0.4-0.3,0.5v6.6c0,0.3,0,0.5,0.1,0.7s0.2,0.3,0.4,0.4
	c0.1,0.1,0.3,0.1,0.4,0.2c0.1,0,0.3,0.1,0.5,0.1v0.8h-4.5v-0.8c0.1,0,0.3,0,0.4,0c0.2,0,0.3,0,0.4-0.1c0.2-0.1,0.3-0.2,0.4-0.4
	c0.1-0.2,0.1-0.4,0.1-0.7v-7.1c0-0.2,0-0.5-0.1-0.7s-0.2-0.4-0.4-0.5c-0.1-0.1-0.3-0.2-0.4-0.2c-0.2-0.1-0.3-0.1-0.5-0.1V102l3-0.2
	l0.1,0.2v1.6h0.1c0.2-0.2,0.3-0.4,0.6-0.7c0.2-0.3,0.4-0.5,0.6-0.6c0.2-0.2,0.5-0.3,0.8-0.5c0.3-0.1,0.7-0.2,1.1-0.2
	c0.6,0,1.1,0.2,1.5,0.6s0.7,0.9,0.9,1.4c0.2-0.3,0.4-0.5,0.6-0.7s0.4-0.4,0.7-0.7c0.2-0.2,0.5-0.4,0.8-0.5s0.7-0.2,1.1-0.2
	c0.8,0,1.4,0.3,1.8,1c0.5,0.6,0.7,1.6,0.7,2.9v5.8c0,0.3,0,0.5,0.1,0.7s0.2,0.3,0.4,0.4c0.1,0.1,0.3,0.1,0.4,0.2
	c0.1,0,0.3,0.1,0.5,0.1V113.2z"/>
<path class="st1" d="M270.3,113.2h-4.5v-0.8c0.2,0,0.3,0,0.4,0s0.3,0,0.4-0.1c0.2-0.1,0.3-0.2,0.4-0.4c0.1-0.2,0.1-0.4,0.1-0.7v-5.9
	c0-0.8-0.1-1.4-0.4-1.9c-0.3-0.4-0.7-0.7-1.1-0.7c-0.3,0-0.6,0.1-0.9,0.2s-0.5,0.3-0.7,0.5s-0.3,0.4-0.4,0.6s-0.2,0.4-0.3,0.5v6.6
	c0,0.3,0,0.5,0.1,0.7s0.2,0.3,0.4,0.4c0.2,0.1,0.3,0.1,0.4,0.2c0.1,0,0.3,0.1,0.5,0.1v0.8h-4.4v-0.8c0.1,0,0.3,0,0.4,0
	s0.3,0,0.4-0.1c0.2-0.1,0.3-0.2,0.4-0.4c0.1-0.2,0.1-0.4,0.1-0.7v-5.9c0-0.8-0.1-1.4-0.4-1.9c-0.3-0.4-0.7-0.7-1.1-0.7
	c-0.3,0-0.6,0.1-0.9,0.2s-0.5,0.3-0.7,0.5s-0.3,0.4-0.5,0.6c-0.1,0.2-0.2,0.4-0.3,0.5v6.6c0,0.3,0,0.5,0.1,0.7s0.2,0.3,0.4,0.4
	c0.1,0.1,0.3,0.1,0.4,0.2c0.1,0,0.3,0.1,0.5,0.1v0.8h-4.5v-0.8c0.1,0,0.3,0,0.4,0c0.2,0,0.3,0,0.4-0.1c0.2-0.1,0.3-0.2,0.4-0.4
	c0.1-0.2,0.1-0.4,0.1-0.7v-7.1c0-0.2,0-0.5-0.1-0.7s-0.2-0.4-0.4-0.5c-0.1-0.1-0.3-0.2-0.4-0.2c-0.2-0.1-0.3-0.1-0.5-0.1V102l3-0.2
	l0.1,0.2v1.6h0.1c0.2-0.2,0.3-0.4,0.6-0.7c0.2-0.3,0.4-0.5,0.6-0.6c0.2-0.2,0.5-0.3,0.8-0.5c0.3-0.1,0.7-0.2,1.1-0.2
	c0.6,0,1.1,0.2,1.5,0.6s0.7,0.9,0.9,1.4c0.2-0.3,0.4-0.5,0.6-0.7s0.4-0.4,0.7-0.7c0.2-0.2,0.5-0.4,0.8-0.5s0.7-0.2,1.1-0.2
	c0.8,0,1.4,0.3,1.8,1c0.5,0.6,0.7,1.6,0.7,2.9v5.8c0,0.3,0,0.5,0.1,0.7s0.2,0.3,0.4,0.4c0.1,0.1,0.3,0.1,0.4,0.2
	c0.1,0,0.3,0.1,0.5,0.1V113.2z"/>
<path class="st0" d="M279,106.1c0-0.4,0-0.9-0.1-1.4s-0.2-0.9-0.3-1.2c-0.1-0.4-0.3-0.6-0.6-0.9c-0.3-0.2-0.6-0.3-1-0.3
	c-0.6,0-1.2,0.3-1.6,1s-0.7,1.6-0.7,2.8H279z M281,110.5c-0.4,0.9-0.9,1.6-1.5,2.2c-0.6,0.5-1.4,0.8-2.2,0.8c-0.7,0-1.4-0.2-1.9-0.5
	c-0.6-0.3-1-0.8-1.4-1.3c-0.4-0.6-0.6-1.2-0.8-2c-0.2-0.7-0.3-1.5-0.3-2.4c0-0.7,0.1-1.5,0.3-2.2c0.2-0.7,0.5-1.4,0.8-1.9
	c0.4-0.6,0.8-1,1.3-1.3s1.1-0.5,1.8-0.5c0.7,0,1.2,0.1,1.7,0.4s0.9,0.6,1.2,1.1c0.3,0.4,0.5,0.9,0.6,1.5s0.2,1.2,0.2,1.9v0.8h-6.1
	c0,0.8,0.1,1.4,0.2,2.1c0.1,0.6,0.3,1.2,0.5,1.6c0.2,0.5,0.6,0.8,0.9,1.1c0.4,0.3,0.9,0.4,1.4,0.4c0.6,0,1-0.2,1.4-0.5
	s0.8-0.9,1.2-1.8L281,110.5z"/>
<path class="st1" d="M279,106.1c0-0.4,0-0.9-0.1-1.4s-0.2-0.9-0.3-1.2c-0.1-0.4-0.3-0.6-0.6-0.9c-0.3-0.2-0.6-0.3-1-0.3
	c-0.6,0-1.2,0.3-1.6,1s-0.7,1.6-0.7,2.8H279z M281,110.5c-0.4,0.9-0.9,1.6-1.5,2.2c-0.6,0.5-1.4,0.8-2.2,0.8c-0.7,0-1.4-0.2-1.9-0.5
	c-0.6-0.3-1-0.8-1.4-1.3c-0.4-0.6-0.6-1.2-0.8-2c-0.2-0.7-0.3-1.5-0.3-2.4c0-0.7,0.1-1.5,0.3-2.2c0.2-0.7,0.5-1.4,0.8-1.9
	c0.4-0.6,0.8-1,1.3-1.3s1.1-0.5,1.8-0.5c0.7,0,1.2,0.1,1.7,0.4s0.9,0.6,1.2,1.1c0.3,0.4,0.5,0.9,0.6,1.5s0.2,1.2,0.2,1.9v0.8h-6.1
	c0,0.8,0.1,1.4,0.2,2.1c0.1,0.6,0.3,1.2,0.5,1.6c0.2,0.5,0.6,0.8,0.9,1.1c0.4,0.3,0.9,0.4,1.4,0.4c0.6,0,1-0.2,1.4-0.5
	s0.8-0.9,1.2-1.8L281,110.5z"/>
<path class="st0" d="M290.6,103.2c0,0.4-0.1,0.7-0.2,1.1c-0.2,0.3-0.4,0.5-0.7,0.5c-0.3,0-0.6-0.1-0.8-0.3c-0.2-0.2-0.3-0.5-0.3-0.8
	c0-0.2,0-0.3,0-0.5c0-0.1,0-0.3,0.1-0.4c-0.3,0-0.6,0.2-1,0.5s-0.7,0.7-1,1.3v6.7c0,0.3,0,0.5,0.1,0.7s0.2,0.3,0.4,0.4
	c0.2,0.1,0.4,0.1,0.6,0.2c0.2,0,0.5,0.1,0.6,0.1v0.8h-4.9v-0.8c0.1,0,0.3,0,0.4,0c0.2,0,0.3,0,0.4-0.1c0.2-0.1,0.3-0.2,0.4-0.4
	c0.1-0.2,0.1-0.4,0.1-0.7v-7.1c0-0.2,0-0.5-0.1-0.7s-0.2-0.4-0.4-0.6c-0.1-0.1-0.3-0.2-0.4-0.2c-0.2,0-0.3-0.1-0.5-0.1V102l3.1-0.2
	l0.1,0.2v1.6l0,0c0.4-0.6,0.8-1.1,1.3-1.4s0.9-0.5,1.3-0.5s0.7,0.2,1,0.5C290.4,102.2,290.6,102.7,290.6,103.2z"/>
<path class="st1" d="M290.6,103.2c0,0.4-0.1,0.7-0.2,1.1c-0.2,0.3-0.4,0.5-0.7,0.5c-0.3,0-0.6-0.1-0.8-0.3c-0.2-0.2-0.3-0.5-0.3-0.8
	c0-0.2,0-0.3,0-0.5c0-0.1,0-0.3,0.1-0.4c-0.3,0-0.6,0.2-1,0.5s-0.7,0.7-1,1.3v6.7c0,0.3,0,0.5,0.1,0.7s0.2,0.3,0.4,0.4
	c0.2,0.1,0.4,0.1,0.6,0.2c0.2,0,0.5,0.1,0.6,0.1v0.8h-4.9v-0.8c0.1,0,0.3,0,0.4,0c0.2,0,0.3,0,0.4-0.1c0.2-0.1,0.3-0.2,0.4-0.4
	c0.1-0.2,0.1-0.4,0.1-0.7v-7.1c0-0.2,0-0.5-0.1-0.7s-0.2-0.4-0.4-0.6c-0.1-0.1-0.3-0.2-0.4-0.2c-0.2,0-0.3-0.1-0.5-0.1V102l3.1-0.2
	l0.1,0.2v1.6l0,0c0.4-0.6,0.8-1.1,1.3-1.4s0.9-0.5,1.3-0.5s0.7,0.2,1,0.5C290.4,102.2,290.6,102.7,290.6,103.2z"/>
<path class="st0" d="M296,97c0,0.4-0.1,0.8-0.3,1.2c-0.2,0.3-0.5,0.5-0.9,0.5c-0.3,0-0.6-0.2-0.8-0.5c-0.2-0.3-0.4-0.7-0.4-1.1
	s0.1-0.8,0.4-1.1c0.2-0.3,0.5-0.5,0.8-0.5c0.4,0,0.7,0.2,0.9,0.4C295.9,96.3,296,96.6,296,97z M297.2,113.2h-4.5v-0.8
	c0.1,0,0.3,0,0.4,0c0.2,0,0.3,0,0.4-0.1c0.2-0.1,0.3-0.2,0.4-0.4c0.1-0.2,0.1-0.4,0.1-0.7v-7.1c0-0.2,0-0.5-0.1-0.7
	s-0.2-0.4-0.4-0.5c-0.1-0.1-0.3-0.2-0.5-0.2c-0.2-0.1-0.4-0.1-0.6-0.1v-0.8l3.2-0.2l0.1,0.2v9.3c0,0.3,0,0.5,0.1,0.7
	s0.2,0.3,0.4,0.4c0.1,0.1,0.3,0.1,0.4,0.2c0.1,0,0.3,0.1,0.4,0.1v0.7H297.2z"/>
<path class="st1" d="M296,97c0,0.4-0.1,0.8-0.3,1.2c-0.2,0.3-0.5,0.5-0.9,0.5c-0.3,0-0.6-0.2-0.8-0.5c-0.2-0.3-0.4-0.7-0.4-1.1
	s0.1-0.8,0.4-1.1c0.2-0.3,0.5-0.5,0.8-0.5c0.4,0,0.7,0.2,0.9,0.4C295.9,96.3,296,96.6,296,97z M297.2,113.2h-4.5v-0.8
	c0.1,0,0.3,0,0.4,0c0.2,0,0.3,0,0.4-0.1c0.2-0.1,0.3-0.2,0.4-0.4c0.1-0.2,0.1-0.4,0.1-0.7v-7.1c0-0.2,0-0.5-0.1-0.7
	s-0.2-0.4-0.4-0.5c-0.1-0.1-0.3-0.2-0.5-0.2c-0.2-0.1-0.4-0.1-0.6-0.1v-0.8l3.2-0.2l0.1,0.2v9.3c0,0.3,0,0.5,0.1,0.7
	s0.2,0.3,0.4,0.4c0.1,0.1,0.3,0.1,0.4,0.2c0.1,0,0.3,0.1,0.4,0.1v0.7H297.2z"/>
<path class="st0" d="M304,113.5c-1.3,0-2.4-0.6-3.1-1.7c-0.8-1.1-1.1-2.6-1.1-4.4c0-0.8,0.1-1.6,0.3-2.3c0.2-0.7,0.5-1.3,0.9-1.9
	s0.8-1,1.4-1.3s1.2-0.5,1.8-0.5c0.9,0,1.6,0.3,2.2,0.8s0.8,1.3,0.8,2.2c0,0.4-0.1,0.7-0.2,1c-0.2,0.3-0.4,0.4-0.7,0.4
	c-0.4,0-0.6-0.1-0.8-0.3c-0.2-0.2-0.3-0.5-0.3-0.8s0-0.7,0.1-1.1s0.1-0.6,0.1-0.8c-0.1-0.2-0.3-0.4-0.5-0.5s-0.5-0.1-0.7-0.1
	c-0.3,0-0.6,0.1-0.9,0.2c-0.3,0.2-0.5,0.5-0.8,0.9c-0.2,0.4-0.4,0.9-0.6,1.6c-0.1,0.7-0.2,1.5-0.2,2.4c0,1.4,0.3,2.6,0.8,3.5
	s1.2,1.4,2,1.4c0.6,0,1.1-0.2,1.5-0.6s0.8-0.9,1.1-1.7l0.6,0.5c-0.4,0.9-0.9,1.6-1.6,2.2C305.4,113.2,304.7,113.5,304,113.5z"/>
<path class="st1" d="M304,113.5c-1.3,0-2.4-0.6-3.1-1.7c-0.8-1.1-1.1-2.6-1.1-4.4c0-0.8,0.1-1.6,0.3-2.3c0.2-0.7,0.5-1.3,0.9-1.9
	s0.8-1,1.4-1.3s1.2-0.5,1.8-0.5c0.9,0,1.6,0.3,2.2,0.8s0.8,1.3,0.8,2.2c0,0.4-0.1,0.7-0.2,1c-0.2,0.3-0.4,0.4-0.7,0.4
	c-0.4,0-0.6-0.1-0.8-0.3c-0.2-0.2-0.3-0.5-0.3-0.8s0-0.7,0.1-1.1s0.1-0.6,0.1-0.8c-0.1-0.2-0.3-0.4-0.5-0.5s-0.5-0.1-0.7-0.1
	c-0.3,0-0.6,0.1-0.9,0.2c-0.3,0.2-0.5,0.5-0.8,0.9c-0.2,0.4-0.4,0.9-0.6,1.6c-0.1,0.7-0.2,1.5-0.2,2.4c0,1.4,0.3,2.6,0.8,3.5
	s1.2,1.4,2,1.4c0.6,0,1.1-0.2,1.5-0.6s0.8-0.9,1.1-1.7l0.6,0.5c-0.4,0.9-0.9,1.6-1.6,2.2C305.4,113.2,304.7,113.5,304,113.5z"/>
<path class="st0" d="M315.3,106.8c-0.5,0.2-1,0.4-1.4,0.6s-0.8,0.4-1.1,0.7c-0.3,0.3-0.6,0.6-0.7,0.9c-0.2,0.4-0.3,0.8-0.3,1.3
	c0,0.6,0.1,1.1,0.4,1.4s0.6,0.5,1,0.5s0.8-0.1,1.2-0.4c0.3-0.3,0.6-0.6,0.8-1L315.3,106.8z M318.5,113c-0.3,0.1-0.5,0.2-0.8,0.3
	c-0.2,0.1-0.5,0.1-0.8,0.1c-0.5,0-0.9-0.1-1.2-0.4c-0.3-0.3-0.5-0.7-0.5-1.2h-0.1c-0.4,0.6-0.8,1-1.3,1.3s-1,0.4-1.7,0.4
	s-1.2-0.3-1.7-0.8c-0.4-0.5-0.7-1.2-0.7-2.1c0-0.4,0.1-0.8,0.2-1.2c0.1-0.4,0.3-0.7,0.5-0.9c0.2-0.2,0.4-0.4,0.6-0.6
	c0.3-0.2,0.5-0.3,0.7-0.4c0.3-0.1,0.8-0.4,1.7-0.7c0.8-0.4,1.4-0.6,1.7-0.8v-1.1c0-0.1,0-0.3,0-0.6c0-0.3-0.1-0.6-0.2-0.8
	c-0.1-0.3-0.3-0.5-0.5-0.7s-0.5-0.3-1-0.3c-0.3,0-0.5,0.1-0.8,0.2c-0.2,0.1-0.4,0.2-0.5,0.4c0,0.2,0,0.4,0.1,0.7
	c0.1,0.3,0.1,0.6,0.1,0.8c0,0.3-0.1,0.5-0.3,0.7c-0.2,0.2-0.5,0.3-0.8,0.3s-0.5-0.1-0.7-0.4c-0.1-0.3-0.2-0.6-0.2-0.9
	c0-0.4,0.1-0.7,0.3-1c0.2-0.3,0.5-0.6,0.8-0.9c0.3-0.2,0.6-0.4,1-0.6s0.8-0.2,1.2-0.2c0.5,0,1,0,1.4,0.1s0.7,0.3,1.1,0.6
	c0.3,0.3,0.5,0.7,0.7,1.2s0.3,1.1,0.3,1.9c0,1.1,0,2.1,0,3s0,1.8,0,2.8c0,0.3,0,0.5,0.1,0.7s0.2,0.3,0.4,0.5
	c0.1,0.1,0.2,0.1,0.4,0.1c0.2,0,0.4,0,0.6,0v0.5H318.5z"/>
<path class="st1" d="M315.3,106.8c-0.5,0.2-1,0.4-1.4,0.6s-0.8,0.4-1.1,0.7c-0.3,0.3-0.6,0.6-0.7,0.9c-0.2,0.4-0.3,0.8-0.3,1.3
	c0,0.6,0.1,1.1,0.4,1.4s0.6,0.5,1,0.5s0.8-0.1,1.2-0.4c0.3-0.3,0.6-0.6,0.8-1L315.3,106.8z M318.5,113c-0.3,0.1-0.5,0.2-0.8,0.3
	c-0.2,0.1-0.5,0.1-0.8,0.1c-0.5,0-0.9-0.1-1.2-0.4c-0.3-0.3-0.5-0.7-0.5-1.2h-0.1c-0.4,0.6-0.8,1-1.3,1.3s-1,0.4-1.7,0.4
	s-1.2-0.3-1.7-0.8c-0.4-0.5-0.7-1.2-0.7-2.1c0-0.4,0.1-0.8,0.2-1.2c0.1-0.4,0.3-0.7,0.5-0.9c0.2-0.2,0.4-0.4,0.6-0.6
	c0.3-0.2,0.5-0.3,0.7-0.4c0.3-0.1,0.8-0.4,1.7-0.7c0.8-0.4,1.4-0.6,1.7-0.8v-1.1c0-0.1,0-0.3,0-0.6c0-0.3-0.1-0.6-0.2-0.8
	c-0.1-0.3-0.3-0.5-0.5-0.7s-0.5-0.3-1-0.3c-0.3,0-0.5,0.1-0.8,0.2c-0.2,0.1-0.4,0.2-0.5,0.4c0,0.2,0,0.4,0.1,0.7
	c0.1,0.3,0.1,0.6,0.1,0.8c0,0.3-0.1,0.5-0.3,0.7c-0.2,0.2-0.5,0.3-0.8,0.3s-0.5-0.1-0.7-0.4c-0.1-0.3-0.2-0.6-0.2-0.9
	c0-0.4,0.1-0.7,0.3-1c0.2-0.3,0.5-0.6,0.8-0.9c0.3-0.2,0.6-0.4,1-0.6s0.8-0.2,1.2-0.2c0.5,0,1,0,1.4,0.1s0.7,0.3,1.1,0.6
	c0.3,0.3,0.5,0.7,0.7,1.2s0.3,1.1,0.3,1.9c0,1.1,0,2.1,0,3s0,1.8,0,2.8c0,0.3,0,0.5,0.1,0.7s0.2,0.3,0.4,0.5
	c0.1,0.1,0.2,0.1,0.4,0.1c0.2,0,0.4,0,0.6,0v0.5H318.5z"/>
<g>
	<rect x="1" y="77.3" class="st2" width="317.7" height="2.5"/>
</g>
<path class="st0" d="M321.7,98.7c0.1,0.1,0.2,0.2,0.2,0.4c0,0.1,0.1,0.3,0.1,0.5c0,0.4-0.2,0.8-0.5,1c-0.3,0.3-0.7,0.4-1.1,0.4
	c-0.2,0-0.4,0-0.6-0.1s-0.4-0.1-0.5-0.2l-0.1,0.2h-0.3v-1.6h0.3c0.1,0.2,0.1,0.4,0.2,0.5c0.1,0.2,0.2,0.3,0.3,0.4
	c0.1,0.1,0.3,0.2,0.4,0.3c0.2,0.1,0.3,0.1,0.5,0.1s0.3,0,0.4-0.1c0.1,0,0.2-0.1,0.3-0.2c0.1-0.1,0.1-0.2,0.2-0.3
	c0-0.1,0.1-0.2,0.1-0.3c0-0.2-0.1-0.4-0.2-0.5c-0.1-0.2-0.3-0.3-0.5-0.4c-0.1-0.1-0.3-0.1-0.5-0.2s-0.3-0.1-0.5-0.2
	c-0.3-0.1-0.5-0.3-0.6-0.5s-0.2-0.4-0.2-0.8c0-0.2,0-0.3,0.1-0.5s0.2-0.3,0.3-0.4c0.1-0.1,0.3-0.2,0.5-0.3c0.2-0.1,0.4-0.1,0.5-0.1
	c0.2,0,0.4,0,0.6,0.1s0.3,0.2,0.5,0.2l0.1-0.2h0.3v1.6h-0.3c0-0.2-0.1-0.4-0.2-0.5c-0.1-0.2-0.1-0.3-0.2-0.4s-0.2-0.2-0.3-0.3
	c-0.1-0.1-0.3-0.1-0.5-0.1s-0.4,0.1-0.5,0.2s-0.2,0.3-0.2,0.5s0,0.4,0.1,0.5s0.2,0.2,0.4,0.3c0.2,0.1,0.3,0.1,0.5,0.2
	s0.3,0.1,0.5,0.2c0.1,0.1,0.3,0.1,0.4,0.2C321.5,98.5,321.6,98.6,321.7,98.7"/>
<path class="st0" d="M328.5,100.9h-2.1v-0.2c0.1,0,0.2,0,0.3,0c0.1,0,0.2,0,0.2-0.1c0.1,0,0.1-0.1,0.2-0.1c0-0.1,0-0.1,0-0.2v-3.4
	l0,0l-1.6,4h-0.2l-1.5-4.1l0,0v2.8c0,0.3,0,0.5,0.1,0.6c0,0.1,0.1,0.2,0.2,0.3c0,0,0.2,0.1,0.3,0.1c0.2,0,0.3,0.1,0.3,0.1v0.2h-1.9
	v-0.2c0.1,0,0.2,0,0.3-0.1c0.1,0,0.2-0.1,0.3-0.1c0.1-0.1,0.1-0.2,0.2-0.3c0-0.1,0-0.3,0-0.6v-2.4c0-0.1,0-0.3,0-0.3
	c0-0.1-0.1-0.2-0.1-0.2c-0.1-0.1-0.2-0.1-0.3-0.1c-0.1,0-0.2,0-0.3,0v-0.2h1.6l1.4,3.6l1.2-3c0-0.1,0.1-0.2,0.1-0.3
	c0-0.1,0-0.2,0-0.2h1.5v0.2c-0.1,0-0.1,0-0.2,0s-0.2,0-0.2,0.1c-0.1,0-0.1,0.1-0.2,0.1c0,0.1,0,0.1,0,0.2v3.4c0,0.1,0,0.1,0,0.2
	s0.1,0.1,0.2,0.1C328.3,100.8,328.4,100.8,328.5,100.9c0.1,0,0.2,0,0.2,0l0,0"/>
</svg>
