<?xml version="1.0" encoding="utf-8"?>
<!-- Generator: Adobe Illustrator 20.0.0, SVG Export Plug-In . SVG Version: 6.00 Build 0)  -->
<svg version="1.1" id="Layer_1" xmlns="http://www.w3.org/2000/svg" xmlns:xlink="http://www.w3.org/1999/xlink" x="0px" y="0px"
	 viewBox="0 0 617.9 590.9" style="enable-background:new 0 0 617.9 590.9;" xml:space="preserve">
<style type="text/css">
	.st0{fill:#7D110C;}
</style>
<g>
	<polygon class="st0" points="336.9,70.3 336.9,85.7 347.6,85.7 347.6,171.5 325.1,171.5 325.1,58.5 337,58.5 337,43.1 280.8,43.1 
		280.8,58.5 292.8,58.5 292.8,171.5 270,171.5 270,85.7 280.6,85.7 280.6,70.3 227.7,70.3 227.7,85.7 239.7,85.7 239.7,185.1 
		259.1,204.9 292.8,204.9 292.8,227.8 280.8,227.8 280.8,247.7 337,247.7 337,227.8 325.1,227.8 325.1,204.9 358.4,204.9 
		377.9,185.1 377.9,85.7 389.9,85.7 389.9,70.3 	"/>
	<g>
		<path d="M48.3,280.9h30.2v56c2.3-8.3,6.7-20.2,10.8-30.1l11-25.9h29.9l-25.4,52.9l28.1,80.3h-31.3L84,361.3l-5.4,12.8v40H48.3
			V280.9z"/>
		<path d="M148.6,280.9h65.9v26.3h-34.9v25h24.8v24.5h-24.8v32h36.2v25.4h-67.1V280.9z"/>
		<path d="M235.2,280.9h31v107.8h35.3v25.4h-66.2V280.9z"/>
		<path d="M320,280.9h31v107.8h35.3v25.4H320V280.9z"/>
		<path d="M404.7,280.9h65.9v26.3h-34.9v25h24.8v24.5h-24.8v32h36.2v25.4h-67.1V280.9z"/>
		<path d="M512.4,367.8l-29.2-86.9h31.3l14.4,53.1h0.7l14.4-53.1h28.8l-29.5,86.9v46.3h-31V367.8z"/>
		<path d="M45,474.4l4.5-1c1.4,5.8,3.7,9,8.3,9c4.3,0,6.4-2.6,6.4-6.6c0-9.5-17.6-14.1-17.6-26.5c0-6.5,4.3-10.5,10.6-10.5
			c6.5,0,9.6,4.5,11.3,11.2l-4.5,1.2c-1.4-5.2-3.3-7.9-7-7.9c-3.5,0-5.6,2-5.6,5.7c0,10.3,17.6,14.2,17.6,26.7
			c0,6.7-4.7,11.2-11.3,11.2C50.4,486.8,46.9,482.1,45,474.4z"/>
		<path d="M76.6,462.8c0-16.7,5-23.9,13.3-23.9c7.7,0,10.8,6.1,11.7,15.1l-4.7,0.6c-0.9-7.2-2.8-11.2-7-11.2
			c-5.8,0-8.4,6.9-8.4,19.3c0,12.7,2.6,19.5,8.4,19.5c4.3,0,6.5-3.6,7.5-11.6l4.7,0.5c-1.3,9.1-4.5,15.5-12.2,15.5
			C81.3,486.6,76.6,479.7,76.6,462.8z"/>
		<path d="M111.2,439.5h4.9v19.8H130v-19.8h4.9v46.6H130v-22.5h-13.9v22.5h-4.9V439.5z"/>
		<path d="M144.7,462.8c0-16.4,5.2-23.9,13.5-23.9c8.2,0,13.5,7.4,13.5,23.9c0,16.4-5.4,23.8-13.5,23.8
			C149.9,486.6,144.7,479.2,144.7,462.8z M166.8,462.8c0-12.6-2.8-19.3-8.6-19.3c-5.7,0-8.6,6.7-8.6,19.3c0,12.5,2.8,19.4,8.6,19.4
			C164,482.2,166.8,475.3,166.8,462.8z"/>
		<path d="M179.9,462.8c0-16.4,5.2-23.9,13.5-23.9c8.2,0,13.5,7.4,13.5,23.9c0,16.4-5.4,23.8-13.5,23.8
			C185.1,486.6,179.9,479.2,179.9,462.8z M202,462.8c0-12.6-2.8-19.3-8.6-19.3c-5.7,0-8.6,6.7-8.6,19.3c0,12.5,2.8,19.4,8.6,19.4
			C199.2,482.2,202,475.3,202,462.8z"/>
		<path d="M216.6,439.5h4.9v42.3h14.2v4.3h-19.1V439.5z"/>
		<path d="M255.3,462.8c0-16.4,5.2-23.9,13.5-23.9c8.2,0,13.5,7.4,13.5,23.9c0,16.4-5.4,23.8-13.5,23.8
			C260.5,486.6,255.3,479.2,255.3,462.8z M277.4,462.8c0-12.6-2.8-19.3-8.6-19.3c-5.7,0-8.6,6.7-8.6,19.3c0,12.5,2.8,19.4,8.6,19.4
			C274.5,482.2,277.4,475.3,277.4,462.8z"/>
		<path d="M292,439.5h19v4.4h-14.1v15.6h10.2v4.3h-10.2v22.3H292V439.5z"/>
		<path d="M332.2,439.5h9.5c8.6,0,12.7,3.5,12.7,11.7c0,7.1-3,9.6-6.7,10.8v0.1c4.2,0.9,7.8,3.8,7.8,11.3c0,8.6-4.3,12.7-13,12.7
			h-10.4V439.5z M341.5,460.1c5.5,0,8.1-2.5,8.1-8.3c0-5.7-1.9-8.1-8-8.1H337v16.3H341.5z M342.6,481.9c6,0,8.1-2.9,8.1-8.8
			c0-6.2-3-8.9-8.9-8.9H337v17.8H342.6z"/>
		<path d="M364.5,471.3v-31.9h4.9v31.1c0,7.2,1.4,11.7,7,11.7c5.5,0,6.9-4.3,6.9-11.6v-31.2h4.7v31.8c0,9.3-2.7,15.4-11.6,15.4
			C367.2,486.6,364.5,480.4,364.5,471.3z"/>
		<path d="M395.7,474.4l4.5-1c1.4,5.8,3.7,9,8.3,9c4.3,0,6.4-2.6,6.4-6.6c0-9.5-17.6-14.1-17.6-26.5c0-6.5,4.3-10.5,10.6-10.5
			c6.5,0,9.6,4.5,11.3,11.2l-4.5,1.2c-1.4-5.2-3.3-7.9-7-7.9c-3.5,0-5.6,2-5.6,5.7c0,10.3,17.6,14.2,17.6,26.7
			c0,6.7-4.7,11.2-11.3,11.2C401.1,486.8,397.6,482.1,395.7,474.4z"/>
		<path d="M429.8,439.5h4.9v46.6h-4.9V439.5z"/>
		<path d="M446.3,439.5h5.5l10.6,27c1.4,3.7,2.6,6.7,3.4,9.2h0.1v-36.2h4.2v46.6h-4.3l-12-30.1c-1.1-2.7-2.8-7.3-3.3-8.7h-0.1v38.8
			h-4.1V439.5z"/>
		<path d="M481.3,439.5h19v4.4h-14.1v15.4h10.1v4.3h-10.1v18.2h14.9v4.3h-19.8V439.5z"/>
		<path d="M507.2,474.4l4.5-1c1.4,5.8,3.7,9,8.3,9c4.3,0,6.4-2.6,6.4-6.6c0-9.5-17.6-14.1-17.6-26.5c0-6.5,4.3-10.5,10.6-10.5
			c6.5,0,9.6,4.5,11.3,11.2l-4.5,1.2c-1.4-5.2-3.3-7.9-7-7.9c-3.5,0-5.6,2-5.6,5.7c0,10.3,17.6,14.2,17.6,26.7
			c0,6.7-4.7,11.2-11.3,11.2C512.5,486.8,509.1,482.1,507.2,474.4z"/>
		<path d="M537.9,474.4l4.5-1c1.4,5.8,3.7,9,8.3,9c4.3,0,6.4-2.6,6.4-6.6c0-9.5-17.6-14.1-17.6-26.5c0-6.5,4.3-10.5,10.6-10.5
			c6.5,0,9.6,4.5,11.3,11.2l-4.5,1.2c-1.4-5.2-3.3-7.9-7-7.9c-3.5,0-5.6,2-5.6,5.7c0,10.3,17.6,14.2,17.6,26.7
			c0,6.7-4.7,11.2-11.3,11.2C543.2,486.8,539.8,482.1,537.9,474.4z"/>
	</g>
	<g>
		<path class="st0" d="M45.9,535.5c0-7.7,3.2-12.2,8.8-12.2c4.4,0,6.7,2.7,7.6,7.8l-3.4,0.7c-0.7-3.6-2-5-4.3-5c-2.8,0-5,2.3-5,8.7
			c0,6.5,2,9,5.1,9c2.7,0,4.3-1.8,4.5-5.6h-4v-3.1h7.4v11.7h-2.8v-3.1h-0.1c-0.6,1.7-2.5,3.6-5.4,3.6
			C48.9,547.8,45.9,543.3,45.9,535.5z"/>
		<path class="st0" d="M68.1,535.6c0-8.2,3.9-12.3,9-12.3c5,0,9,4.1,9,12.3c0,8.2-3.9,12.3-9,12.3C72,547.9,68.1,543.8,68.1,535.6z
			 M82.2,535.6c0-5.8-1.9-8.8-5.2-8.8c-3.3,0-5.2,3-5.2,8.8c0,5.8,1.9,8.9,5.2,8.9C80.3,544.4,82.2,541.3,82.2,535.6z"/>
		<path class="st0" d="M100.7,523.7h12.6v3.5h-8.8v6.4h6.4v3.4h-6.4v10.4h-3.8V523.7z"/>
		<path class="st0" d="M118.5,523.7h7c4.8,0,7.6,2.2,7.6,7.2c0,3.5-1.7,5.7-4.1,6.4l4.5,10.1h-3.9l-4.2-9.2h-3.3v9.2h-3.7V523.7z
			 M125.4,535c2.8,0,4.2-1,4.2-4c0-2.8-1.4-3.8-4.2-3.8h-3.2v7.8H125.4z"/>
		<path class="st0" d="M138.2,535.6c0-8.2,3.9-12.3,9-12.3c5,0,9,4.1,9,12.3c0,8.2-3.9,12.3-9,12.3
			C142.1,547.9,138.2,543.8,138.2,535.6z M152.3,535.6c0-5.8-1.9-8.8-5.2-8.8c-3.3,0-5.2,3-5.2,8.8c0,5.8,1.9,8.9,5.2,8.9
			C150.4,544.4,152.3,541.3,152.3,535.6z"/>
		<path class="st0" d="M161.8,523.7h4.8l5.1,18.4h0.1l4.9-18.4h4.8v23.7h-3.6v-18h-0.1c-0.2,1.6-0.9,4.2-1.4,5.9l-3.4,12.1H170
			l-3.4-12.1c-0.4-1.5-1.2-4.3-1.4-6h-0.1v18.1h-3.3V523.7z"/>
		<path class="st0" d="M197.1,523.7h4.8l5.1,18.4h0.1l4.9-18.4h4.8v23.7h-3.6v-18H213c-0.2,1.6-0.9,4.2-1.4,5.9l-3.4,12.1h-2.8
			l-3.4-12.1c-0.4-1.5-1.2-4.3-1.4-6h-0.1v18.1h-3.3V523.7z"/>
		<path class="st0" d="M222.4,535.6c0-8.2,3.9-12.3,9-12.3c5,0,9,4.1,9,12.3c0,8.2-3.9,12.3-9,12.3
			C226.3,547.9,222.4,543.8,222.4,535.6z M236.5,535.6c0-5.8-1.9-8.8-5.2-8.8c-3.3,0-5.2,3-5.2,8.8c0,5.8,1.9,8.9,5.2,8.9
			C234.7,544.4,236.5,541.3,236.5,535.6z"/>
		<path class="st0" d="M246,523.7h4.8l5.1,18.4h0.1l4.9-18.4h4.8v23.7H262v-18H262c-0.2,1.6-0.9,4.2-1.4,5.9l-3.4,12.1h-2.8
			l-3.4-12.1c-0.4-1.5-1.2-4.3-1.4-6h-0.1v18.1H246V523.7z"/>
		<path class="st0" d="M272.3,523.7h12.8v3.5h-9.1v6.1h6.6v3.4h-6.6v7.3h9.5v3.4h-13.3V523.7z"/>
		<path class="st0" d="M291.1,523.7h4.1l6.4,12.6c0.8,1.5,1.2,2.4,2,4.1h0.1v-16.7h3.4v23.7h-3.5l-7-13.4c-0.8-1.5-1.2-2.3-2-4h-0.1
			v17.4h-3.4V523.7z"/>
		<path class="st0" d="M318.1,527.2h-5.9v-3.5h15.5v3.5h-5.9v20.2h-3.8V527.2z"/>
		<path class="st0" d="M344.3,527.2h-5.9v-3.5H354v3.5h-5.9v20.2h-3.8V527.2z"/>
		<path class="st0" d="M357.2,535.6c0-8.2,3.9-12.3,9-12.3c5,0,9,4.1,9,12.3c0,8.2-3.9,12.3-9,12.3
			C361.1,547.9,357.2,543.8,357.2,535.6z M371.4,535.6c0-5.8-1.9-8.8-5.2-8.8c-3.3,0-5.2,3-5.2,8.8c0,5.8,1.9,8.9,5.2,8.9
			C369.5,544.4,371.4,541.3,371.4,535.6z"/>
		<path class="st0" d="M389.9,523.7h4.8l5.1,18.4h0.1l4.9-18.4h4.8v23.7h-3.6v-18h-0.1c-0.2,1.6-0.9,4.2-1.4,5.9l-3.4,12.1h-2.8
			l-3.4-12.1c-0.4-1.5-1.2-4.3-1.4-6h-0.1v18.1h-3.3V523.7z"/>
		<path class="st0" d="M415.2,535.6c0-8.2,3.9-12.3,9-12.3c5,0,9,4.1,9,12.3c0,8.2-3.9,12.3-9,12.3
			C419.1,547.9,415.2,543.8,415.2,535.6z M429.3,535.6c0-5.8-1.9-8.8-5.2-8.8c-3.3,0-5.2,3-5.2,8.8c0,5.8,1.9,8.9,5.2,8.9
			C427.4,544.4,429.3,541.3,429.3,535.6z"/>
		<path class="st0" d="M438.8,523.7h4.8l5.1,18.4h0.1l4.9-18.4h4.8v23.7h-3.6v-18h-0.1c-0.2,1.6-0.9,4.2-1.4,5.9l-3.4,12.1H447
			l-3.4-12.1c-0.4-1.5-1.2-4.3-1.4-6h-0.1v18.1h-3.3V523.7z"/>
		<path class="st0" d="M465.1,523.7h12.8v3.5h-9.1v6.1h6.6v3.4h-6.6v7.3h9.5v3.4h-13.3V523.7z"/>
		<path class="st0" d="M483.9,523.7h4.1l6.4,12.6c0.8,1.5,1.2,2.4,2,4.1h0.1v-16.7h3.4v23.7h-3.5l-7-13.4c-0.8-1.5-1.2-2.3-2-4h-0.1
			v17.4h-3.4V523.7z"/>
		<path class="st0" d="M510.9,527.2H505v-3.5h15.5v3.5h-5.9v20.2h-3.8V527.2z"/>
		<path class="st0" d="M525.4,539.4v-15.7h3.8v15.4c0,3.6,1.1,5.4,4.1,5.4c2.9,0,4-1.8,4-5.3v-15.4h3.6v15.6c0,5.2-2.3,8.4-7.7,8.4
			C527.7,547.8,525.4,544.6,525.4,539.4z"/>
		<path class="st0" d="M547.4,523.7h4.8l5.1,18.4h0.1l4.9-18.4h4.8v23.7h-3.6v-18h-0.1c-0.2,1.6-0.9,4.2-1.4,5.9l-3.4,12.1h-2.8
			l-3.4-12.1c-0.4-1.5-1.2-4.3-1.4-6h-0.1v18.1h-3.3V523.7z"/>
	</g>
</g>
</svg>
