<?xml version="1.0" encoding="utf-8"?>
<!-- Generator: Adobe Illustrator 20.0.0, SVG Export Plug-In . SVG Version: 6.00 Build 0)  -->
<svg version="1.1" id="Layer_1" xmlns="http://www.w3.org/2000/svg" xmlns:xlink="http://www.w3.org/1999/xlink" x="0px" y="0px"
	 viewBox="0 0 896.6 850" style="enable-background:new 0 0 896.6 850;" xml:space="preserve">
<style type="text/css">
	.st0{fill:#7D110C;}
</style>
<g>
	<polygon class="st0" points="468.1,189.1 468.1,204.5 478.8,204.5 478.8,290.4 456.2,290.4 456.2,177.3 468.2,177.3 468.2,161.9 
		412,161.9 412,177.3 424,177.3 424,290.4 401.2,290.4 401.2,204.5 411.8,204.5 411.8,189.1 358.9,189.1 358.9,204.5 370.9,204.5 
		370.9,303.9 390.3,323.8 424,323.8 424,346.7 412,346.7 412,366.5 468.2,366.5 468.2,346.7 456.2,346.7 456.2,323.8 489.6,323.8 
		509.1,303.9 509.1,204.5 521,204.5 521,189.1 	"/>
	<g>
		<path d="M179.5,399.7h30.2v56c2.3-8.3,6.7-20.2,10.8-30.1l11-25.9h29.9L236,452.7l28.1,80.3h-31.3l-17.6-52.7l-5.4,12.8v40h-30.2
			V399.7z"/>
		<path d="M279.8,399.7h65.9V426h-34.9v25h24.8v24.5h-24.8v32h36.2v25.4h-67.1V399.7z"/>
		<path d="M366.4,399.7h31v107.8h35.3v25.4h-66.2V399.7z"/>
		<path d="M451.1,399.7h31v107.8h35.3v25.4h-66.2V399.7z"/>
		<path d="M535.9,399.7h65.9V426h-34.9v25h24.8v24.5h-24.8v32h36.2v25.4h-67.1V399.7z"/>
		<path d="M643.6,486.7l-29.2-86.9h31.3l14.4,53.1h0.7l14.4-53.1H704l-29.5,86.9v46.3h-31V486.7z"/>
		<path d="M176.2,593.2l4.5-1c1.4,5.8,3.7,9,8.3,9c4.3,0,6.4-2.6,6.4-6.6c0-9.5-17.6-14.1-17.6-26.5c0-6.5,4.3-10.5,10.6-10.5
			c6.5,0,9.6,4.5,11.3,11.2l-4.5,1.2c-1.4-5.2-3.3-7.9-7-7.9c-3.5,0-5.6,2-5.6,5.7c0,10.3,17.6,14.2,17.6,26.7
			c0,6.7-4.7,11.2-11.3,11.2C181.6,605.6,178.1,601,176.2,593.2z"/>
		<path d="M207.8,581.6c0-16.7,5-23.9,13.3-23.9c7.7,0,10.8,6.1,11.7,15.1l-4.7,0.6c-0.9-7.2-2.8-11.2-7-11.2
			c-5.8,0-8.4,6.9-8.4,19.3c0,12.7,2.6,19.5,8.4,19.5c4.3,0,6.5-3.6,7.5-11.6l4.7,0.5c-1.3,9.1-4.5,15.5-12.2,15.5
			C212.5,605.4,207.8,598.5,207.8,581.6z"/>
		<path d="M242.4,558.3h4.9v19.8h13.9v-19.8h4.9v46.6h-4.9v-22.5h-13.9v22.5h-4.9V558.3z"/>
		<path d="M275.9,581.6c0-16.4,5.2-23.9,13.5-23.9c8.2,0,13.5,7.4,13.5,23.9c0,16.4-5.4,23.8-13.5,23.8
			C281.1,605.4,275.9,598,275.9,581.6z M298,581.6c0-12.6-2.8-19.3-8.6-19.3c-5.7,0-8.6,6.7-8.6,19.3c0,12.5,2.8,19.4,8.6,19.4
			C295.1,601,298,594.2,298,581.6z"/>
		<path d="M311.1,581.6c0-16.4,5.2-23.9,13.5-23.9c8.2,0,13.5,7.4,13.5,23.9c0,16.4-5.4,23.8-13.5,23.8
			C316.3,605.4,311.1,598,311.1,581.6z M333.2,581.6c0-12.6-2.8-19.3-8.6-19.3c-5.7,0-8.6,6.7-8.6,19.3c0,12.5,2.8,19.4,8.6,19.4
			C330.4,601,333.2,594.2,333.2,581.6z"/>
		<path d="M347.8,558.3h4.9v42.3h14.2v4.3h-19.1V558.3z"/>
		<path d="M386.4,581.6c0-16.4,5.2-23.9,13.5-23.9c8.2,0,13.5,7.4,13.5,23.9c0,16.4-5.4,23.8-13.5,23.8
			C391.7,605.4,386.4,598,386.4,581.6z M408.5,581.6c0-12.6-2.8-19.3-8.6-19.3c-5.7,0-8.6,6.7-8.6,19.3c0,12.5,2.8,19.4,8.6,19.4
			C405.7,601,408.5,594.2,408.5,581.6z"/>
		<path d="M423.2,558.3h19v4.4h-14.1v15.6h10.2v4.3h-10.2v22.3h-4.9V558.3z"/>
		<path d="M463.4,558.3h9.5c8.6,0,12.7,3.5,12.7,11.7c0,7.1-3,9.6-6.7,10.8v0.1c4.2,0.9,7.8,3.8,7.8,11.3c0,8.6-4.3,12.7-13,12.7
			h-10.4V558.3z M472.7,579c5.5,0,8.1-2.5,8.1-8.3c0-5.7-1.9-8.1-8-8.1h-4.5V579H472.7z M473.8,600.8c6,0,8.1-2.9,8.1-8.8
			c0-6.2-3-8.9-8.9-8.9h-4.7v17.8H473.8z"/>
		<path d="M495.7,590.2v-31.9h4.9v31.1c0,7.2,1.4,11.7,7,11.7c5.5,0,6.9-4.3,6.9-11.6v-31.2h4.7v31.8c0,9.3-2.7,15.4-11.6,15.4
			C498.4,605.4,495.7,599.3,495.7,590.2z"/>
		<path d="M526.9,593.2l4.5-1c1.4,5.8,3.7,9,8.3,9c4.3,0,6.4-2.6,6.4-6.6c0-9.5-17.6-14.1-17.6-26.5c0-6.5,4.3-10.5,10.6-10.5
			c6.5,0,9.6,4.5,11.3,11.2L546,570c-1.4-5.2-3.3-7.9-7-7.9c-3.5,0-5.6,2-5.6,5.7c0,10.3,17.6,14.2,17.6,26.7
			c0,6.7-4.7,11.2-11.3,11.2C532.3,605.6,528.8,601,526.9,593.2z"/>
		<path d="M560.9,558.3h4.9v46.6h-4.9V558.3z"/>
		<path d="M577.4,558.3h5.5l10.6,27c1.4,3.7,2.6,6.7,3.4,9.2h0.1v-36.2h4.2v46.6h-4.3l-12-30.1c-1.1-2.7-2.8-7.3-3.3-8.7h-0.1v38.8
			h-4.1V558.3z"/>
		<path d="M612.5,558.3h19v4.4h-14.1v15.4h10.1v4.3h-10.1v18.2h14.9v4.3h-19.8V558.3z"/>
		<path d="M638.4,593.2l4.5-1c1.4,5.8,3.7,9,8.3,9c4.3,0,6.4-2.6,6.4-6.6c0-9.5-17.6-14.1-17.6-26.5c0-6.5,4.3-10.5,10.6-10.5
			c6.5,0,9.6,4.5,11.3,11.2l-4.5,1.2c-1.4-5.2-3.3-7.9-7-7.9c-3.5,0-5.6,2-5.6,5.7c0,10.3,17.6,14.2,17.6,26.7
			c0,6.7-4.7,11.2-11.3,11.2C643.7,605.6,640.3,601,638.4,593.2z"/>
		<path d="M669,593.2l4.5-1c1.4,5.8,3.7,9,8.3,9c4.3,0,6.4-2.6,6.4-6.6c0-9.5-17.6-14.1-17.6-26.5c0-6.5,4.3-10.5,10.6-10.5
			c6.5,0,9.6,4.5,11.3,11.2l-4.5,1.2c-1.4-5.2-3.3-7.9-7-7.9c-3.5,0-5.6,2-5.6,5.7c0,10.3,17.6,14.2,17.6,26.7
			c0,6.7-4.7,11.2-11.3,11.2C674.4,605.6,670.9,601,669,593.2z"/>
	</g>
	<g>
		<path class="st0" d="M177.1,654.4c0-7.7,3.2-12.2,8.8-12.2c4.4,0,6.7,2.7,7.6,7.8l-3.4,0.7c-0.7-3.6-2-5-4.3-5c-2.8,0-5,2.3-5,8.7
			c0,6.5,2,9,5.1,9c2.7,0,4.3-1.8,4.5-5.6h-4v-3.1h7.4v11.7H191v-3.1H191c-0.6,1.7-2.5,3.6-5.4,3.6
			C180.1,666.7,177.1,662.1,177.1,654.4z"/>
		<path class="st0" d="M199.3,654.4c0-8.2,3.9-12.3,9-12.3c5,0,9,4.1,9,12.3c0,8.2-3.9,12.3-9,12.3
			C203.2,666.7,199.3,662.7,199.3,654.4z M213.4,654.4c0-5.8-1.9-8.8-5.2-8.8c-3.3,0-5.2,3-5.2,8.8c0,5.8,1.9,8.9,5.2,8.9
			C211.5,663.3,213.4,660.2,213.4,654.4z"/>
		<path class="st0" d="M231.9,642.6h12.6v3.5h-8.8v6.4h6.4v3.4h-6.4v10.4h-3.8V642.6z"/>
		<path class="st0" d="M249.7,642.6h7c4.8,0,7.6,2.2,7.6,7.2c0,3.5-1.7,5.7-4.1,6.4l4.5,10.1h-3.9l-4.2-9.2h-3.3v9.2h-3.7V642.6z
			 M256.6,653.8c2.8,0,4.2-1,4.2-4c0-2.8-1.4-3.8-4.2-3.8h-3.2v7.8H256.6z"/>
		<path class="st0" d="M269.4,654.4c0-8.2,3.9-12.3,9-12.3c5,0,9,4.1,9,12.3c0,8.2-3.9,12.3-9,12.3
			C273.3,666.7,269.4,662.7,269.4,654.4z M283.5,654.4c0-5.8-1.9-8.8-5.2-8.8c-3.3,0-5.2,3-5.2,8.8c0,5.8,1.9,8.9,5.2,8.9
			C281.6,663.3,283.5,660.2,283.5,654.4z"/>
		<path class="st0" d="M293,642.6h4.8l5.1,18.4h0.1l4.9-18.4h4.8v23.7H309v-18h-0.1c-0.2,1.6-0.9,4.2-1.4,5.9l-3.4,12.1h-2.8
			l-3.4-12.1c-0.4-1.5-1.2-4.3-1.4-6h-0.1v18.1H293V642.6z"/>
		<path class="st0" d="M328.3,642.6h4.8l5.1,18.4h0.1l4.9-18.4h4.8v23.7h-3.6v-18h-0.1c-0.2,1.6-0.9,4.2-1.4,5.9l-3.4,12.1h-2.8
			l-3.4-12.1c-0.4-1.5-1.2-4.3-1.4-6h-0.1v18.1h-3.3V642.6z"/>
		<path class="st0" d="M353.6,654.4c0-8.2,3.9-12.3,9-12.3c5,0,9,4.1,9,12.3c0,8.2-3.9,12.3-9,12.3
			C357.5,666.7,353.6,662.7,353.6,654.4z M367.7,654.4c0-5.8-1.9-8.8-5.2-8.8c-3.3,0-5.2,3-5.2,8.8c0,5.8,1.9,8.9,5.2,8.9
			C365.8,663.3,367.7,660.2,367.7,654.4z"/>
		<path class="st0" d="M377.2,642.6h4.8L387,661h0.1l4.9-18.4h4.8v23.7h-3.6v-18h-0.1c-0.2,1.6-0.9,4.2-1.4,5.9l-3.4,12.1h-2.8
			l-3.4-12.1c-0.4-1.5-1.2-4.3-1.4-6h-0.1v18.1h-3.3V642.6z"/>
		<path class="st0" d="M403.5,642.6h12.8v3.5h-9.1v6.1h6.6v3.4h-6.6v7.3h9.5v3.4h-13.3V642.6z"/>
		<path class="st0" d="M422.3,642.6h4.1l6.4,12.6c0.8,1.5,1.2,2.4,2,4.1h0.1v-16.7h3.4v23.7h-3.5l-7-13.4c-0.8-1.5-1.2-2.3-2-4h-0.1
			v17.4h-3.4V642.6z"/>
		<path class="st0" d="M449.3,646.1h-5.9v-3.5h15.5v3.5h-5.9v20.2h-3.8V646.1z"/>
		<path class="st0" d="M475.5,646.1h-5.9v-3.5h15.5v3.5h-5.9v20.2h-3.8V646.1z"/>
		<path class="st0" d="M488.4,654.4c0-8.2,3.9-12.3,9-12.3c5,0,9,4.1,9,12.3c0,8.2-3.9,12.3-9,12.3
			C492.3,666.7,488.4,662.7,488.4,654.4z M502.5,654.4c0-5.8-1.9-8.8-5.2-8.8c-3.3,0-5.2,3-5.2,8.8c0,5.8,1.9,8.9,5.2,8.9
			C500.6,663.3,502.5,660.2,502.5,654.4z"/>
		<path class="st0" d="M521,642.6h4.8l5.1,18.4h0.1l4.9-18.4h4.8v23.7H537v-18H537c-0.2,1.6-0.9,4.2-1.4,5.9l-3.4,12.1h-2.8
			l-3.4-12.1c-0.4-1.5-1.2-4.3-1.4-6h-0.1v18.1H521V642.6z"/>
		<path class="st0" d="M546.3,654.4c0-8.2,3.9-12.3,9-12.3c5,0,9,4.1,9,12.3c0,8.2-3.9,12.3-9,12.3
			C550.3,666.7,546.3,662.7,546.3,654.4z M560.5,654.4c0-5.8-1.9-8.8-5.2-8.8c-3.3,0-5.2,3-5.2,8.8c0,5.8,1.9,8.9,5.2,8.9
			C558.6,663.3,560.5,660.2,560.5,654.4z"/>
		<path class="st0" d="M570,642.6h4.8l5.1,18.4h0.1l4.9-18.4h4.8v23.7H586v-18h-0.1c-0.2,1.6-0.9,4.2-1.4,5.9l-3.4,12.1h-2.8
			l-3.4-12.1c-0.4-1.5-1.2-4.3-1.4-6h-0.1v18.1H570V642.6z"/>
		<path class="st0" d="M596.3,642.6h12.8v3.5H600v6.1h6.6v3.4H600v7.3h9.5v3.4h-13.3V642.6z"/>
		<path class="st0" d="M615,642.6h4.1l6.4,12.6c0.8,1.5,1.2,2.4,2,4.1h0.1v-16.7h3.4v23.7h-3.5l-7-13.4c-0.8-1.5-1.2-2.3-2-4h-0.1
			v17.4H615V642.6z"/>
		<path class="st0" d="M642.1,646.1h-5.9v-3.5h15.5v3.5h-5.9v20.2h-3.8V646.1z"/>
		<path class="st0" d="M656.6,658.3v-15.7h3.8v15.4c0,3.6,1.1,5.4,4.1,5.4c2.9,0,4-1.8,4-5.3v-15.4h3.6v15.6c0,5.2-2.3,8.4-7.7,8.4
			C658.9,666.7,656.6,663.5,656.6,658.3z"/>
		<path class="st0" d="M678.5,642.6h4.8l5.1,18.4h0.1l4.9-18.4h4.8v23.7h-3.6v-18h-0.1c-0.2,1.6-0.9,4.2-1.4,5.9l-3.4,12.1h-2.8
			l-3.4-12.1c-0.4-1.5-1.2-4.3-1.4-6h-0.1v18.1h-3.3V642.6z"/>
	</g>
</g>
</svg>
