<?xml version="1.0" encoding="utf-8"?>
<!-- Generator: Adobe Illustrator 19.2.1, SVG Export Plug-In . SVG Version: 6.00 Build 0)  -->
<svg version="1.1" id="Layer_1" xmlns="http://www.w3.org/2000/svg" xmlns:xlink="http://www.w3.org/1999/xlink" x="0px" y="0px"
	 viewBox="0 0 525.4 143" style="enable-background:new 0 0 525.4 143;" xml:space="preserve">
<style type="text/css">
	.st0{fill:#620032;}
	.st1{clip-path:url(#SVGID_2_);fill:url(#SVGID_3_);}
	.st2{clip-path:url(#SVGID_5_);fill:url(#SVGID_6_);}
	.st3{clip-path:url(#SVGID_8_);fill:url(#SVGID_9_);}
	.st4{clip-path:url(#SVGID_11_);fill:url(#SVGID_12_);}
	.st5{clip-path:url(#SVGID_14_);fill:url(#SVGID_15_);}
	.st6{clip-path:url(#SVGID_17_);fill:url(#SVGID_18_);}
	.st7{clip-path:url(#SVGID_20_);fill:url(#SVGID_21_);}
	.st8{clip-path:url(#SVGID_23_);fill:url(#SVGID_24_);}
	.st9{clip-path:url(#SVGID_26_);fill:url(#SVGID_27_);}
	.st10{fill:#BE0A26;}
	.st11{clip-path:url(#SVGID_29_);fill:url(#SVGID_30_);}
	.st12{clip-path:url(#SVGID_32_);fill:url(#SVGID_33_);}
	.st13{clip-path:url(#SVGID_35_);fill:url(#SVGID_36_);}
	.st14{fill:#DD917C;}
	.st15{fill:#BD0A26;}
	.st16{clip-path:url(#SVGID_38_);fill:url(#SVGID_39_);}
	.st17{clip-path:url(#SVGID_41_);fill:url(#SVGID_42_);}
	.st18{clip-path:url(#SVGID_44_);fill:url(#SVGID_45_);}
	.st19{clip-path:url(#SVGID_47_);fill:url(#SVGID_48_);}
</style>
<path class="st0" d="M175.2,84.3h-14.8l-9.8-17.6h-0.1v17.5l0,0v0.1h-11.2V42.7v-0.6c0-1.1,0.2-2.2,0.6-3.3c0.4-1.1,0.9-2.1,1.6-3.2
	c0.7-1,1.4-1.9,2.2-2.8c0.8-0.9,1.7-1.6,2.5-2.3c0.8-0.6,1.6-1.1,2.4-1.5c0.7-0.4,1.4-0.5,1.9-0.5v0.1v35.2h0.1l10.2-16.3h13.4
	l-12.3,17.7L175.2,84.3z"/>
<path class="st0" d="M203.2,84.3v-6.2c-0.6,0.8-1.3,1.6-1.9,2.3c-0.5,0.6-1.1,1.2-1.7,1.8c-0.6,0.6-1.2,1-1.7,1.3
	c-2.1,1.1-4.3,1.7-6.8,1.7c-4.3,0-7.6-1-10-3.1s-3.6-4.8-3.6-8.1c0-4,1.6-7.2,4.8-9.3c1.6-1.1,3.6-1.9,5.9-2.5s5-0.9,8-0.8l5.7,0.1
	c-0.1-0.9-0.4-1.8-0.8-2.6c-0.2-0.5-0.6-0.9-1-1.4s-1-0.9-1.6-1.4c-0.1-0.1-0.2-0.1-0.3-0.2c-0.1-0.1-0.2-0.1-0.3-0.2
	c-0.1-0.1-0.3-0.1-0.4-0.2s-0.3-0.2-0.4-0.2c-0.2-0.1-0.4-0.1-0.7-0.2c-0.2-0.1-0.5-0.1-0.8-0.2h-0.3c-0.2,0-0.4-0.1-0.7-0.1
	c-0.2,0-0.5,0-0.8,0c-1.1,0-2.1,0.1-3.2,0.3c-1,0.2-2.1,0.4-3.2,0.8c-1.1,0.3-2.1,0.7-3.1,1.2s-1.9,1-2.6,1.6v-8.9
	c1.6-0.9,3.7-1.5,6.3-2.1c1.4-0.3,2.7-0.5,4-0.7s2.6-0.2,4-0.2h5.5c1.8,0,3.5,0.3,5,1s2.8,1.6,3.8,2.7c1.1,1.1,1.9,2.4,2.4,3.9
	c0.6,1.5,0.8,3,0.8,4.5v6.4l0,0v19.2h-10.3V84.3z M202.6,67.4c-0.4,0.2-1,0.2-1.8,0.2c-0.4,0-0.9,0-1.5,0c-0.5,0-1.2,0-1.8,0
	c-3.2,0.1-5.5,0.6-6.9,1.4c-1.5,0.9-2.3,2.2-2.3,3.8c0,1.3,0.5,2.3,1.5,3c1,0.8,2.4,1.1,4.3,1.1c2.5,0,4.6-0.9,6.2-2.8
	c1.6-1.8,2.4-3.8,2.4-6v-0.7H202.6z"/>
<path class="st0" d="M251.1,73c0,3.9-1.5,6.9-4.6,9c-3,2.1-7.1,3.1-12.5,3.1c-1.2,0-2.4,0-3.6-0.1s-2.3-0.2-3.5-0.4
	c-1.2-0.2-2.2-0.4-3.1-0.6s-1.8-0.5-2.5-0.8l0.8-8.9c0.3,0.2,0.8,0.4,1.5,0.6s1.6,0.5,2.7,0.9c2.2,0.8,4.5,1.2,7.1,1.2
	c1.8,0,3.2-0.3,4.3-0.8c1.1-0.5,1.6-1.4,1.6-2.7c0-1.1-0.6-1.9-1.7-2.6c-0.6-0.3-1.3-0.6-2.3-1c-1-0.3-2.2-0.7-3.6-1
	c-1.5-0.4-2.9-0.8-4.1-1.3c-1.3-0.5-2.4-1.2-3.4-2c-2-1.6-3.1-4.1-3.1-7.4c0-3.7,1.5-6.6,4.6-8.6s6.9-3.1,11.6-3.1
	c2.1,0,4.2,0.2,6.4,0.6c1.1,0.2,2,0.4,2.9,0.6s1.7,0.4,2.4,0.7l-0.7,8.4c-1.2-0.6-2.7-1.1-4.4-1.5c-1.9-0.4-3.6-0.6-5.3-0.6
	c-2.1,0-3.6,0.3-4.6,0.7c-1,0.5-1.5,1.3-1.5,2.4c0,0.9,0.5,1.6,1.6,2.1c0.6,0.3,1.4,0.6,2.5,0.9s2.5,0.7,4.2,1.1
	c3.6,0.9,6.2,2.3,7.8,4.1C250.3,67.7,251.1,70.1,251.1,73"/>
<path class="st0" d="M268.7,70.7c0,2.1,0.4,3.6,1.3,4.6s2.2,1.5,3.9,1.5c1,0,1.9-0.1,2.7-0.3c0.4-0.1,0.7-0.2,1-0.3
	c0.3-0.1,0.5-0.2,0.7-0.3l0.3,8.4c-0.3,0.1-0.7,0.2-1.2,0.3c-0.5,0.1-1.2,0.2-1.9,0.3c-1.5,0.2-3.1,0.3-4.9,0.3
	c-4.5,0-7.8-1.1-10.1-3.3c-2.3-2.1-3.4-5.4-3.4-9.8V49.7c0-1.7,0.4-3.4,1.3-5c0.8-1.6,1.8-3.1,3-4.4s2.4-2.4,3.7-3.3
	c1.3-0.8,2.5-1.3,3.5-1.5l0.1,11.8h9.4v8.2h-9.4V70.7z"/>
<path class="st0" d="M309.9,84.3v-6.2c-0.6,0.8-1.3,1.6-1.9,2.3c-0.5,0.6-1.1,1.2-1.7,1.8c-0.6,0.6-1.2,1-1.7,1.3
	c-2.1,1.1-4.3,1.7-6.8,1.7c-4.3,0-7.6-1-10-3.1s-3.6-4.8-3.6-8.1c0-4,1.6-7.2,4.8-9.3c1.6-1.1,3.6-1.9,5.9-2.5s5-0.9,8-0.8l5.7,0.1
	c-0.1-0.9-0.4-1.8-0.8-2.6c-0.3-0.5-0.6-0.9-1-1.4s-1-0.9-1.6-1.4c-0.1-0.1-0.2-0.1-0.3-0.2c-0.1-0.1-0.2-0.1-0.3-0.2
	c-0.1-0.1-0.3-0.1-0.4-0.2s-0.3-0.2-0.4-0.2c-0.2-0.1-0.4-0.1-0.7-0.2c-0.2-0.1-0.5-0.1-0.8-0.2H302c-0.2,0-0.4-0.1-0.7-0.1
	c-0.2,0-0.5,0-0.8,0c-1.1,0-2.1,0.1-3.2,0.3c-1.1,0.2-2.1,0.4-3.2,0.8c-1.1,0.3-2.1,0.7-3.1,1.2s-1.9,1-2.6,1.6v-8.9
	c1.6-0.9,3.7-1.5,6.3-2.1c1.4-0.3,2.7-0.5,4-0.7s2.6-0.2,4-0.2h5.5c1.8,0,3.5,0.3,5,1s2.8,1.6,3.8,2.7c1.1,1.1,1.9,2.4,2.4,3.9
	c0.6,1.5,0.8,3,0.8,4.5v6.4l0,0v19.2h-10.3V84.3z M309.3,67.4c-0.4,0.2-1,0.2-1.8,0.2c-0.4,0-0.9,0-1.5,0s-1.2,0-1.8,0
	c-3.2,0.1-5.5,0.6-6.9,1.4c-1.5,0.9-2.3,2.2-2.3,3.8c0,1.3,0.5,2.3,1.5,3c1,0.8,2.4,1.1,4.3,1.1c2.5,0,4.6-0.9,6.2-2.8
	c1.6-1.8,2.4-3.8,2.4-6v-0.7H309.3z"/>
<path class="st0" d="M382.2,47.5c1.5,0.7,2.8,1.6,3.9,2.7c1.1,1.1,1.9,2.4,2.5,3.9s0.9,3,0.9,4.5v25.6h-11.7V62.8
	c0-0.3,0-0.8-0.1-1.6c-0.1-0.8-0.3-1.6-0.6-2.4s-0.8-1.5-1.5-2.2c-0.7-0.6-1.6-1-2.9-1c-2.4,0-4.4,0.9-5.9,2.7
	c-1.5,1.8-2.2,4.5-2.2,8.2v17.6h-10.9h-0.8l0,0l0,0V62.7c0-0.3,0-0.8-0.1-1.6c-0.1-0.8-0.3-1.6-0.6-2.4c-0.3-0.8-0.8-1.5-1.5-2.2
	c-0.7-0.6-1.6-1-2.8-1c-1.2,0-2.3,0.2-3.3,0.7c-1,0.4-1.9,1.1-2.6,2s-1.3,2-1.7,3.4c-0.4,1.4-0.6,3-0.6,4.9v17.6h-11.6V58.5
	c0-1.6,0.3-3.1,1-4.5c0.7-1.5,1.6-2.8,2.7-3.9s2.4-2,3.9-2.7s3-1,4.6-1h9.9c1.4,0,2.7,0.2,3.9,0.5c1.1,0.4,2.1,0.8,3,1.3
	s1.6,1.1,2.2,1.7c0.6,0.6,1.1,1.2,1.4,1.7c0.5-0.7,1.1-1.3,1.9-1.9c0.8-0.7,1.6-1.2,2.6-1.7c0.9-0.5,1.9-0.9,2.9-1.2
	c1-0.3,1.9-0.4,2.7-0.4h6.7C379,46.5,380.7,46.8,382.2,47.5"/>
<path class="st0" d="M435.6,66c0,5.8-1.8,10.5-5.3,13.9c-3.5,3.5-8.1,5.2-14,5.2c-5.8,0-10.5-1.7-14-5.2S397,71.8,397,66
	s1.8-10.5,5.3-14c1.8-1.8,3.8-3.2,6.2-4.1c2.3-0.9,4.9-1.4,7.9-1.4c2.9,0,5.5,0.5,7.8,1.4s4.4,2.3,6.1,4.1
	C433.9,55.5,435.6,60.1,435.6,66 M424.6,66c0-3.4-0.7-6.1-2.1-8c-1.4-1.9-3.5-2.9-6.1-2.9s-4.7,1-6.2,2.9c-1.4,1.9-2.1,4.5-2.1,8
	c0,3.3,0.7,5.9,2.2,7.9c1.5,1.9,3.5,2.9,6.1,2.9s4.7-1,6.1-2.9C423.8,71.9,424.6,69.3,424.6,66"/>
<path class="st0" d="M468.1,84.3V62.9c0-0.3,0-0.8-0.1-1.6c-0.1-0.8-0.3-1.6-0.6-2.4s-0.8-1.5-1.5-2.2c-0.7-0.6-1.6-1-2.8-1
	s-2.3,0.2-3.3,0.7c-1,0.4-1.9,1.1-2.6,2c-0.7,0.9-1.3,2-1.7,3.4s-0.6,3-0.6,4.9v17.6h-11.5V58.6c0-1.5,0.3-3,1-4.5s1.6-2.8,2.7-3.9
	c1.1-1.1,2.4-2,3.9-2.7s3-1,4.6-1h12.3c1.8,0,3.5,0.4,5,1c1.5,0.7,2.8,1.6,3.8,2.7s1.9,2.4,2.4,3.9c0.6,1.5,0.9,3,0.9,4.5v25.7
	H468.1z"/>
<path class="st0" d="M498.7,47.3l0.1,21.4c0,0.3,0,0.8,0.1,1.6c0.1,0.8,0.3,1.6,0.6,2.4s0.8,1.6,1.5,2.2c0.7,0.7,1.6,1,2.9,1
	c1.2,0,2.3-0.2,3.4-0.7c1-0.4,1.9-1.1,2.6-2c0.7-0.9,1.3-2.1,1.7-3.4c0.4-1.4,0.6-3,0.6-4.8V47.4h11.2V73c0,1.6-0.3,3.1-0.9,4.5
	c-0.6,1.5-1.5,2.8-2.6,3.9s-2.3,2-3.8,2.7c-1.4,0.7-2.9,1-4.5,1h-12.3c-1.9,0-3.5-0.3-4.9-1s-2.6-1.6-3.7-2.7
	c-1-1.1-1.8-2.4-2.3-3.9s-0.8-3-0.8-4.5l-0.1-25.6h11.2V47.3z"/>
<g>
	<g>
		<defs>
			<path id="SVGID_1_" d="M1,134.5c0,3.8,27.9,6.9,62.3,6.9s62.3-3.1,62.3-6.9s-27.9-6.9-62.3-6.9C28.9,127.7,1,130.8,1,134.5"/>
		</defs>
		<clipPath id="SVGID_2_">
			<use xlink:href="#SVGID_1_"  style="overflow:visible;"/>
		</clipPath>
		
			<radialGradient id="SVGID_3_" cx="-34.4582" cy="-87.6273" r="0.8812" gradientTransform="matrix(70.6475 0 0 7.8065 2497.6787 818.6144)" gradientUnits="userSpaceOnUse">
			<stop  offset="0" style="stop-color:#7B7C7E"/>
			<stop  offset="1.868248e-02" style="stop-color:#808183"/>
			<stop  offset="0.1939" style="stop-color:#A9ABAC"/>
			<stop  offset="0.3681" style="stop-color:#C9CBCC"/>
			<stop  offset="0.538" style="stop-color:#E1E2E3"/>
			<stop  offset="0.7025" style="stop-color:#F2F2F3"/>
			<stop  offset="0.8593" style="stop-color:#FCFCFC"/>
			<stop  offset="1" style="stop-color:#FFFFFF"/>
		</radialGradient>
		<rect x="1" y="127.7" class="st1" width="124.5" height="13.8"/>
	</g>
</g>
<g>
	<g>
		<defs>
			<path id="SVGID_4_" d="M85.7,48.1L85.7,48.1L85.7,48.1 M78.1,46.2c-0.1,0.3-0.2,0.6-0.3,1c-0.3,1.9,1.2,4.1,3.2,4.9
				c0.4,0.2,0.9,0.2,1.3,0.2c0.7,0,1.3-0.2,1.7-0.6c0.6-1.2,1.2-2.4,1.7-3.6l0,0c-0.4,0.3-1,0.5-1.6,0.5c-0.4,0-0.8-0.1-1.3-0.2
				c-1.8-0.7-3.2-2.6-3.2-4.3c0-0.1,0-0.3,0-0.4c0-0.2,0.1-0.5,0.2-0.7c0,0,0,0,0-0.1v-0.1C79.3,43.9,78.7,45.1,78.1,46.2"/>
		</defs>
		<clipPath id="SVGID_5_">
			<use xlink:href="#SVGID_4_"  style="overflow:visible;"/>
		</clipPath>
		
			<linearGradient id="SVGID_6_" gradientUnits="userSpaceOnUse" x1="-30.0255" y1="-87.5052" x2="-29.144" y2="-87.5052" gradientTransform="matrix(6.9522 8.1936 -8.1936 6.9522 -432.1241 895.3898)">
			<stop  offset="0" style="stop-color:#A81C22"/>
			<stop  offset="1" style="stop-color:#39001D"/>
		</linearGradient>
		<polygon class="st2" points="82.3,38.8 90.4,48.3 80.9,56.3 72.9,46.8 		"/>
	</g>
</g>
<g>
	<g>
		<defs>
			<path id="SVGID_7_" d="M48.6,9c-3.3,1-6.5,2.3-9.5,4c-4.6,2.6-8.6,6.1-11.9,10.4c6.2-6.7,14.5-11.3,23.6-13.2
				c3.1-0.6,6.4-1,9.7-1c6.5,0,13.4,1.3,20,4c22.5,9.1,38.7,35.2,36.8,58.2c-0.3,3.7-1,7.3-2.1,10.7c1.7-4.3,2.7-9,3-14
				c0.1-0.9,0.1-1.7,0.1-2.6c0-21.6-15.7-45.3-36.7-54c-6.7-2.8-13.7-4.1-20.3-4.1C56.8,7.3,52.6,7.9,48.6,9"/>
		</defs>
		<clipPath id="SVGID_8_">
			<use xlink:href="#SVGID_7_"  style="overflow:visible;"/>
		</clipPath>
		
			<linearGradient id="SVGID_9_" gradientUnits="userSpaceOnUse" x1="-33.0721" y1="-103.9265" x2="-32.1912" y2="-103.9265" gradientTransform="matrix(-78.0157 -68.5745 68.5745 -78.0157 4659.9258 -10295.8184)">
			<stop  offset="0" style="stop-color:#A81C22"/>
			<stop  offset="1" style="stop-color:#39001D"/>
		</linearGradient>
		<polygon class="st3" points="79.1,127.6 -9.9,49.5 67.3,-38.3 156.2,39.9 		"/>
	</g>
</g>
<g>
	<g>
		<defs>
			<path id="SVGID_10_" d="M85.7,48.1c-0.6,1.2-1.1,2.4-1.7,3.6c0.7,1.4,1.3,2.9,1.5,4.4c0.2,1.4,0.2,2.7,0,4
				c-0.1,0.4-0.1,0.8-0.2,1.2c1.1-1.4,1.8-3.1,2.1-5.1c0.1-0.5,0.1-1,0.1-1.6c0-0.7-0.1-1.5-0.2-2.2C87,50.9,86.5,49.5,85.7,48.1
				L85.7,48.1z"/>
		</defs>
		<clipPath id="SVGID_11_">
			<use xlink:href="#SVGID_10_"  style="overflow:visible;"/>
		</clipPath>
		
			<linearGradient id="SVGID_12_" gradientUnits="userSpaceOnUse" x1="-33.4544" y1="-107.931" x2="-32.5735" y2="-107.931" gradientTransform="matrix(-20.654 -19.4098 19.4098 -20.654 1491.6014 -2822.0518)">
			<stop  offset="0" style="stop-color:#A81C22"/>
			<stop  offset="1" style="stop-color:#39001D"/>
		</linearGradient>
		<polygon class="st4" points="85.8,63 77.4,55.1 85.6,46.4 94,54.3 		"/>
	</g>
</g>
<g>
	<g>
		<defs>
			<path id="SVGID_13_" d="M65.6,20.2L65.6,20.2c-3.5,0-6.9,0.5-10.2,1.7l0,0h-0.1h-0.1c-0.7,0.2-1.4,0.5-2.1,0.8
				c-3.8,1.8-7,4.7-9.1,8.3c2.4-2.8,5.5-4.9,9-6.2c3.7-1.4,7.5-2,11.3-2c5.2,0,10.4,1.2,15.5,3.1c8.2,3.3,15.8,8.8,21.3,17.1
				c5.1,7.4,7.7,18,6.8,26.8c-0.4,3.4-1.2,6.6-2.3,9.7c1.9-4.1,3.1-8.5,3.5-13.1l0,0l0,0l0,0l0,0l0,0l0,0c0.1-0.9,0.1-1.9,0.1-2.8
				c0-8-2.7-16.8-7.2-23.3c-5.5-8.1-12.9-13.6-20.9-16.8c-0.1,0-0.1-0.1-0.2-0.1C76,21.4,70.8,20.2,65.6,20.2L65.6,20.2z"/>
		</defs>
		<clipPath id="SVGID_14_">
			<use xlink:href="#SVGID_13_"  style="overflow:visible;"/>
		</clipPath>
		
			<linearGradient id="SVGID_15_" gradientUnits="userSpaceOnUse" x1="-32.9363" y1="-104.9642" x2="-32.0551" y2="-104.9642" gradientTransform="matrix(-50.4298 -39.0023 39.0023 -50.4298 2539.2383 -6505.0469)">
			<stop  offset="0" style="stop-color:#A81C22"/>
			<stop  offset="1" style="stop-color:#39001D"/>
		</linearGradient>
		<polygon class="st5" points="84.9,111.2 15.3,57.4 68.5,-11.3 138.1,42.5 		"/>
	</g>
</g>
<g>
	<g>
		<defs>
			<path id="SVGID_16_" d="M63.5,33.7c0,0,0.1,0,0.1-0.1C63.5,33.7,63.5,33.7,63.5,33.7 M63.4,33.7c-2.9,1.3-5.1,3.4-6.2,6.2
				c2.9-3,7.6-4.7,12.4-4.7c3.2,0,6.4,0.7,9.1,2.3c8.6,4.2,14.2,14.4,15,22.9c0.3,2.1,0.2,4.3-0.1,6.3c-0.2,1.5-0.5,2.9-1,4.2
				c1.4-2.4,2.4-5.2,2.7-8.1c0.1-0.9,0.2-1.9,0.2-2.8c0-1.1-0.1-2.2-0.2-3.3c-0.9-8.3-6.6-18.2-14.9-22.3c-2.8-1.6-6-2.3-9.2-2.3
				C68.4,32.1,65.7,32.7,63.4,33.7"/>
		</defs>
		<clipPath id="SVGID_17_">
			<use xlink:href="#SVGID_16_"  style="overflow:visible;"/>
		</clipPath>
		
			<linearGradient id="SVGID_18_" gradientUnits="userSpaceOnUse" x1="-32.8921" y1="-106.2945" x2="-32.0109" y2="-106.2945" gradientTransform="matrix(-32.7977 -25.0952 25.0952 -32.7977 1683.0364 -4246.3569)">
			<stop  offset="0" style="stop-color:#A81C22"/>
			<stop  offset="1" style="stop-color:#39001D"/>
		</linearGradient>
		<polygon class="st6" points="81.4,89.5 38.4,56.6 71.3,13.6 114.3,46.5 		"/>
	</g>
</g>
<g>
	<g>
		<defs>
			<path id="SVGID_19_" d="M49.6,42.2c-0.8,1.4-1.3,2.9-1.7,4.5c-2.7,11.3,4,25.7,17.5,30.1c2.1,0.7,4.3,1,6.3,1
				c7.1,0,13.2-3.9,16-9.7c0.7-1.3,1.3-2.7,1.9-4c-2.6,5.5-8.3,9.3-15.2,9.3c-2.1,0-4.2-0.3-6.4-1.1c-11.5-3.8-18.1-14.9-18-24.9
				c0-1.6,0.2-3.2,0.5-4.7c0.4-1.5,0.9-3,1.6-4.3C51.3,39.7,50.5,40.9,49.6,42.2"/>
		</defs>
		<clipPath id="SVGID_20_">
			<use xlink:href="#SVGID_19_"  style="overflow:visible;"/>
		</clipPath>
		
			<linearGradient id="SVGID_21_" gradientUnits="userSpaceOnUse" x1="-32.831" y1="-98.4199" x2="-31.9502" y2="-98.4199" gradientTransform="matrix(30.5609 26.0886 -26.0886 30.5609 -1516.1449 3906.0046)">
			<stop  offset="0" style="stop-color:#A81C22"/>
			<stop  offset="1" style="stop-color:#39001D"/>
		</linearGradient>
		<polygon class="st7" points="63.9,16.6 109,55.1 70.9,99.7 25.8,61.2 		"/>
	</g>
</g>
<g>
	<g>
		<defs>
			<path id="SVGID_22_" d="M99.4,70.9c0.1-0.2,0.1-0.3,0.2-0.5C99.5,70.6,99.4,70.7,99.4,70.9 M35.4,31.4c-2.3,3.1-4.1,6.6-5.2,10.5
				c-0.4,1.4-0.7,2.8-0.9,4.3c-2.4,12.5,4.1,28.6,15.6,37.1c7.5,5.7,15.9,8.2,23.9,8.2c4.9,0,9.6-1,13.9-2.8
				C89.4,86,95,81,97.9,74.3c0.3-0.6,0.6-1.3,0.9-2c0.2-0.5,0.4-1,0.6-1.4c-2.8,6.3-8.1,10.9-14.4,13.5c-4.1,1.7-8.6,2.6-13.3,2.6
				l0,0l0,0c-7.9,0-16.3-2.6-23.9-8.3c0,0-0.1,0-0.1-0.1c-9.9-7.3-16.1-20.1-16.1-31.3c0-1.8,0.2-3.5,0.5-5.2
				c0.2-1.4,0.5-2.8,0.9-4.1c1.1-3.7,2.9-7.1,5.1-10C37.2,29.1,36.3,30.2,35.4,31.4"/>
		</defs>
		<clipPath id="SVGID_23_">
			<use xlink:href="#SVGID_22_"  style="overflow:visible;"/>
		</clipPath>
		
			<linearGradient id="SVGID_24_" gradientUnits="userSpaceOnUse" x1="-32.7591" y1="-100.0128" x2="-31.8779" y2="-100.0128" gradientTransform="matrix(48.4446 45.7118 -45.7118 48.4446 -2952.7334 6372.8301)">
			<stop  offset="0" style="stop-color:#A81C22"/>
			<stop  offset="1" style="stop-color:#39001D"/>
		</linearGradient>
		<polygon class="st8" points="61.1,-8.4 131.3,57.9 65.3,127.8 -4.9,61.6 		"/>
	</g>
</g>
<g>
	<g>
		<defs>
			<path id="SVGID_25_" d="M97.1,111.6l0.1-0.1L97.1,111.6 M19.2,20.6c-0.4,0.5-0.9,1.1-1.3,1.6c-3.6,4.3-6.5,9.4-8.6,15.1
				c-5.9,16.6-3.1,35.3,6.5,51.1c9.8,16.2,26,28.3,44.9,31.9c3.5,0.6,6.9,1,10.3,1c9.9,0,19.2-2.7,26.8-7.4
				c9.2-5.7,16.4-14.5,20.3-25.1c-2.8,6.5-6.9,12.2-12,16.7c-2.6,2.3-5.6,4.4-8.7,6.1c-2.3,1.2-4.6,2.3-7.1,3.1
				c-5,1.7-10.5,2.7-16.3,2.7c-3.4,0-6.9-0.3-10.5-1c-18.9-3.6-35.2-16-45-32.3C9,68.3,6.2,49.9,12.1,33.7c1.9-5.3,4.7-9.9,8-13.9
				C19.8,19.9,19.5,20.2,19.2,20.6 M20.1,19.5c0.1-0.2,0.3-0.3,0.4-0.5C20.4,19.2,20.2,19.4,20.1,19.5"/>
		</defs>
		<clipPath id="SVGID_26_">
			<use xlink:href="#SVGID_25_"  style="overflow:visible;"/>
		</clipPath>
		
			<linearGradient id="SVGID_27_" gradientUnits="userSpaceOnUse" x1="-32.9544" y1="-101.155" x2="-32.0737" y2="-101.155" gradientTransform="matrix(99.8801 84.4757 -84.4757 99.8801 -5240.0986 12917.4141)">
			<stop  offset="0" style="stop-color:#A81C22"/>
			<stop  offset="1" style="stop-color:#39001D"/>
		</linearGradient>
		<polygon class="st9" points="51.2,-37.5 168.4,61.6 70.3,177.7 -47,78.6 		"/>
	</g>
</g>
<path class="st10" d="M79.6,43.6c-0.2,1.8,1.2,4,3.1,4.7c1.1,0.4,2.2,0.3,2.9-0.3c-0.6,0.1-1.3,0.1-2-0.2c-2-0.7-3.4-2.9-3.1-4.7
	c0.1-0.7,0.4-1.3,0.9-1.6C80.5,41.8,79.8,42.5,79.6,43.6"/>
<path class="st10" d="M52.1,38.5c-0.7,1.3-1.3,2.8-1.6,4.3C48,53.7,54.7,67.9,68,72.4c5.4,1.8,10.6,1.2,14.6-1
	c-3.9,1.8-8.7,2.2-13.8,0.5c-13.3-4.5-20.1-18.7-17.5-29.6c0.4-1.5,0.9-2.9,1.6-4.3c1.6-3.3,4.4-5.9,7.7-7.7
	C57,32.1,53.9,34.8,52.1,38.5"/>
<path class="st10" d="M87.3,56.2c-0.5,3.7-2.6,6.3-5.4,7.9c3.3-1.4,5.8-4.3,6.3-8.3c0.1-1.2,0.1-2.4-0.1-3.8
	c-0.3-1.4-0.8-2.9-1.6-4.3c-0.3,0.2-0.5,0.4-0.9,0.4c0.7,1.4,1.3,2.8,1.6,4.3C87.5,53.7,87.5,55,87.3,56.2"/>
<path class="st10" d="M80.3,34.4c8.4,4.2,14,14.1,14.9,22.3c0.3,2.1,0.3,4.1,0.1,6.1C94.5,69.3,90.9,75,85,78.1
	c6.4-3,10.4-8.9,11.2-15.8c0.2-2,0.2-4-0.1-6.1c-0.9-8.3-6.6-18.2-14.9-22.3c-5.5-3.1-12.8-3-17.8-0.3
	C68.4,31.4,75.2,31.5,80.3,34.4"/>
<path class="st10" d="M64.4,115.7c-18.9-3.6-35.2-16-45.1-32.3C9.7,67.6,7,49.2,12.9,33c4.2-11.3,12.3-20,22.3-25.2
	C24.9,13,16.3,21.8,12,33.4C6,49.6,8.8,68,18.4,83.8c9.9,16.3,26.2,28.7,45.1,32.3c12.5,2.4,24.3,0.4,33.8-4.7
	C88,116.2,76.5,118.1,64.4,115.7"/>
<path class="st10" d="M81.2,23.5c8,3.3,15.4,8.7,20.9,16.8c5,7.2,7.8,17.5,7.1,26.1c-0.8,8.7-4.5,16.8-9.6,22.9
	c-3.7,4.3-8,8-13,10.5c5.4-2.6,10-6.4,13.9-11c5.1-6.1,8.8-14.2,9.6-22.9c0.7-8.6-2-18.9-7-26.1C97.6,31.7,90.2,26.2,82.2,23
	c-8.5-3.4-17.6-4.5-26-1.5c-1,0.3-2,0.8-2.9,1.3c0.7-0.3,1.4-0.6,2.1-0.8C63.7,19,72.7,20.1,81.2,23.5"/>
<path class="st10" d="M102,100c9.6-7,16.2-18.6,17-32.4c1.4-22.3-14.7-47.6-36.6-56.7c-12.1-5-24.7-5.2-35.1-1.7
	c-1.8,0.6-3.5,1.3-5.1,2.1c1.4-0.6,2.8-1.2,4.2-1.7c10.4-3.5,23-3.2,35.1,1.7c21.9,9.1,38,34.4,36.6,56.7
	c-0.8,12.3-6.1,22.9-14.1,30C103.4,98.7,102.7,99.4,102,100"/>
<path class="st10" d="M32.9,38c-0.4,1.3-0.7,2.7-0.9,4.1c-2.3,12.2,4.1,28.1,15.7,36.5C59.9,87.8,74.1,89,85,84.4
	c0.8-0.3,1.5-0.7,2.3-1.1c-0.5,0.2-0.9,0.4-1.4,0.6c-11,4.6-25.2,3.5-37.3-5.8c-11.5-8.4-18-24.3-15.7-36.5c0.2-1.4,0.5-2.8,0.9-4.1
	c2.5-8.6,8.9-15.6,16.2-19.3C42.3,21.8,35.6,29,32.9,38"/>
<g>
	<g>
		<defs>
			<path id="SVGID_28_" d="M85.7,48.1L85.7,48.1L85.7,48.1z"/>
		</defs>
		<clipPath id="SVGID_29_">
			<use xlink:href="#SVGID_28_"  style="overflow:visible;"/>
		</clipPath>
		
			<linearGradient id="SVGID_30_" gradientUnits="userSpaceOnUse" x1="-33.2079" y1="-101.2576" x2="-33.2079" y2="-101.2576" gradientTransform="matrix(123.4728 0 0 123.4728 4186.0156 12550.6748)">
			<stop  offset="0" style="stop-color:#57AB27"/>
			<stop  offset="6.134030e-03" style="stop-color:#57AB27"/>
			<stop  offset="0.3374" style="stop-color:#009C31"/>
			<stop  offset="0.4225" style="stop-color:#008950"/>
			<stop  offset="0.5375" style="stop-color:#007365"/>
			<stop  offset="0.6488" style="stop-color:#00606F"/>
			<stop  offset="0.7535" style="stop-color:#005271"/>
			<stop  offset="0.8498" style="stop-color:#004870"/>
			<stop  offset="0.935" style="stop-color:#00416E"/>
			<stop  offset="1" style="stop-color:#003F6E"/>
		</linearGradient>
		<polygon class="st11" points="85.7,48.1 85.7,48.1 85.7,48.1 		"/>
	</g>
</g>
<g>
	<g>
		<defs>
			<path id="SVGID_31_" d="M101.2,100.4c1-0.8,2-1.6,3-2.4C103.2,98.9,102.2,99.7,101.2,100.4"/>
		</defs>
		<clipPath id="SVGID_32_">
			<use xlink:href="#SVGID_31_"  style="overflow:visible;"/>
		</clipPath>
		
			<linearGradient id="SVGID_33_" gradientUnits="userSpaceOnUse" x1="-33.7667" y1="-100.9933" x2="-32.8905" y2="-100.9933" gradientTransform="matrix(127.8491 0 0 127.8491 4327.3911 13011.1143)">
			<stop  offset="0" style="stop-color:#57AB27"/>
			<stop  offset="6.134030e-03" style="stop-color:#57AB27"/>
			<stop  offset="0.3374" style="stop-color:#009C31"/>
			<stop  offset="0.4225" style="stop-color:#008950"/>
			<stop  offset="0.5375" style="stop-color:#007365"/>
			<stop  offset="0.6488" style="stop-color:#00606F"/>
			<stop  offset="0.7535" style="stop-color:#005271"/>
			<stop  offset="0.8498" style="stop-color:#004870"/>
			<stop  offset="0.935" style="stop-color:#00416E"/>
			<stop  offset="1" style="stop-color:#003F6E"/>
		</linearGradient>
		<rect x="101.2" y="98" class="st12" width="3" height="2.4"/>
	</g>
</g>
<g>
	<g>
		<defs>
			<path id="SVGID_34_" d="M96.2,56.3c0.1,1.1,0.2,2.2,0.2,3.3c0,1-0.1,1.9-0.2,2.8c-0.8,6.8-4.7,12.8-11.2,15.8
				c-0.6,0.3-1.2,0.6-1.8,0.9c-2.6,1-5.3,1.5-8.1,1.5c-7.5,0-15.3-3.6-21.1-9.4c-3.8-3.6-7.1-8.2-9.4-13.1c-3.1,0.9-6.2,1.9-9.2,3
				c2.8,6.6,7.3,12.8,13.1,17c0.1,0.1,0.2,0.2,0.4,0.3l0,0c0,0,0,0,0.1,0c7.5,5.6,15.8,8.1,23.6,8.1l0,0l0,0c4.7,0,9.2-0.9,13.3-2.6
				c0,0,0,0,0.1,0c0.5-0.2,0.9-0.4,1.4-0.6c7.5-3.9,13.3-10.9,14.2-20.4c0.2-1.6,0.2-3.2,0.1-4.9c-0.1-2.4-0.7-4.9-1.5-7.4
				c-1.7-0.1-3.4-0.1-5.2-0.1C95.5,52.5,96,54.5,96.2,56.3 M18.8,46.2L18.8,46.2L18.8,46.2 M50.8,47c0,10,6.6,21,18,24.9h0.1l0,0H69
				l0,0c2.1,0.7,4.2,1,6.1,1l0,0l0,0c2.6,0,5-0.5,7.2-1.5c0.1,0,0.1,0,0.2-0.1c4.5-2.4,7.7-6.8,8.4-12c0.3-2.2,0.1-4.5-0.6-7
				c-0.6-2.2-1.6-4.3-2.8-6.4c0.9,1.5,1.7,3,2.3,4.6c-0.7,0-1.3,0-2,0.1c0.1,0.4,0.2,0.8,0.3,1.3c0.1,0.8,0.2,1.5,0.2,2.2
				c0,0.5,0,1.1-0.1,1.6c-0.5,4-3,6.9-6.3,8.3c-1.9,1-4.1,1.5-6.4,1.5c-1.9,0-3.8-0.4-5.7-1.1c-4.6-1.6-8.8-5.4-11.3-10
				c-0.5,0.1-1,0.2-1.6,0.3c-1.5,0.4-3.1,0.7-4.6,1.1c-1.7-4.5-2.1-9.3-1.1-13.6C51,43.8,50.8,45.4,50.8,47 M105.2,43.5
				c-0.7-1.3-1.4-2.5-2.2-3.7C103.8,41,104.5,42.2,105.2,43.5 M93.7,39.4C93.7,39.4,93.6,39.4,93.7,39.4
				C93.6,39.4,93.7,39.4,93.7,39.4 M93.6,39.4L93.6,39.4L93.6,39.4 M111.6,51.6c-1.5-4.7-3.6-9.2-6-13.2
				C108.1,42.4,110.1,46.9,111.6,51.6 M18.8,46.2c0.3-3.8,1-7.6,2.3-11.3C19.8,38.6,19.1,42.3,18.8,46.2 M93.6,39.3
				c-3.5-4.2-7.8-7.6-12.5-9.3C85.8,31.7,90.1,35.1,93.6,39.3 M120.7,53.3c-1-0.2-2.1-0.5-3.2-0.7c-0.6-2.2-1.3-4.4-2.1-6.6
				c2.4,6.2,3.7,12.7,3.7,19c0,0.9,0,1.8-0.1,2.6c-0.8,13.7-7.4,25.4-17,32.4c0.7-0.6,1.4-1.3,2.1-2c-0.9,0.9-1.9,1.7-3,2.4
				c1.1-1,2.2-2.1,3.3-3.2c5.3-5.8,8.9-14.4,9.8-23c0.2-2,0.3-4.1,0.2-6.1c-0.1-5.4-1.1-11.1-2.9-16.6c-1.1-0.2-2.1-0.3-3.3-0.4
				c1.2,3.9,1.8,8,1.8,11.9c0,1,0,1.9-0.1,2.9c-0.8,8.7-4.5,16.8-9.6,22.9c-3.9,4.6-8.5,8.4-13.9,11c-3.4,1.7-7.2,3-11.3,3.5
				c-1.6,0.2-3.3,0.3-4.9,0.3c-9.1,0-18.1-3.4-26.3-8.7c-3.9-2.6-7.8-5.7-11.5-9.2c-4.8-5.8-8.4-12.3-10.8-19
				c-2.9,1.3-5.7,2.8-8.3,4.2c-1.2-3.5-2.2-7-2.8-10.6c1.3,7.9,4.3,15.7,8.7,23c9.9,16.3,26.2,28.7,45.1,32.3c0.1,0,0.1,0,0.2,0h0.1
				c3.4,0.6,6.8,1,10.1,1l0,0l0,0c8.1,0,15.7-1.8,22.3-5.2l0.1-0.1l0.1-0.1c3.2-1.7,6.1-3.7,8.7-6.1c5-4.5,9.1-10.1,12-16.7
				c2.4-5.5,3.9-11.6,4.3-18.1c0.8-14.3-4.1-29.1-12.9-41.1C114.7,36.7,118.6,44.8,120.7,53.3 M109.4,29.5L109.4,29.5L109.4,29.5
				 M109.4,29.5c0-0.1-0.1-0.1-0.1-0.2C109.3,29.3,109.4,29.4,109.4,29.5 M109.3,29.3L109.3,29.3L109.3,29.3 M109.3,29.3L109.3,29.3
				L109.3,29.3 M60.7,30.3c-3.3,1.8-6.1,4.4-7.7,7.7c-0.7,1.3-1.3,2.8-1.6,4.3c0.4-1.5,0.9-2.9,1.6-4.3
				C54.6,34.7,57.4,32.1,60.7,30.3c3.2-1.5,6.8-2.3,10.5-2.3c3.3,0,6.7,0.6,9.9,1.9l0,0l0,0c-3.2-1.3-6.6-1.9-9.9-1.9
				C67.5,28.1,63.9,28.8,60.7,30.3 M66.7,14.3c4.7,0,9.7,0.9,14.7,2.8c10,3.9,18.8,12.1,24.2,21.3c-5.5-9.2-14.3-17.4-24.2-21.3
				C76.4,15.2,71.5,14.3,66.7,14.3L66.7,14.3 M51.2,17.7c-0.4,0.2-0.8,0.4-1.2,0.5C42.7,22,36.3,28.9,33.8,37.5
				c-0.4,1.3-0.7,2.7-0.9,4.1c0.2-1.4,0.5-2.8,0.9-4.1c2.5-8.6,8.9-15.6,16.2-19.3C50.4,18,50.8,17.8,51.2,17.7
				c4.8-2.2,10-3.4,15.5-3.4C61.2,14.3,56,15.5,51.2,17.7 M82.5,11C82.5,11,82.4,11,82.5,11C82.4,11,82.5,11,82.5,11"/>
		</defs>
		<clipPath id="SVGID_35_">
			<use xlink:href="#SVGID_34_"  style="overflow:visible;"/>
		</clipPath>
		
			<linearGradient id="SVGID_36_" gradientUnits="userSpaceOnUse" x1="-33.7706" y1="-101.2694" x2="-32.8899" y2="-101.2694" gradientTransform="matrix(127.8491 0 0 127.8491 4327.3911 13011.1143)">
			<stop  offset="0" style="stop-color:#A81C22"/>
			<stop  offset="1" style="stop-color:#39001D"/>
		</linearGradient>
		<rect x="10.6" y="11" class="st13" width="112.6" height="105.8"/>
	</g>
</g>
<path class="st14" d="M21.7,66.7c-2-5.7-3-11.5-3-17.3c0-1.1,0-2.1,0.1-3.2C18.4,53.1,19.4,60,21.7,66.7L21.7,66.7"/>
<path class="st15" d="M10.6,60.4C9,51.1,9.7,41.7,12.9,33c-2.1,5.8-3.1,11.8-3.1,17.9C9.8,54.1,10.1,57.2,10.6,60.4"/>
<path class="st14" d="M18.8,46.2L18.8,46.2L18.8,46.2"/>
<path class="st15" d="M115.4,46c-5.9-15.1-18-28.8-32.9-35C97.4,17.2,109.5,30.9,115.4,46"/>
<path class="st14" d="M109.3,29.3c-7.1-9.6-16.6-17.5-27.8-22.1C92.6,11.8,102.2,19.7,109.3,29.3 M109.3,29.3L109.3,29.3L109.3,29.3
	"/>
<g>
	<g>
		<defs>
			<path id="SVGID_37_" d="M41.8,5.1c-2.2,0.7-4.4,1.7-6.5,2.7C25.4,13,17.2,21.7,13,33c-2.1,5.8-3.1,11.8-3.1,17.9
				c0,3.2,0.3,6.3,0.8,9.5c0.6,3.5,1.5,7.1,2.8,10.6c2.7-1.5,5.4-2.9,8.3-4.2c-2-5.7-3-11.5-3-17.3c0-1.1,0-2.1,0.1-3.2l0,0l0,0
				c0.3-3.8,1-7.6,2.3-11.3c3.7-10.9,11.5-19,21.1-23.5c1.6-0.8,3.3-1.5,5.1-2.1h0.1c4.6-1.5,9.5-2.3,14.7-2.3l0,0l0,0
				c6.6,0,13.5,1.3,20.3,4.1c0,0,0,0,0.1,0c14.9,6.2,27.1,19.9,32.9,35c0.8,2.2,1.5,4.4,2.1,6.6c1.1,0.2,2.1,0.4,3.2,0.7
				c-2.1-8.5-6-16.7-11.4-24l0,0l0,0C102.3,19.9,92.8,12,81.6,7.4C74,4.3,66.1,2.8,58.5,2.8C52.6,2.5,46.9,3.4,41.8,5.1"/>
		</defs>
		<clipPath id="SVGID_38_">
			<use xlink:href="#SVGID_37_"  style="overflow:visible;"/>
		</clipPath>
		
			<linearGradient id="SVGID_39_" gradientUnits="userSpaceOnUse" x1="-33.7706" y1="-101.4822" x2="-32.8897" y2="-101.4822" gradientTransform="matrix(127.8491 0 0 127.8491 4327.3911 13011.1143)">
			<stop  offset="0" style="stop-color:#B41324"/>
			<stop  offset="1" style="stop-color:#7E0635"/>
		</linearGradient>
		<rect x="9.8" y="2.5" class="st16" width="110.9" height="68.4"/>
	</g>
</g>
<path class="st14" d="M58.6,54.5c-1.5-2.8-2.4-5.9-2.4-9.1c0-1.1,0.1-2.1,0.3-3.2c0.1-0.6,0.3-1.1,0.5-1.7c0.1-0.2,0.1-0.4,0.2-0.6
	c-0.1,0.2-0.1,0.4-0.2,0.6c-0.2,0.6-0.4,1.1-0.5,1.7C55.6,46.4,56.6,50.7,58.6,54.5L58.6,54.5"/>
<path class="st15" d="M72,31.7L72,31.7L72,31.7 M63.6,33.7L63.6,33.7c2.5-1.3,5.4-2,8.5-2C69,31.7,66,32.4,63.6,33.7 M81.1,34
	c-0.1,0-0.1-0.1-0.2-0.1C81,33.9,81.1,33.9,81.1,34 M94.8,50.5L94.8,50.5c-2.3-6.7-7.1-13.3-13.6-16.5l0,0l0,0
	C87.7,37.2,92.5,43.9,94.8,50.5"/>
<path class="st14" d="M81.1,30L81.1,30L81.1,30 M93.6,39.4L93.6,39.4L93.6,39.4 M93.6,39.4L93.6,39.4L93.6,39.4 M100,50.6L100,50.6
	c-1.4-3.9-3.6-7.8-6.4-11.2C96.4,42.8,98.6,46.7,100,50.6"/>
<g>
	<g>
		<defs>
			<path id="SVGID_40_" d="M60.7,30.3c-3.3,1.8-6.1,4.4-7.7,7.7c-0.7,1.3-1.3,2.8-1.6,4.3c-1,4.3-0.6,9.1,1.1,13.6
				c1.5-0.4,3-0.7,4.6-1.1c0.5-0.1,1-0.2,1.6-0.3c-1.5-2.8-2.4-5.9-2.4-9.1c0-1.1,0.1-2.1,0.3-3.2c0.1-0.6,0.3-1.1,0.5-1.7
				c0.1-0.2,0.1-0.4,0.2-0.6c1.1-2.8,3.4-4.9,6.2-6.2c0.1,0,0.1-0.1,0.2-0.1c2.5-1.3,5.4-2,8.5-2l0,0l0,0c3.1,0,6.2,0.7,8.9,2.2
				c0.1,0,0.1,0.1,0.2,0.1l0,0l0,0c6.5,3.2,11.3,9.8,13.6,16.5c1.8,0,3.5,0,5.2,0.1c-1.4-3.9-3.6-7.8-6.4-11.2l0,0l0,0l0,0l0,0
				c-3.5-4.2-7.8-7.6-12.5-9.3l0,0l0,0c-3.2-1.3-6.6-1.9-9.9-1.9C67.5,28.1,63.9,28.8,60.7,30.3"/>
		</defs>
		<clipPath id="SVGID_41_">
			<use xlink:href="#SVGID_40_"  style="overflow:visible;"/>
		</clipPath>
		
			<linearGradient id="SVGID_42_" gradientUnits="userSpaceOnUse" x1="-33.7704" y1="-101.4403" x2="-32.8895" y2="-101.4403" gradientTransform="matrix(127.8491 0 0 127.8491 4327.3911 13011.1143)">
			<stop  offset="0" style="stop-color:#B41324"/>
			<stop  offset="1" style="stop-color:#7E0635"/>
		</linearGradient>
		<rect x="50.4" y="28.1" class="st17" width="49.7" height="27.9"/>
	</g>
</g>
<path class="st15" d="M87.8,50.7c-0.3-1-0.7-2.1-1.2-3c-0.3,0.2-0.5,0.4-0.9,0.4c0.3-0.1,0.6-0.2,0.9-0.4
	C87.1,48.6,87.5,49.7,87.8,50.7L87.8,50.7"/>
<path class="st14" d="M87.6,46c-0.5-0.8-1.1-1.6-1.7-2.4C86.5,44.4,87,45.2,87.6,46"/>
<g>
	<g>
		<defs>
			<path id="SVGID_43_" d="M81.4,41.6c-0.5,0.4-0.8,0.9-0.9,1.6c0,0.1,0,0.3,0,0.4c0,1.8,1.4,3.7,3.2,4.4l0,0l0,0l0,0l0,0l0,0
				c0.4,0.1,0.8,0.2,1.2,0.2l0,0l0,0c0.2,0,0.5,0,0.7-0.1l0,0l0,0l0,0l0,0c0.3-0.1,0.6-0.2,0.9-0.4c0.5,1,1,2,1.3,3
				c0.7,0,1.3-0.1,2-0.1c-0.6-1.6-1.3-3.1-2.3-4.6c-0.5-0.8-1.1-1.6-1.7-2.4c-0.7-0.8-1.8-1.7-2.3-1.9c-0.5-0.2-0.9-0.3-1.3-0.3
				C81.9,41.5,81.6,41.5,81.4,41.6"/>
		</defs>
		<clipPath id="SVGID_44_">
			<use xlink:href="#SVGID_43_"  style="overflow:visible;"/>
		</clipPath>
		
			<linearGradient id="SVGID_45_" gradientUnits="userSpaceOnUse" x1="-33.7718" y1="-101.4086" x2="-32.8886" y2="-101.4086" gradientTransform="matrix(127.8491 0 0 127.8491 4327.3911 13011.1143)">
			<stop  offset="0" style="stop-color:#B41324"/>
			<stop  offset="1" style="stop-color:#7E0635"/>
		</linearGradient>
		<rect x="80.5" y="41.5" class="st18" width="9.3" height="9.2"/>
	</g>
</g>
<path class="st15" d="M35.4,61.1c-2.7-6.5-3.7-13.4-2.5-19.4c-0.3,1.7-0.5,3.4-0.5,5.2C32.4,51.5,33.5,56.4,35.4,61.1L35.4,61.1"/>
<path class="st14" d="M111.6,51.6L111.6,51.6L111.6,51.6L111.6,51.6 M44.6,58.1c-2.3-4.9-3.6-10-3.6-14.9c0-0.1,0-0.2,0-0.3
	C40.9,47.8,42.3,53.1,44.6,58.1L44.6,58.1"/>
<path class="st15" d="M108.4,51.2L108.4,51.2c-0.8-2.7-1.9-5.3-3.1-7.7C106.5,45.9,107.6,48.5,108.4,51.2"/>
<g>
	<g>
		<defs>
			<path id="SVGID_46_" d="M51.2,17.7c-0.4,0.2-0.8,0.4-1.2,0.5C42.7,22,36.3,28.9,33.8,37.5c-0.4,1.3-0.7,2.7-0.9,4.1
				c-0.3,1.7-0.5,3.4-0.5,5.2c0,4.6,1.1,9.6,3,14.3c3-1.1,6-2.1,9.2-3c-2.3-4.9-3.6-10-3.6-14.9c0-0.1,0-0.2,0-0.3
				c0-0.2,0-0.4,0-0.6c0-1.9,0.3-3.8,0.7-5.7c1.6-6,5.8-11.2,11.4-13.8c0.9-0.5,1.9-0.9,2.9-1.3c0.1,0,0.1,0,0.2-0.1
				c3.3-1.2,6.7-1.7,10.2-1.7l0,0l0,0c5.1,0,10.3,1.2,15.2,3.1l0,0c0,0,0,0,0.1,0c0,0,0,0,0.1,0s0.1,0.1,0.2,0.1
				c8,3.3,15.4,8.7,20.9,16.8c0.8,1.1,1.5,2.4,2.2,3.7c1.3,2.4,2.3,5,3.1,7.7c1.1,0.1,2.2,0.2,3.3,0.4l0,0c-1.5-4.7-3.6-9.2-6-13.2
				C100,29.1,91.2,20.9,81.3,17c-5-1.9-9.9-2.8-14.7-2.8C61.2,14.3,56,15.5,51.2,17.7"/>
		</defs>
		<clipPath id="SVGID_47_">
			<use xlink:href="#SVGID_46_"  style="overflow:visible;"/>
		</clipPath>
		
			<linearGradient id="SVGID_48_" gradientUnits="userSpaceOnUse" x1="-33.7707" y1="-101.4743" x2="-32.8895" y2="-101.4743" gradientTransform="matrix(127.8491 0 0 127.8491 4327.3911 13011.1143)">
			<stop  offset="0" style="stop-color:#B41324"/>
			<stop  offset="1" style="stop-color:#7E0635"/>
		</linearGradient>
		<rect x="32.4" y="14.3" class="st19" width="79.2" height="46.8"/>
	</g>
</g>
</svg>
