<?xml version="1.0" encoding="utf-8"?>
<!-- Generator: Adobe Illustrator 19.2.1, SVG Export Plug-In . SVG Version: 6.00 Build 0)  -->
<svg version="1.1" id="Layer_1" xmlns="http://www.w3.org/2000/svg" xmlns:xlink="http://www.w3.org/1999/xlink" x="0px" y="0px"
	 viewBox="0 0 265 33.5" style="enable-background:new 0 0 265 33.5;" xml:space="preserve">
<g id="XMLID_277_">
	<g id="XMLID_287_">
		<path id="XMLID_305_" d="M19,1.5c0,4.1,7,8.6,7,13.3c0,0,0,0.4-0.2,0.9c6.5,1.4,11.1,4.5,11.1,8.3c0,5-8.2,9.2-18.4,9.2
			C8.1,33.2,0,29.1,0,24.2c0-3.7,5-6.8,11-8.4c0,2.1,6.9,8.6,7,11.2c0,0.3,0.1,0.6,0,0.9c1.5-0.8,1.5-3.2,1.5-3.2
			c0-5.7-6.7-8.3-6.7-13.9c0-2.2,1-3.8,2-4.3v1.6c0,4.1,7.2,8.7,7.2,12.4v1.2c1.7-0.6,1.7-3.7,1.7-3.7c0-5.2-6.7-8-6.7-13.9
			c0-2.2,1-3.8,2-4.3V1.5L19,1.5z"/>
		<path id="XMLID_304_" d="M51.5,31.7c-3.5,0-6.1-1-6.1-1v-6.1h0.9c0.5,3.2,2.9,5.7,5.7,5.7c2.8,0,4.8-1.5,4.8-4
			c0-2.6-2.6-3.8-4.3-4.7L50,20.3c-2.4-1.2-4.3-3.1-4.3-5.8c0-3.4,2.5-6.3,7.3-6.3c3.3,0,6,1.1,6,1.1v5.4h-0.9
			c-0.6-2.8-2.2-5.1-5.5-5.1c-2.4,0-3.9,1.7-3.9,3.4c0,2.2,1.5,3.2,3.3,4.1l2.5,1.3c2.3,1.2,5.1,3.1,5.1,6.4
			C59.7,28.9,56.8,31.7,51.5,31.7L51.5,31.7z"/>
		<path id="XMLID_301_" d="M66.4,31.5c-2.2,0-3.6-1.5-3.6-3.6c0-1.5,1.1-2.7,3.6-3.6l4.3-1.6v-1.4c0-2-0.9-3.3-2.4-3.3
			c-1,0-1.9,0.5-2.4,1.3c-0.2,0.3-0.2,0.7-0.2,1c0,0.5,0.4,1.2,0.4,1.2l-2.1,1c-0.3-0.5-0.6-1.1-0.6-1.8c0-0.1,0-0.3,0-0.4
			c0.2-1.2,1.2-1.9,2.5-2.7c1.3-0.8,2.4-1,3.3-1c4.1,0,4.8,3.2,4.8,4.3v6.7c0,1.1,0.1,1.7,1,1.7c0.3,0,0.4,0,0.8-0.1l0.8-0.3v1
			l-4.5,1.7c-0.7-0.5-1-1.4-1.1-2.1C69.8,30.3,68,31.5,66.4,31.5L66.4,31.5z M67.7,25c-0.7,0.3-1.9,0.8-1.9,2.4
			c0,0.8,0.5,2.2,2.2,2.2c0.8,0,1.9-0.5,2.7-1.1v-4.8L67.7,25L67.7,25z"/>
		<path id="XMLID_300_" d="M77.5,31.2v-0.8l1.1-0.2c0.6-0.1,1.1-0.6,1.1-1.3v-8.6c0-0.7-0.4-1.1-1-1.1c-0.2,0-0.5,0-0.7,0.1
			l-0.5,0.3v-1l4.6-2h0.7V19c1.4-1.6,3.1-2.4,4.6-2.4c3.3,0,4.9,2.4,4.9,5.1V29c0,0.6,0.5,1.2,1.1,1.3l1.1,0.2v0.8h-7.7v-0.8
			l1.1-0.2c0.6-0.1,1.2-0.6,1.2-1.3v-7.3c0-1-0.3-3.1-2.8-3.1c-1.4,0-2.6,0.9-3.3,1.5V29c0,0.6,0.5,1.1,1.2,1.3l1.1,0.2v0.8
			L77.5,31.2L77.5,31.2z"/>
		<path id="XMLID_299_" d="M105.6,18.6h-4.5v8c0,1.8,0.9,2.7,2.3,2.7c0.5,0,1.4-0.2,2.2-0.6l0.4,0.8l-2.9,1.8c0,0-0.6,0.1-0.9,0.1
			c-2.8,0-4.3-1.6-4.3-5.1v-7.7h-2.4v-0.8c0,0,3.5-1.4,4.9-4.7h0.6v4.1h5.1L105.6,18.6L105.6,18.6z"/>
		<path id="XMLID_296_" d="M111,31.5c-2.2,0-3.6-1.5-3.6-3.6c0-1.5,1.1-2.7,3.6-3.6l4.3-1.6v-1.4c0-2-0.9-3.3-2.4-3.3
			c-1,0-1.9,0.5-2.4,1.3c-0.2,0.3-0.2,0.7-0.2,1c0,0.5,0.4,1.2,0.4,1.2l-2.1,1c-0.3-0.5-0.6-1.1-0.6-1.8c0-0.1,0-0.3,0-0.4
			c0.2-1.2,1.2-1.9,2.5-2.7c1.3-0.8,2.4-1,3.3-1c4.1,0,4.8,3.2,4.8,4.3v6.7c0,1.1,0.1,1.7,1,1.7c0.3,0,0.4,0,0.8-0.1l0.8-0.3v1
			l-4.5,1.7c-0.7-0.5-1-1.4-1.1-2.1C114.4,30.3,112.6,31.5,111,31.5L111,31.5z M112.3,25c-0.7,0.3-1.9,0.8-1.9,2.4
			c0,0.8,0.5,2.2,2.2,2.2c0.8,0,1.9-0.5,2.7-1.1v-4.8L112.3,25L112.3,25z"/>
		<path id="XMLID_295_" d="M122.1,31.2v-0.8l1.1-0.2c0.6-0.1,1.1-0.6,1.1-1.3v-8.6c0-0.7-0.4-1.1-1-1.1c-0.2,0-0.5,0-0.7,0.1
			l-0.4,0.2v-1l4.6-2h0.7v2.4c1.4-1.6,3.1-2.4,4.6-2.4c3.3,0,4.9,2.4,4.9,5.1v7.3c0,0.6,0.5,1.2,1.1,1.3l1.1,0.2v0.8h-7.7v-0.8
			l1.1-0.2c0.6-0.1,1.2-0.6,1.2-1.3v-7.3c0-1-0.3-3.1-2.8-3.1c-1.4,0-2.6,0.9-3.3,1.5v8.9c0,0.6,0.5,1.1,1.2,1.3l1.1,0.2v0.8H122.1
			L122.1,31.2z"/>
		<path id="XMLID_292_" d="M147.2,31.5c-3,0-6.7-2.3-6.7-7.2c0-4.3,3.3-7.8,7.8-7.8c1.5,0,2.5,0.3,3.3,0.6V9.7c0-0.8-0.4-1-0.9-1
			c-0.3,0-0.6,0.1-0.9,0.2l-0.6,0.2v-1l5-2.1h0.7v21.2c0,1.2,0.2,1.9,1.1,1.9c0.3,0,0.4,0,0.8-0.1l0.8-0.3v1l-4.5,1.7
			c-0.7-0.5-1.1-1.4-1.2-2.1C150.9,30.3,149.4,31.5,147.2,31.5L147.2,31.5z M148.7,17.9c-2.3,0-4.7,1.5-4.7,5.8
			c0,3.6,1.8,5.8,4.6,5.8c1.7,0,2.8-1,3-1.5v-8.4C151.2,18.6,150,17.9,148.7,17.9L148.7,17.9z"/>
		<path id="XMLID_289_" d="M162.2,22.9v0.2c0,4.3,2.4,6.4,5.5,6.4c1.5,0,3-0.6,4.1-1.4v1.3c-1.3,1.2-3.3,2.2-5.7,2.2
			c-5,0-7.2-3.8-7.2-7.3c0-4.2,3.2-7.6,7.3-7.6c3.4,0,6,2.4,6,5.9V23h-10C162.2,23,162.2,22.9,162.2,22.9z M168.8,21.6L168.8,21.6
			c0-2.5-1.4-3.6-3-3.6c-1.8,0-3.2,1.2-3.5,3.6H168.8L168.8,21.6z"/>
		<path id="XMLID_288_" d="M174.1,31.2v-0.8l1.1-0.2c0.6-0.1,1.1-0.6,1.1-1.3v-8.6c0-0.7-0.4-1.1-1-1.1c-0.2,0-0.5,0-0.7,0.1
			l-0.4,0.2v-1l4.6-2h0.7v3.1c1.2-2.3,2.5-3.2,4.1-3.2c1.3,0,1.6,0.3,1.6,0.3v3.4h-0.6c-0.2-0.9-0.8-1.4-1.7-1.4
			c-1,0-2.3,0.3-3.2,2.2v7.9c0,0.6,0.6,1.2,1.3,1.3l1.5,0.2v0.8L174.1,31.2L174.1,31.2z"/>
	</g>
	<path id="XMLID_286_" d="M198.1,31.2v-1l1.2-0.2c0.9-0.1,1.4-0.7,1.4-1.2V10h-3.1c-3.4,0-4,2.3-4.2,4.8h-1.2V8.6h10.2h10.2v6.1
		h-1.2c-0.2-2.5-0.8-4.7-4.2-4.7h-3.1v18.8c0,0.5,0.5,1.1,1.4,1.2l1.2,0.2v1L198.1,31.2L198.1,31.2z"/>
	<path id="XMLID_283_" d="M218.4,31.5c-4,0-7.7-2.9-7.7-7.7c0-3.5,2.8-7.2,7.6-7.2c4,0,7.7,2.9,7.7,7.7
		C226,27.8,223.2,31.5,218.4,31.5L218.4,31.5z M218,17.9c-3,0-3.7,2.9-3.7,5.3c0,3.1,1.1,7,4.4,7c3,0,3.7-2.9,3.7-5.3
		C222.5,21.8,221.4,17.9,218,17.9L218,17.9z"/>
	<path id="XMLID_282_" d="M237.8,18.5h-4.5v8c0,1.8,0.9,2.7,2.3,2.7c0.5,0,1.4-0.2,2.2-0.6l0.4,0.8l-2.9,1.8c0,0-0.6,0.1-0.9,0.1
		c-2.8,0-4.3-1.6-4.3-5.1v-7.7h-2.4v-0.8c0,0,3.5-1.4,4.9-4.7h0.6v4.1h5.1L237.8,18.5L237.8,18.5z"/>
	<path id="XMLID_281_" d="M249.5,18.5H245v8c0,1.8,0.9,2.7,2.3,2.7c0.5,0,1.4-0.2,2.2-0.6l0.4,0.8l-2.9,1.8c0,0-0.6,0.1-0.9,0.1
		c-2.8,0-4.3-1.6-4.3-5.1v-7.7h-2.4v-0.8c0,0,3.5-1.4,4.9-4.7h0.6v4.1h5.1L249.5,18.5L249.5,18.5z"/>
	<path id="XMLID_278_" d="M254.9,31.5c-2.2,0-3.6-1.4-3.6-3.6c0-1.5,1.1-2.7,3.6-3.6l4.3-1.6v-1.4c0-2-0.9-3.3-2.4-3.3
		c-1,0-1.9,0.5-2.4,1.3c-0.2,0.3-0.2,0.7-0.2,1c0,0.5,0.4,1.2,0.4,1.2l-2.1,1c-0.3-0.5-0.6-1.1-0.6-1.8c0-0.1,0-0.3,0-0.4
		c0.2-1.2,1.2-1.9,2.5-2.7c1.3-0.8,2.5-1,3.3-1c4.1,0,4.8,3.2,4.8,4.3v6.7c0,1.1,0.1,1.7,1,1.7c0.3,0,0.4,0,0.8-0.1l0.8-0.3v1
		l-4.5,1.7c-0.7-0.5-1-1.4-1.1-2.1C258.3,30.3,256.5,31.5,254.9,31.5L254.9,31.5z M256.2,25c-0.7,0.3-1.9,0.8-1.9,2.4
		c0,0.8,0.5,2.2,2.2,2.2c0.8,0,1.9-0.5,2.7-1.1v-4.8L256.2,25L256.2,25z"/>
</g>
</svg>
