<?xml version="1.0" encoding="utf-8"?>
<!-- Generator: Adobe Illustrator 19.2.1, SVG Export Plug-In . SVG Version: 6.00 Build 0)  -->
<svg version="1.1" id="Layer_1" xmlns="http://www.w3.org/2000/svg" xmlns:xlink="http://www.w3.org/1999/xlink" x="0px" y="0px"
	 viewBox="0 0 265.7 48.6" style="enable-background:new 0 0 265.7 48.6;" xml:space="preserve">
<g id="XMLID_591_">
	<path id="XMLID_592_" d="M239.7,38.6c-5.6,6.8-14.9,10.2-23.9,7.8c-11-3-18.1-13.5-17.1-24.5h8.8c-0.1,0.8-0.2,1.5-0.2,2.3
		c0,7.8,6.2,14.1,13.9,14.4l0,0h0.3c0.1,0,0.2,0,0.2,0c0.1,0,0.2,0,0.2,0S239.7,38.6,239.7,38.6z M203.5,9.8
		c5.6-7.1,15-10.6,24.2-8.1c11.2,3,18.3,13.8,17,25h-8.8c0.1-0.8,0.2-1.6,0.2-2.4c0-7.9-6.5-14.4-14.4-14.4c-0.1,0-0.1,0-0.2,0
		L203.5,9.8L203.5,9.8z M197.8,22.2c0,0.5-0.1,1-0.1,1.5h1.3l0.1-1.4L197.8,22.2 M197.7,25.3c0,0.5,0.1,1,0.1,1.5l1.3-0.2l-0.1-1.4
		L197.7,25.3 M198.1,28.3c0.1,0.5,0.2,1,0.3,1.5l1.2-0.3l-0.3-1.4L198.1,28.3 M198.8,31.3c0.2,0.5,0.3,1,0.5,1.5l1.2-0.5l-0.5-1.4
		L198.8,31.3 M200,34.2c0.2,0.5,0.4,0.9,0.7,1.4l1.1-0.6l-0.7-1.3L200,34.2 M201.4,36.9c0.3,0.4,0.6,0.9,0.9,1.3l1-0.8l-0.8-1.2
		L201.4,36.9 M203.2,39.4c0.3,0.4,0.7,0.8,1,1.2l0.9-0.9l-1-1.1L203.2,39.4 M205.3,41.7c0.4,0.4,0.8,0.7,1.2,1l0.8-1l-1.1-0.9
		L205.3,41.7 M207.7,43.6c0.4,0.3,0.8,0.6,1.3,0.9l0.7-1.1l-1.2-0.8L207.7,43.6 M210.3,45.3c0.5,0.2,0.9,0.5,1.4,0.7l0.5-1.2
		l-1.3-0.6L210.3,45.3 M213.1,46.5c0.5,0.2,1,0.4,1.5,0.5l0.4-1.2l-1.4-0.5L213.1,46.5 M216.1,47.4c0.5,0.1,1,0.2,1.5,0.3l0.2-1.3
		l-1.4-0.3L216.1,47.4 M219.1,48c0.5,0.1,1,0.1,1.5,0.1v-1.3l-1.4-0.1L219.1,48 M222.2,48.1c0.5,0,1,0,1.5-0.1l-0.1-1.3l-1.4,0.1
		V48.1 M225.3,47.8c0.5-0.1,1-0.2,1.5-0.3l-0.3-1.2l-1.4,0.3L225.3,47.8 M228.3,47.2c0.5-0.1,1-0.3,1.5-0.5l-0.4-1.2L228,46
		L228.3,47.2 M231.2,46.2c0.5-0.2,0.9-0.4,1.4-0.6l-0.6-1.1l-1.3,0.6L231.2,46.2 M233.9,44.8c0.4-0.3,0.9-0.5,1.3-0.8l-0.7-1
		l-1.2,0.8L233.9,44.8 M236.5,43.1c0.4-0.3,0.8-0.6,1.2-1l-0.9-1l-1.1,1L236.5,43.1 M238.8,41c0.4-0.4,0.7-0.7,1-1.1l-1-0.8l-1,1.1
		L238.8,41 M245.6,26.6c0.1-0.5,0-0.2,0.1-0.7l-1.3-0.1l-0.1,0.8L245.6,26.6 M245.7,24.4c0-0.5,0-1,0-1.5l-1.3,0.1l0.1,1.4H245.7
		 M245.6,21.3c-0.1-0.5-0.1-1-0.2-1.5l-1.2,0.3l0.2,1.4L245.6,21.3 M245,18.2c-0.1-0.5-0.3-1-0.4-1.5l-1.2,0.4l0.4,1.4L245,18.2
		 M244.1,15.3c-0.2-0.5-0.4-1-0.6-1.4l-1.1,0.6l0.6,1.3L244.1,15.3 M242.8,12.5c-0.2-0.5-0.5-0.9-0.8-1.3l-1.1,0.7l0.8,1.2
		L242.8,12.5 M241.1,9.9c-0.3-0.4-0.6-0.8-0.9-1.2l-1,0.8l0.9,1.1L241.1,9.9 M239.1,7.5c-0.4-0.4-0.7-0.7-1.1-1.1l-0.9,0.9l1,1
		L239.1,7.5 M236.9,5.4c-0.4-0.3-0.8-0.6-1.2-0.9l-0.7,1l1.2,0.9L236.9,5.4 M234.4,3.7c-0.4-0.3-0.9-0.5-1.3-0.8L232.5,4l1.3,0.7
		L234.4,3.7 M231.6,2.2c-0.5-0.2-0.9-0.4-1.4-0.6l-0.4,1.2l1.3,0.5L231.6,2.2 M228.8,1.1c-0.5-0.1-1-0.3-1.5-0.4L227,1.9l1.4,0.3
		L228.8,1.1 M225.8,0.4c-0.5-0.1-1-0.2-1.5-0.2l-0.1,1.3l1.4,0.2L225.8,0.4 M222.7,0.1c-0.5,0-1,0-1.5,0v1.3h1.4L222.7,0.1
		 M210.8,2.7c-0.5,0.2-0.9,0.5-1.3,0.8l0.7,1.1l1.3-0.7L210.8,2.7 M219.6,0.2c-0.5,0-1,0.1-1.5,0.2l0.2,1.3l1.4-0.2L219.6,0.2
		 M208.1,4.3c-0.4,0.3-0.8,0.6-1.2,0.9l0.8,1l1.2-0.9L208.1,4.3 M216.6,0.7c-0.5,0.1-1,0.2-1.5,0.4l0.4,1.2l1.4-0.4L216.6,0.7
		 M205.7,6.2c-0.4,0.3-0.8,0.7-1.1,1.1l0.9,0.9l1-1L205.7,6.2 M213.6,1.5c-0.5,0.2-1,0.4-1.4,0.6l0.5,1.2l1.3-0.6L213.6,1.5
		 M203.6,8.4c-0.3,0.4-0.8,0.9-1.1,1.3h1l1-0.5L203.6,8.4 M234,31.6c-0.5,0.9-1.1,1.7-1.8,2.4h21.5l4.7-2.4H234z M231,35.1
		c-1.2,1-2.5,1.8-3.9,2.4h20.1l4.4-2.4H231z M235.7,27.9c-0.2,0.9-0.6,1.8-1,2.6h26l4.6-2.6H235.7z M212.1,13.4c1-1,2.2-1.8,3.5-2.4
		h-19.5l-4.5,2.4H212.1z M209.3,16.8c0.5-0.8,1.1-1.6,1.7-2.4h-21.4l-4.7,2.4H209.3z M207.8,20.6c0.2-0.9,0.5-1.8,0.9-2.6h-26
		l-4.6,2.6H207.8z M164.5,35c0-3.2-0.1-5.1-0.2-5.7c-0.1-0.6-0.4-0.9-0.9-1V28c0.2,0,0.5,0,0.8,0s0.6,0,1,0.1c0.2,0,0.5,0,0.7,0
		c0.3,0,0.6,0,0.9-0.1v0.3c-0.3,0-0.5,0.1-0.7,0.3c-0.1,0.2-0.2,0.5-0.2,0.8c0,0.6,0,1.7-0.1,3.1c0,1.5-0.1,2.3-0.1,2.4
		c0,0.6,0,1.6,0.1,2.9c0,1.3,0.1,2.1,0.1,2.6h3.7c0.7,0,1.2-0.1,1.6-0.4c0.4-0.2,0.7-0.6,0.9-1.2l0.3,0.1l-0.5,2.3
		c-0.2-0.1-0.7-0.1-1.5-0.1s-1.5,0-2.3,0h-0.3c-0.5,0-1.2,0-2.1,0c-0.9,0-1.6,0-2.1,0v-0.3c0.3,0,0.5-0.1,0.7-0.3
		c0.1-0.2,0.2-0.5,0.2-0.8L164.5,35L164.5,35z M153.8,36.6h4.7l-2.2-6.2L153.8,36.6z M153.5,37.4l-0.6,1.7c-0.1,0.1-0.1,0.3-0.1,0.5
		s0,0.4,0,0.5c0,0.2,0.1,0.3,0.2,0.4c0.1,0.1,0.3,0.2,0.6,0.3v0.3c-0.2,0-0.4,0-0.7,0s-0.6,0-0.7,0c-0.2,0-0.4,0-0.9,0
		c-0.4,0-0.6,0-0.7,0v-0.3c0.4-0.1,0.7-0.3,0.9-0.5s0.3-0.6,0.6-1.1l4.6-11.5h0.3l4.1,11.5c0.2,0.5,0.3,0.8,0.5,1s0.5,0.4,1,0.6v0.3
		c-0.2,0-0.5,0-0.9,0s-0.7,0-0.9,0s-0.5,0-0.9,0s-0.7,0-0.9,0v-0.3c0.2-0.1,0.4-0.3,0.5-0.4s0.2-0.2,0.2-0.3c0-0.1,0-0.2,0-0.3
		c0-0.1-0.1-0.3-0.2-0.6l-0.7-2h-5.3V37.4z M149.6,28.3c-0.3,0-0.6,0.1-0.7,0.3c-0.1,0.2-0.2,0.5-0.2,0.8l-0.1,10.3
		c0,0.3,0.1,0.6,0.2,0.8c0.1,0.2,0.4,0.3,0.7,0.3v0.3c-0.1,0-0.4,0-0.8,0c-0.4,0-0.7,0-0.8,0c-0.3,0-0.6,0-0.8,0c-0.3,0-0.5,0-0.7,0
		v-0.3c0.2,0,0.5-0.1,0.6-0.3c0.2-0.2,0.2-0.5,0.2-0.8l-0.1-10.3c0-0.3-0.1-0.6-0.2-0.8c-0.1-0.2-0.4-0.3-0.7-0.3V28
		c0.2,0,0.5,0,1,0s0.7,0,0.7,0c0.2,0,0.6,0,1,0c0.5,0,0.7,0,0.7,0L149.6,28.3L149.6,28.3z M135.9,34.6c0-0.6,0-1.4,0-2.5
		s0-1.8,0-2.3s-0.1-0.9-0.2-1.1c-0.2-0.2-0.4-0.4-0.8-0.4V28c0.3,0,0.9,0,1.7-0.1c0.9,0,1.5-0.1,1.8-0.1c1.5,0,2.7,0.3,3.6,0.9
		c1,0.6,1.4,1.6,1.4,3c0,0.8-0.3,1.6-0.9,2.2c-0.6,0.6-1.4,1-2.3,1.3l4.2,4.9c0.2,0.2,0.4,0.4,0.5,0.5c0.2,0.1,0.4,0.2,0.7,0.3v0.3
		c-0.2,0-0.4,0-0.8,0c-0.4,0-0.6,0-0.6,0c-0.2,0-0.4,0-0.8,0c-0.4,0-0.6,0-0.6,0v-0.3l0.1-0.1c0,0,0-0.1-0.1-0.2
		c0-0.1-0.1-0.1-0.1-0.2l-3.2-3.9c-0.2-0.3-0.5-0.5-0.8-0.7s-0.7-0.3-1.1-0.3v4.3c0,0.3,0.1,0.6,0.2,0.8c0.1,0.2,0.4,0.3,0.7,0.3
		v0.3c-0.2,0-0.5,0-0.9,0s-0.7,0-0.8,0c-0.2,0-0.5,0-0.8,0c-0.4,0-0.6,0-0.8,0v-0.3c0.3,0,0.5-0.1,0.7-0.3c0.1-0.2,0.2-0.5,0.2-0.8
		v-5.2H135.9z M137.5,34.8c0.2,0,0.4,0.1,0.6,0.1c0.2,0,0.3,0,0.3,0c1,0,1.9-0.3,2.5-0.9s0.9-1.3,0.9-2.3s-0.3-1.8-0.9-2.4
		c-0.6-0.6-1.4-0.9-2.4-0.9c-0.4,0-0.6,0-0.7,0.1c-0.1,0.1-0.2,0.2-0.2,0.5s0,0.7,0,1.4c0,0.6,0,1.1,0,1.3v3.1H137.5z M124.7,28.8
		c-0.6,0-1,0.1-1.3,0.3c-0.3,0.2-0.5,0.5-0.7,1h-0.3l-0.1-2.4h0.1c0.1,0,0.3,0.1,0.5,0.2c0.2,0,0.4,0.1,0.6,0.1c0.5,0,1.4,0,2.7,0
		c1.2,0,1.9,0,2,0c0.5,0,1.4,0,2.7,0c1.2,0,1.9,0,2,0c0.2,0,0.4,0,0.5,0c0.2,0,0.4-0.1,0.6-0.2h0.1l-0.1,2.4h-0.3
		c-0.2-0.5-0.4-0.9-0.7-1c-0.3-0.2-0.7-0.3-1.3-0.3H129l-0.1,10.9c0,0.3,0.1,0.6,0.3,0.7s0.5,0.3,1,0.4v0.3c-0.2,0-0.6,0-1.2,0
		c-0.5,0-0.8,0-0.9,0c-0.2,0-0.6,0-1.2,0c-0.5,0-0.8,0-0.9,0v-0.3c0.5-0.1,0.9-0.3,1.1-0.4c0.2-0.1,0.3-0.4,0.3-0.7l-0.1-10.9
		L124.7,28.8L124.7,28.8z M120.6,30.1c-0.2-0.6-0.6-1-1.1-1.3c-0.6-0.3-1.2-0.5-1.8-0.5c-0.8,0-1.6,0.2-2.1,0.6
		c-0.6,0.4-0.9,1.1-0.9,1.9c0,1.1,0.6,2,1.7,2.6c1.1,0.5,2.1,0.9,3.2,1.4c1.2,0.7,1.7,1.6,1.7,2.9c0,1.2-0.4,2.1-1.1,2.8
		c-0.8,0.6-1.8,1-3,1c-1.1,0-2.2-0.2-3.5-0.5l-0.1-2h0.3c0.2,0.6,0.6,1.1,1.2,1.4s1.3,0.5,2,0.5c0.8,0,1.5-0.2,2-0.6s0.8-1,0.8-1.8
		c0-1.1-0.6-1.9-1.7-2.5c-1.1-0.4-2.1-0.9-3.2-1.3c-1.2-0.7-1.7-1.7-1.7-3s0.4-2.3,1.3-2.9s2-1,3.3-1c0.3,0,0.8,0,1.5,0.1
		s1.1,0.1,1.4,0.1l0.1,2.1C120.9,30.1,120.6,30.1,120.6,30.1z M109.1,29.4c0-0.3-0.1-0.6-0.2-0.8c-0.1-0.2-0.4-0.3-0.8-0.3V28
		c0.2,0,0.5,0,1,0s0.7,0,0.7,0c0.2,0,0.5,0,0.8,0s0.6,0,0.9-0.1v0.3c-0.3,0-0.5,0.1-0.6,0.3c-0.1,0.2-0.2,0.5-0.2,0.8l-0.1,10.3
		c0,0.8,0.4,1.1,1.1,1.1V41c-0.2,0-0.4,0-0.7,0c-0.3,0-0.6,0-0.7,0s-0.4,0-0.7,0c-0.3,0-0.6,0-0.7,0v-0.1c0.1-0.1,0.2-0.3,0.2-0.5
		v-0.9c-0.8,0.6-1.6,1-2.3,1.3c-0.7,0.3-1.4,0.5-2.2,0.5c-1.4,0-2.5-0.4-3.4-1.3s-1.3-2-1.3-3.6l-0.1-7.1c0-0.3-0.1-0.6-0.2-0.8
		c-0.2-0.2-0.4-0.3-0.8-0.3v-0.3c0.2,0,0.5,0,0.9,0s0.7,0,0.9,0c0.2,0,0.5,0,0.9,0s0.7,0,0.9,0v0.3c-0.3,0-0.6,0.1-0.7,0.3
		c-0.1,0.2-0.2,0.5-0.2,0.8l-0.1,7c0,1.3,0.4,2.3,1.1,3c0.7,0.6,1.6,1,2.5,1c0.8,0,1.6-0.2,2.4-0.5s1.4-0.8,1.8-1.3L109.1,29.4z
		 M86.9,39.5c0,0.4,0.1,0.7,0.4,0.9c0.3,0.2,0.8,0.2,1.5,0.2c2.1,0,3.6-0.5,4.8-1.4c1.1-0.9,1.7-2.4,1.7-4.4c0-1.9-0.6-3.5-1.7-4.7
		c-1.2-1.2-2.7-1.8-4.5-1.8c-0.9,0-1.4,0.1-1.7,0.2c-0.2,0.2-0.3,0.6-0.3,1.4c0,0.5,0,1.2-0.1,2.1c0,1-0.1,1.6-0.1,1.9
		C86.9,33.9,86.9,39.5,86.9,39.5z M85.4,29.4c0-0.3-0.1-0.6-0.2-0.8c-0.1-0.2-0.4-0.3-0.7-0.3V28c0.3,0,0.8,0,1.6,0
		c0.7,0,1.1,0,1.1,0c0.3,0,0.7,0,1.3,0c0.6,0,1,0,1.3,0c2.1,0,3.8,0.6,5.2,1.9c1.4,1.3,2.1,3,2.1,5.1c0,2-0.7,3.5-2.1,4.6
		s-3.1,1.6-5.2,1.6c-0.3,0-0.7,0-1.3,0c-0.6,0-1,0-1.3,0s-0.7,0-1.3,0c-0.6,0-1,0-1.3,0v-0.3c0.3,0,0.5-0.1,0.7-0.3
		c0.1-0.2,0.2-0.5,0.2-0.8L85.4,29.4L85.4,29.4z M71.2,28h0.4c0.6,0.7,1.2,1.3,1.8,2l8.1,8.4v-6.3c0-1.6-0.1-2.6-0.2-3
		c-0.2-0.4-0.6-0.7-1.2-0.8V28c0.3,0,0.6,0,1,0s0.7,0,0.8,0c0.2,0,0.5,0,0.9,0s0.7,0,0.7,0v0.3c-0.5,0.1-0.9,0.3-1,0.5
		c-0.2,0.2-0.2,0.5-0.2,1v11.4h-0.5l-9.7-10v7.2c0,1,0.1,1.6,0.2,1.9c0.2,0.3,0.5,0.5,1.1,0.6v0.3c-0.2,0-0.5,0-0.9,0s-0.7,0-0.8,0
		c-0.3,0-0.6,0-1,0s-0.6,0-0.8,0v-0.3c0.5-0.1,0.8-0.3,1-0.5s0.2-0.5,0.2-1V28H71.2z M68.4,26.8c-0.4,0-0.7,0.1-0.8,0.4
		c-0.2,0.2-0.2,0.5-0.2,0.9l-0.1,11.4c0,0.4,0.1,0.7,0.2,0.9c0.2,0.2,0.4,0.4,0.7,0.4v0.4c-0.2,0-0.5,0-0.9,0c-0.5,0-0.7,0-0.9,0
		c-0.3,0-0.6,0-0.9,0s-0.6,0-0.7,0.1v-0.4c0.3,0,0.5-0.1,0.7-0.4s0.3-0.6,0.3-0.9l-0.2-11.5c0-0.4-0.1-0.7-0.2-0.9
		c-0.2-0.2-0.4-0.4-0.8-0.4v-0.4c0.2,0,0.6,0,1.1,0s0.8,0,0.8,0c0.2,0,0.6,0,1.2,0c0.5,0,0.8,0,0.8,0v0.4H68.4z M58.2,37.3h3.9v-0.9
		h-3.9V37.3z M47.9,40.8c1.7,0,2.9-0.6,3.8-1.7c0.8-1.2,1.3-2.7,1.3-4.5c0-1.9-0.4-3.4-1.2-4.5s-2.1-1.7-3.8-1.7s-2.9,0.6-3.8,1.7
		c-0.8,1.2-1.3,2.7-1.3,4.5c0,1.9,0.4,3.4,1.2,4.5C45,40.2,46.2,40.8,47.9,40.8 M47.9,27.7c2,0,3.6,0.7,4.9,2
		c1.3,1.3,1.9,2.9,1.9,4.9c0,1.9-0.6,3.6-1.9,4.9c-1.3,1.3-2.9,2-4.9,2s-3.6-0.6-4.9-2c-1.3-1.3-1.9-2.9-1.9-4.9
		c0-1.9,0.6-3.6,1.9-4.9C44.3,28.4,46,27.7,47.9,27.7 M30.7,28.8c-0.6,0-1,0.1-1.3,0.3c-0.3,0.2-0.5,0.5-0.7,1h-0.3l-0.1-2.4h0.1
		c0.1,0,0.3,0.1,0.5,0.2c0.2,0,0.4,0.1,0.6,0.1c0.5,0,1.4,0,2.7,0c1.2,0,1.9,0,2,0c0.5,0,1.4,0,2.7,0c1.2,0,1.9,0,2,0
		c0.2,0,0.4,0,0.5,0c0.2,0,0.4-0.1,0.6-0.2h0.1L40,30.2h-0.3c-0.2-0.5-0.4-0.9-0.7-1.1s-0.7-0.3-1.3-0.3h-2.6L35,39.7
		c0,0.3,0.1,0.6,0.3,0.7s0.5,0.3,1,0.4v0.3c-0.2,0-0.6,0-1.2,0c-0.6,0-0.8,0-0.9,0c-0.2,0-0.6,0-1.2,0c-0.5,0-0.8,0-0.9,0v-0.3
		c0.5-0.1,0.9-0.3,1-0.4c0.2-0.1,0.3-0.4,0.3-0.7l-0.1-10.9H30.7z M24.7,29.4c0-0.3-0.1-0.6-0.2-0.8c-0.1-0.2-0.4-0.3-0.8-0.3V28
		c0.2,0,0.5,0,1,0s0.7,0,0.7,0c0.2,0,0.5,0,0.8,0s0.6,0,0.9-0.1v0.3c-0.3,0-0.5,0.1-0.6,0.3c-0.1,0.2-0.2,0.5-0.2,0.8l-0.1,10.3
		c0,0.8,0.4,1.1,1.1,1.1V41c-0.2,0-0.4,0-0.7,0c-0.3,0-0.6,0-0.7,0s-0.4,0-0.7,0c-0.3,0-0.6,0-0.7,0v-0.1c0.1-0.1,0.2-0.3,0.2-0.5
		v-0.9c-0.8,0.6-1.6,1-2.3,1.3c-0.7,0.3-1.4,0.5-2.2,0.5c-1.4,0-2.5-0.4-3.4-1.3c-0.9-0.9-1.3-2-1.3-3.6l-0.1-7.1
		c0-0.3-0.1-0.6-0.2-0.8c-0.2-0.2-0.4-0.3-0.8-0.3v-0.3c0.2,0,0.5,0,0.9,0s0.7,0,0.9,0c0.2,0,0.5,0,0.9,0s0.7,0,0.9,0v0.3
		c-0.3,0-0.6,0.1-0.7,0.3c-0.1,0.2-0.2,0.5-0.2,0.8l-0.1,7c0,1.3,0.4,2.3,1.1,3c0.7,0.6,1.6,1,2.5,1c0.8,0,1.6-0.2,2.4-0.5
		s1.4-0.8,1.8-1.3L24.7,29.4z M3.9,36.1h5.3l-2.5-6.9L3.9,36.1z M3.6,37l-0.7,1.9c-0.1,0.2-0.1,0.4-0.1,0.6s0,0.4,0,0.6
		s0.1,0.3,0.2,0.5c0.2,0.1,0.4,0.3,0.7,0.4v0.4c-0.2,0-0.4,0-0.8,0s-0.6,0-0.8,0c-0.2,0-0.5,0-0.9,0c-0.5,0-0.7,0-0.8,0V41
		c0.5-0.2,0.8-0.3,1-0.6c0.2-0.2,0.4-0.6,0.6-1.2l5.1-12.8h0.4l4.6,12.8c0.2,0.5,0.4,0.9,0.6,1.1c0.2,0.2,0.6,0.4,1.1,0.6v0.4
		c-0.2,0-0.5,0-1,0c-0.4,0-0.7,0-0.9,0s-0.5,0-1,0c-0.4,0-0.7,0-0.9,0v-0.4c0.2-0.2,0.4-0.3,0.5-0.4s0.2-0.2,0.2-0.3
		c0-0.1,0-0.2,0-0.3c0-0.1-0.1-0.3-0.2-0.6l-0.8-2.2L3.6,37L3.6,37z M13.4,17.4c0-1,0-1.6,0.9-1.7h0.3c0.1-0.1,0.1-0.4,0-0.5
		c-0.7,0-1.4,0.1-2.2,0.1c-1.2,0-2.3,0-2.9-0.1c-0.1,0.1-0.2,0.4,0,0.5l0.9,0.1c1.3,0.1,1.3,0.3,1.3,2v0.8c0,0.7-0.1,1-0.2,1.2
		c-0.2,0.3-1,0.6-2.3,0.6c-4.1,0-6.1-3.1-6.1-7c0-3.1,1.7-5.9,5.7-5.9c2.1,0,3.6,0.7,4.2,2.9c0.1,0.1,0.5,0.1,0.6-0.1
		c-0.2-1.2-0.3-2.3-0.3-3c-0.2,0-0.9-0.1-1.3-0.2C11.7,7,10.6,6.8,9.4,6.8c-3.1,0-5.1,1-6.5,2.4c-1.3,1.4-1.8,3.1-1.8,4.8
		c0,1.8,0.7,3.4,1.9,4.6c1.6,1.6,3.8,2.3,6.2,2.3c1.1,0,2.6-0.2,3.7-0.5c0.4-0.1,0.8-0.2,1-0.2c0.1-0.1,0.1-0.2,0-0.2
		c-0.4-0.1-0.5-0.6-0.5-1.5C13.4,18.5,13.4,17.4,13.4,17.4z M16.9,18.3c0,1.5,0,1.7-0.8,1.8l-0.4,0.1c-0.1,0.1-0.1,0.4,0,0.5
		c0.5,0,1.1-0.1,1.9-0.1c0.7,0,1.3,0,2.3,0.1c0.1-0.1,0.2-0.4,0-0.5l-0.7-0.1c-0.8-0.1-0.8-0.3-0.8-1.8v-2.8c0-0.7,0.1-1.3,0.3-1.6
		c0.2-0.2,0.4-0.4,0.7-0.4c0.3,0,0.6,0.1,0.9,0.3c0.1,0.1,0.2,0.1,0.4,0.1c0.3,0,0.9-0.3,0.9-0.9c0-0.5-0.4-0.8-0.9-0.8
		c-0.8,0-1.5,0.6-2.2,1.2c0,0-0.1-0.1-0.1-0.2v-1.1c0-0.1-0.1-0.1-0.2-0.1c-0.5,0.3-1.6,0.8-2.1,1c-0.1,0.1-0.1,0.3,0,0.4l0.2,0.1
		c0.6,0.4,0.6,0.5,0.6,1.3C16.9,14.8,16.9,18.3,16.9,18.3z M25.1,14.2c0-1,0-1.4,0.1-1.8c0-0.1-0.1-0.1-0.2-0.1
		c-0.4,0.2-1.2,0.3-2.2,0.4c-0.1,0.1-0.2,0.3,0,0.5l0.2,0.1c0.6,0.3,0.6,0.4,0.6,1.7v3.4c0,1.7,0.7,2.6,2.5,2.6
		c1.2,0,2.2-0.7,2.8-1.1c0.1,0,0.2,0.1,0.2,0.3V21c0,0.1,0.1,0.1,0.2,0.1c0.7-0.4,1.9-0.6,2.7-0.7c0.2-0.1,0.1-0.5,0-0.6
		c-0.3,0.1-0.5,0.1-0.8,0.1c-0.6,0-0.6-0.6-0.6-2.2v-3.4c0-0.8,0-1.4,0.1-1.8c0-0.1-0.1-0.1-0.2-0.1c-0.4,0.2-1.6,0.3-2.4,0.4
		c-0.2,0.1-0.2,0.4,0,0.5l0.3,0.1c0.6,0.2,0.8,0.3,0.8,1.6v3.4c0,0.6-0.1,0.9-0.4,1.2c-0.5,0.4-1.1,0.6-1.7,0.6
		c-1.6,0-1.9-0.9-1.9-2.4v-3.6H25.1z M35.6,15c0-0.7,0.1-1,0.2-1.2c0.2-0.2,0.9-0.6,1.7-0.6c1.8,0,2.8,1.7,2.8,3.3
		c0,2.1-1,3.7-2.7,3.7c-0.4,0-1.1-0.1-1.5-0.4s-0.6-0.6-0.6-1.2L35.6,15L35.6,15z M34,23.5c0,1.5,0,1.7-0.8,1.8l-0.4,0.1
		c-0.1,0.1-0.1,0.5,0,0.5c0.6,0,1.2-0.1,1.9-0.1s1.3,0,2.3,0.1c0.1-0.1,0.2-0.4,0-0.5l-0.8-0.1c-0.7-0.1-0.8-0.3-0.8-1.7v-2.1
		c0-0.4,0.1-0.5,0.3-0.6c0.2,0,0.8,0.1,1.1,0.1c2.9,0,5-2,5-4.9c0-2.1-1.3-3.7-3.4-3.7c-1.3,0-2.6,0.8-2.9,1c-0.1,0-0.2-0.1-0.2-0.3
		c0-0.3,0-0.6,0.1-0.9c0-0.1-0.1-0.1-0.2-0.1c-0.5,0.4-1.5,0.9-2,1.1c-0.1,0.1-0.1,0.3,0,0.4l0.2,0.1C34,14.1,34,14.2,34,15
		C34,15,34,23.5,34,23.5z M50.1,16.8c0,1.6-0.6,3.5-2.4,3.5c-1.8,0-2.6-2-2.6-3.9c0-2.2,1-3.5,2.4-3.5
		C49.4,12.9,50.1,15.1,50.1,16.8 M47.7,12.3c-2.4,0-4.4,1.8-4.4,4.4s1.8,4.2,4.2,4.2c2.6,0,4.3-1.8,4.3-4.4
		C51.9,14,50,12.3,47.7,12.3"/>
</g>
</svg>
