<?xml version="1.0" encoding="utf-8"?>
<!-- Generator: Adobe Illustrator 19.2.1, SVG Export Plug-In . SVG Version: 6.00 Build 0)  -->
<svg version="1.1" id="Layer_1" xmlns="http://www.w3.org/2000/svg" xmlns:xlink="http://www.w3.org/1999/xlink" x="0px" y="0px"
	 viewBox="0 0 149 92" style="enable-background:new 0 0 149 92;" xml:space="preserve">
<path id="XMLID_19_" d="M30.9,27.5c10.7,0,29.7,6.2,29.7,28.1s-18.7,33-32.2,33c-11.1,0-24.2-8.4-24.2-21.7S15.1,48.4,25,46
	c-2,3.5-3.9,13.1-3.9,16.4s1.6,12.9,9.8,12.9S42.8,64.6,42.8,55S37.1,42.1,33,41.7s-9.7-0.3-17.8,2.5c-6.6,2.3-12.4,7.8-15,1.2
	C-3.9,35.1,16.6,27.5,30.9,27.5z M66.1,44.8c1.6,9,0,29.9,0,36.5c0,6.6,3.5,9.2,6.1,9.6s6.2-1.4,9.2-5.1c2.9-3.7,16-30.3,18.8-34
	s4.5-2.7,4.7-0.8s0.6,16,0.6,19.3s2.1,17.8,14.5,17.8S131.5,76,131.5,76c-3.7,0.4-5.2-2.4-7.2-5.5c-3.1-4.7-2.5-24-2.5-29.3
	c0-5.3,1.6-11.9-9.6-13.7s-25.4,19.7-29.5,27c-0.6-21.3-1.6-23.6-3.9-27.3c-2.3-3.7-9.8-4.3-12.7-3.3s-8.1,4.3-6.8,5.5
	C61.4,31.6,64.5,35.9,66.1,44.8z M130.9,55c-4.3,5.9-2.3,13.3,1.2,15s10.7,1,13.9-3.9s4-11.5-1.8-14.6
	C139.9,49.1,135.2,49.1,130.9,55z"/>
<g id="XMLID_3_">
	<path id="XMLID_16_" d="M12.9,24.2c-1.9,0-3.6-0.3-4.3-0.5c-0.4-0.1-0.5-0.2-0.5-0.5v-0.7c0-0.3,0.2-0.4,0.5-0.4h0.1
		c0.9,0.1,2.9,0.3,4.3,0.3c2.4,0,2.9-0.6,2.9-3.1V19c-0.6,0.2-2.1,0.4-2.8,0.4c-3.2,0-5.7-1.5-5.7-6.2v-1.9c0-4.2,1.9-6.2,5.7-6.2
		c1.5,0,3.3,0.3,4.5,0.6c0.5,0.1,0.5,0.2,0.5,0.6v12.9C18,23,16.3,24.2,12.9,24.2z M15.8,7.2C15.1,7.1,14,6.9,13,6.9
		c-2.5,0-3.4,1.2-3.4,4.3v1.9c0,3.2,1.2,4.4,3.4,4.4c0.7,0,2.1-0.1,2.8-0.3V7.2z"/>
	<path id="XMLID_13_" d="M31.2,18.8c-1.3,0.3-3.1,0.6-4.7,0.6c-3.8,0-5.5-2.5-5.5-6.3v-1.8C21,7.5,22.7,5,26.5,5
		c1.5,0,3.3,0.3,4.7,0.6c0.5,0.1,0.5,0.2,0.5,0.6v12C31.8,18.5,31.7,18.7,31.2,18.8z M29.5,7.2c-0.7-0.1-1.9-0.3-3-0.3
		c-2.5,0-3.3,1.7-3.3,4.4v1.8c0,2.7,0.8,4.4,3.3,4.4c1.1,0,2.3-0.1,3-0.3V7.2z"/>
	<path id="XMLID_11_" d="M37.2,19.2h-1.3c-0.3,0-0.5-0.2-0.5-0.5V0.6c0-0.3,0.2-0.5,0.5-0.5h1.3c0.3,0,0.5,0.2,0.5,0.5v18.1
		C37.7,18.9,37.5,19.2,37.2,19.2z"/>
	<path id="XMLID_8_" d="M46.6,19.4c-0.8,0-2-0.1-3-0.3v4.6c0,0.3-0.2,0.5-0.5,0.5h-1.3c-0.3,0-0.5-0.2-0.5-0.5V6.2
		c0-0.3,0.1-0.5,0.5-0.6C43.1,5.3,44.9,5,46.5,5c3.8,0,5.5,2.5,5.5,6.3v1.8C52.1,17.1,50.3,19.4,46.6,19.4z M49.9,11.3
		c0-2.7-0.8-4.4-3.3-4.4c-1.1,0-2.3,0.1-3,0.3v10c0.8,0.2,2.2,0.3,3,0.3c2.5,0,3.3-1.6,3.3-4.3V11.3z"/>
</g>
</svg>
