<?xml version="1.0" encoding="utf-8"?>
<!-- Generator: Adobe Illustrator 19.2.1, SVG Export Plug-In . SVG Version: 6.00 Build 0)  -->
<svg version="1.1" id="Calque_1" xmlns="http://www.w3.org/2000/svg" xmlns:xlink="http://www.w3.org/1999/xlink" x="0px" y="0px"
	 viewBox="0 0 302.8 205" style="enable-background:new 0 0 302.8 205;" xml:space="preserve">
<style type="text/css">
	.st0{fill:#007A90;}
</style>
<g>
	<g>
		<polygon class="st0" points="169,48.8 131.8,85.9 153.5,85.9 190.6,48.8 		"/>
		<polygon class="st0" points="173.5,85.9 193.4,85.9 210,69.1 190.4,69.1 		"/>
		<path class="st0" d="M152.2,0.8c-41.9,0-75.9,33.5-75.9,74.8c0,3.5,0.2,6.9,0.7,10.3h19.9l0,0h13.6l57.6-57.6h-21.7L94.5,80.2
			c-2-5.9-3.1-12.1-3-18.7c0.2-32,27.1-57.9,60.2-57.9c33,0,59.6,25.9,59.4,57.9c0,2.6-0.2,5.1-0.6,7.6l16.8,16.8
			c0.5-3.3,0.7-6.7,0.7-10.2C228,34.3,194.1,0.8,152.2,0.8z"/>
	</g>
	<path class="st0" d="M21.9,137.7c0,0.3,0,2,0,2.3h-0.1c-5.5,0.1-6.9,0.1-6.9,2.2v29.9c0,1.4,0.6,2.2,4,2.2h1.9
		c6.5,0,9-2.6,11.2-11.4c0.2,0,2.3,0.4,2.6,0.4c-1.1,4.3-1.8,9-1.8,13.2c-0.3,0-32.5,0-32.8,0c0-0.3,0-2,0-2.3l0,0
		c2.5-0.1,5.1-0.1,5.1-2.2v-29.9c0-2-2.6-2.1-5.1-2.2l0,0c0-0.3,0-2,0-2.3C0.4,137.7,21.6,137.7,21.9,137.7z"/>
	<path class="st0" d="M55.4,161.5c0.2,0.6,0.4,1.1,0.4,1.4c0,0.6-0.6,0.8-1.1,0.8h-6.8c-0.5,0-0.8-0.1-0.8-0.6
		c0-0.2,0.2-0.8,0.4-1.5l3.6-10.5L55.4,161.5z M37.1,176.4h11.1v-2.2h-0.6c-2.3,0-3.2-0.7-3.2-1.8c0-0.4,0.1-1.1,0.4-2l1.1-3.4
		c0.3-0.8,0.8-1.2,1.7-1.2h8.4c1,0,1.5,0.2,1.8,1.2l0.9,2.4c0.4,1,0.6,2.1,0.6,2.5c0,1-0.8,2.2-3.8,2.2h-0.4v2.2h17.9v-2.2
		c-1.6-0.1-3.6-0.8-4.7-3.4l-11.6-28.3H52l-9.8,27.1c-1.6,4.1-2.8,4.5-5.2,4.7L37.1,176.4L37.1,176.4z"/>
	<path class="st0" d="M73.6,143.6h16.4v2.2h-1.2c-2.3,0-2.7,0.4-2.7,1.9v18.7c0,5.7,4.3,7.5,8.2,7.5c7.9,0,9.4-4.6,9.4-11.8v-13.8
		c0-2.3-2.4-2.3-4.5-2.4v-2.2h11.2v2.2c-1.9,0.1-4.1,0.1-4.1,2.5v15.2c0,10.2-6,13.7-14.4,13.7c-8.1,0-14.2-4.4-14.2-11.9v-17.8
		c0-1.2-0.4-1.7-2.7-1.7h-1.5L73.6,143.6L73.6,143.6z"/>
	<path class="st0" d="M118.6,166.3c2.4,6,5.6,8.7,9.7,8.7c3.2,0,6.5-1.5,6.5-5.7c0-2.7-1.6-3.9-5.1-4.9l-5.8-1.6
		c-2.9-0.8-7.9-3-7.9-9.1c0-5.2,3.2-10.7,12.8-10.7c1.9,0,3.6,0.1,5,0.3c1.4,0.2,2.6,0.3,3.5,0.3h1.2c0,3.2,0.3,6.3,0.7,9.4
		l-2.7,0.3c-1-4.2-3.8-7.9-8.8-7.9c-3.1,0-6.6,1.3-6.6,5.1c0,2.6,1.8,3.9,4.6,4.7l6.3,1.7c5.6,1.6,8.5,4.2,8.5,9.8
		c0,7.5-5.8,10.5-12.9,10.5c-1.4,0-3.3-0.2-5.8-0.7c-1.8-0.3-3.8-0.6-5.1-0.6c0-2.5-0.4-6.8-1-9.3L118.6,166.3z"/>
	<path class="st0" d="M162.8,161.5c0.2,0.6,0.4,1.1,0.4,1.4c0,0.6-0.6,0.8-1.1,0.8h-6.8c-0.5,0-0.8-0.1-0.8-0.6
		c0-0.2,0.2-0.8,0.4-1.5l3.6-10.5L162.8,161.5z M144.4,176.4h11.1v-2.2h-0.7c-2.3,0-3.2-0.7-3.2-1.8c0-0.4,0.1-1.1,0.4-2l1.1-3.4
		c0.3-0.8,0.8-1.2,1.7-1.2h8.4c1,0,1.5,0.2,1.8,1.2l0.9,2.4c0.4,1,0.6,2.1,0.6,2.5c0,1-0.8,2.2-3.8,2.2h-0.4v2.2h17.9v-2.2
		c-1.6-0.1-3.6-0.8-4.7-3.4l-11.6-28.3h-4.6l-9.8,27.1c-1.6,4.1-2.8,4.5-5.2,4.7v2.2H144.4z"/>
	<path class="st0" d="M184,174.2c3.3,0,4.2-0.3,4.2-3.7v-22.4c0-2.2-1.8-2.3-4.1-2.3v-2.2h12.1l15.7,22h0.1v-16.1
		c0-3.7-0.9-3.8-4.5-3.8v-2.2h10.9v2.2c-2.3,0-3.9,0-3.9,2v29.2h-4.4L191,150.2h-0.1v20c0,3.9,1,3.9,4.9,3.9v2.2H184V174.2z"/>
	<path class="st0" d="M225,174.2c3.3,0,4.2-0.3,4.2-3.7v-22.4c0-2.2-1.8-2.3-4.1-2.3v-2.2h12.1l15.7,22h0.1v-16.1
		c0-3.7-0.9-3.8-4.5-3.8v-2.2h10.9v2.2c-2.3,0-3.9,0-3.9,2v29.2h-4.4L232,150.2h-0.1v20c0,3.9,1,3.9,4.9,3.9v2.2H225V174.2z"/>
	<path class="st0" d="M299.9,137.7c0,0.5,0,1,0,1.7c0,2.6,0.1,6,0.4,8.4c-0.5,0-2.1,0-2.4,0c-2.3-6.1-4.1-8.1-10.4-8.1h-4.6
		c-2,0-2.6,0.5-2.6,1.9v11.7c0,1.4,1.3,1.5,2.6,1.5h1.7c5.4,0,5.9-2.7,6.2-5.5c0.4,0,1.8,0,2.2,0c-0.2,1.5-0.3,4-0.3,6.7
		s0.1,5.4,0.3,7.2c-0.4,0-2,0-2.3,0c-0.4-3.8-0.8-6.3-6.1-6.3h-1.7c-1.1,0-2.6,0.2-2.6,1.5v14c0,1.9,2.1,1.9,3.7,1.9h3.6
		c7,0,10-6.4,11.8-10.2l0,0c0.3,0,2.1,0.2,2.6,0.3c-0.7,3.1-1.4,8.1-1.6,12c-0.5,0-33.6,0-34.1,0c0-0.4,0-1.7,0-2.1
		c2.5-0.1,5.1-0.1,5.1-2.3v-30.1c0-2.1-2.6-2.2-5.1-2.3c0-0.4,0-1.7,0-2.1C266.6,137.7,299.2,137.7,299.9,137.7z"/>
	<g>
		<path class="st0" d="M113.8,196.2c-0.1-1.3-0.7-2.4-2.1-2.4c-1.3,0-2,0.8-2,1.9c0,2.1,4.4,2.5,4.4,5.4c0,1.4-0.9,3.4-4.4,3.4
			c-0.7,0-1.9-0.2-2.9-0.5c0.1-0.7,0.3-1.6,0.3-2.5c0-0.3,0-0.6,0-0.8h0.8c0.1,1.8,1,3.1,2.4,3.1c1.2,0,2-0.6,2-1.8
			c0-2.5-4.1-2.5-4.1-5.7c0-1.7,1.5-3.2,3.8-3.2c1,0,2.2,0.3,2.8,0.4c-0.1,0.6-0.2,1.8-0.2,2.7H113.8z"/>
		<path class="st0" d="M118.9,193.8c0,0.5,0.3,0.9,0.9,0.9s1-0.6,1-1.1s-0.3-0.9-0.9-0.9C119.2,192.8,118.9,193.4,118.9,193.8z
			 M116.5,198.7c0.7-0.5,1.1-0.7,1.4-0.7s0.4,0.2,0.4,0.4c0,0.2,0,0.4-0.2,0.9l-0.6,2.1c-0.3,1.2-0.4,1.5-0.4,1.8
			c0,0.8,0.6,1.2,1.2,1.2s1.2-0.3,2-1l0.3-1c-0.6,0.6-1.1,0.9-1.5,0.9c-0.2,0-0.4-0.2-0.4-0.4c0-0.2,0-0.5,0.2-0.9l0.8-3.2
			c0.2-0.6,0.2-0.9,0.2-1.2c0-0.6-0.4-0.8-0.9-0.8c-0.8,0-1.5,0.4-2.3,1.1L116.5,198.7z"/>
		<path class="st0" d="M122.6,198c0.8-0.6,1.7-1.1,2.3-1.1c0.5,0,0.8,0.2,0.8,0.8c0,0.2-0.1,0.7-0.2,1.2l0,0
			c1.2-1.4,2.3-2.2,3.3-2.2s1.5,0.7,1.5,1.5c0,0.4-0.1,0.9-0.3,1.6l-0.7,2.5c-0.1,0.3-0.2,0.7-0.2,0.9c0,0.2,0.1,0.4,0.4,0.4
			s0.8-0.2,1.3-0.8l-0.2,0.8c-0.7,0.6-1.3,0.9-1.8,0.9c-0.8,0-1.1-0.6-1.1-1.3c0-0.4,0.2-1.1,0.3-1.6l0.5-1.6
			c0.2-0.8,0.3-1.2,0.3-1.4c0-0.6-0.3-0.8-0.8-0.8c-0.9,0-2.7,1.6-3.4,4.4l-0.5,2.2h-1.5l1-4c0.3-1.4,0.4-1.7,0.4-1.9
			c0-0.2,0-0.3-0.2-0.3c-0.3,0-0.6,0.2-1.3,0.8L122.6,198z"/>
		<path class="st0" d="M138.5,203.1c-1.1,0.9-2.4,1.4-3.3,1.4c-1.3,0-2.5-1-2.5-2.8c0-2.4,2.4-5,5.2-5c1.1,0,1.6,0.4,1.6,1.1
			c0,0.6-0.5,1-1,1c-1.1,0-0.9-1.3-1.9-1.3s-2.5,2.1-2.5,3.8c0,1.3,0.7,2.1,1.8,2.1c0.9,0,1.8-0.4,2.8-1.3L138.5,203.1z"/>
		<path class="st0" d="M145.5,198.4c0,1.4-1.6,2.1-3.6,2.2c0.6-2.7,2.1-3.3,2.6-3.3C145.2,197.3,145.5,197.7,145.5,198.4z
			 M146.4,202.3c-1.4,0.9-2.1,1-2.8,1c-1,0-1.7-0.9-1.7-1.7c0-0.2,0-0.3,0-0.4c1.9,0,5.1-0.8,5.1-2.9c0-1.2-0.8-1.6-1.9-1.6
			c-2,0-4.9,1.9-4.9,5.1c0,1.2,0.7,2.7,2.6,2.7c1.2,0,2.2-0.6,3.2-1.2L146.4,202.3z"/>
		<path class="st0" d="M154,203.6c1.9-0.1,2-0.2,2.2-1l1.4-6.3c0-0.2,0.1-0.3,0.1-0.4c0-0.3-0.4-0.6-1.2-0.6c-0.3,0-0.5,0-0.8,0.1
			l0.1-0.6c1.6-0.2,2.6-0.4,3.3-1.6h0.9c-0.2,1-0.6,2.3-0.7,3l-1.3,6c-0.1,0.5-0.2,0.7-0.2,0.9c0,0.3,0.1,0.5,1.2,0.5h0.8l-0.1,0.7
			h-5.6L154,203.6z"/>
		<path class="st0" d="M164.6,201.9c0-1.3,0.7-2.2,2.1-2.8c1,0.6,1.8,1.6,1.8,2.6c0,1.3-0.8,2-2.1,2
			C165.2,203.8,164.6,203.1,164.6,201.9z M168,193.1c-2.1,0-3.3,1.4-3.3,2.8c0,1.3,0.5,2,1.7,2.9c-1.8,0.3-3,1.7-3,3.1s1,2.6,3,2.6
			c2.4,0,3.6-1.5,3.6-3.1c0-1-0.6-2-1.9-3c1.9-0.6,2.7-1.8,2.7-3C170.8,193.8,169.5,193.1,168,193.1z M166,195.5
			c0-1.1,0.8-1.7,1.8-1.7c1.1,0,1.7,0.8,1.7,1.7c0,0.9-0.6,1.9-1.9,2.4C166.5,197.1,166,196.5,166,195.5z"/>
		<path class="st0" d="M176.8,199.4c-1.2,0-1.6-1.1-1.6-2.1c0-1.8,0.9-3.5,2.2-3.5c1,0,1.6,0.9,1.6,2.6
			C179,197.8,178.2,199.4,176.8,199.4z M173.1,204c0.5,0.3,1.3,0.5,2,0.5c2.4,0,5.3-3.2,5.3-7.3c0-2.2-0.9-4.1-3-4.1
			c-2.5,0-3.8,2.4-3.8,4.3s1.2,2.8,2.6,2.8c0.8,0,1.4-0.2,2.3-0.7c-0.5,2.4-1.7,4.2-3.5,4.2c-0.6,0-1.2-0.2-1.9-0.8V204z"/>
		<path class="st0" d="M184.4,198c0.2,0,0.3,0,0.4,0c2.2,0,3.1-1.2,3.1-2.5c0-0.9-0.6-1.7-1.7-1.7c-0.7,0-1.3,0.2-2.1,1.1h-0.2
			l0.3-1.3c0.5-0.3,1.4-0.6,2.5-0.6c1.4,0,2.8,0.7,2.8,2.4c0,1.7-1.4,2.6-2.9,2.8l0,0c1.2,0.3,2.2,1.2,2.2,2.4c0,2-1.6,3.6-4,3.6
			c-1.9,0-2.8-0.9-2.8-1.7c0-0.3,0.2-0.7,0.8-0.7c1.2,0,0.8,1.7,2.1,1.7c1.1,0,2.3-1.1,2.3-2.9c0-1.1-0.5-2.2-2.3-2.2
			c-0.3,0-0.5,0-0.7,0L184.4,198z"/>
		<rect x="196.9" y="198.9" class="st0" width="103.5" height="1.3"/>
		<rect x="0.4" y="198.9" class="st0" width="100" height="1.3"/>
	</g>
	<path class="st0" d="M24.8,125.7c1,0,2,0,2-0.8v-12c0-0.8-1-0.8-2-0.8v-1h13.9c0,1,0,3.1,0.2,4.2h-1.2c-0.9-2.5-1.6-3.2-4.1-3.2
		h-1.8c-0.7,0-0.9,0.2-0.9,0.7v4.6c0,0.3,0.2,0.5,0.9,0.5h0.7c2.1,0,2.2-1,2.4-2.2h1.1c-0.2,1.1-0.2,4.4,0,5.7h-1.2
		c-0.2-1.6-0.3-2.5-2.3-2.5h-0.7c-0.7,0-0.9,0.2-0.9,0.5v5.5c0,0.6,0.5,0.7,1.4,0.7h1.4c2.8,0,3.9-2.5,4.6-4.1l1.2,0.1
		c-0.3,1.3-0.6,3.4-0.7,5h-14V125.7z"/>
	<path class="st0" d="M56.8,124.5c-1.1,1-4,2.6-6.7,2.6c-5.4,0-7.7-4-7.7-7.8c0-5.3,3.5-8.5,8.6-8.5c2.2,0,4.1,0.3,5.5,0.7
		c-0.2,1.5-0.1,3,0.1,4.5c-0.4,0-1,0-1.4,0.1c-0.2-1-1.1-4.2-4.2-4.2c-2.8,0-4.5,3-4.5,7c0,3.4,1.3,6.5,4.8,6.5c2.2,0,4.1-1.3,5-1.8
		L56.8,124.5z"/>
	<path class="st0" d="M63.1,118.9c0-4.5,0.5-7.2,3.1-7.2s3.1,2.6,3.1,7.2c0,4.5-0.5,7.2-3.1,7.2S63.1,123.4,63.1,118.9z M58.8,118.7
		c0,5,3.1,8.4,7.4,8.4c4.2,0,7.4-3.4,7.4-8.4c0-4.4-2.9-8-7.4-8C61.8,110.7,58.8,114.3,58.8,118.7z"/>
	<path class="st0" d="M75.9,125.7c1,0,2,0,2-0.8v-12c0-0.8-1-0.8-2-0.8v-1h8.9v1c-2.2,0-2.8,0-2.8,0.8v12c0,0.5,0.2,0.8,1.5,0.8h0.7
		c2.6,0,3.6-1,4.4-4.6l1.2,0.2c-0.5,1.8-0.7,3.7-0.7,5.4H75.9L75.9,125.7L75.9,125.7z"/>
	<path class="st0" d="M91.6,125.7c1,0,2,0,2-0.8v-12c0-0.8-1-0.8-2-0.8v-1h13.9c0,1,0,3.1,0.2,4.2h-1.2c-0.9-2.5-1.6-3.2-4.1-3.2
		h-1.8c-0.7,0-0.9,0.2-0.9,0.7v4.6c0,0.3,0.2,0.5,0.9,0.5h0.7c2.1,0,2.2-1,2.4-2.2h1.1c-0.2,1.1-0.2,4.4,0,5.7h-1.2
		c-0.2-1.6-0.3-2.5-2.3-2.5h-0.7c-0.7,0-0.9,0.2-0.9,0.5v5.5c0,0.6,0.5,0.7,1.4,0.7h1.4c2.8,0,3.9-2.5,4.6-4.1l1.2,0.1
		c-0.3,1.3-0.6,3.4-0.7,5h-14L91.6,125.7L91.6,125.7z"/>
	<path class="st0" d="M128.9,125.7c1,0,1.8,0,1.8-0.8v-5.6c0-0.2-0.1-0.3-0.3-0.3h-4.8c-0.2,0-0.3,0.1-0.3,0.3v5.6
		c0,0.8,0.8,0.8,1.8,0.8v1h-7.9v-1c1,0,2,0,2-0.8v-12c0-0.8-1-0.8-2-0.8v-1h7.9v1c-1,0-1.8,0-1.8,0.8v4.7c0,0.2,0.1,0.3,0.3,0.3h4.8
		c0.2,0,0.3-0.2,0.3-0.3v-4.7c0-0.8-0.8-0.8-1.8-0.8v-1h7.9v1c-1,0-2,0-2,0.8v12c0,0.8,1,0.8,2,0.8v1h-7.9V125.7z"/>
	<path class="st0" d="M144,118.9c0-4.5,0.5-7.2,3.1-7.2s3.1,2.6,3.1,7.2c0,4.5-0.5,7.2-3.1,7.2S144,123.4,144,118.9z M139.6,118.7
		c0,5,3.1,8.4,7.4,8.4c4.2,0,7.4-3.4,7.4-8.4c0-4.4-2.9-8-7.4-8C142.6,110.7,139.6,114.3,139.6,118.7z"/>
	<path class="st0" d="M158.9,125.7h0.7c1.4,0,1.7-0.2,1.7-0.9v-12.7c-2.4,0-3.2,1.9-3.7,4l-1.3-0.3c0.2-1,0.6-3.1,0.5-4.7H170
		c-0.1,1.5,0.2,3.7,0.5,4.7l-1.3,0.3c-0.5-2.1-1.3-4-3.7-4v12.7c0,0.7,0.3,0.9,1.7,0.9h0.7v1H159v-1H158.9z"/>
	<path class="st0" d="M173.5,125.7c1,0,2,0,2-0.8v-12c0-0.8-1-0.8-2-0.8v-1h13.9c0,1,0,3.1,0.2,4.2h-1.2c-0.9-2.5-1.6-3.2-4.1-3.2
		h-1.8c-0.7,0-0.9,0.2-0.9,0.7v4.6c0,0.3,0.2,0.5,0.9,0.5h0.7c2.1,0,2.2-1,2.4-2.2h1.1c-0.2,1.1-0.2,4.4,0,5.7h-1.2
		c-0.2-1.6-0.3-2.5-2.3-2.5h-0.7c-0.7,0-0.9,0.2-0.9,0.5v5.5c0,0.6,0.5,0.7,1.4,0.7h1.4c2.8,0,3.9-2.5,4.6-4.1l1.2,0.1
		c-0.3,1.3-0.6,3.4-0.7,5h-14V125.7z"/>
	<path class="st0" d="M191.4,125.7c1,0,2,0,2-0.8v-12c0-0.8-1-0.8-2-0.8v-1h8.9v1c-2.2,0-2.8,0-2.8,0.8v12c0,0.5,0.2,0.8,1.5,0.8
		h0.7c2.6,0,3.6-1,4.4-4.6l1.2,0.2c-0.5,1.8-0.7,3.7-0.7,5.4h-13.2V125.7z"/>
	<path class="st0" d="M207.2,125.7c1.6,0,2.2,0,2.2-0.8v-12c0-0.8-0.6-0.8-2.2-0.8v-1h8.3v1c-1.6,0-2.2,0-2.2,0.8v12
		c0,0.8,0.6,0.8,2.2,0.8v1h-8.3V125.7z"/>
	<path class="st0" d="M219.5,125.7c1,0,2,0,2-0.8v-12c0-0.8-1-0.8-2-0.8v-1h13.9c0,1,0,3.1,0.2,4.2h-1.2c-0.9-2.5-1.6-3.2-4.1-3.2
		h-1.8c-0.7,0-0.9,0.2-0.9,0.7v4.6c0,0.3,0.2,0.5,0.9,0.5h0.7c2.1,0,2.2-1,2.4-2.2h1.1c-0.2,1.1-0.2,4.4,0,5.7h-1.2
		c-0.2-1.6-0.3-2.5-2.3-2.5h-0.7c-0.7,0-0.9,0.2-0.9,0.5v5.5c0,0.6,0.5,0.7,1.4,0.7h1.4c2.8,0,3.9-2.5,4.6-4.1l1.2,0.1
		c-0.3,1.3-0.6,3.4-0.7,5h-14V125.7z"/>
	<path class="st0" d="M243.4,112.7c0-0.4,0.3-0.6,0.9-0.6c1.7,0,3.2,0.6,3.2,3c0,2.1-1.2,3.2-3.3,3.2c-0.5,0-0.8,0-0.8-0.3
		L243.4,112.7L243.4,112.7z M237.4,126.7h8v-1c-1.1,0-1.9,0-1.9-0.8v-5.2c0-0.2,0.1-0.4,0.7-0.4c0.7,0,0.9,0.1,1.1,0.5l3.6,7h4.9v-1
		h-0.3c-0.6,0-0.9-0.6-1.4-1.4l-1.9-3.5c-0.8-1.5-1.5-1.8-1.9-2c-0.3-0.1-0.4-0.1-0.4-0.3s0.5-0.2,1-0.4c2-0.8,3-1.7,3-3.5
		c0-2.7-2.9-3.5-6.2-3.5h-8.1v1c1,0,2,0,2,0.8v12c0,0.8-1,0.8-2,0.8v0.9H237.4z"/>
	<path class="st0" d="M256.5,125.7c1,0,2,0,2-0.8v-12c0-0.8-1-0.8-2-0.8v-1h13.9c0,1,0,3.1,0.2,4.2h-1.2c-0.9-2.5-1.6-3.2-4.1-3.2
		h-1.8c-0.7,0-0.9,0.2-0.9,0.7v4.6c0,0.3,0.2,0.5,0.9,0.5h0.7c2.1,0,2.2-1,2.4-2.2h1.1c-0.2,1.1-0.2,4.4,0,5.7h-1.2
		c-0.2-1.6-0.3-2.5-2.3-2.5h-0.7c-0.7,0-0.9,0.2-0.9,0.5v5.5c0,0.6,0.5,0.7,1.4,0.7h1.4c2.8,0,3.9-2.5,4.6-4.1l1.2,0.1
		c-0.3,1.3-0.6,3.4-0.7,5h-14V125.7z"/>
</g>
</svg>
