<?xml version="1.0" encoding="utf-8"?>
<!-- Generator: Adobe Illustrator 19.2.1, SVG Export Plug-In . SVG Version: 6.00 Build 0)  -->
<svg version="1.1" id="Layer_1" xmlns="http://www.w3.org/2000/svg" xmlns:xlink="http://www.w3.org/1999/xlink" x="0px" y="0px"
	 viewBox="0 0 493.7 90.3" style="enable-background:new 0 0 493.7 90.3;" xml:space="preserve">
<style type="text/css">
	.st0{fill:#891A1C;}
</style>
<g>
	<path class="st0" d="M371.7,4.3h13.8l27.4,65.3l27.4-65.3H453c-0.7,1.3-1.2,3.1-1.6,5.2c-0.3,2.2-0.5,4.9-0.5,8v56.3
		c0,3.2,0.2,5.9,0.5,8c0.3,2.2,0.9,3.9,1.6,5.2h-15.2c0.7-1.3,1.2-2.9,1.5-4.7c0.3-1.8,0.5-4.7,0.6-8.5l1.2-51.9l-27.3,66.5h-2.5
		l-27.6-66l1.1,51.5c0.1,4.1,0.3,7.1,0.5,8.9c0.3,1.8,0.7,3.2,1.4,4.3h-15c0.7-1.1,1.2-2.7,1.5-4.8c0.3-2.1,0.5-4.9,0.5-8.4V17.6
		c0-3.5-0.2-6.3-0.5-8.4C372.8,7,372.3,5.4,371.7,4.3L371.7,4.3L371.7,4.3z M301.5,3.8c0.7,0.1,1.4,0.3,2.2,0.3
		c0.8,0.1,1.9,0.1,3.5,0.1h2h25.3c6.4,10.3,11.4,22.5,15.1,36.6c3.7,14.2,5.8,29.5,6.4,46.1h-14.4c0.5-1,0.9-2.2,1.1-3.7
		c0.2-1.5,0.3-4.4,0.3-8.5c0-2.9-0.1-5.7-0.4-8.4c-0.3-2.8-0.7-5.5-1.2-8.2h-38.9c-1.2,2.8-2.1,6-2.7,9.8s-0.9,7.7-0.9,11.9
		c0,1.4,0.1,2.6,0.3,3.8c0.2,1.1,0.5,2.3,0.9,3.4h-13.8c0.5-13.6,3.3-26.6,8.2-39c4.9-12.4,11.9-24,21.1-34.8c-0.3,0-0.7,0-1.1-0.1
		c-0.4,0-0.7-0.1-0.9-0.1c-2.8,0-5.5,0.1-8.2,0.4c-2.6,0.3-5.2,0.7-7.7,1.3c0.9-1.7,1.7-3.5,2.3-5.2C300.6,7.7,301.1,5.8,301.5,3.8
		L301.5,3.8L301.5,3.8z M326.5,13.5c-4.8,5.4-9,11.1-12.5,17.1c-3.6,6-6.4,12.1-8.5,18.4h34.4c-1-6.3-2.4-12.4-4.3-18.5
		c-1.9-6-4.1-11.7-6.7-17H326.5L326.5,13.5L326.5,13.5z M235.5,43.8c0.6,0,1.4,0.1,2.5,0.2s1.7,0.1,2,0.1c6.9,0,12.2-1.4,15.9-4.2
		c3.7-2.8,5.6-6.9,5.6-12.1c0-4.9-1.5-8.6-4.6-11.1c-3-2.5-7.5-3.8-13.4-3.8c-1.3,0-3.5,0.1-6.7,0.4c-0.6,0-1.1,0.1-1.3,0.1V43.8
		L235.5,43.8L235.5,43.8z M260.3,49.1l11.2,20.5c1.7,3.1,3.7,5.9,5.8,8.1c2.2,2.3,4.5,4.2,7,5.7c-3.2,1.5-5.6,2.6-7.2,3.2
		s-2.9,0.9-3.8,0.9c-1.4,0-2.7-0.5-3.9-1.6c-1.2-1.1-2.4-2.8-3.6-5.1L250.3,52c-1.4,0.4-3,0.6-4.6,0.8c-1.6,0.2-3.3,0.3-5,0.3
		c-1.8,0-3,0-3.7,0s-1.2,0-1.6,0V74c0,2.9,0.2,5.5,0.5,7.7s0.8,4.1,1.5,5.5h-15.1c0.7-1.5,1.2-3.2,1.5-5.1s0.4-4.6,0.4-8.1V17.4
		c0-3.4-0.2-6.2-0.5-8.3c-0.3-2.1-0.8-3.7-1.5-4.9c0.2,0,0.6,0,1.1,0c4.4,0.2,7.6,0.2,9.5,0.2c0.6,0,2.1-0.1,4.5-0.2
		s4.5-0.2,6.2-0.2c9.3,0,16.3,2,21.1,6c4.8,4,7.2,9.9,7.2,17.7c0,4.4-1,8.5-3,12.2C266.9,43.7,264,46.8,260.3,49.1L260.3,49.1
		L260.3,49.1z M167.4,4.3h1.3h6.8h23.4c2.8,0,4.6,0.2,5.4,0.5s1.2,0.9,1.2,1.7l0.5,8.1c-1-0.5-2.1-0.9-3.4-1.2
		c-1.3-0.3-3.5-0.4-6.5-0.4h-15.4v26H195c1.8,0,3.2-0.1,4.1-0.2s1.7-0.4,2.4-0.7v10.3c-0.9-0.2-1.7-0.4-2.7-0.6
		c-0.9-0.2-1.8-0.2-2.7-0.2h-15.3v30.8H200c2.3,0,4.2-0.2,5.7-0.5s3.1-0.8,4.6-1.5l-2.4,8.6c-0.3,0.9-0.8,1.5-1.5,1.9
		s-2,0.5-3.9,0.5c-0.2,0-3.3-0.1-9.5-0.3c-6.2-0.2-12.3-0.4-18.4-0.4c-0.5,0-1.8,0-3.8,0.1c-1.3,0-2.4,0.1-3.3,0.1
		c0.6-0.9,1.1-1.9,1.3-3c0.3-1.1,0.4-2.4,0.4-3.8V13.9c0-2.2-0.1-4-0.4-5.4C168.4,7.1,168,5.6,167.4,4.3L167.4,4.3L167.4,4.3z
		 M152.3,10.3l-3,9.3c-2.3-2.3-5.2-4-8.8-5.3c-3.6-1.3-7.3-1.9-11.4-1.9c-8.8,0-15.6,2.9-20.5,8.7c-4.9,5.8-7.3,13.9-7.3,24.4
		c0,10.3,2.5,18.4,7.6,24.3s12,8.8,20.9,8.8c5.1,0,9.6-0.9,13.4-2.7c3.8-1.8,7-4.5,9.5-8V79c0,2.8-2.2,5.1-6.5,6.8
		c-4.3,1.8-10,2.6-17.1,2.6c-12.3,0-22-3.8-29-11.4C93,69.4,89.5,58.9,89.5,45.7c0-13.4,3.6-23.9,10.6-31.4
		c7.1-7.6,17-11.3,29.6-11.3c5.3,0,10.4,0.7,15.3,2.2s7.3,2.8,7.3,4c0,0.2,0,0.5-0.1,0.9C152.4,10.1,152.4,10.2,152.3,10.3
		L152.3,10.3L152.3,10.3z M60,4.3h15.8c-0.7,1.3-1.2,3.1-1.6,5.2c-0.3,2.2-0.5,4.9-0.5,8v56.3c0,3.2,0.2,5.9,0.5,8
		c0.3,2.2,0.9,3.9,1.6,5.2H60c0.7-1.3,1.2-3,1.5-5.1c0.3-2.2,0.5-4.9,0.5-8V17.6c0-3.4-0.2-6.2-0.5-8.3C61.2,7.2,60.7,5.5,60,4.3
		L60,4.3L60,4.3z M41.4,11.4l-1.6,5.7c-2.3-1.7-4.8-2.9-7.2-3.8c-2.5-0.8-5.1-1.3-7.7-1.3c-3.7,0-6.6,0.8-8.7,2.5
		c-2.1,1.7-3.2,4-3.2,7c0,4.7,4.9,10.8,14.8,18.3c0.3,0.3,0.6,0.5,0.8,0.6c6.4,5,10.8,9.2,13,12.8c2.2,3.6,3.3,7.7,3.3,12.2
		c0,7-2.3,12.6-7,16.7c-4.6,4.1-11,6.2-19.1,6.2c-5,0-9.4-0.8-13.2-2.5c-3.8-1.6-5.7-3.5-5.7-5.6v-0.1L0.3,70c2.3,2.8,5.1,5,8.3,6.5
		s6.6,2.3,10.2,2.3c4.6,0,8.3-1.2,11-3.5C32.6,73,34,70,34,66.2c0-4.8-4.7-10.9-14-18.5c-2.6-2.1-4.5-3.8-5.9-4.9
		c-4.3-3.7-7.5-7.1-9.4-10.2c-1.9-3.2-2.9-6.4-2.9-9.8c0-5.9,2.2-10.7,6.5-14.3C12.6,4.8,18.4,3,25.6,3c4.2,0,8,0.6,11.4,1.7
		s5.2,2.3,5.2,3.5c0,0.5-0.2,1.4-0.6,2.7C41.4,11.1,41.4,11.3,41.4,11.4L41.4,11.4L41.4,11.4z"/>
	<path class="st0" d="M478.2,26.9c-7.3,0-11.7-4.4-11.7-11.7c0-7.3,4.4-11.7,11.7-11.7s11.7,4.4,11.7,11.7S485.6,26.9,478.2,26.9
		L478.2,26.9L478.2,26.9z M478.2,30.2c9.6,0,15-5.5,15-15c0-9.6-5.5-15-15-15c-9.6,0-15,5.5-15,15S468.7,30.2,478.2,30.2L478.2,30.2
		L478.2,30.2z M473.3,6.4c-0.5,0-0.7,0.2-0.9,0.7c-0.3,0.7-0.5,2.3-0.6,3.1l-0.2,6.2c0,1.4,0.1,6,0.5,7.1c0.1,0.4,0.4,0.3,0.9,0.3
		h3.1c0.2,0,0.8,0.1,0.8-0.2c0-0.1-0.8-3-0.8-4.6c0-1.1,1.6-2,2.3-2s2.5,3.2,3,6.6c0.1,0.3,0.5,0.2,0.9,0.2h3.3c0.5,0,0.6,0,0.6-0.2
		c0-4.5-4.5-7.8-4.5-8.3c0-0.6,3.8-1.7,3.8-5c0-1.8-1-3.9-5.7-3.9L473.3,6.4L473.3,6.4L473.3,6.4z M476.6,14.5
		c-0.7,0-0.7-0.8-0.7-1.3c0-3.6,0.9-4.3,3-4.3c1.2,0,2.6,0.5,2.6,1.8C481.4,12.7,477.3,14.5,476.6,14.5L476.6,14.5L476.6,14.5z"/>
</g>
</svg>
