<?xml version="1.0" encoding="utf-8"?>
<!-- Generator: Adobe Illustrator 19.2.1, SVG Export Plug-In . SVG Version: 6.00 Build 0)  -->
<svg version="1.1" id="Layer_1" xmlns="http://www.w3.org/2000/svg" xmlns:xlink="http://www.w3.org/1999/xlink" x="0px" y="0px"
	 viewBox="0 0 276.2 67.8" style="enable-background:new 0 0 276.2 67.8;" xml:space="preserve">
<style type="text/css">
	.st0{clip-path:url(#SVGID_2_);fill:url(#SVGID_3_);}
	.st1{clip-path:url(#SVGID_5_);fill:url(#SVGID_6_);}
	.st2{clip-path:url(#SVGID_8_);fill:url(#SVGID_9_);}
	.st3{clip-path:url(#SVGID_11_);fill:url(#SVGID_12_);}
	.st4{clip-path:url(#SVGID_14_);fill:url(#SVGID_15_);}
	.st5{clip-path:url(#SVGID_17_);fill:url(#SVGID_18_);}
	.st6{clip-path:url(#SVGID_20_);fill:url(#SVGID_21_);}
	.st7{clip-path:url(#SVGID_23_);fill:url(#SVGID_24_);}
	.st8{clip-path:url(#SVGID_26_);fill:url(#SVGID_27_);}
	.st9{clip-path:url(#SVGID_29_);fill:url(#SVGID_30_);}
	.st10{clip-path:url(#SVGID_32_);fill:url(#SVGID_33_);}
</style>
<g>
	<g>
		<g>
			<g>
				<defs>
					<path id="SVGID_1_" d="M177.4,61.7L177.4,61.7c-0.8,0-1.5,0.3-2.1,0.8c-0.6,0.5-1,1.2-1.1,2c0,0.1,0,0.3,0,0.4
						c0,0.6,0.2,1.2,0.6,1.6c0.5,0.6,1.1,0.9,1.9,0.9h0c0.8,0,1.4-0.3,2-0.8c0.6-0.5,1-1.2,1.1-2c0-0.1,0-0.3,0-0.4
						c0-0.6-0.2-1.2-0.6-1.6C178.8,62,178.1,61.7,177.4,61.7L177.4,61.7L177.4,61.7z"/>
				</defs>
				<clipPath id="SVGID_2_">
					<use xlink:href="#SVGID_1_"  style="overflow:visible;"/>
				</clipPath>
				
					<linearGradient id="SVGID_3_" gradientUnits="userSpaceOnUse" x1="-551.2538" y1="704.6602" x2="-550.1779" y2="704.6602" gradientTransform="matrix(0 17.6684 17.6684 0 -12273.1836 9789.5059)">
					<stop  offset="0" style="stop-color:#30A4DC"/>
					<stop  offset="0.4458" style="stop-color:#1E7ABB"/>
					<stop  offset="0.8177" style="stop-color:#0A60A7"/>
					<stop  offset="1" style="stop-color:#0256A0"/>
				</linearGradient>
				<rect x="174.2" y="61.7" class="st0" width="5.6" height="5.8"/>
			</g>
		</g>
	</g>
	<g>
		<g>
			<g>
				<defs>
					<path id="SVGID_4_" d="M184.1,54.9c-1.9,1.5-3,3.4-3.3,5.6c-0.1,0.4-0.1,0.8-0.1,1.2c0,1.5,0.5,2.8,1.4,3.8
						c1.1,1.3,2.8,2,4.8,2h0c1.4,0,2.8-0.2,4.2-0.5l0.2-0.1l1.2-4.6l-0.7,0.3c-1.5,0.6-2.7,0.9-3.7,0.9c-1,0-1.7-0.3-2.1-0.7
						c-0.3-0.4-0.5-0.8-0.5-1.4c0-0.2,0-0.3,0-0.5c0.2-1.1,0.7-2,1.6-2.7c0.9-0.7,2-1.1,3.2-1.1c0.6,0,1.1,0,1.3,0.1
						c0.2,0.1,0.7,0.2,1.3,0.5l0.4,0.2l1.2-4.4v0l-0.3-0.1c-1-0.3-2.2-0.5-3.6-0.5C188.2,52.7,186,53.4,184.1,54.9"/>
				</defs>
				<clipPath id="SVGID_5_">
					<use xlink:href="#SVGID_4_"  style="overflow:visible;"/>
				</clipPath>
				
					<linearGradient id="SVGID_6_" gradientUnits="userSpaceOnUse" x1="-551.2538" y1="704.7028" x2="-550.1785" y2="704.7028" gradientTransform="matrix(0 17.6684 17.6684 0 -12263.3086 9789.5059)">
					<stop  offset="0" style="stop-color:#30A4DC"/>
					<stop  offset="0.4458" style="stop-color:#1E7ABB"/>
					<stop  offset="0.8177" style="stop-color:#0A60A7"/>
					<stop  offset="1" style="stop-color:#0256A0"/>
				</linearGradient>
				<rect x="180.8" y="52.7" class="st1" width="13.8" height="14.8"/>
			</g>
		</g>
	</g>
	<g>
		<g>
			<g>
				<defs>
					<path id="SVGID_7_" d="M199.1,62.7c-0.3-0.4-0.4-0.8-0.4-1.4c0-0.2,0-0.3,0-0.5c0.1-1,0.5-1.9,1.2-2.8c0.7-0.9,1.4-1.3,2.3-1.3
						c0.7,0,1.1,0.2,1.5,0.7c0.3,0.3,0.4,0.8,0.4,1.3c0,0.2,0,0.4,0,0.6c-0.1,1.1-0.6,2-1.3,2.9c-0.7,0.9-1.5,1.3-2.3,1.3h0
						C199.9,63.4,199.5,63.2,199.1,62.7 M202.9,52.7c-2.1,0-4.1,0.8-5.8,2.3c-1.7,1.5-2.8,3.4-3.1,5.5c0,0.4-0.1,0.7-0.1,1.1
						c0,1.5,0.5,2.8,1.4,3.9c1.2,1.3,2.7,2,4.7,2h0c2.2,0,4.1-0.8,5.8-2.3c1.7-1.5,2.7-3.4,3-5.7c0.1-0.4,0.1-0.8,0.1-1.2
						c0-1.5-0.5-2.7-1.3-3.8C206.5,53.3,204.9,52.7,202.9,52.7C203,52.7,202.9,52.7,202.9,52.7z"/>
				</defs>
				<clipPath id="SVGID_8_">
					<use xlink:href="#SVGID_7_"  style="overflow:visible;"/>
				</clipPath>
				
					<linearGradient id="SVGID_9_" gradientUnits="userSpaceOnUse" x1="-551.2538" y1="704.7579" x2="-550.1791" y2="704.7579" gradientTransform="matrix(0 17.6684 17.6684 0 -12250.4961 9789.5059)">
					<stop  offset="0" style="stop-color:#30A4DC"/>
					<stop  offset="0.4458" style="stop-color:#1E7ABB"/>
					<stop  offset="0.8177" style="stop-color:#0A60A7"/>
					<stop  offset="1" style="stop-color:#0256A0"/>
				</linearGradient>
				<rect x="193.9" y="52.7" class="st2" width="15" height="14.8"/>
			</g>
		</g>
	</g>
	<g>
		<g>
			<g>
				<defs>
					<path id="SVGID_10_" d="M220.4,52.7c-1.2,0-2.5,0.5-3.8,1.5l0.3-1.2h-0.5h-4.2l-3.9,14.3h4.6l2.4-8.9c1.4-1.3,2.4-2,3-1.9
						c0.3,0,0.4,0.1,0.5,0.2c0.1,0.1,0.2,0.3,0.2,0.7c0,0.2,0,0.3,0,0.5c-0.1,0.3-0.1,0.7-0.3,1.2l-2.2,8.2h4.6l2.4-8.8
						c1.3-1.3,2.4-2,3.1-2c0.2,0,0.3,0.1,0.4,0.2c0.1,0.1,0.2,0.3,0.2,0.7c0,0.2,0,0.4,0,0.6c0,0.3-0.1,0.7-0.2,1.1l-2.3,8.3h4.6
						l2.4-8.7c0.1-0.4,0.2-0.8,0.2-1.1c0.1-0.3,0.1-0.7,0.1-0.9c0-1-0.2-1.8-0.7-2.5c-0.6-0.9-1.7-1.3-2.9-1.3
						c-1.5,0-3.1,0.7-4.8,2.1c-0.4-1.4-1.5-2.1-3.1-2.1C220.4,52.7,220.4,52.7,220.4,52.7"/>
				</defs>
				<clipPath id="SVGID_11_">
					<use xlink:href="#SVGID_10_"  style="overflow:visible;"/>
				</clipPath>
				
					<linearGradient id="SVGID_12_" gradientUnits="userSpaceOnUse" x1="-551.2543" y1="704.8331" x2="-550.1782" y2="704.8331" gradientTransform="matrix(0 17.6684 17.6684 0 -12233.0586 9789.5059)">
					<stop  offset="0" style="stop-color:#30A4DC"/>
					<stop  offset="0.4458" style="stop-color:#1E7ABB"/>
					<stop  offset="0.8177" style="stop-color:#0A60A7"/>
					<stop  offset="1" style="stop-color:#0256A0"/>
				</linearGradient>
				<rect x="208.4" y="52.7" class="st3" width="23.7" height="14.5"/>
			</g>
		</g>
	</g>
	<g>
		<g>
			<g>
				<defs>
					<path id="SVGID_13_" d="M235,61.7L235,61.7c-0.8,0-1.5,0.3-2.1,0.8c-0.6,0.5-1,1.2-1.1,2c0,0.1,0,0.3,0,0.4
						c0,0.6,0.2,1.2,0.6,1.6c0.5,0.6,1.1,0.9,1.9,0.9h0c0.8,0,1.5-0.3,2-0.8c0.6-0.5,1-1.2,1.1-2c0-0.1,0-0.3,0-0.4
						c0-0.6-0.2-1.2-0.6-1.6C236.4,62,235.8,61.7,235,61.7L235,61.7L235,61.7z"/>
				</defs>
				<clipPath id="SVGID_14_">
					<use xlink:href="#SVGID_13_"  style="overflow:visible;"/>
				</clipPath>
				
					<linearGradient id="SVGID_15_" gradientUnits="userSpaceOnUse" x1="-551.2538" y1="704.9065" x2="-550.1779" y2="704.9065" gradientTransform="matrix(0 17.6684 17.6684 0 -12219.9023 9789.5059)">
					<stop  offset="0" style="stop-color:#30A4DC"/>
					<stop  offset="0.4458" style="stop-color:#1E7ABB"/>
					<stop  offset="0.8177" style="stop-color:#0A60A7"/>
					<stop  offset="1" style="stop-color:#0256A0"/>
				</linearGradient>
				<rect x="231.9" y="61.7" class="st4" width="5.6" height="5.8"/>
			</g>
		</g>
	</g>
	<g>
		<g>
			<g>
				<defs>
					<path id="SVGID_16_" d="M243.8,63.2c-0.2-0.3-0.2-0.6-0.2-1.1c0-0.2,0-0.4,0-0.6c0.2-1.4,0.7-2.5,1.6-3.4
						c0.9-0.9,2-1.3,3.4-1.4c0.1,0,0.2,0,0.4,0l-1.6,5.9c-0.9,0.7-1.8,1-2.6,1h0C244.3,63.7,244,63.5,243.8,63.2 M242.3,55
						c-1.9,1.6-3.1,3.7-3.4,6.2c-0.1,0.4-0.1,0.9-0.1,1.3c0,1.2,0.3,2.3,0.9,3.2c0.8,1.2,1.9,1.8,3.3,1.8h0c1.1,0,2.2-0.4,3.3-1
						l-0.2,0.8h4.6l3.8-14l-0.4-0.1c-1.4-0.3-2.9-0.5-4.4-0.5C246.7,52.7,244.2,53.4,242.3,55"/>
				</defs>
				<clipPath id="SVGID_17_">
					<use xlink:href="#SVGID_16_"  style="overflow:visible;"/>
				</clipPath>
				
					<linearGradient id="SVGID_18_" gradientUnits="userSpaceOnUse" x1="-551.2538" y1="704.9384" x2="-550.1791" y2="704.9384" gradientTransform="matrix(0 17.6684 17.6684 0 -12208.4492 9789.5059)">
					<stop  offset="0" style="stop-color:#30A4DC"/>
					<stop  offset="0.4458" style="stop-color:#1E7ABB"/>
					<stop  offset="0.8177" style="stop-color:#0A60A7"/>
					<stop  offset="1" style="stop-color:#0256A0"/>
				</linearGradient>
				<rect x="238.8" y="52.7" class="st5" width="15.8" height="14.8"/>
			</g>
		</g>
	</g>
	<g>
		<g>
			<g>
				<defs>
					<path id="SVGID_19_" d="M268.9,52.9h-4.2l-2.4,9c-1.3,1.2-2.4,1.8-3.2,1.8c-0.2,0-0.3-0.1-0.4-0.2c-0.1-0.1-0.2-0.4-0.2-0.8
						c0-0.2,0-0.4,0-0.7c0.1-0.4,0.2-0.9,0.3-1.5l2.1-7.7h-4.6l-2.4,8.9c-0.1,0.4-0.2,0.8-0.2,1.1c0,0.3-0.1,0.6-0.1,0.9
						c0,0.9,0.2,1.7,0.7,2.4c0.6,0.8,1.7,1.3,2.9,1.3h0c1.3,0,2.5-0.4,3.8-1.2l-0.3,1h4.7l3.9-14.3L268.9,52.9L268.9,52.9z"/>
				</defs>
				<clipPath id="SVGID_20_">
					<use xlink:href="#SVGID_19_"  style="overflow:visible;"/>
				</clipPath>
				
					<linearGradient id="SVGID_21_" gradientUnits="userSpaceOnUse" x1="-551.2543" y1="704.9982" x2="-550.1788" y2="704.9982" gradientTransform="matrix(0 17.6684 17.6684 0 -12194.668 9789.5059)">
					<stop  offset="0" style="stop-color:#30A4DC"/>
					<stop  offset="0.4458" style="stop-color:#1E7ABB"/>
					<stop  offset="0.8177" style="stop-color:#0A60A7"/>
					<stop  offset="1" style="stop-color:#0256A0"/>
				</linearGradient>
				<rect x="253.6" y="52.9" class="st6" width="15.7" height="14.5"/>
			</g>
		</g>
	</g>
	<g>
		<g>
			<g>
				<defs>
					<path id="SVGID_22_" d="M123.1,14.9l-7,7l1.9-7.1h-12.4l-8.4,31.5h12.4l6-22.4c1-0.4,2.1-0.8,3.8-0.8c0.9,0,2.4,0.1,4.1,0.8
						c2.1,0.8,3.2,1.7,4.1,2.5l3.1-11.5c-0.8-0.3-1.8-0.8-3.7-0.8C125.3,14.3,124.1,14.6,123.1,14.9 M40,38.6l4.1-15.1
						c1.5-1.2,2.9-1.5,3.7-1.5c1.3,0,2.4,0.6,3.1,1.6c0.5,0.8,0.7,1.9,0.7,3.1c0,2.6-2,12.4-8.8,12.4C41.4,39.1,40.5,38.7,40,38.6
						 M51.1,14.8l-6.6,7l1.8-7H34.3l-12,44.7h12.1l3.4-12.8c2,0.4,3.6,0.6,5.2,0.6c16.3,0,21-15.4,21-22.2c0-7-3.8-11.1-9.3-11.1
						C53,14.1,52,14.4,51.1,14.8 M10,16.4c-2.7,1.9-4.5,5.1-4.5,8.7c0,4.5,2.9,6.2,5.9,7.9c3.1,1.7,4,2.2,4,3.7
						c0,1.9-1.7,2.7-3.5,2.7c-3.2,0-6.6-2.1-9.4-3.9l-0.8,2.8l-0.4,1.5l-1.2,4.4c3.9,2,8.9,3.1,12.7,3.1c8.5,0,14.3-4.8,14.3-11.1
						c0-4.7-3.2-6.5-6.6-8.4c-2.2-1.2-3.3-1.8-3.3-3.3c0-1.8,1.7-2.7,3.8-2.7c3.9,0,6.8,2.4,7.7,3.2l2.2-8.4
						c-3.6-1.8-7.5-2.7-11.5-2.7C15.9,13.9,12.5,14.7,10,16.4 M77.6,38c-0.9-1-1.1-2.4-1.1-3.8c0-3.3,1.8-12.3,7.2-12.3
						c1.5,0,4.2,0.8,4.2,5.2c0,2.9-1.7,12.1-7.2,12.1C79.4,39.3,78.2,38.7,77.6,38 M64.4,32.8c0,9.4,6.8,14.5,16.4,14.5
						c14.1,0,19.1-11.2,19.1-18.5c0-8.2-5.9-14.9-16.3-14.9C71.5,13.9,64.4,23.4,64.4,32.8 M137.5,11.3l-1,3.6l-7,8.9h4.7L131,35.2
						c-0.2,0.9-0.6,2.7-0.6,3.9c0,4.6,3.6,8.3,9.6,8.3c2,0,3.8-0.4,5.2-0.8l6.2-6.7l-1.2,4.4c3.9,2,8.9,3.1,12.7,3.1
						c8.5,0,14.4-4.8,14.4-11.1c0-4.7-3.2-6.5-6.6-8.4c-2.2-1.2-3.3-1.8-3.3-3.3c0-1.8,1.7-2.7,3.8-2.7c4,0,6.8,2.4,7.7,3.2l2.2-8.4
						c-3.6-1.8-7.5-2.7-11.5-2.7c-3.7,0-7.1,0.8-9.6,2.5c-2.8,1.9-4.5,5.1-4.5,8.7c0,4.5,2.9,6.2,5.9,7.9c3.1,1.7,4,2.2,4,3.7
						c0,1.9-1.7,2.7-3.5,2.7c-3.2,0-6.6-2.1-9.4-3.9l-0.8,2.8c-0.3,0.1-0.6,0.1-1,0.2c-0.1,0-0.2,0-0.3,0c-0.1,0-0.3,0-0.4,0.1
						c-0.1,0-0.3,0-0.4,0.1c-0.1,0-0.2,0-0.3,0c-0.2,0-0.4,0.1-0.7,0.1c-0.1,0-0.1,0-0.2,0c-0.2,0-0.3,0-0.5,0c-0.1,0-0.1,0-0.2,0
						c-0.2,0-0.4,0-0.6,0c-2.4,0-4.1-1-4.1-3c0-1,0.3-2.3,0.6-3.4l2.4-8.5h6.7l2.4-8.9h-6.7l2.4-8.9L137.5,11.3z"/>
				</defs>
				<clipPath id="SVGID_23_">
					<use xlink:href="#SVGID_22_"  style="overflow:visible;"/>
				</clipPath>
				
					<linearGradient id="SVGID_24_" gradientUnits="userSpaceOnUse" x1="-567.7401" y1="690.3022" x2="-566.6638" y2="690.3022" gradientTransform="matrix(0 42.9723 42.9723 0 -29573.1641 24406.123)">
					<stop  offset="0" style="stop-color:#30A4DC"/>
					<stop  offset="0.4458" style="stop-color:#1E7ABB"/>
					<stop  offset="0.8177" style="stop-color:#0A60A7"/>
					<stop  offset="1" style="stop-color:#0256A0"/>
				</linearGradient>
				<rect x="0.1" y="6" class="st7" width="181.1" height="53.6"/>
			</g>
		</g>
	</g>
	<g>
		<g>
			<g>
				<defs>
					<path id="SVGID_25_" d="M191.5,38.4l4.3-16c0.6-0.2,1.8-0.5,3.2-0.5c7.2,0,3.7,10.4,2.2,13.2c-0.7,1.2-1.5,2.4-2.5,3.2
						c-1.2,1-2.7,1.7-4.1,1.7C193.6,40,192.3,39.7,191.5,38.4 M188.9,0.2l-12.7,47.3H189l2-7.4l3,7.4c0.7,0.4,1.5,0.8,3.4,0.8
						c5.8,0,12.2-4.3,16.2-11.8c3.9-7.2,7.6-23.5-9.6-23.5c-1.6,0-3.5,0.1-5.8,0.6l3.6-13.5H188.9z"/>
				</defs>
				<clipPath id="SVGID_26_">
					<use xlink:href="#SVGID_25_"  style="overflow:visible;"/>
				</clipPath>
				
					<linearGradient id="SVGID_27_" gradientUnits="userSpaceOnUse" x1="-590.3932" y1="670.6922" x2="-589.317" y2="670.6922" gradientTransform="matrix(0 -43.6857 -43.6857 0 29498.3359 -25743.8887)">
					<stop  offset="0" style="stop-color:#F2A71E"/>
					<stop  offset="0.2921" style="stop-color:#F2A71E"/>
					<stop  offset="0.4033" style="stop-color:#F3B11C"/>
					<stop  offset="0.6089" style="stop-color:#F6C913"/>
					<stop  offset="0.7135" style="stop-color:#F7D709"/>
					<stop  offset="1" style="stop-color:#F7D709"/>
				</linearGradient>
				<rect x="176.2" y="0.2" class="st8" width="45" height="48.1"/>
			</g>
		</g>
	</g>
	<g>
		<g>
			<g>
				<defs>
					<path id="SVGID_28_" d="M230.7,25.3c1.5-2.5,3.2-3.7,5.3-3.7h0c1,0,1.7,0.3,2.2,0.9c0.5,0.6,0.7,1.5,0.5,2.6c0,0.1,0,0.2,0,0.3
						L230.7,25.3z M224.1,18.4c-3.8,3.5-6,7.9-6.7,12.9c-0.7,4.9,0.3,9,2.8,12c2.5,3,6.3,4.5,11.1,4.6h0c3.2,0,6.9-0.8,11.1-2.3
						l0.5-0.2l3.5-10.5l-2.1,0.9c-5.1,2.1-8.9,3.1-11.2,3.1c-1.9,0-3.2-0.6-4.1-1.8c-0.8-1.1-1-2.5-0.8-4.3l19.6,0l0.2-0.7
						c0.6-1.6,0.9-3.1,1.1-4.6c0.6-4.3-0.2-7.8-2.4-10.4c-2.2-2.7-5.5-4-9.7-4C232.2,13.1,227.9,14.8,224.1,18.4"/>
				</defs>
				<clipPath id="SVGID_29_">
					<use xlink:href="#SVGID_28_"  style="overflow:visible;"/>
				</clipPath>
				
					<linearGradient id="SVGID_30_" gradientUnits="userSpaceOnUse" x1="-590.3919" y1="670.6832" x2="-589.3159" y2="670.6832" gradientTransform="matrix(0 -43.6877 -43.6877 0 29533.8145 -25745.0527)">
					<stop  offset="0" style="stop-color:#F2A71E"/>
					<stop  offset="0.2921" style="stop-color:#F2A71E"/>
					<stop  offset="0.4033" style="stop-color:#F3B11C"/>
					<stop  offset="0.6089" style="stop-color:#F6C913"/>
					<stop  offset="0.7135" style="stop-color:#F7D709"/>
					<stop  offset="1" style="stop-color:#F7D709"/>
				</linearGradient>
				<rect x="216.7" y="13.1" class="st9" width="33" height="34.8"/>
			</g>
		</g>
	</g>
	<g>
		<g>
			<g>
				<defs>
					<path id="SVGID_31_" d="M258,11.3l-1,3.6l-7,8.9h4.7l-3.1,11.4c-0.2,0.9-0.6,2.7-0.6,3.9c0,4.6,3.6,8.3,9.6,8.3
						c2,0,3.8-0.4,5.2-0.8l7.9-8.5l-1.3,0.3c-0.3,0.1-0.6,0.1-1,0.2c-0.1,0-0.2,0-0.3,0c-0.1,0-0.3,0-0.4,0.1s-0.3,0-0.4,0.1
						c-0.1,0-0.2,0-0.3,0c-0.2,0-0.4,0.1-0.7,0.1c-0.1,0-0.1,0-0.2,0c-0.2,0-0.3,0-0.5,0c-0.1,0-0.1,0-0.2,0c-0.2,0-0.4,0-0.6,0
						c-2.4,0-4.1-1-4.1-3c0-1,0.3-2.3,0.6-3.4l2.4-8.5h6.7l2.4-8.9h-6.7l2.4-8.9L258,11.3z"/>
				</defs>
				<clipPath id="SVGID_32_">
					<use xlink:href="#SVGID_31_"  style="overflow:visible;"/>
				</clipPath>
				
					<linearGradient id="SVGID_33_" gradientUnits="userSpaceOnUse" x1="-590.3994" y1="670.6236" x2="-589.3228" y2="670.6236" gradientTransform="matrix(0 -43.6865 -43.6865 0 29560.1973 -25744.666)">
					<stop  offset="0" style="stop-color:#F2A71E"/>
					<stop  offset="0.2921" style="stop-color:#F2A71E"/>
					<stop  offset="0.4033" style="stop-color:#F3B11C"/>
					<stop  offset="0.6089" style="stop-color:#F6C913"/>
					<stop  offset="0.7135" style="stop-color:#F7D709"/>
					<stop  offset="1" style="stop-color:#F7D709"/>
				</linearGradient>
				<rect x="250" y="6" class="st10" width="25.9" height="41.4"/>
			</g>
		</g>
	</g>
</g>
</svg>
