<?xml version="1.0" encoding="utf-8"?>
<!-- Generator: Adobe Illustrator 19.2.1, SVG Export Plug-In . SVG Version: 6.00 Build 0)  -->
<svg version="1.1" id="Layer_1" xmlns="http://www.w3.org/2000/svg" xmlns:xlink="http://www.w3.org/1999/xlink" x="0px" y="0px"
	 viewBox="0 0 173.5 148.5" style="enable-background:new 0 0 173.5 148.5;" xml:space="preserve">
<style type="text/css">
	.st0{fill:none;enable-background:new    ;}
</style>
<image style="overflow:visible;" width="200" height="200" xlink:href="5D9847E8F89E7BF2.png"  transform="matrix(0.9999 0 0 0.9999 -13 -25.89)">
</image>
<path class="st0" d="z"/>
</svg>
