<?xml version="1.0" encoding="utf-8"?>
<!-- Generator: Adobe Illustrator 17.1.0, SVG Export Plug-In . SVG Version: 6.00 Build 0)  -->
<!DOCTYPE svg PUBLIC "-//W3C//DTD SVG 1.1//EN" "http://www.w3.org/Graphics/SVG/1.1/DTD/svg11.dtd">
<svg version="1.1" id="Layer_1" xmlns="http://www.w3.org/2000/svg" xmlns:xlink="http://www.w3.org/1999/xlink" x="0px" y="0px"
	 viewBox="0 0 600 600" enable-background="new 0 0 600 600" xml:space="preserve">
<g>
	<rect x="455.7" y="365.2" fill="#FF5000" width="22.8" height="22.8"/>
	<polygon fill="#FF5000" points="409.4,263.8 423,365.6 436.5,263.8 457.7,263.8 437.9,388 407.9,388 388.3,263.8 	"/>
	<path fill="#FF5000" d="M133.3,263.8h-11.7v16.5h11.7V388h20.6V280.3h14.5v-16.5h-14.5v-25.3c0-3.7,0.8-6.5,2.5-8.4
		c1.8-1.9,4.5-2.8,8.2-2.8h3.7v-16.9h-7.5c-9.2,0-18,1.9-22.2,5.9c-4.2,4-5.4,10.2-5.4,19V263.8z"/>
	<rect x="174.8" y="263.8" fill="#FF5000" width="20.7" height="124.2"/>
	<path fill="#FF5000" d="M290.8,290.5c0-7,1.8-14.3,11.5-14.3c9.6,0,11.6,7.2,11.6,14.3v25.7h-23.1V290.5z M290.8,332.9h43.1v-38.3
		c-0.1-22.9-11.1-32.3-31.9-32.3c-21.7,0-31.9,9.4-31.9,32.4v62.9c0.1,21,12.8,31.9,31.9,31.9s31.9-8.9,31.9-31.9v-10h-20l0,11.8
		c0,8.4-3.1,14.2-11.6,14.2c-8.5,0-11.5-5.9-11.5-14.2V332.9z"/>
	<path fill="#FF5000" d="M241.9,317.4c-15.7-13.6-16.9-15.6-16.9-25.7c0-8.6,0.8-13.9,8.5-13.9c7.8,0,8.8,5.2,8.8,14v11.5h19.9
		v-18.7c-0.1-14.7-11.4-22.2-29.1-22.2c-17.5,0-28.9,5.8-29,29.3c0,4,0,4,0,2.4c0,7.4,0.1,19.1,18.3,34.8l5.2,4.5
		c13.5,11.3,14.9,12.7,14.9,26.2c0,8.3-0.5,14.6-9.2,14.6c-8.7,0-9.3-6.3-9.3-10.3V348h-20.9v16.4c0,20.2,13.1,25.2,30.1,25.2
		c17,0,30.2-5,30.2-31v-2.2C263.4,338.3,260.1,333.4,241.9,317.4"/>
	<path fill="#FF5000" d="M361.5,276.6v-12.8h-18.8V388H363v-86.6c0-6.7,2.2-11.1,6-13.7c3.6-2.5,8-3.3,13.6-3.4v-22
		c-10.8,0.2-15.4,2.3-20.9,13.8L361.5,276.6z"/>
</g>
</svg>
