<svg xmlns="http://www.w3.org/2000/svg" width="80.4" height="70.4">
  <style>
    /* .st0{fill:#010101;} */
  </style>
  <path d="M40.4 27.1H29.2c-1.2 0-2.2 1-2.2 2.2 0 1.2 1 2.2 2.2 2.2h11.2c1.2 0 2.2-1 2.2-2.2.1-1.2-.9-2.2-2.2-2.2z" class="st0"/>
  <path d="M42.4 36.9c-2 2-4.7 3.1-7.5 3.1s-5.5-1.1-7.5-3.1c-4.2-4.2-4.2-10.9 0-15.1 2-2 4.7-3.1 7.5-3.1s5.5 1.1 7.5 3.1 3.1 4.7 3.1 7.5c0 2.9-1.1 5.6-3.1 7.6zm18.2 14.7L48.2 38.2c1.7-2.6 2.7-5.6 2.7-8.8 0-4.3-1.7-8.3-4.7-11.3s-7-4.7-11.3-4.7c-4.3 0-8.3 1.7-11.3 4.7-6.2 6.2-6.2 16.4 0 22.6 3 3 7 4.7 11.3 4.7 3.2 0 6.2-.9 8.8-2.7l12.4 13.4c1.2 1.2 3.3 1.2 4.5 0 1.2-1.2 1.2-3.2 0-4.5zm17.1 2.3c-1.4 0-2.5 1.2-2.5 2.6v8.7h-8.7c-1.4 0-2.6 1.1-2.6 2.6 0 1.4 1.2 2.6 2.6 2.6h12.2c.1 0 .3-.1.4-.2h.1l.1-.1h.1c.8-.5 1.2-1.4 1.1-2.4v-11c0-.7-.3-1.4-.8-1.9-.6-.6-1.3-.9-2-.9zm-75.1 0c-.7 0-1.4.3-1.9.8-.4.5-.7 1.1-.7 1.8v11c-.1.9.3 1.8 1.1 2.4h.1l.1.1h.1c.1.1.3.1.4.2H14c1.4 0 2.6-1.1 2.6-2.6 0-1.4-1.2-2.6-2.6-2.6H5.2v-8.7c0-1.2-1.1-2.3-2.6-2.4zM77.7 0H66.5c-.7 0-1.4.3-1.9.8-1.6 1.6-.5 4.4 1.9 4.4h8.7v8.7c-.1 1.5 1.1 2.8 2.6 2.8s2.7-1.3 2.5-2.8V1.7c-.1-.1-.1-.3-.2-.4v-.1s0-.1-.1-.1C79.4.4 78.6 0 77.7 0zm-75 0C1.8 0 1 .4.5 1.1c0 0 0 .1-.1.1v.1c-.2.2-.2.3-.3.5V14c-.2 1.5 1 2.8 2.5 2.8s2.7-1.3 2.6-2.8V5.2h8.7c2.3.1 3.5-2.7 1.9-4.4-.6-.5-1.3-.8-2-.8H2.7z" class="st0"/>
</svg>
