<?xml version="1.0" encoding="utf-8"?>
<!-- Generator: Adobe Illustrator 19.2.1, SVG Export Plug-In . SVG Version: 6.00 Build 0)  -->
<svg version="1.1" id="_x30_5.01.09:_Approved_Logo"
	 xmlns="http://www.w3.org/2000/svg" xmlns:xlink="http://www.w3.org/1999/xlink" x="0px" y="0px" viewBox="0 0 600 600"
	 style="enable-background:new 0 0 600 600;" xml:space="preserve">
<style type="text/css">
	.st0{fill:#FFFFFF;}
	.st1{fill:#FAA61A;}
	.st2{fill:#939598;}
</style>
<rect x="37.2" y="239.3" class="st0" width="97.8" height="97.8"/>
<path class="st1" d="M130.5,232.2H41.8c-6.2,0-11.3,5.1-11.3,11.3v88.7c0,6.2,5.1,11.3,11.3,11.3h88.7c6.2,0,11.3-5.1,11.3-11.3
	v-88.7C141.8,237.3,136.7,232.2,130.5,232.2 M133.4,335.2H38.9v-94.5h94.5C133.4,240.7,133.4,335.2,133.4,335.2z"/>
<g>
	<path class="st2" d="M71.3,310.5h-2.7v-3.8h2.7v-2.9c0-3.5,2-5.3,5.3-5.3h2.4v3.8h-1.3c-1.1,0-1.6,0.4-1.6,1.6v2.7h2.7v3.8h-2.7
		v18.6h-4.7L71.3,310.5L71.3,310.5z"/>
	<path class="st2" d="M84.6,317.4L80,306.8h4.9l2.4,6.2l2.4-6.2h4.9l-4.9,10.4l5.1,12h-4.9l-2.7-7.5l0,0l-2.7,7.5h-4.9L84.6,317.4z"
		/>
</g>
<g>
	<path class="st2" d="M161.1,305.9v-37.5h18v5.5h-11.5v9.8h8.7v5.5h-8.7v16.6C167.6,305.9,161.1,305.9,161.1,305.9z"/>
	<path class="st2" d="M182.2,286.1c0.2-5.5,4-8.7,9.3-8.7s8.4,2.4,8.4,7.5v18c0,0.9,0.2,2,0.4,2.9h-5.5c0-0.9-0.2-1.6-0.2-2.2
		c-2.2,1.8-4,2.7-6.9,2.7c-4,0-6-2.7-6-6.2c0-6.2,4-9.5,12.4-12.6v-1.8c0-2.4-0.9-3.5-2.9-3.5c-2.7,0-3.1,1.6-3.3,4
		C188,286.1,182.2,286.1,182.2,286.1z M194.2,291.7c-5.3,3.1-6.7,4.9-6.7,7.3c0,1.8,0.9,2.4,2.7,2.4c1.6,0,2.9-1.1,4-2.7V291.7z"/>
	<path class="st2" d="M204.8,273.7v-5.3h5.8v5.3H204.8z M204.8,305.9v-27.9h5.8v27.9H204.8z"/>
	<path class="st2" d="M215.3,305.9v-27.9h5.5v3.3l0,0c1.3-2.4,3.8-3.8,6.7-3.8h1.1v6c-1.1-0.2-2-0.7-3.8-0.7c-2,0-4,1.3-4,3.8v19.3
		H215.3L215.3,305.9z"/>
	<path class="st2" d="M232.8,282.6h-3.3v-4.9h3.3v-3.3c0-4.4,2.4-6.7,6.4-6.7h2.9v4.9h-1.8c-1.3,0-2,0.4-2,1.8v3.3h3.3v4.9h-3.3
		v23.1h-5.8v-23.1H232.8z"/>
	<path class="st2" d="M244.3,286.1c0.2-5.5,4-8.7,9.3-8.7c5.3,0,8.4,2.4,8.4,7.5v18c0,0.9,0.2,2,0.4,2.9H257c0-0.9-0.2-1.6-0.2-2.2
		c-2.2,1.8-4,2.7-6.9,2.7c-4,0-6-2.7-6-6.2c0-6.2,4-9.5,12.4-12.6v-1.8c0-2.4-0.9-3.5-2.9-3.5c-2.7,0-3.1,1.6-3.3,4
		C250.1,286.1,244.3,286.1,244.3,286.1z M256.3,291.7c-5.3,3.1-6.7,4.9-6.7,7.3c0,1.8,0.9,2.4,2.7,2.4c1.6,0,2.9-1.1,4-2.7V291.7z"
		/>
	<path class="st2" d="M270.9,291l-5.8-13.1h6l2.9,7.8l3.1-7.8h6l-6,13.1l6.4,14.9h-6l-3.3-9.5l0,0l-3.3,9.5h-6L270.9,291z"/>
	<path class="st2" d="M310,280.8v-2.9c0-3.1-1.6-4.4-3.1-4.4c-2.7,0-3.3,1.3-3.3,4.2v19.1c0,2.9,0.9,4.2,3.3,4.2s3.1-1.3,3.1-3.8
		v-4.4h6.4v4.2c0,5.3-3.1,9.5-9.5,9.5c-6.7,0-9.8-4.2-9.8-9.5v-19.3c0-5.3,3.1-9.5,9.8-9.5c6.4,0,9.5,4.7,9.5,10.2v2.7H310V280.8z"
		/>
	<path class="st2" d="M321.3,287.7c0-6.2,2.4-10.4,9.1-10.4s9.1,4.2,9.1,10.4v8.2c0,6.2-2.4,10.4-9.1,10.4s-9.1-4.2-9.1-10.4V287.7z
		 M333.5,286.8c0-3.3-1.1-4.7-3.3-4.7c-2,0-3.3,1.3-3.3,4.7V297c0,3.3,1.1,4.7,3.3,4.7c2,0,3.3-1.3,3.3-4.7V286.8z"/>
	<path class="st2" d="M361,277.9v27.9h-5.5V303c-2.4,2-3.8,3.3-7.1,3.3c-3.1,0-4.9-2.2-4.9-5.8v-22.6h5.8v21.7c0,1.3,0.9,2,2,2
		c1.3,0,2.4-0.9,3.8-1.8v-22C355,277.9,361,277.9,361,277.9z"/>
	<path class="st2" d="M365.7,305.9v-27.9h5.5v2.9c2.4-2,3.8-3.3,7.1-3.3c3.1,0,4.9,2.2,4.9,5.8v22.6h-5.8v-21.7c0-1.3-0.9-2-2-2
		c-1.3,0-2.4,0.9-3.8,1.8v22H365.7z"/>
	<path class="st2" d="M385.4,282.6v-4.9h3.3v-7.5h5.8v7.5h4v4.9h-4v16.2c0,1.6,0.7,2.2,2,2.2h2v4.9c-0.9,0.2-1.6,0.2-2.9,0.2
		c-4.4,0-6.9-2-6.9-6.2v-17.3H385.4L385.4,282.6z"/>
	<path class="st2" d="M412,277.9h5.8l-7.3,29.9c-1.3,5.1-3.5,6.7-8,6.7H400v-4.7h1.3c2.9,0,3.8-1.6,3.8-4.4c0-1.1-0.2-2.4-0.7-3.8
		l-6-23.7h6l3.8,18l0,0L412,277.9z"/>
	<path class="st2" d="M423.3,305.9l-3.5,6.4h-2.7l2.4-6.4h-2.4v-6.2h6.2V305.9L423.3,305.9z"/>
	<path class="st2" d="M451.7,268.4h6.4l-7.8,37.5H444l-7.8-37.5h6.4l4.7,26l0,0L451.7,268.4z"/>
	<path class="st2" d="M460.4,273.7v-5.3h5.8v5.3H460.4z M460.4,305.9v-27.9h5.8v27.9H460.4z"/>
	<path class="st2" d="M470.8,305.9v-27.9h5.5v3.3l0,0c1.3-2.4,3.8-3.8,6.7-3.8h1.1v6c-1.1-0.2-2-0.7-3.8-0.7c-2,0-4,1.3-4,3.8v19.3
		H470.8L470.8,305.9z"/>
	<path class="st2" d="M506.3,282.1c-0.2,0-0.7,0-0.9,0c-1.1,0-2,0.2-2.9,0.9c0.4,1.6,0.7,3.3,0.7,4.4c0,8.4-2.9,11.3-8.9,11.3h-1.8
		c-0.7,0.2-1.1,0.7-1.1,1.3c0,3.8,14.9-1.8,14.9,8c0,4.9-4.4,6.7-12,6.7c-5.8,0-9.3-1.6-9.3-4.4c0-2.2,1.8-4,3.8-4.4l0,0
		c-1.6-0.7-2.7-1.8-2.7-3.5c0-2,2-3.5,3.5-4.4c-2.9-2-3.8-3.5-3.8-10c0-7.8,2.4-10.2,9.1-10.2c2.4,0,4.7,0.9,6.4,3.1
		c1.6-2.2,2.4-3.1,4.9-3.1L506.3,282.1L506.3,282.1z M501.2,308.5c0-1.6-1.1-2-4.9-2c-4,0-4.9,0.7-4.9,2c0,1.6,1.1,2,4.9,2
		C500.1,310.5,501.2,309.9,501.2,308.5z M497.4,288.1c0-4.7-0.7-5.8-2.9-5.8c-1.8,0-2.9,1.1-2.9,5.8c0,4.7,1.1,5.8,2.9,5.8
		C496.7,293.9,497.4,292.8,497.4,288.1z"/>
	<path class="st2" d="M508.9,273.7v-5.3h5.8v5.3H508.9z M508.9,305.9v-27.9h5.8v27.9H508.9z"/>
	<path class="st2" d="M519.4,305.9v-27.9h5.5v2.9c2.4-2,3.8-3.3,7.1-3.3c3.1,0,4.9,2.2,4.9,5.8v22.6h-5.8v-21.7c0-1.3-0.9-2-2-2
		c-1.3,0-2.4,0.9-3.8,1.8v22H519.4z"/>
	<path class="st2" d="M541.6,273.7v-5.3h5.8v5.3H541.6z M541.6,305.9v-27.9h5.8v27.9H541.6z"/>
	<path class="st2" d="M551.3,286.1c0.2-5.5,4-8.7,9.3-8.7s8.4,2.4,8.4,7.5v18c0,0.9,0.2,2,0.4,2.9H564c0-0.9-0.2-1.6-0.2-2.2
		c-2.2,1.8-4,2.7-6.9,2.7c-4,0-6-2.7-6-6.2c0-6.2,4-9.5,12.4-12.6v-1.8c0-2.4-0.9-3.5-2.9-3.5c-2.7,0-3.3,1.6-3.3,4
		C557.1,286.1,551.3,286.1,551.3,286.1z M563.3,291.7c-5.3,3.1-6.7,4.9-6.7,7.3c0,1.8,0.9,2.4,2.7,2.4c1.6,0,2.9-1.1,4-2.7V291.7z"
		/>
</g>
<g>
	<path class="st1" d="M243.9,342.7c-0.4-2.9-1.1-6.9-4.9-6.9c-3.1,0-4.4,3.1-4.9,4.7c-0.4,2-1.1,4.7-1.1,10c0,4.2,0.4,9.5,2.7,12.4
		c0.9,1.3,2.2,1.3,3.1,1.3c3.8,0,4.4-3.5,5.1-6.7l3.5,0.7c-0.9,4.9-2.7,9.3-8.7,9.3c-2.4,0-4.7-0.9-5.8-2.2c-3.1-3.3-4-8.9-4-14.9
		c0-2.7,0.2-11.1,4-15.7c1.8-2.2,4.2-2.7,5.8-2.7c6.4,0,8,5.5,8.7,9.5L243.9,342.7z"/>
	<path class="st1" d="M266.1,354.7c0,7.8-2.2,12.9-8.2,12.9c-6.2,0-8.2-5.8-8.2-13.1c0-3.8,0.7-13.3,8.2-13.3
		C265.2,341.4,266.1,350.2,266.1,354.7z M254.5,346.2c-1.3,2.2-1.3,6.9-1.3,8.2c0,7.5,1.6,10,4.4,10c2.4,0,4.4-2,4.4-9.5
		c0-8-1.3-10.9-4.4-10.9C256.1,344.3,255.2,345.1,254.5,346.2z"/>
	<path class="st1" d="M270.7,341.8h3.1v3.8c0.4-1.1,1.8-4.4,5.5-4.4c2.2,0,3.8,1.1,4.7,2.7s0.9,4.4,0.9,7.1v16h-3.5v-16
		c0-3.1,0-6.4-3.1-6.4c-3.8,0-4,5.1-4,8v14.4h-3.5V341.8z"/>
	<path class="st1" d="M290.7,341.8h3.1v3.8c0.4-1.1,1.8-4.4,5.5-4.4c2.2,0,3.8,1.1,4.7,2.7c0.9,1.6,0.9,4.4,0.9,7.1v16h-3.5v-16
		c0-3.1,0-6.4-3.1-6.4c-3.8,0-4,5.1-4,8v14.4h-3.5V341.8z"/>
	<path class="st1" d="M313.3,354.9c0,2.7,0,9.8,5.1,9.8c3.1,0,4-3.3,4.4-5.1l3.1,0.9c-1.1,4.2-2.7,7.3-7.8,7.3
		c-5.5,0-8.4-4-8.4-12.9c0-6.2,1.8-13.5,8.4-13.5c8,0,8,9.5,8,13.5C326.2,354.9,313.3,354.9,313.3,354.9z M322,352
		c0-2.9-0.2-7.8-4.2-7.8c-4,0-4.4,5.1-4.4,7.8H322z"/>
	<path class="st1" d="M340.8,350c-0.4-2.7-0.9-5.8-4.2-5.8c-3.1,0-4.2,2.7-4.2,10.2c0,6.2,0.7,10.2,4.2,10.2c2.4,0,3.5-1.8,4.2-5.8
		l3.3,0.4c-0.7,3.5-1.6,8.4-7.3,8.4c-6.9,0-8.2-6.2-8.2-12.6c0-6.9,1.3-13.8,8.2-13.8c4.7,0,6.9,3.3,7.3,8.2L340.8,350z"/>
	<path class="st1" d="M345.7,341.8h2.9v-6.4l3.5-0.4v6.7h4.2v2.9h-4.2v13.8c0,4.2,0.4,5.3,3.1,5.3c0.9,0,1.1,0,2-0.2v3.1
		c-0.4,0.2-1.3,0.4-3.1,0.4c-5.3,0-5.5-3.8-5.5-8.7v-13.8h-2.9L345.7,341.8L345.7,341.8z"/>
	<path class="st1" d="M368.3,341.8h3.5l3.3,18.9l3.3-18.9h3.1l3.5,18.9l3.3-18.9h3.1l-5.1,25.1h-3.1l-3.5-18.6l-3.3,18.6h-3.1
		L368.3,341.8z"/>
	<path class="st1" d="M398.3,332.9v4.4h-3.8v-4.4H398.3z M394.7,341.8h3.5v25.1h-3.5V341.8z"/>
	<path class="st1" d="M401.6,341.8h2.9v-6.4l3.5-0.4v6.7h4.2v2.9H408v13.8c0,4.2,0.4,5.3,3.1,5.3c0.9,0,1.1,0,2-0.2v3.1
		c-0.4,0.2-1.3,0.4-3.1,0.4c-5.3,0-5.5-3.8-5.5-8.7v-13.8h-2.9V341.8z"/>
	<path class="st1" d="M416.2,332.9h3.5v12.2c0.4-1.3,1.6-4,5.1-4c2.7,0,4,1.6,4.7,2.7c0.9,1.6,0.9,3.8,0.9,7.5v15.7h-3.5v-15.7
		c0-4.4-0.4-6.9-3.3-6.9c-1.8,0-2.7,1.3-3.1,2.4c-0.7,1.8-0.7,4.2-0.7,7.1v12.9h-3.5V332.9z"/>
	<path class="st1" d="M453.3,332.9l7.5,33.9h-4l-2.2-9.8h-7.5l-2,9.8h-3.8l7.8-33.9H453.3z M454.2,354l-3.1-17.1l-3.1,17.1H454.2z"
		/>
	<path class="st1" d="M463.7,341.8h3.1v4c0.4-1.3,1.6-4.7,5.5-4.7c4.2,0,4.7,3.8,4.9,4.9c0.4-1.3,1.3-4.9,5.5-4.9
		c1.8,0,3.5,0.9,4.4,2.4c1.1,1.8,1.1,4.2,1.1,6.9v16.6h-3.5v-16.4c0-4.4-1.1-6-3.1-6c-3.8,0-3.8,5.8-3.8,8.9v13.8h-3.5v-15.7
		c0-3.8-0.2-6.7-3.1-6.7c-3.5,0-4,4.2-4,6.4v16h-3.5L463.7,341.8L463.7,341.8z"/>
	<path class="st1" d="M496.5,354.9c0,2.7,0,9.8,5.1,9.8c3.1,0,4-3.3,4.4-5.1l3.1,0.9c-1.1,4.2-2.7,7.3-7.8,7.3
		c-5.5,0-8.4-4-8.4-12.9c0-6.2,1.8-13.5,8.4-13.5c8,0,8,9.5,8,13.5C509.4,354.9,496.5,354.9,496.5,354.9z M505.4,352
		c0-2.9-0.2-7.8-4.2-7.8c-4,0-4.4,5.1-4.4,7.8H505.4z"/>
	<path class="st1" d="M513.4,341.8h3.1v5.1c0.4-1.6,1.6-5.5,5.3-5.5c0.4,0,0.7,0,1.1,0.2v4c-6-0.7-6,5.1-6,9.8v11.8h-3.5
		L513.4,341.8L513.4,341.8z"/>
	<path class="st1" d="M529.1,332.9v4.4h-3.8v-4.4H529.1z M525.4,341.8h3.5v25.1h-3.5V341.8z"/>
	<path class="st1" d="M546,350c-0.4-2.7-0.9-5.8-4.2-5.8c-3.1,0-4.2,2.7-4.2,10.2c0,6.2,0.7,10.2,4.2,10.2c2.4,0,3.5-1.8,4.2-5.8
		l3.3,0.4c-0.7,3.5-1.6,8.4-7.3,8.4c-6.9,0-8.2-6.2-8.2-12.6c0-6.9,1.3-13.8,8.2-13.8c4.7,0,6.9,3.3,7.3,8.2L546,350z"/>
	<path class="st1" d="M564.8,367.1c-0.4-1.6-0.4-2.7-0.4-3.8c-0.7,1.8-1.8,4.2-5.8,4.2c-5.3,0-6.7-4.4-6.7-7.5c0-3.8,1.8-6.9,5.1-8
		c2.4-0.9,4.2-0.7,6.9-0.7c0-4.4,0-7.3-3.8-7.3c-3.1,0-3.8,2.2-4.4,4.7l-3.1-0.9c0.4-2.2,1.8-6.9,7.8-6.9c2,0,4,0.4,5.5,2
		c1.3,1.3,1.6,3.8,1.6,7.8v10.2c0,3.8,0.2,4.7,0.4,5.8h-3.1V367.1L564.8,367.1z M555.7,360.2c0,0.7,0,4.4,3.3,4.4
		c1.6,0,3.1-1.1,3.8-2.4c1.1-2,1.3-4,1.3-8C560.2,354.2,555.7,354,555.7,360.2z"/>
</g>
<g>
	<path class="st1" d="M106.4,306.8h4.9l-5.5,22.6H101l-5.5-22.6h4.9l2.9,15.1l0,0L106.4,306.8z"/>
	<path class="st1" d="M111.9,313.4c0.2-4.7,3.1-7.1,7.5-7.1c4.4,0,6.9,2,6.9,6.2v14.4c0,0.7,0.2,1.6,0.2,2.4h-4.4
		c0-0.7-0.2-1.1-0.2-1.8c-1.8,1.3-3.3,2.2-5.5,2.2c-3.1,0-4.9-2.2-4.9-5.1c0-4.9,3.3-7.8,10-10.2v-1.3c0-2-0.7-2.9-2.2-2.9
		c-2.2,0-2.7,1.3-2.7,3.1C116.6,313.4,111.9,313.4,111.9,313.4z M121.4,317.9c-4.2,2.4-5.3,4-5.3,6c0,1.6,0.7,2,2.2,2
		c1.3,0,2.4-0.9,3.1-2V317.9z"/>
</g>
</svg>
