<?xml version="1.0" encoding="utf-8"?>
<!-- Generator: Adobe Illustrator 19.2.1, SVG Export Plug-In . SVG Version: 6.00 Build 0)  -->
<svg version="1.1" id="Layer_1" xmlns="http://www.w3.org/2000/svg" xmlns:xlink="http://www.w3.org/1999/xlink" x="0px" y="0px"
	 viewBox="0 0 600 600" style="enable-background:new 0 0 600 600;" xml:space="preserve">
<style type="text/css">
	.st0{fill:#003366;}
	.st1{fill:#00AEEF;}
	.st2{fill:none;}
	.st3{fill:#0099CC;}
</style>
<g>
	<path class="st0" d="M223.9,268.8h17.6c10.3,0,16.5,6,16.5,14.9v0.1c0,9.9-7.8,15.1-17.4,15.1h-7.2v13h-9.5V268.8L223.9,268.8z
		 M240.9,290.6c4.8,0,7.6-2.8,7.6-6.5V284c0-4.2-2.9-6.5-7.7-6.5h-7.3v13.2h7.5L240.9,290.6L240.9,290.6z"/>
	<path class="st0" d="M267.2,268.8h32.5v8.4h-23.1v8.7h20.3v8.4h-20.3v9.1H300v8.4h-32.8V268.8L267.2,268.8z"/>
	<path class="st0" d="M311.2,268.8h8.7l20.2,26.6v-26.6h9.4v43.1h-8.1l-20.8-27.4v27.4h-9.4V268.8L311.2,268.8z"/>
</g>
<g>
	<path class="st1" d="M362.5,268.8h32.8v8.6H372v9.2h20.5v8.6H372v16.6h-9.5V268.8L362.5,268.8z"/>
	<path class="st1" d="M405,268.8h32.5v8.4h-23.1v8.7h20.3v8.4h-20.3v9.1h23.4v8.4H405L405,268.8L405,268.8z"/>
	<path class="st1" d="M449,268.8h16.8c13.5,0,22.9,9.3,22.9,21.4v0.1c0,12.1-9.4,21.5-22.9,21.5H449V268.8z M458.5,277.4v26h7.3
		c7.8,0,13-5.2,13-12.9v-0.1c0-7.7-5.2-13-13-13h-7.3V277.4z"/>
</g>
<g>
	<path class="st0" d="M222.1,335.2L222.1,335.2c0-6,4.5-10.9,10.9-10.9c4,0,6.4,1.3,8.3,3.2l-2.9,3.3c-1.6-1.5-3.2-2.4-5.4-2.4
		c-3.6,0-6,2.9-6,6.5v0.1c0,3.6,2.5,6.6,6,6.6c2.4,0,3.9-1,5.5-2.5l2.9,2.9c-2.2,2.3-4.5,3.8-8.6,3.8
		C226.8,346,222.1,341.3,222.1,335.2z"/>
	<path class="st0" d="M248.1,324.6h9.6c2.7,0,4.8,0.8,6.2,2.2c1.2,1.2,1.8,2.8,1.8,4.8v0.1c0,3.3-1.8,5.5-4.5,6.5l5.1,7.5h-5.4
		l-4.5-6.7h-3.7v6.7h-4.6L248.1,324.6L248.1,324.6z M257.3,334.8c2.3,0,3.6-1.2,3.6-2.9v-0.1c0-1.9-1.4-3-3.7-3h-4.5v6H257.3
		L257.3,334.8z"/>
	<path class="st0" d="M272.9,324.6h15.8v4.1h-11.2v4.2h9.9v4.1h-9.9v4.4h11.3v4.1h-16L272.9,324.6L272.9,324.6z"/>
	<path class="st0" d="M296.3,324.6h8.2c6.6,0,11.1,4.5,11.1,10.5v0.1c0,5.9-4.5,10.5-11.1,10.5h-8.2V324.6z M301,328.8v12.6h3.6
		c3.8,0,6.4-2.6,6.4-6.3v-0.1c0-3.7-2.6-6.4-6.4-6.4L301,328.8L301,328.8z"/>
	<path class="st0" d="M323,324.6h4.6v21H323V324.6z"/>
	<path class="st0" d="M340.3,328.9h-6.4v-4.2h17.4v4.2h-6.4v16.7h-4.6V328.9L340.3,328.9z"/>
	<path class="st0" d="M369.6,336.6v-12h4.6v11.9c0,3.5,1.7,5.2,4.5,5.2c2.8,0,4.5-1.7,4.5-5.1v-12h4.6v11.9c0,6.4-3.6,9.5-9.2,9.5
		C373,345.9,369.6,342.8,369.6,336.6z"/>
	<path class="st0" d="M395.8,324.6h4.2l9.8,13v-13h4.5v21h-3.9l-10.2-13.3v13.3h-4.5V324.6z"/>
	<path class="st0" d="M422.9,324.6h4.6v21h-4.6V324.6z"/>
	<path class="st0" d="M434.8,335.2L434.8,335.2c0-6,4.8-10.9,11.1-10.9s11.1,4.9,11.1,10.8v0.1c0,5.9-4.8,10.8-11.1,10.8
		C439.4,346,434.8,341.1,434.8,335.2z M452.2,335.2L452.2,335.2c0-3.7-2.6-6.7-6.4-6.7s-6.3,2.9-6.3,6.5v0.1c0,3.6,2.6,6.6,6.4,6.6
		C449.6,341.7,452.2,338.8,452.2,335.2z"/>
	<path class="st0" d="M464.2,324.6h4.2l9.8,13v-13h4.5v21h-3.9l-10.2-13.3v13.3h-4.5V324.6z"/>
</g>
<path class="st2" d="M182.1,277.2c0.2-0.5,0.3-1,0.4-1.4L182.1,277.2z"/>
<g>
	<path class="st3" d="M205.2,284.6L205.2,284.6l-0.1-0.1c-0.6-0.8-1.3-1.4-2.2-1.8c-1-0.6-1.9-1.1-2.5-1.5c0,0,1.2,0.9-0.5,6.8
		l-0.5,1.7l-0.1,0.5c-0.3,1-0.4,1.5-0.5,1.6v0.1l-2.4,7.6l-0.9,2.6l-2.4,7.6l-10.5,32.6c-2.2,6.4-4.8,7.2-4.8,7.2
		c3.5,0.9,6.5,0.1,6.6,0l0,0c2.3-0.6,4.3-2.4,5.3-4.8l0,0l17-52.5C207.4,289.4,206.8,286.6,205.2,284.6z"/>
	<path class="st3" d="M196.5,278.5L196.5,278.5C196.5,278.5,196.5,278.4,196.5,278.5c-0.1-0.1-0.1-0.2-0.2-0.2
		c-0.6-0.8-1.3-1.3-2.2-1.7c-1-0.6-1.8-1.1-2.4-1.5c0,0,1.2,1-0.5,7l-0.4,1.5l-0.1,0.4c-0.3,1.1-0.5,1.6-0.5,1.7l-2.5,7.6l-0.9,2.5
		l-2.5,7.6l-12.7,39.5c-2.1,5.7-4.4,6.5-4.4,6.5c0.8,0.2,1.5,0.3,2.2,0.4l0,0c0,0,0,0,0.1,0c2.5,0.2,4.2-0.3,4.2-0.3
		c2.3-0.6,4.3-2.4,5.3-4.8c0.1-0.1,12-36.6,12-36.6l2.5-7.6l0.9-2.6l2.5-7.6l0.8-2.2l0.8-2.2C198.8,283.3,198.2,280.6,196.5,278.5z"
		/>
	<path class="st3" d="M187.9,272.1c-1.4-1.7-3.8-2.8-4.9-3.6c0,0,0,0,0,0.1c0.2,0.3,1,1.7-0.6,7.1c-0.1,0.4-0.3,1-0.4,1.4
		c-0.5,1.6-0.6,2.2-0.6,2.2l-2.5,7.6l-0.8,2.5l-2.5,7.6l-15,46.5c-1.9,5.2-3.6,5.9-3.6,5.9c0.4,0.1,1,0.2,1.5,0.2l0,0c0,0,0,0,0.1,0
		c0.4,0,0.9,0.1,1.4,0.1c3.9,0.1,6.8-1.7,8.1-5.2l0,0l14-42.9l2.5-7.6l0.9-2.5l2.5-7.6l0.8-2.2l0.8-2.3
		C190.2,277,189.5,274.1,187.9,272.1z"/>
</g>
<g>
	<g>
		<path class="st0" d="M183.1,268.7l-23.5-17.1c-2.3-1.6-5.2-1.9-7.7-1l0,0c-0.1,0-3.1,1.3-5.4,4c0,0,2.8-0.9,8.4,3.2
			c1.4,1,1.8,1.3,1.8,1.3l0,0l25.2,18.1l0.4-1.4C184.1,270.4,183.4,268.9,183.1,268.7z"/>
		<path class="st0" d="M181.3,279.4l-29.9-21.8c-2.3-1.6-5.2-1.9-7.6-1c0,0-2.9,0.9-5.3,3.9c0,0,2.5-0.9,7.6,2.8l32.8,23.7
			L181.3,279.4z"/>
		<path class="st0" d="M178.1,289.4l-35.2-25.7c-3.1-2.2-6.8-2.1-10,0.4c-1,0.6-1.7,1.5-2.3,2.1c0,0,1.8-0.3,6.6,2.8l38.7,28
			L178.1,289.4z"/>
	</g>
	<path class="st0" d="M157.9,343.5c-1.9,5.2-3.6,5.9-3.6,5.9h-31.8l-20.4-62.7l26-18.8c0,0,1.9-0.6,5.7,2.2c1,0.6,1.2,0.9,1.2,0.9
		l18.1,13.3l-17.7,12.9l7.7,23.5h22.1L157.9,343.5"/>
</g>
<g>
	<path class="st3" d="M497.9,275.7c0,2.3-1.8,4.1-4.2,4.1c-2.4,0-4.2-1.8-4.2-4.1c0-2.3,1.8-4.1,4.2-4.1
		C496,271.6,497.9,273.4,497.9,275.7z M490.5,275.7c0,1.8,1.3,3.2,3.1,3.2c1.8,0,3.1-1.4,3.1-3.2c0-1.8-1.3-3.2-3.1-3.2
		C491.8,272.5,490.5,273.9,490.5,275.7z M493,277.9h-1v-4.1c0.3-0.1,0.9-0.1,1.5-0.1c0.8,0,1.1,0.1,1.4,0.3c0.2,0.2,0.4,0.5,0.4,0.9
		c0,0.4-0.3,0.8-0.9,1l0,0c0.4,0.1,0.6,0.4,0.8,1c0.1,0.6,0.2,0.9,0.3,1h-1c-0.1-0.1-0.2-0.5-0.3-1c-0.1-0.4-0.3-0.6-0.9-0.6H493
		L493,277.9L493,277.9z M493.1,275.5h0.4c0.5,0,1-0.2,1-0.6c0-0.3-0.3-0.6-0.9-0.6c-0.2,0-0.4,0-0.5,0V275.5L493.1,275.5z"/>
</g>
</svg>
