<?xml version="1.0" encoding="utf-8"?>
<!-- Generator: Adobe Illustrator 19.2.1, SVG Export Plug-In . SVG Version: 6.00 Build 0)  -->
<svg version="1.1" id="Layer_1" xmlns="http://www.w3.org/2000/svg" xmlns:xlink="http://www.w3.org/1999/xlink" x="0px" y="0px"
	 viewBox="0 0 270 160" style="enable-background:new 0 0 270 160;" xml:space="preserve">
<style type="text/css">
	.st0{fill:#EC2227;}
	.st1{fill:#010101;}
	.st2{fill:#FCB918;}
	.st3{fill:#FEBC1B;}
	.st4{fill:#0096D6;}
	.st5{fill:none;}
	.st6{fill:#0A79BD;}
	.st7{fill:#1D1D1D;}
	.st8{fill:#EA2E29;}
	.st9{fill:#1661AB;}
	.st10{fill:#DC3133;}
	.st11{fill:#FFFFFF;}
	.st12{fill:#3A3536;}
	.st13{fill:#181615;}
	.st14{fill:#716E6F;}
	.st15{fill:#F05423;}
	.st16{fill:#84C441;}
	.st17{fill:#2DABE2;}
	.st18{fill:#F9BC15;}
	.st19{fill:#3863AE;}
	.st20{fill:url(#ellipse106_1_);}
	.st21{fill:url(#ellipse108_1_);}
	.st22{fill:#1C2854;}
	.st23{fill:none;stroke:#010101;stroke-width:9.730445e-02;stroke-miterlimit:79.8403;}
	.st24{fill:#1D2856;}
	.st25{fill:#010101;fill-opacity:0.502;}
	.st26{fill:url(#path112_1_);stroke:#010101;stroke-width:7.784356e-02;stroke-miterlimit:79.8403;}
	.st27{fill:#1D4079;}
	.st28{fill:#B4B4B4;stroke:#010101;stroke-width:9.730445e-02;stroke-miterlimit:79.8403;}
	.st29{fill:#B3B3B3;}
	.st30{fill:#D9D9D8;stroke:#010101;stroke-width:0.6227;}
	.st31{fill:#F9F9FA;stroke:#010101;stroke-width:9.730445e-02;stroke-miterlimit:79.8403;}
	.st32{fill:none;stroke:#010101;stroke-width:0.5838;stroke-linecap:round;stroke-linejoin:round;}
	.st33{fill:none;stroke:#010101;stroke-width:0.3892;stroke-linecap:round;stroke-linejoin:round;}
	.st34{fill:none;stroke:#1A1A1A;stroke-width:0.3114;stroke-linecap:round;stroke-linejoin:round;}
	.st35{fill:url(#path3243_1_);stroke:#1A1A1A;stroke-width:3.892178e-02;stroke-miterlimit:79.8403;}
	.st36{fill:none;stroke:#010101;stroke-width:0.2919;stroke-linecap:round;stroke-linejoin:round;}
	.st37{fill:#999A9E;}
	.st38{fill:#EC108C;}
	.st39{fill:#FFDA50;}
	.st40{fill:#FFD950;}
	.st41{fill:#FFD850;}
	.st42{fill:#FFD74E;}
	.st43{fill:#FFD74F;}
	.st44{fill:#FFD64F;}
	.st45{fill:#FFD64E;}
	.st46{fill:#FFD54E;}
	.st47{fill:#FFD44E;}
	.st48{fill:#FFD34D;}
	.st49{fill:#FFD34E;}
	.st50{fill:#FFD24F;}
	.st51{fill:#FFD14F;}
	.st52{fill:#FFCF4F;}
	.st53{fill:#FFCF51;}
	.st54{fill:#FFCD50;}
	.st55{fill:#FFCC50;}
	.st56{fill:#FFCC52;}
	.st57{fill:#FFCB52;}
	.st58{fill:#FFCA52;}
	.st59{fill:#FFCB53;}
	.st60{fill:#FFCA53;}
	.st61{fill:#FFC953;}
	.st62{fill:#FFC853;}
	.st63{fill:#FFC754;}
	.st64{fill:#FFC654;}
	.st65{fill:#FEC652;}
	.st66{fill:#FEC552;}
	.st67{fill:#FEC351;}
	.st68{fill:#FEC152;}
	.st69{fill:#FBC052;}
	.st70{fill:#FBBF52;}
	.st71{fill:#FBBE52;}
	.st72{fill:#FBBD52;}
	.st73{fill:#FBBD53;}
	.st74{fill:#FBBC53;}
	.st75{fill:#FABA53;}
	.st76{fill:#FCBB53;}
	.st77{fill:#FCBA53;}
	.st78{fill:#FDB953;}
	.st79{fill:#FBB955;}
	.st80{fill:#FBB854;}
	.st81{fill:#FCB754;}
	.st82{fill:#FCB654;}
	.st83{fill:#FCB554;}
	.st84{fill:#FCB454;}
	.st85{fill:#FCB354;}
	.st86{fill:#FBB153;}
	.st87{fill:#F9AF54;}
	.st88{fill:#F8AE54;}
	.st89{fill:#F8AD56;}
	.st90{fill:#F8AC56;}
	.st91{fill:#F8AB56;}
	.st92{fill:#F8AA57;}
	.st93{fill:#F9A957;}
	.st94{fill:#F7A857;}
	.st95{fill:#F8A758;}
	.st96{fill:#F8A658;}
	.st97{fill:#F8A558;}
	.st98{fill:#F9A458;}
	.st99{fill:#F9A358;}
	.st100{fill:#F9A157;}
	.st101{fill:#F99F58;}
	.st102{fill:#F89E56;}
	.st103{fill:#F89D56;}
	.st104{fill:#F89C56;}
	.st105{fill:#F89A56;}
	.st106{fill:#F89956;}
	.st107{fill:#F79754;}
	.st108{fill:#F79654;}
	.st109{fill:#F79455;}
	.st110{fill:#F79354;}
	.st111{fill:#F79255;}
	.st112{fill:#F79055;}
	.st113{fill:#F68E56;}
	.st114{fill:#F68D55;}
	.st115{fill:#F68B56;}
	.st116{fill:#F68A55;}
	.st117{fill:#F58854;}
	.st118{fill:#F48654;}
	.st119{fill:#F48455;}
	.st120{fill:#F28354;}
	.st121{fill:#F28154;}
	.st122{fill:#F27F54;}
	.st123{fill:#F47E54;}
	.st124{fill:#F47C54;}
	.st125{fill:#F47A54;}
	.st126{fill:#F47854;}
	.st127{fill:#F37753;}
	.st128{fill:#F37554;}
	.st129{fill:#F37354;}
	.st130{fill:#F37154;}
	.st131{fill:#F36F54;}
	.st132{fill:#F26D53;}
	.st133{fill:#F16C53;}
	.st134{fill:#F16952;}
	.st135{fill:#F16652;}
	.st136{fill:#F16352;}
	.st137{fill:#F06052;}
	.st138{fill:#F15E53;}
	.st139{fill:#EF5B53;}
	.st140{fill:#EE5853;}
	.st141{fill:#EF5653;}
	.st142{fill:#EF5353;}
	.st143{fill:#F05052;}
	.st144{fill:#EE4B51;}
	.st145{fill:#006AA9;}
	.st146{fill-rule:evenodd;clip-rule:evenodd;fill:#FED423;}
	.st147{fill-rule:evenodd;clip-rule:evenodd;fill:#EC1D4D;}
	.st148{fill-rule:evenodd;clip-rule:evenodd;fill:#006AA9;}
	.st149{fill-rule:evenodd;clip-rule:evenodd;fill:#008558;}
	.st150{fill-rule:evenodd;clip-rule:evenodd;fill:none;stroke:#000000;stroke-width:6.389251e-02;stroke-miterlimit:3.864;}
	.st151{fill-rule:evenodd;clip-rule:evenodd;fill:none;stroke:#020303;stroke-width:6.389251e-02;stroke-miterlimit:3.864;}
	.st152{fill-rule:evenodd;clip-rule:evenodd;fill:#D4AF7D;}
	
		.st153{fill-rule:evenodd;clip-rule:evenodd;fill:none;stroke:#D1AD7C;stroke-width:6.389251e-02;stroke-linecap:round;stroke-miterlimit:3.864;}
	.st154{fill-rule:evenodd;clip-rule:evenodd;fill:#ED174C;}
	.st155{fill-rule:evenodd;clip-rule:evenodd;fill:none;stroke:#EC1D4D;stroke-width:6.389251e-02;stroke-miterlimit:3.864;}
	.st156{fill-rule:evenodd;clip-rule:evenodd;}
	
		.st157{fill-rule:evenodd;clip-rule:evenodd;fill:none;stroke:#020303;stroke-width:6.389251e-02;stroke-linecap:round;stroke-miterlimit:3.864;}
	
		.st158{fill-rule:evenodd;clip-rule:evenodd;fill:none;stroke:#000000;stroke-width:6.389251e-02;stroke-linecap:round;stroke-miterlimit:3.864;}
	.st159{fill:#020303;}
	.st160{fill:none;stroke:#000000;stroke-width:6.389251e-02;stroke-linecap:round;stroke-miterlimit:3.864;}
	.st161{fill:none;stroke:#020303;stroke-width:6.389251e-02;stroke-linecap:round;stroke-miterlimit:3.864;}
	.st162{fill-rule:evenodd;clip-rule:evenodd;fill:none;stroke:#000000;stroke-width:0.113;stroke-miterlimit:3.864;}
	.st163{fill-rule:evenodd;clip-rule:evenodd;fill:#020303;}
	.st164{fill:none;stroke:#000000;stroke-width:6.389251e-02;stroke-miterlimit:3.864;}
</style>
<g id="XMLID_12_">
	<path class="st0" d="M92.5,72.5h12.4c0-0.8,0.2-1.5,0.3-2.1c0.8-2.2,3.3-3.5,5.8-3.5c2.9-0.1,5.5,1.3,5.4,4.2
		c0,2.2-1.6,3.1-4.1,3.5c-2,0-3.9,0-5.9,0v8.6h4.4c1,0.1,1.8,0.4,2.6,0.9c4.2,2.6,2.2,8-2.1,8.6c-2.6,0.3-5.6-0.6-6.8-3.5
		c-0.6-1.5-0.8-3.2-0.9-4.6H90.7c0,11.9,6.7,18.5,19.3,18.5c7.6-0.1,15.3-2.8,18.2-8.4c0.1-0.1,0.1-0.2,0.2-0.3v7.6h13V74.5
		l6.9,27.6h11.1l7.1-27.5l-0.1,27.5h12.8V57.7h-19.1L154,83.5l-6.4-25.7h-19.2v9c-2.2-7.3-10.3-9.7-17.2-9.8
		C98.8,56.8,93.1,62.3,92.5,72.5L92.5,72.5z M128.5,83.3c-1-1.6-2.4-3.2-4.4-4.6c-0.2-0.2-0.2-0.3,0-0.3c1.3-0.8,2.5-1.6,3.4-2.8
		c0.4-0.6,0.9-1.3,1.1-2L128.5,83.3L128.5,83.3z"/>
</g>
</svg>
