<?xml version="1.0" encoding="utf-8"?>
<!-- Generator: Adobe Illustrator 16.0.4, SVG Export Plug-In . SVG Version: 6.00 Build 0)  -->
<!DOCTYPE svg PUBLIC "-//W3C//DTD SVG 1.1//EN" "http://www.w3.org/Graphics/SVG/1.1/DTD/svg11.dtd">
<svg version="1.1" id="Layer_1" xmlns="http://www.w3.org/2000/svg" xmlns:xlink="http://www.w3.org/1999/xlink" x="0px" y="0px"
	 width="684px" height="119.107px" viewBox="0 0 684 119.107" enable-background="new 0 0 684 119.107" xml:space="preserve">
<g>
	<path fill="#00013A" d="M681.729,115.275c0-7.242-4.178-9.763-11.147-9.763c-3.869,0-52.382,0-52.382,0
		c-24.578,0-33.251-15.225-34.373-25.708c0,0,55.821,0,72.706,0c21.21,0,27.468-15.273,27.468-25.111
		c0-10.496-6.796-25.108-27.468-25.108c-18.692,0-39.267,0-39.267,0c-35.765,0-47.519,24.349-47.519,44.092
		c0,21.692,13.392,44.092,47.42,44.092h64.562C681.729,117.77,681.729,115.928,681.729,115.275z M618.299,41.841
		c5.687,0,28.265,0,36.447,0c12.568,0,15.595,7.833,15.595,12.854c0,4.506-2.752,12.853-15.595,12.853c-8.614,0-70.92,0-70.92,0
		C584.689,58.801,592.012,41.841,618.299,41.841z M470.043,112.197c-3.745,5.116-6.322,6.91-9.614,6.91
		c-4.552,0-6.3-2.467-9.556-6.904c-7.898-10.764-60.482-82.618-60.482-82.618s5.056,0,8.131,0c8.781,0,11.303,3.104,14.947,8.197
		c1.595,2.225,47.314,66.675,47.314,66.675s45.675-64.368,47.544-67.021c3.358-4.764,5.964-7.85,14.78-7.85c2.488,0,7.146,0,7.146,0
		S476.46,103.429,470.043,112.197z M125.219,117.77c-5.513,0-8.968-2.721-10.043-8.607l-1.802-9.573
		c-2.973,5.515-14.027,18.181-37.931,18.181c0,0-14.683,0-27.482,0C10.56,117.77,0,92.417,0,73.677
		c0-21.105,12.679-44.092,47.96-44.092c7.267,0,15.971,0,27.482,0c26.761,0,41.648,15.592,45.229,34.585
		c2.987,15.857,10.011,53.599,10.011,53.599S128.167,117.77,125.219,117.77z M72.411,41.841c-9.265,0-12.768,0-23.484,0
		c-26.39,0-35.374,16.791-35.374,31.836c0,15.208,8.981,31.835,35.374,31.835c10.782,0,15.382,0,23.484,0
		c27.565,0,35.595-17.49,35.595-31.835C108.006,60.889,100.838,41.841,72.411,41.841z M547.883,19.485
		c3.913,0,6.945-2.422,6.945-7.011c0-0.894,0-2.358,0-2.91c0-4.646-3.066-7.011-6.945-7.011c-3.843,0-6.94,2.329-6.94,7.011
		c0,0.609,0,1.901,0,2.91C540.942,17.095,543.978,19.485,547.883,19.485z M541.111,29.584c0,0,2.449,0,3.216,0
		c6.292,0,10.326,2.826,10.326,11.381c0,1.014,0,76.803,0,76.803s-1.929,0-3.376,0c-6.877,0-10.166-3.732-10.166-11.14
		C541.111,105.612,541.111,29.584,541.111,29.584z M151.362,41.045c5.842-5.524,16.169-11.459,32.566-11.459c0,0,14.684,0,27.483,0
		c37.398,0,47.96,25.353,47.96,44.092c0,21.107-12.682,44.092-47.96,44.092c-7.268,0-15.973,0-27.483,0
		c-26.761,0-46.114-17.296-46.114-44.086c0-8.962,0-73.684,0-73.684s2.751,0,4.199,0c5.979,0,9.35,3.073,9.35,8.71
		C151.362,9.725,151.362,41.045,151.362,41.045z M186.96,105.513c9.262,0,12.766,0,23.482,0c26.39,0,35.374-16.79,35.374-31.835
		c0-15.207-8.98-31.836-35.374-31.836c-10.781,0-15.382,0-23.482,0c-27.568,0-35.597,17.491-35.597,31.836
		C151.363,86.465,158.532,105.513,186.96,105.513z M286.639,41.045c5.845-5.524,16.17-11.459,32.568-11.459c0,0,14.684,0,27.482,0
		c37.399,0,47.96,25.353,47.96,44.092c0,21.107-12.683,44.092-47.96,44.092c-7.269,0-15.971,0-27.482,0
		c-26.761,0-46.113-17.296-46.113-44.086c0-8.962,0-73.684,0-73.684s2.749,0,4.197,0c5.979,0,9.348,3.073,9.348,8.71
		C286.639,9.725,286.639,41.045,286.639,41.045z M322.238,105.513c9.264,0,12.767,0,23.481,0c26.39,0,35.376-16.79,35.376-31.835
		c0-15.207-8.982-31.836-35.376-31.836c-10.778,0-15.38,0-23.481,0c-27.568,0-35.595,17.491-35.595,31.836
		C286.643,86.465,293.81,105.513,322.238,105.513z"/>
</g>
</svg>
