<?xml version="1.0" encoding="utf-8"?>
<!-- Generator: Adobe Illustrator 16.0.4, SVG Export Plug-In . SVG Version: 6.00 Build 0)  -->
<!DOCTYPE svg PUBLIC "-//W3C//DTD SVG 1.1//EN" "http://www.w3.org/Graphics/SVG/1.1/DTD/svg11.dtd">
<svg version="1.1" id="Layer_1" xmlns="http://www.w3.org/2000/svg" xmlns:xlink="http://www.w3.org/1999/xlink" x="0px" y="0px"
	 width="592.99px" height="152.566px" viewBox="0 0 592.99 152.566" enable-background="new 0 0 592.99 152.566"
	 xml:space="preserve">
<g>
	<path fill="#00AEEF" d="M85.61,127.566l-10.76-26.258l6.041-0.035L68.425,70.84C64.466,47.33,60.521,23.86,56.588,0.438H29.415
		c-3.971,23.241-7.934,46.421-11.893,69.579L4.719,101.273l6.037,0.035L0,127.566l7.666,0.129
		c-1.396,8.18-2.796,16.361-4.196,24.549h26.603c1.349-8.318,2.671-16.373,3.993-24.574h17.479c1.4,8.543,2.705,16.602,4.023,24.73
		h26.567c-1.383-8.25-2.77-16.477-4.152-24.705L85.61,127.566z M169.722,152.525c-6.21-21.48-12.294-42.564-18.396-63.676
		c10.259-1.818,13.798-4.834,13.867-12.654c0.143-21.143,0.112-42.257-0.069-63.371c-0.064-8.439-4.628-12.653-13.06-12.675
		c-16.676-0.057-33.348-0.03-50.02-0.013c-1.439,0.013-2.869,0.138-4.421,0.22v151.79H124.2V91.058
		c0.182-0.035,0.381-0.078,0.57-0.104c0.766,2.291,1.578,4.572,2.247,6.879c4.961,17.027,9.832,34.088,14.939,51.062
		c0.437,1.434,2.29,3.422,3.548,3.465C153.396,152.689,161.312,152.525,169.722,152.525 M230.199,26.747h19.943V0.24h-66.891v26.706
		h20.298v125.321h26.649V26.747z M334.986,75.256c0.026-20.455,0.018-40.903,0.009-61.353c-0.009-9.43-4.373-13.755-13.933-13.768
		c-16.326-0.03-32.658-0.018-48.984,0.013c-1.409,0-2.817,0.177-4.153,0.264v151.974h26.715V88.289
		c9.499,0,18.411,0.025,27.296-0.014C330.726,88.214,334.978,83.98,334.986,75.256 M419.331,127.566l-10.76-26.258l6.041-0.035
		l-12.445-30.381c-3.959-23.527-7.908-47.015-11.85-70.479h-27.164c-3.976,23.231-7.935,46.407-11.901,69.574l-12.817,31.286
		l6.042,0.035l-10.761,26.258l7.666,0.129c-1.399,8.193-2.8,16.387-4.2,24.598h26.594c1.349-8.279,2.662-16.352,4.019-24.598h17.476
		c1.383,8.453,2.697,16.533,4.028,24.736h26.567c-1.383-8.26-2.774-16.5-4.157-24.736L419.331,127.566z M503.382,152.261
		c-6.18-21.377-12.247-42.426-18.357-63.545c10.216-1.322,13.872-4.814,13.89-13.273c0.077-20.633,0.086-41.246-0.018-61.885
		c-0.061-9.3-4.425-13.409-13.837-13.422c-16.508-0.03-33.016-0.018-49.523,0.013c-1.417,0-2.843,0.173-4.286,0.264V152.3h26.697
		V91.162c0.259-0.018,0.519-0.043,0.777-0.082c5.964,20.439,11.919,40.898,17.839,61.182H503.382z M592.99,0.131
		c-7.856,0-15.082,0.246-22.264-0.116c-3.682-0.19-4.866,1.413-5.695,4.468c-3.371,12.334-6.846,24.649-10.346,36.957
		c-1.59,5.617-3.354,11.201-5.021,16.797c-0.354-0.073-0.718-0.143-1.08-0.199V0.265h-26.066v151.863h26.412V92.423
		c1.054,1.133,1.564,2.438,1.927,3.781c4.72,17.238,9.387,34.52,14.209,51.732c0.476,1.658,1.85,4.316,2.896,4.363
		c8.15,0.373,16.309,0.207,24.709,0.207c-0.25-1.641-0.328-2.631-0.57-3.561c-6.24-23.145-12.54-46.238-18.686-69.391
		c-0.604-2.269-0.752-4.954-0.173-7.19c3.829-14.436,7.935-28.8,11.893-43.19C587.735,19.716,590.259,10.231,592.99,0.131"/>
</g>
</svg>
