<?xml version="1.0" encoding="utf-8"?>
<!-- Generator: Adobe Illustrator 16.2.1, SVG Export Plug-In . SVG Version: 6.00 Build 0)  -->
<!DOCTYPE svg PUBLIC "-//W3C//DTD SVG 1.1//EN" "http://www.w3.org/Graphics/SVG/1.1/DTD/svg11.dtd">
<svg version="1.1" id="Layer_1" xmlns="http://www.w3.org/2000/svg" xmlns:xlink="http://www.w3.org/1999/xlink" x="0px" y="0px"
	 width="612px" height="792px" viewBox="0 0 612 792" enable-background="new 0 0 612 792" xml:space="preserve">
<g>
	<rect x="61.235" y="133.771" fill="none" width="483.178" height="300.315"/>
	<g>
		<polygon fill="#518BC9" points="426.401,252.157 411.632,255.674 394.049,260.597 391.939,265.52 392.643,272.553 397.565,276.07 
			407.668,276.358 416.87,277.671 409.522,286.62 405.847,283.964 400.146,283.21 387.884,279.984 381.916,277.671 372.246,272.553 
			365.007,265.314 365.007,295.503 468.29,295.503 468.29,240.087 451.721,246.531 		"/>
		<polygon fill="#518BC9" points="389.067,223.842 450.314,209.958 467.897,206.441 468.29,206.288 468.29,191.706 365.007,191.706 
			365.007,243.001 365.783,241.696 		"/>
		<path fill="#FFD87D" d="M288.606,225.316c1.519,1.108,4.111,1.594,6.44,0.176c9.262-17.009,27.154-30.03,40.393-33.915h-86.672
			C261.827,195.469,279.382,208.378,288.606,225.316z"/>
		<path fill="#FFD87D" d="M326.293,284.451c-11.821,17.904-17.594,4.621-23.912,0.648c-0.523-9.018-3.329-18.297-6.906-23.748
			c-1.783-2.594-6.402-1.135-7.046,0.89c-1.033,2.426-5.101,10.346-5.839,23.016c-6.319,3.973-12.865,17.098-24.688-0.806
			c-12.772-19.345-0.59-28.655-9.696-41.37c-6.563-9.165-6.293-12.195-7.967-20.61v72.947h103.842v-73.576
			c-1.82,8.907-1.364,11.846-8.091,21.238C326.886,255.795,339.062,265.106,326.293,284.451z"/>
		<path d="M413.577,238.393"/>
		<path d="M387.884,279.984l-5.968-2.312l-9.67-5.118l-7.369-7.37v3.712c8.511,8.23,24.831,13.824,37.013,14.733
			c-0.433-0.112-0.877-0.236-1.329-0.364l-0.415-0.055L387.884,279.984z"/>
		<path d="M477.04,236.684l-25.319,9.847l-25.319,5.626l-14.77,3.517l-17.583,4.923l-2.109,4.923l0.703,7.033l4.923,3.517
			l10.103,0.289l9.202,1.313l-7.348,8.948l-3.676-2.655l-0.567-0.076c-0.02,0.018-0.042,0.036-0.06,0.054
			c6.926,7.871,15.517,10.893,15.517,10.893s-5.954-6.17-3.517-14.264c0,0,10.386-12.55,21.755-18.078
			c0,0-12.57-0.843-30.906,11.879c-8.754,6.075-25.286-9.151-5.438-15.163c4.713-1.428,15.041-2.544,27.196-5.352
			c16.964,4.382,33.239,13.86,33.239,13.86s-3.127-12.044-11.39-19.726c20.788-6.495,41.74-16.1,50.014-29.889
			c-0.023-0.006-0.048-0.01-0.071-0.015l-6.996,6.639L477.04,236.684z"/>
		<path d="M459.941,224.19c16.625-1.415,29.331,3.51,29.331,3.51c-6.139,2.34-19.933,5.523-38.083,5.442
			c-7.729-0.035-11.006-11.017-11.006-11.017c0.614,9.212,6.444,18.009,6.444,18.009c-8.062-5.479-11.502-18.126-11.502-18.126
			c0.727,11.838,6.676,19.335,6.676,19.335c-7.628-4.703-11.475-19.388-11.475-19.388c-0.034,14.111,6.962,20.938,6.962,20.938
			c-8.979-5.221-11.927-19.573-11.927-19.573c-0.955,11.753,6.062,20.604,6.062,20.604c-9.351-5.91-10.523-18.297-10.523-18.297
			c-1.236,3.959,0.227,9.83,0.227,9.83c-25.661,2.781-43.893,8.541-56.251,14.09v15.636l7.369,7.37l9.67,5.118l5.968,2.312
			l12.262,3.226l0.415,0.055c-12.765-3.628-32.416-13.275-30.163-26.977c12.377-2.415,26.866-4.236,38.764-2.905
			c-27.14,2.621-27.197,13.874-21.424,18.522c4.608,3.711,12.139,7.434,27.387,6.767c0,0-6.713,2.179-9.845,5.216l0.567,0.076
			l3.676,2.655l7.348-8.948l-9.202-1.313l-10.103-0.289l-4.923-3.517l-0.703-7.033l2.109-4.923l17.583-4.923l14.77-3.517
			l25.319-5.626l25.319-9.847l17.583-11.957l6.996-6.639C480.636,213.263,459.941,224.19,459.941,224.19z"/>
		<path d="M510.352,203.647c-40.865-8.231-68.127-5.701-93.727,0.063c-12.976-12.662-33.158-12.116-33.158-12.116
			s5.118,9.57,6.903,22.278c-13.831,8.539-21.31,16.877-25.493,23.8v5.549l0.906-1.525l23.284-17.854l61.247-13.885l17.583-3.517
			l10.004-3.894l21.646,1.784l11.966,1.765l-6.183,8.658l-0.574,0.515c-0.285,0.328-0.576,0.646-0.881,0.938
			c0,0,6.242-3.694,9.185-8.23C514.587,205.622,512.854,204.15,510.352,203.647z"/>
		<path d="M511.513,206.096l-11.966-1.765l-21.646-1.784l-10.004,3.894l-17.583,3.517l-61.247,13.885l-23.284,17.854l-0.906,1.525
			v1.957c22.382-21.19,71.005-32.845,112.351-36.895c-0.115-0.182-0.215-0.377-0.293-0.587c-0.601-1.62,0.226-3.417,1.844-4.017
			c0.906-0.335,1.859-0.212,2.635,0.233c-1.334,0.518-2.002,1.889-1.492,3.132c0.524,1.283,2.104,1.944,3.527,1.468
			c0.532-0.178,0.965-0.489,1.273-0.874c7.426-0.577,13.231-0.909,19.812-0.989c2.299,0,3.696,0.971,3.143,3.284
			c-0.419,1.751-1.529,3.732-2.92,5.337l0.574-0.515L511.513,206.096z"/>
		<path d="M352.396,192.958c-6.706-12.075-42.604,4.025-57.304,31.02c-0.187-0.442-0.379-0.852-0.578-1.211
			c0.675-1.264,1.092-3.008,1.092-4.94c0-1.179-0.155-2.289-0.43-3.261c6.994-26.718,20.562-33.55,26.431-30.259
			c-9.171-7.426-24.282,9.113-28.352,27.031c-0.427-0.318-0.893-0.494-1.383-0.494c-0.295,0-0.584,0.066-0.861,0.189
			c-4.409-17.336-19.813-30.531-28.833-23.226c5.757-3.231,19.576,0.505,26.716,25.811c-0.473,1.17-0.757,2.629-0.757,4.209
			c0,2.143,0.519,4.058,1.331,5.338c-0.127,0.253-0.247,0.528-0.369,0.813c-14.702-26.995-50.598-43.095-57.304-31.02
			c-4.496,8.102,3.404,13.805,5.956,24.297c3.061,12.585,1.379,14.979,9.236,25.951c9.357,13.066-3.162,22.638,9.965,42.516
			c12.15,18.401,19.998,4.267,26.492,0.184c0.51-8.778,2.205-15.641,4.888-21.946c-0.341,10.813-1.902,19.63-0.504,23.627
			c1.976,5.654,4.967,6.756,7.163,4.761c-1.775-8.742-0.118-18.257,0.415-29.433c2.944,6.588,4.801,13.726,5.34,22.99
			c6.494,4.083,14.342,18.217,26.492-0.184c13.125-19.877,0.608-29.449,9.966-42.516c7.857-10.973,6.175-13.366,9.236-25.951
			C348.991,206.764,356.892,201.06,352.396,192.958z M344.977,217.83c-2.979,12.245-1.341,14.574-8.986,25.25
			c-9.104,12.715,3.072,22.025-9.697,41.37c-11.821,17.904-17.594,4.621-23.912,0.648c-0.523-9.018-3.329-18.297-6.906-23.748
			c-1.783-2.594-6.402-1.135-7.046,0.89c-1.033,2.426-5.101,10.346-5.839,23.016c-6.319,3.973-12.865,17.098-24.688-0.806
			c-12.772-19.345-0.59-28.655-9.696-41.37c-7.646-10.676-6.01-13.006-8.988-25.25c-2.483-10.209-10.17-15.759-5.794-23.644
			c6.525-11.748,40.878,4.863,55.183,31.13c1.519,1.108,4.111,1.594,6.44,0.176c14.302-26.264,49.2-43.053,55.727-31.306
			C355.147,202.071,347.46,207.621,344.977,217.83z"/>
		<path d="M295.047,225.492c-2.329,1.418-4.922,0.932-6.44-0.176c-14.305-26.267-48.657-42.877-55.183-31.13
			c-4.376,7.885,3.311,13.435,5.794,23.644c2.979,12.245,1.343,14.574,8.988,25.25c9.106,12.715-3.076,22.025,9.696,41.37
			c11.822,17.904,18.368,4.779,24.688,0.806c0.738-12.67,4.806-20.59,5.839-23.016c0.644-2.024,5.263-3.483,7.046-0.89
			c3.577,5.451,6.383,14.73,6.906,23.748c6.318,3.973,12.091,17.256,23.912-0.648c12.77-19.345,0.593-28.655,9.697-41.37
			c7.646-10.676,6.008-13.006,8.986-25.25c2.483-10.209,10.171-15.759,5.797-23.644
			C344.247,182.439,309.349,199.228,295.047,225.492z M260.799,200.024c0.382-0.852,1.129-1.09,1.666-0.539
			c0.538,0.555,0.666,1.695,0.283,2.547c-0.381,0.849-1.127,1.091-1.665,0.536C260.544,202.016,260.418,200.876,260.799,200.024z
			 M255.539,197.437c0.474-1.058,1.396-1.354,2.064-0.665c0.667,0.687,0.825,2.096,0.353,3.151
			c-0.475,1.058-1.399,1.354-2.067,0.667C255.222,199.904,255.064,198.492,255.539,197.437z M246.554,194.571
			c1.158,0.563,2.365,1.36,3.594,2.437l0.242,4.052c-1.457-0.42-2.833-0.214-4.127-0.302
			C244.564,200.648,245.284,193.879,246.554,194.571z M243.22,206.211c2.031-0.385,4.015-0.629,5.953-0.736
			c2.919-0.368,4.985,5.536,5.956,9.119C246.153,214.599,240.439,215.552,243.22,206.211z M235.905,198.038
			c0.086-2.159,2.153-4.552,5.854-4.618c0,0-1.928,4.616,0.737,8.242C239.028,202.755,235.685,203.635,235.905,198.038z
			 M242.924,224.94c-0.711-0.346-1.097-1.541-0.858-2.667c0.239-1.126,1.012-1.761,1.725-1.412c0.713,0.346,1.096,1.541,0.858,2.667
			C244.409,224.657,243.635,225.289,242.924,224.94z M244.102,230.852c-0.561-0.269-0.864-1.208-0.675-2.096
			c0.188-0.89,0.796-1.382,1.356-1.11c0.562,0.27,0.862,1.209,0.676,2.096C245.268,230.63,244.662,231.127,244.102,230.852z
			 M247.063,234.825c-0.148,0.709-0.634,1.102-1.081,0.888c-0.448-0.217-0.69-0.967-0.54-1.673c0.151-0.708,0.636-1.104,1.082-0.884
			C246.971,233.372,247.21,234.119,247.063,234.825z M248.081,221.673c0.581-0.401,3.608-1.599,8.261-2.239
			c2.312-0.338,4.942,2.362,5.329,5.242c-3.271,0.519-6.903,1.379-10.915,2.701C247.96,228.297,246.743,222.591,248.081,221.673z
			 M254.537,269.793c-0.339,0.539-0.889,0.566-1.227,0.071c-0.339-0.492-0.339-1.324,0.003-1.86
			c0.341-0.536,0.889-0.563,1.227-0.071C254.879,268.422,254.878,269.257,254.537,269.793z M254.574,264.158
			c-0.426,0.67-1.116,0.711-1.54,0.093c-0.424-0.621-0.423-1.662,0.003-2.335c0.426-0.67,1.118-0.712,1.543-0.091
			C255.003,262.441,255.002,263.488,254.574,264.158z M255.652,258.04c-0.54,0.849-1.419,0.901-1.957,0.118
			c-0.537-0.788-0.537-2.115,0.007-2.97c0.543-0.852,1.418-0.904,1.957-0.115C256.198,255.855,256.196,257.183,255.652,258.04z
			 M254.645,246.152c-1.581,1.838-4.953-8.913-0.731-12.149c10.089-7.731,25.646-7.731,31.599-5.706c0,0-5.457-4.701-17.743-4.228
			c0,0-1.335-2.951-4.009-5.031c5.032,0.138,10.951,1.116,17.256,3.736c-5.714-4.854-11.721-6.849-17.249-7.657
			c-4.487-0.294-6.814-9.275-2.618-8.464c9.848,2.632,18.604,9.418,26.998,20.168c-0.318,1.19-0.603,2.517-0.839,3.967
			C282.854,230.676,265.812,233.141,254.645,246.152z M257.196,270.999c0,0-3.767-15.646,13.004-28.899
			c2.794-2.206,1.335,7.915-2.188,12.52C263.439,260.586,259.747,265.845,257.196,270.999z M269.82,290.992
			c-0.274,0.613-0.812,0.789-1.202,0.39c-0.389-0.398-0.483-1.217-0.208-1.835c0.274-0.61,0.812-0.789,1.2-0.39
			C270.001,289.555,270.094,290.374,269.82,290.992z M270.195,273.447c-1.25,2.959-2.531,6.02-3.642,9.333
			c-0.369,1.099-4.983-4.603-4.862-5.158c0.993-3.522,2.233-6.83,3.661-9.926C266.554,265.109,271.65,270.007,270.195,273.447z
			 M268.577,261.548c4.887-8.259,11.021-14.635,16.812-19.081c0,0-4.885,1.462-10.092,5.141c1.09-2.964,1.95-6.979,0.72-8.891
			c4.429-1.953,8.688-2.676,10.706-2.931c-0.139,1.808-0.212,3.711-0.212,5.684c0,2.198,0.091,4.311,0.262,6.297
			c-3.519,3.89-8.849,10.555-13.73,19.83C273.214,264.749,270.442,261.059,268.577,261.548z M273.81,290.126
			c-0.345,0.772-1.018,0.995-1.506,0.492c-0.488-0.497-0.605-1.524-0.262-2.296c0.343-0.772,1.021-0.995,1.505-0.492
			C274.036,288.324,274.154,289.357,273.81,290.126z M278.016,287.742c-0.438,0.984-1.295,1.261-1.915,0.626
			c-0.619-0.632-0.769-1.945-0.332-2.923c0.439-0.981,1.297-1.261,1.915-0.626C278.303,285.453,278.454,286.764,278.016,287.742z
			 M277.734,279.095c-2.147,6.336-6.807,5.523-6.807,5.523c0.577-8.353,10.026-25.438,16.229-33.452
			c0.307,2.137,0.71,4.055,1.188,5.668c0.028,0.961,0.044,1.915,0.048,2.854C284.544,263.87,279.812,272.969,277.734,279.095z
			 M334.045,197.008c1.228-1.077,2.436-1.874,3.594-2.437c1.267-0.692,1.987,6.077,0.291,6.187
			c-1.294,0.088-2.673-0.118-4.128,0.302L334.045,197.008z M335.018,205.475c1.938,0.107,3.922,0.352,5.955,0.736
			c2.78,9.341-2.935,8.388-11.91,8.382C330.032,211.011,332.1,205.107,335.018,205.475z M326.587,196.771
			c0.668-0.689,1.591-0.393,2.066,0.665c0.473,1.055,0.315,2.467-0.352,3.154c-0.668,0.687-1.592,0.39-2.067-0.667
			C325.762,198.868,325.921,197.458,326.587,196.771z M321.726,199.486c0.539-0.552,1.284-0.313,1.666,0.539
			c0.381,0.852,0.255,1.992-0.282,2.544c-0.539,0.555-1.284,0.313-1.667-0.536C321.061,201.181,321.188,200.041,321.726,199.486z
			 M308.09,288.368c-0.618,0.635-1.476,0.357-1.915-0.626c-0.438-0.978-0.287-2.289,0.332-2.923
			c0.618-0.635,1.477-0.354,1.915,0.626C308.858,286.423,308.71,287.736,308.09,288.368z M311.887,290.618
			c-0.488,0.503-1.161,0.28-1.506-0.492c-0.345-0.769-0.227-1.802,0.263-2.297c0.486-0.502,1.162-0.28,1.508,0.492
			C312.493,289.094,312.377,290.121,311.887,290.618z M306.456,279.095c-2.126-6.269-7.031-15.657-10.928-19.693
			c0.014-0.546,0.021-1.096,0.026-1.651c0.607-1.783,1.111-4.028,1.479-6.585c6.202,8.011,15.651,25.1,16.229,33.452
			C313.263,284.618,308.604,285.431,306.456,279.095z M311.147,267.598c-4.881-9.275-10.209-15.942-13.731-19.83
			c0.172-1.986,0.264-4.099,0.264-6.297c0-1.973-0.074-3.876-0.211-5.684c2.015,0.255,6.274,0.978,10.704,2.931
			c-1.229,1.912-0.369,5.926,0.719,8.891c-5.206-3.679-10.091-5.141-10.091-5.141c5.791,4.445,11.926,10.822,16.812,19.081
			C313.748,261.059,310.977,264.749,311.147,267.598z M315.572,291.382c-0.39,0.398-0.928,0.223-1.201-0.39
			c-0.274-0.618-0.18-1.437,0.208-1.835c0.389-0.398,0.926-0.22,1.201,0.39C316.053,290.165,315.961,290.984,315.572,291.382z
			 M317.637,282.78c-1.108-3.314-2.391-6.375-3.642-9.333c-1.453-3.439,3.642-8.338,4.844-5.75c1.427,3.096,2.667,6.404,3.66,9.926
			C322.621,278.178,318.005,283.879,317.637,282.78z M326.995,270.999c-2.552-5.154-6.243-10.413-10.814-16.379
			c-3.525-4.605-4.985-14.726-2.189-12.52C330.761,255.353,326.995,270.999,326.995,270.999z M328.536,258.04
			c-0.541-0.857-0.544-2.185-0.005-2.967c0.538-0.789,1.416-0.736,1.959,0.115c0.541,0.854,0.544,2.182,0.002,2.97
			C329.957,258.941,329.078,258.889,328.536,258.04z M330.881,269.864c-0.339,0.495-0.887,0.467-1.228-0.071
			c-0.34-0.536-0.342-1.371-0.003-1.86c0.338-0.492,0.888-0.464,1.227,0.071C331.218,268.54,331.221,269.373,330.881,269.864z
			 M331.156,264.251c-0.422,0.618-1.113,0.577-1.54-0.093c-0.428-0.67-0.429-1.717-0.004-2.333c0.423-0.621,1.112-0.58,1.54,0.091
			C331.58,262.589,331.58,263.631,331.156,264.251z M329.548,246.152c-11.17-13.012-28.216-15.479-32.667-15.363
			c-0.235-1.448-0.516-2.783-0.833-3.97c8.394-10.75,17.147-17.534,26.994-20.166c4.196-0.811,1.871,8.17-2.617,8.464
			c-5.529,0.808-11.534,2.802-17.249,7.657c6.304-2.621,12.223-3.599,17.256-3.736c-2.673,2.08-4.008,5.031-4.008,5.031
			c-12.288-0.473-17.745,4.228-17.745,4.228c5.955-2.025,21.51-2.025,31.597,5.706C334.501,237.24,331.127,247.99,329.548,246.152z
			 M333.435,227.377c-4.011-1.321-7.646-2.182-10.913-2.701c0.385-2.879,3.017-5.58,5.325-5.242c4.654,0.64,7.685,1.838,8.263,2.239
			C337.447,222.591,336.231,228.297,333.435,227.377z M338.207,235.712c-0.445,0.214-0.93-0.179-1.08-0.888
			c-0.148-0.706,0.093-1.453,0.54-1.67c0.446-0.22,0.93,0.176,1.081,0.884C338.898,234.745,338.657,235.495,338.207,235.712z
			 M340.091,230.852c-0.562,0.275-1.17-0.222-1.359-1.11c-0.188-0.887,0.115-1.827,0.676-2.096c0.561-0.272,1.169,0.22,1.357,1.11
			C340.951,229.644,340.649,230.583,340.091,230.852z M341.268,224.94c-0.712,0.349-1.486-0.283-1.724-1.412
			c-0.239-1.126,0.146-2.321,0.856-2.667c0.713-0.349,1.485,0.286,1.725,1.412C342.363,223.399,341.98,224.594,341.268,224.94z
			 M341.693,201.662c2.666-3.626,0.739-8.242,0.739-8.242c3.696,0.066,5.767,2.459,5.854,4.618
			C348.507,203.635,345.162,202.755,341.693,201.662z"/>
		<path fill="#4F8636" d="M152.42,256.554c0,0-4.228,9.062-16.999,7.015c-6.787-1.092-5.558-6.338-5.396-7.959
			c-3.889-0.324-6.746-6.23-6.746-9.309c0-3.08-1.08-6.341-1.08-6.341c-3.041-3.225-6.114-4.292-7.304-4.604v60.018h39.31
			c0.574-0.352,0.91-0.567,0.91-0.567c3.452-8.359,12.147-25.562,14.031-28.138C162.183,257.159,152.42,256.554,152.42,256.554z"/>
		<path fill="#4F8636" d="M114.897,191.576v23.812c2.194-5.797,5.452-9.164,5.452-9.164c3.992-6.84,15.219-13.279,28.103-14.608
			c0-0.014,0-0.027,0-0.04H114.897z"/>
		<path fill="#4F8636" d="M204.61,292.783c8.75,0.242,7.96-2.964,7.96-2.964c0-1.444-13.611-9.341-16.855-11.235
			c-5.675,2.841-11.352,10.139-16.024,16.791h17.526C197.952,293.848,200.081,292.658,204.61,292.783z"/>
		<path d="M145.946,232.147"/>
		<path d="M162.309,220.644c0.162,5.022,0,12.797-11.665,15.878c5.511,2.593,7.776-2.593,14.256-0.811
			C161.175,229.718,166.361,226.638,162.309,220.644z"/>
		<path d="M192.547,191.582h-4.835c0.006,0.004,0.011,0.008,0.018,0.012h4.831C192.556,191.589,192.552,191.585,192.547,191.582z"/>
		<path d="M198.498,205.738c0,0,2.658-6.998-5.937-14.144h-4.831C195.891,197.272,198.647,202.653,198.498,205.738z"/>
		<path d="M189.235,258.213c18.492-4.108,28.953-26.13,29.11-26.398v-11.363C212.319,238.68,203.938,250.571,189.235,258.213z"/>
		<path d="M131.378,244.078c0,0-1.164-0.941-1.686-3.626c-0.376,1.184-0.711,2.405-0.838,3.711c0,0-0.414,1.102,0.723,3.348
			c1.923,2.61,5.607,4.599,11.669,2.133c0,0,4.302-2.114,7.716-7.12c0,0-2.398,2.25-6.418,3.716
			C142.544,246.24,135.266,248.45,131.378,244.078z"/>
		<path d="M130.19,197.349c0.093-0.058,0.168-0.114,0.264-0.173c0,0-5.331-4.61-9.868-5.583c-0.25-0.03-0.833-0.021-1.407,1.055
			c-2.269,4.053-3.282,11.046,1.17,13.576C122.223,203.013,125.705,199.897,130.19,197.349z"/>
		<polygon points="201.839,191.59 200.221,191.59 200.224,191.594 201.844,191.594 		"/>
		<path d="M162.133,312.479c-7.825,1.078-23.609,1.887-26.307-3.239c0,0-1.501-1.736-1.619-2.022
			c-2.657-6.374,0.478-8.65,11.737-7.285c4.797-2.32,9.174-5.126,9.174-5.126c3.452-8.359,12.147-25.562,14.031-28.138
			c-6.966-9.51-16.728-10.114-16.728-10.114s-4.228,9.062-16.999,7.015c-6.787-1.092-5.558-6.338-5.396-7.959
			c-3.889-0.324-6.746-6.23-6.746-9.309c0-3.08-1.08-6.341-1.08-6.341c-3.878-4.113-7.824-4.722-7.824-4.722
			c-5.344-17.334,5.972-29.014,5.972-29.014s-13.675,14.076-8.332,31.41c0,0,4.642-0.856,8.52,3.257c0,0,0.622,2.595,0.622,5.674
			c0,3.079,3.563,9.072,7.452,9.396c-0.162,1.621,0.018,7.658,6.805,8.75c12.771,2.046,16.878-6.198,16.878-6.198
			s7.574-1.996,14.54,7.514c-1.883,2.576-11.204,24.237-12.544,26.98c-1.34,2.742-3.525,4.303-8.529,5.547
			c-11.259-1.365-15.69,2.404-13.033,8.778c0.118,0.286,0.259,0.566,0.42,0.838l1.176,1.5c1.176,1.313,2.654,2.302,4.385,3.022
			c0.781,1.651,2.124,3.16,4.04,3.687c-1.081-1.214-1.683-2.187-1.977-2.986c1.907,0.517,4.059,0.786,6.415,0.854
			c0.786,1.036,1.842,1.882,3.179,2.253c-0.764-0.86-1.283-1.596-1.629-2.236c1.813-0.011,3.742-0.129,5.77-0.333
			c0.802,1.233,1.964,2.272,3.481,2.689c-1.02-1.148-1.613-2.083-1.926-2.86c1.758-0.206,3.585-0.475,5.473-0.789
			c0.774,1.684,2.132,3.231,4.073,3.767c-1.801-2.027-2.264-3.376-2.201-4.372C163.006,312.414,162.588,312.454,162.133,312.479z"/>
		<path d="M201.844,191.594h-1.62c0.052,0.074,14.708,20.645-3.34,39.133c-6.051,6.196-11.292,10.038-15.646,12.877
			c9.473-12.182,17.385-25.972,16.968-34.337c-0.789,6.709-11.422,21.021-19.792,31.123c2.883-8.083,1.271-22.941-4.604-30.759
			c0,0,6.677,27.153-3.034,37.724c-0.528,0.572-5.55-5.412-11.554-3.318c4.051,2.127,8.37,5.674,9.418,9.733
			c-3.082-4.667-7.961-7.062-11.743-8.522c-0.462,0.326-0.927,0.707-1.392,1.149c-0.197,0.188-0.382,0.407-0.561,0.645
			c4.582,1.204,12.409,5.866,13.871,11.53c-4.079-6.178-11.298-8.381-14.955-9.689c-0.343,0.711-0.674,1.503-1.015,2.329
			l0.247-0.209c4.061,0.322,13.8,5.438,15.45,11.82c-4.897-7.419-14.058-8.88-16.321-10.106c-1.739,4.113-4.083,8.607-9.837,9.4
			c-9.397,1.297-11.665-3.078-11.342-5.505c0,0,2.757,3.401,9.236,2.427c6.477-0.971,7.128-2.427,7.936-4.698
			c0,0-4.86,2.592-10.69-0.323c-1.764,1.76-12.377,1.601-13.259-6.206c-0.159-0.853-0.154-2.813-0.404-4.566
			c-0.396-4.151-0.596-4.942-0.596-4.942c-11.503-5.67-8.26-19.927-3.239-26.245c0,0-6.967,17.009,3.727,23.166
			c0,0,0.485-2.917,1.136-3.725c0,0-10.37-4.862-1.624-18.956c1.271-2.046,1.771-5.018,0.151-9.392c0,0,1.866-2.716,6.775-5.803
			c-4.486,2.548-7.967,5.664-9.841,8.875c0,0-11.316,11.68-5.972,29.014c0,0,3.946,0.609,7.824,4.722c0,0,1.08,3.261,1.08,6.341
			c0,3.078,2.857,8.984,6.746,9.309c-0.162,1.621-1.392,6.867,5.396,7.959c12.771,2.047,16.999-7.015,16.999-7.015
			s9.762,0.604,16.728,10.114c-1.883,2.576-10.579,19.779-14.031,28.138c0,0-4.377,2.806-9.174,5.126
			c-11.259-1.365-14.394,0.911-11.737,7.285c0.118,0.286,1.619,2.022,1.619,2.022c2.698,5.126,18.482,4.317,26.307,3.239
			c0.455-0.025,0.873-0.065,1.273-0.111c0.131-2.065,2.554-2.591,0.221-4.348c-2.629-1.981-3.46,1.002-2.453,4.041
			c-1.344,0.138-3.235,0.294-5.401,0.379c-0.022-2.234,2.64-2.734,0.233-4.544c-2.789-2.099-3.552,1.385-2.253,4.597
			c-1.796,0.022-3.71-0.02-5.602-0.173c-0.022-2.236,2.642-2.731,0.235-4.544c-2.709-2.039-3.511,1.195-2.354,4.324
			c-1.854-0.236-3.633-0.602-5.211-1.148c0.608-1.267,1.825-1.879-0.054-3.297c-1.998-1.5-2.956-0.146-2.863,1.923
			c-1.309-0.849-2.286-1.923-2.77-3.289c-3.21-9.066,21.059-4.667,29.96,0.275c0,0-6.333-5.484-16.234-7.374
			c0,0,3.693,0.772,7.489-3.25c0,0,1.283-0.343,5.903-8.165c6.155,0.407,8.276-0.297,9.57,6.78c0,0,3.604-6.643-8.131-9.569
			c0.93-1.239,1.842-4.506,3.032-5.847c6.473-0.037,8.558,2.883,11.717,9.702c0,0-0.505-10.733-10.196-12.911
			c0.964-1.754,3.659-10.254,6.567-12.493c3.876-2.984,14.552-5.088,15.805-12.2c0,0-4.297,5.526-13.117,8.989
			c-2.155-12.412,22.027-21.416,27.906-32.146c0,0-6.467,14.995-13.818,20.723c0,0,20.141-8.521,18.373-32.041
			C209.961,216.763,214.813,200.89,201.844,191.594z"/>
		<path d="M152.912,222.913c-6.477-0.309-7.29,4.213-6.966,9.234c1.783-3.726,5.67-0.487,8.75-6.16
			c0.648,3.892-1.948,7.133-1.948,7.133c7.778-4.537,4.052-11.018,4.052-11.018S156.314,223.075,152.912,222.913z M151.271,227.267
			c-0.979,0.698-2.192,0.767-3.145,0.277c-0.066-0.615,0.066-1.252,0.366-1.814c0.165,0.291,0.445,0.516,0.798,0.599
			c0.674,0.165,1.351-0.254,1.513-0.93c0.11-0.471-0.061-0.949-0.407-1.243c0.755-0.237,1.554-0.169,2.223,0.174
			C152.734,225.423,152.248,226.568,151.271,227.267z"/>
		<rect x="177.84" y="191.592" width="2.814" height="0.002"/>
		<path d="M184.095,207.796c2.058-3.969,0.733-8.232,0.733-8.232c9.995,8.529-3.38,21.608-3.53,29.399
			c2.942-7.057,9.555-9.996,10.585-21.167c0.853-9.268-11.202-16.187-11.229-16.202h-2.815
			C185.169,199.256,184.095,207.796,184.095,207.796z"/>
		<path d="M109.508,257.841c3.033-8.075,11.421-10.832,13.74-12.36c-0.027-0.475-0.067-0.947-0.128-1.404
			C120.179,243.471,109.721,250.459,109.508,257.841z"/>
		<path d="M123.865,244.746c-0.079-0.377-0.349-0.587-0.746-0.669c0.061,0.458,0.102,0.929,0.128,1.404
			C123.667,245.205,123.912,244.965,123.865,244.746z"/>
		<path d="M110.401,263.969c3.083-8.203,11.702-11.96,13.855-13.762c-0.199-0.452-0.372-0.904-0.513-1.347
			C120.494,248.963,110.608,256.789,110.401,263.969z"/>
		<path d="M124.76,249.47c-0.096-0.454-0.473-0.627-1.016-0.61c0.141,0.443,0.313,0.895,0.513,1.347
			C124.605,249.916,124.802,249.669,124.76,249.47z"/>
		<path d="M111.615,268.054c3.58-9.532,14.657-13.066,14.357-14.5C125.308,250.382,111.853,259.674,111.615,268.054z"/>
		<path d="M123.159,244.445c-0.108,0.958-0.151,2.01-0.316,2.17c-0.948,0.921-0.191,2.203,1.295,3.318
			c-0.547-1.316-0.857-2.625-0.857-3.632C123.281,245.679,123.229,245.054,123.159,244.445z"/>
		<path d="M133.011,251.787c-2.073,0.259-7.316-1.96-9.098-8.915c-0.461-0.311-0.642,0.581-0.754,1.573
			c0.07,0.608,0.122,1.233,0.122,1.856c0,1.006,0.31,2.315,0.857,3.632C126.543,251.74,130.868,253.109,133.011,251.787z"/>
		<path d="M153.289,251.03c0.6-0.357,1.021-0.699,1.196-0.972c0.008-0.013,0.209-0.307,0.548-0.759
			c-1.708-0.602-2.958-1.021-3.318-1.436c-4.968,4.063-9.392,4.829-11.072,4.335c3.654,2.091,9.116,0.654,11.996-0.811l0.454-0.385
			C153.152,251.007,153.226,251.023,153.289,251.03z"/>
		<path d="M153.091,251.002l-0.454,0.385c0.235-0.12,0.453-0.239,0.651-0.357C153.226,251.023,153.152,251.007,153.091,251.002z"/>
		<path d="M152.84,246.743c0.882-0.036,2.161,0.241,3.628,0.781c0.495-0.569,1.067-1.177,1.684-1.77
			c-1.067-0.449-2.072-0.822-2.97-1.142C154.238,245.352,153.462,246.068,152.84,246.743z"/>
		<path d="M166.843,220.48c2.268,7.941,2.593,16.042-7.125,21.224c-0.893,0.476-1.694,0.949-2.427,1.418
			c0.808,0.342,1.65,0.752,2.5,1.225c1.014-0.771,2.091-1.398,3.166-1.67C171.468,240.528,175.433,235.385,166.843,220.48z"/>
		<path d="M155.183,244.612c0.898,0.319,1.902,0.692,2.97,1.142c0.517-0.496,1.065-0.973,1.638-1.407
			c-0.849-0.472-1.692-0.882-2.5-1.225C156.503,243.626,155.807,244.124,155.183,244.612z"/>
		<path d="M152.245,247.425c-0.178,0.153-0.354,0.292-0.531,0.437c0.36,0.415,1.61,0.834,3.318,1.436
			c0.344-0.458,0.834-1.082,1.436-1.774c-1.468-0.541-2.747-0.817-3.628-0.781C152.626,246.976,152.427,247.204,152.245,247.425z"/>
		<path d="M200.368,301.316c0.014,0.005,0.027,0.008,0.038,0.011C200.392,301.325,200.38,301.319,200.368,301.316z"/>
		<path d="M200.406,301.327c0.006,0.003,0.011,0.006,0.018,0.008C200.417,301.333,200.414,301.33,200.406,301.327z"/>
		<path d="M203.494,302.58c-0.26-0.368-0.402-0.806-0.474-1.261l-1.125-0.003C202.314,301.933,202.86,302.432,203.494,302.58z"/>
		<path d="M203.45,298.454c0.487-0.882,1.64-1.121,0.605-1.942c-1.438-1.148-2.705,0.209-3.001,1.942
			c-0.126,0.745,0.213,1.939,0.84,2.863l1.125,0.003C202.848,300.237,203.118,299.054,203.45,298.454z"/>
		<path d="M215.602,302.58c-0.253-0.357-0.395-0.782-0.469-1.223l-1.108-0.004C214.441,301.955,214.98,302.436,215.602,302.58z"/>
		<path d="M215.558,298.454c0.486-0.882,1.64-1.121,0.604-1.942c-1.437-1.148-2.701,0.209-3,1.942
			c-0.129,0.755,0.219,1.973,0.862,2.9l1.108,0.004C214.948,300.264,215.221,299.061,215.558,298.454z"/>
		<path d="M209.549,302.58c-0.257-0.363-0.399-0.794-0.472-1.242l-1.117-0.004C208.379,301.944,208.921,302.435,209.549,302.58z"/>
		<path d="M209.502,298.454c0.486-0.882,1.642-1.121,0.607-1.942c-1.439-1.148-2.702,0.209-3.001,1.942
			c-0.129,0.75,0.216,1.956,0.852,2.881l1.117,0.004C208.897,300.25,209.168,299.057,209.502,298.454z"/>
		<path d="M200.346,301.311c0,0,0.008,0.002,0.022,0.005C200.359,301.313,200.354,301.313,200.346,301.311z"/>
		<path d="M200.424,301.335C200.456,301.344,200.447,301.344,200.424,301.335L200.424,301.335z"/>
		<path d="M204.61,292.783c8.75,0.242,7.96-2.964,7.96-2.964c0-1.444-13.611-9.341-16.855-11.235
			c-9.543,4.778-19.117,22.175-23.852,27.868c4.735-5.692,14.427-21.124,23.997-26.772c3.502,2.079,15.169,8.373,15.169,9.815
			c0,0,1.364,2.731-7.386,2.492c-11.808-0.33-8.583,9.234-3.296,9.325C197.275,301.055,192.802,292.456,204.61,292.783z"/>
		<path d="M209.296,266.077c-5.484,4.33-7.969,4.895-18.153,11.959c-5.145,3.568-19.76,19.916-21.807,31.448
			c0,0,1.461-1.75,2.526-3.033c4.735-5.692,14.309-23.09,23.852-27.868c3.245,1.895,16.855,9.792,16.855,11.235
			c0,0,0.791,3.206-7.96,2.964c-11.808-0.327-7.335,8.272-4.264,8.528c-1.75-0.53-4.873-6.305,1.093-7.413
			c2.986-0.558,15.707,1.8,16.906-4.061v-3.165c-0.554,0.233-3.432,1.508-10.726-1.874c5.174-2.47,6.723-7.244,7.123-7.978
			c0,0-3.786,4.802-9.746,6.684c-1.095-0.599-1.729-1.104-2.911-1.854c4.65-1.953,5.552-6.535,5.552-6.535s-1.546,3.102-7.556,4.738
			c-0.492-0.348-1.133-1.089-1.54-1.833c8.094-3.074,7.297-3.767,10.756-7.036c2.311,1.338,5.472,3.158,9.049,5.007v-22.375
			C210.943,259.062,211.241,264.543,209.296,266.077z"/>
		<path d="M128.977,222.667c-4.455-1.083-6.524-3.32-6.524-3.32c-0.801,10.101,4.494,7.872,7.602,12.863
			c0.584,1.96,0.689,3.818,0.53,5.705c0,0,3.352-5.067,2.143-10.159C132.219,225.61,130.912,223.136,128.977,222.667z
			 M127.382,226.877c-0.956-0.729-1.404-1.891-1.258-2.975c0.682-0.322,1.481-0.365,2.229-0.108
			c-0.354,0.285-0.543,0.753-0.444,1.231c0.139,0.676,0.802,1.117,1.481,0.977c0.355-0.073,0.644-0.288,0.818-0.572
			c0.282,0.569,0.389,1.208,0.309,1.826C129.545,227.715,128.335,227.609,127.382,226.877z"/>
		<path d="M139.371,193.439c2.863-0.865,5.905-1.492,9.045-1.819C145.363,191.72,142.32,192.227,139.371,193.439z"/>
		<path d="M130.396,199.584c0,0,6.157-1.782,9.719,0.323c0,0-8.26,0.809-11.99,6.803c0,0,6.966-3.401,11.99-1.62
			c0,0-7.129,1.133-11.178,6.318c0,0,5.668-1.296,8.91-0.648c-4.214,4.05-9.884,1.946-13.61,4.699
			c2.27,4.212,4.536,4.212,4.536,4.212s3.083-5.023,7.128-3.079c4.051,1.945,3.403,6.646,3.403,6.646s2.107-6.805,5.996-6.805
			c3.889,0,4.699,3.561,4.699,3.561s4.533,0.165,6.157-2.429c0,0-4.052,0-7.293-2.591c-3.24-2.594-7.291-3.565-7.291-3.565
			s5.348-1.62,10.532,0.65c0,0-2.104-4.537-7.452-5.67c0,0,5.51-1.458,10.367,1.133c0,0-2.592-5.185-8.588-6.805
			c0,0,11.182-4.374,19.446,11.827c0,0,0.486-6.156-2.918-11.018c0,0,5.833,1.459,8.102,4.537c0-4.374,3.922-1.794,3.922-3.56
			c0,0,4.773-3.699,0.883,6.993c0,0,4.407-0.378,4.113-5.377c-0.293-4.998-1.935-10.834-3.394-11.32
			c-0.358-0.12-0.781-0.008-1.243,0.223c-7.229,2.101-17.131-1.723-26.924-1.403c-3.14,0.327-6.183,0.954-9.045,1.819
			c-2.173,0.894-4.297,2.164-6.333,3.951C132.02,197.994,131.123,198.696,130.396,199.584z M166.772,200.189
			c-0.094,0.027-0.179,0.042-0.25,0.042c0,0-7.452-6.159-19.117-2.429c0,0-1.044-0.763-2.785-1.227
			C151.994,193.908,159.79,193.192,166.772,200.189z"/>
		<path d="M122.503,335.741h-7.35c1.231-3.165,2.286-5.698,4.114-9.918L122.503,335.741 M122.959,336.9
			c1.09,2.989,2.497,6.964,2.497,7.244c0,0.283-0.07,0.353-0.667,0.353h-1.758v0.95h7.244v-0.95h-1.302
			c-0.773,0-1.231-1.056-1.723-2.215c-1.301-3.096-6.26-17.231-6.26-18.638c0-0.739,0.598-0.668,0.598-1.091
			c0-0.14-0.07-0.247-0.211-0.247c-0.246,0-1.055,0.143-1.828,0.387l-8.897,21.099c-0.281,0.704-0.387,0.704-2.039,0.704v0.95h7.138
			v-0.95h-0.879h-1.407c-0.844,0-0.879-0.597-0.879-0.88c0-0.947,0.879-3.656,2.11-6.717H122.959z"/>
		<path d="M130.907,330.465c0.493,0,1.618-0.176,2.462-0.28c1.09-0.143,1.899-0.283,2.426-0.283v9.391c0,2.777,0,5.027,3.2,5.027
			c1.723,0,3.517-0.983,4.712-2.285v-7.597c0-3.129-0.387-3.129-0.985-3.129h-1.864v-0.844c0.492,0,1.618-0.176,2.462-0.28
			c1.09-0.143,1.898-0.283,2.426-0.283v10.163c0,2.217,0,3.835,2.497,4.362l-1.125,1.583c-1.723-0.212-2.883-1.55-3.235-3.061
			c-1.688,1.547-3.517,3.061-5.802,3.061c-4.326,0-4.326-4.221-4.326-7.844v-3.729c0-3.129-0.387-3.129-0.984-3.129h-1.864V330.465z
			"/>
		<path d="M162.626,342.282c-1.336,1.195-2.567,2.038-4.396,2.038c-3.728,0-5.205-3.233-5.205-6.541
			c0-3.726,1.829-6.926,5.768-6.926c1.372,0,2.743,0.527,3.833,1.371V342.282 M162.626,331.133
			c-1.336-0.879-2.778-1.231-4.185-1.231c-4.817,0-7.561,3.94-7.561,8.44c0,3.656,1.829,7.668,5.979,7.668
			c2.04,0,3.517-0.986,5.767-2.638v2.638c0.387,0,1.407-0.144,2.462-0.283c1.055-0.141,2.11-0.28,2.461-0.28v-0.844h-1.407
			c-1.301,0-1.477,0-1.477-5.311v-18.638c-1.618,0.42-3.235,0.703-4.888,0.808v0.844h1.863c0.598,0,0.985,0,0.985,3.132V331.133z"/>
		<path d="M168.814,330.465c0.493,0,1.618-0.176,2.461-0.28c1.09-0.143,1.899-0.283,2.427-0.283v9.391c0,2.777,0,5.027,3.2,5.027
			c1.724,0,3.517-0.983,4.712-2.285v-7.597c0-3.129-0.387-3.129-0.984-3.129h-1.864v-0.844c0.493,0,1.618-0.176,2.461-0.28
			c1.09-0.143,1.899-0.283,2.427-0.283v10.163c0,2.217,0,3.835,2.497,4.362l-1.125,1.583c-1.723-0.212-2.884-1.55-3.235-3.061
			c-1.688,1.547-3.517,3.061-5.803,3.061c-4.326,0-4.326-4.221-4.326-7.844v-3.729c0-3.129-0.387-3.129-0.984-3.129h-1.864V330.465z
			"/>
		<path d="M192.34,333.63c1.336-1.195,2.567-2.038,4.396-2.038c3.729,0,5.205,3.233,5.205,6.538c0,3.729-1.829,6.929-5.768,6.929
			c-1.372,0-2.742-0.527-3.833-1.371V333.63 M190.301,341.438c0,1.476,0,2.989-0.211,4.429h0.598l0.703-1.723
			c1.372,1.127,3.235,1.866,5.134,1.866c4.818,0,7.561-3.94,7.561-8.44c0-3.659-1.829-7.668-5.979-7.668
			c-2.039,0-3.517,0.986-5.767,2.638v-11.885c-1.618,0.42-3.235,0.703-4.888,0.808v0.844h1.864c0.598,0,0.985,0,0.985,3.132V341.438
			z"/>
		<path d="M209.325,337.779c0-3.198,0.914-6.821,4.782-6.821s5.416,3.8,5.416,7.173c0,3.201-0.915,6.824-4.783,6.824
			S209.325,341.156,209.325,337.779 M207.109,338.45c0,4.288,2.638,7.561,6.893,7.561c2.778,0,7.736-2.218,7.736-8.547
			c0-4.289-2.637-7.562-6.893-7.562C212.068,329.902,207.109,332.12,207.109,338.45z"/>
		<path d="M228.631,339.292c0,5.311,0.176,5.311,1.477,5.311h1.407v0.844h-6.893v-0.844h1.301c0.316,0,0.668,0,0.668-0.352v-9.813
			c0-3.129-0.387-3.129-0.985-3.129h-1.863v-0.844c0.492,0,1.618-0.176,2.461-0.28c1.09-0.143,1.899-0.283,2.427-0.283v2.813
			c1.828-1.511,3.692-2.813,5.978-2.813c3.341,0,4.255,2.251,4.255,4.36v5.03c0,5.311,0.176,5.311,1.477,5.311h1.407v0.844h-6.893
			v-0.844h1.302c0.315,0,0.667,0,0.667-0.352v-9.179c0-2.777-1.301-3.588-2.918-3.588c-2.11,0-3.728,1.02-5.275,2.321V339.292z"/>
		<path d="M271.638,341.471h0.071v-12.272c0-5.027-0.388-5.134-1.161-5.134h-1.969v-0.948h6.435v0.948h-1.441
			c-0.387,0-0.703,0.071-0.703,0.352V345.2c0,0.315,0,0.527-0.246,0.527c-0.105,0-0.176-0.068-0.247-0.141l-15.578-19.412h-0.07
			v13.188c0,5.03,0.387,5.135,1.161,5.135h1.969v0.95h-6.436v-0.95h1.442c0.387,0,0.703-0.069,0.703-0.353v-17.476
			c0-1.267-0.316-2.604-1.547-2.604h-1.583v-0.948h4.466L271.638,341.471z"/>
		<path d="M286.724,341.438c-0.985,1.512-2.673,2.882-4.502,2.882c-1.336,0-2.004-0.843-2.004-2.146
			c0-2.777,3.341-4.077,6.506-5.203V341.438 M286.724,336.021c-5.029,2.041-8.686,3.552-8.686,6.717
			c0,1.935,1.125,3.272,3.059,3.272c1.97,0,4.466-1.901,5.732-3.341c0.211,1.862,1.97,3.341,3.271,3.341l1.125-1.583
			c-2.461-0.527-2.461-2.146-2.461-4.362v-5.591c0-2.602-0.036-4.572-3.692-4.572c-2.638,0-6.753,1.866-6.753,4.679
			c0,0.353,0.317,0.736,0.738,0.736c1.091,0,1.688-1.582,1.688-3.058c0.879-0.739,2.286-1.091,3.411-1.091
			c2.567,0,2.567,1.723,2.567,2.498V336.021z"/>
		<path d="M296.711,330.465h3.832c-0.104,0.808-0.28,0.844-0.527,0.844h-3.305v10.058c0,1.583,0.176,3.27,2.461,3.27
			c0.809,0,1.653-0.244,2.392-0.561l0.316,0.703c-1.09,0.632-2.919,1.231-4.149,1.231c-2.005,0-3.06-1.338-3.06-3.236v-11.465
			h-0.773c-0.739,0-0.879,0-0.879-0.245c0-0.176,0.14-0.352,0.352-0.562l2.849-3.377h0.492V330.465z"/>
		<path d="M302.864,330.465c0.492,0,1.617-0.176,2.461-0.28c1.091-0.143,1.9-0.283,2.428-0.283v9.391c0,2.777,0,5.027,3.199,5.027
			c1.724,0,3.517-0.983,4.713-2.285v-7.597c0-3.129-0.387-3.129-0.986-3.129h-1.862v-0.844c0.491,0,1.618-0.176,2.462-0.28
			c1.09-0.143,1.897-0.283,2.426-0.283v10.163c0,2.217,0,3.835,2.497,4.362l-1.127,1.583c-1.722-0.212-2.882-1.55-3.233-3.061
			c-1.689,1.547-3.517,3.061-5.802,3.061c-4.327,0-4.327-4.221-4.327-7.844v-3.729c0-3.129-0.387-3.129-0.983-3.129h-1.864V330.465z
			"/>
		<path d="M325.124,334.438c0-3.129-0.387-3.129-0.986-3.129h-1.862v-0.844c0.491,0,1.618-0.176,2.462-0.28
			c1.09-0.143,1.898-0.283,2.426-0.283v3.025c2.637-2.391,3.588-3.025,4.677-3.025c0.598,0,1.267,0.283,1.652,0.775
			c-0.386,2.25-0.491,2.354-0.737,2.354c-0.527,0-0.176-1.055-2.04-1.055c-1.125,0-2.04,0.494-3.552,2.076v5.239
			c0,5.311,0.176,5.311,1.478,5.311h1.407v0.844h-6.894v-0.844h1.301c0.317,0,0.669,0,0.669-0.352V334.438z"/>
		<path d="M336.63,336.724c0-2.602,1.513-5.871,4.01-5.871c1.935,0,3.305,2.109,3.902,3.761L336.63,336.724 M346.97,342.669
			c-1.267,1.194-2.708,1.791-4.502,1.791c-4.184,0-5.662-3.165-5.838-6.821c4.115-0.948,6.929-1.794,10.479-2.918
			c-1.194-2.426-2.883-4.819-5.872-4.819c-4.501,0-6.646,4.536-6.646,8.512c0,3.937,2.074,7.597,6.434,7.597
			c2.533,0,4.714-0.986,6.436-2.813L346.97,342.669z"/>
		<path d="M364.375,339.362c0,5.03,0.388,5.135,1.161,5.135h1.97v0.95h-7.561v-0.95h1.44c0.388,0,0.704-0.069,0.704-0.353v-15.365
			c0-4.011-0.104-4.714-0.983-4.714h-2.076v-0.948h7.561v0.948h-1.406c-0.422,0-0.81,0-0.81,0.352V339.362z"/>
		<path d="M374.188,339.292c0,5.311,0.176,5.311,1.477,5.311h1.406v0.844h-6.893v-0.844h1.301c0.317,0,0.669,0,0.669-0.352v-9.813
			c0-3.129-0.388-3.129-0.985-3.129h-1.863v-0.844c0.491,0,1.618-0.176,2.461-0.28c1.091-0.143,1.9-0.283,2.428-0.283v2.813
			c1.828-1.511,3.692-2.813,5.979-2.813c3.34,0,4.254,2.251,4.254,4.36v5.03c0,5.311,0.176,5.311,1.477,5.311h1.406v0.844h-6.892
			v-0.844h1.301c0.316,0,0.668,0,0.668-0.352v-9.179c0-2.777-1.301-3.588-2.918-3.588c-2.109,0-3.728,1.02-5.274,2.321V339.292z"/>
		<path d="M390.819,333.806c0,3.764,9.003,1.723,9.003,7.28c0,3.517-3.692,4.924-6.681,4.924c-1.337,0-2.674-0.212-3.94-0.671
			c-0.21-1.335-0.456-2.67-0.456-3.021c0-0.212,0.141-0.319,0.387-0.319c0.281,0,0.352,0.352,0.421,0.6
			c0.248,1.302,2.743,2.25,4.538,2.25c1.792,0,4.008-1.056,4.008-3.234c0-4.079-8.826-1.653-8.826-7.14
			c0-2.391,2.391-4.572,5.521-4.572c1.44,0,2.813,0.212,3.938,0.739c0.105,0.951,0.211,2.146,0.211,2.391
			c0,0.143-0.071,0.247-0.247,0.247c-0.246,0-0.28-0.14-0.386-0.316c-0.176-0.282-0.915-1.898-3.975-1.898
			C392.859,331.064,390.819,331.977,390.819,333.806z"/>
		<path d="M405.659,330.465h3.833c-0.104,0.808-0.28,0.844-0.527,0.844h-3.306v10.058c0,1.583,0.176,3.27,2.462,3.27
			c0.809,0,1.652-0.244,2.392-0.561l0.315,0.703c-1.089,0.632-2.919,1.231-4.149,1.231c-2.004,0-3.06-1.338-3.06-3.236v-11.465
			h-0.773c-0.738,0-0.879,0-0.879-0.245c0-0.176,0.141-0.352,0.352-0.562l2.85-3.377h0.491V330.465z"/>
		<path d="M416.912,339.292c0,5.311,0.176,5.311,1.477,5.311h1.407v0.844h-6.894v-0.844h1.303c0.315,0,0.667,0,0.667-0.352v-9.813
			c0-3.129-0.387-3.129-0.984-3.129h-1.864v-0.844c0.493,0,1.618-0.176,2.462-0.28c1.091-0.143,1.899-0.283,2.427-0.283V339.292
			 M415.682,323.468c0.703,0,1.301,0.596,1.301,1.3c0,0.738-0.598,1.338-1.301,1.338s-1.301-0.6-1.301-1.338
			C414.381,324.064,414.979,323.468,415.682,323.468z"/>
		<path d="M425.316,330.465h3.833c-0.106,0.808-0.282,0.844-0.528,0.844h-3.305v10.058c0,1.583,0.176,3.27,2.462,3.27
			c0.809,0,1.652-0.244,2.392-0.561l0.315,0.703c-1.091,0.632-2.919,1.231-4.149,1.231c-2.004,0-3.06-1.338-3.06-3.236v-11.465
			h-0.773c-0.738,0-0.879,0-0.879-0.245c0-0.176,0.141-0.352,0.352-0.562l2.848-3.377h0.493V330.465z"/>
		<path d="M431.471,330.465c0.491,0,1.616-0.176,2.461-0.28c1.09-0.143,1.898-0.283,2.427-0.283v9.391c0,2.777,0,5.027,3.2,5.027
			c1.723,0,3.517-0.983,4.712-2.285v-7.597c0-3.129-0.388-3.129-0.985-3.129h-1.864v-0.844c0.493,0,1.618-0.176,2.462-0.28
			c1.091-0.143,1.899-0.283,2.428-0.283v10.163c0,2.217,0,3.835,2.495,4.362l-1.125,1.583c-1.722-0.212-2.883-1.55-3.234-3.061
			c-1.688,1.547-3.517,3.061-5.803,3.061c-4.325,0-4.325-4.221-4.325-7.844v-3.729c0-3.129-0.387-3.129-0.985-3.129h-1.862V330.465z
			"/>
		<path d="M454.75,330.465h3.832c-0.105,0.808-0.281,0.844-0.527,0.844h-3.305v10.058c0,1.583,0.176,3.27,2.462,3.27
			c0.808,0,1.652-0.244,2.39-0.561l0.317,0.703c-1.091,0.632-2.919,1.231-4.149,1.231c-2.005,0-3.06-1.338-3.06-3.236v-11.465
			h-0.773c-0.739,0-0.879,0-0.879-0.245c0-0.176,0.14-0.352,0.352-0.562l2.848-3.377h0.493V330.465z"/>
		<path d="M463.61,336.724c0-2.602,1.512-5.871,4.01-5.871c1.934,0,3.305,2.109,3.902,3.761L463.61,336.724 M473.949,342.669
			c-1.266,1.194-2.707,1.791-4.501,1.791c-4.185,0-5.662-3.165-5.838-6.821c4.115-0.948,6.929-1.794,10.479-2.918
			c-1.195-2.426-2.884-4.819-5.872-4.819c-4.502,0-6.646,4.536-6.646,8.512c0,3.937,2.074,7.597,6.435,7.597
			c2.533,0,4.713-0.986,6.436-2.813L473.949,342.669z"/>
		<path d="M133.269,371.906c0.076-0.28,0.126-0.431,0.329-0.431s0.279,0.077,0.279,0.354c0,0.203-0.228,1.189-0.431,2.253
			c-1.798,0.887-3.925,1.393-5.925,1.393c-4.026,0-6.812-2.456-6.812-6.607c0-5.951,4.533-10.586,10.508-10.586
			c1.342,0,2.734,0.28,4.001,0.709c-0.177,2.127-0.279,2.229-0.507,2.229c-0.228,0-0.304-0.151-0.329-0.354
			c-0.126-1.316-2.38-1.671-3.494-1.671c-4.279,0-7.951,3.797-7.951,9.242c0,3.394,1.595,6.127,5.52,6.127
			C130.737,374.563,132.965,373.019,133.269,371.906z"/>
		<path d="M139.067,369.752c0-1.898,1.292-5.341,3.469-5.341c0.734,0,0.937,0.682,0.937,1.291c0,0.453-0.051,0.811-0.126,1.165
			L139.067,369.752 M139.067,370.513c1.949-1.344,5.849-3.8,6.937-4.838c0.077-0.2,0.102-0.429,0.102-0.582
			c0-0.074-0.025-0.151-0.126-0.151c-0.102,0-0.405,0.406-0.937,0.811v-0.659c0-1.138-0.709-1.442-1.772-1.442
			c-3.722,0-6.355,3.95-6.355,7.519c0,2.306,0.912,4.229,3.368,4.229c1.848,0,3.696-0.986,4.912-2.354l-0.279-0.429
			c-0.962,0.811-2.253,1.745-3.545,1.745c-1.823,0-2.304-1.695-2.304-3.215V370.513z"/>
		<path d="M147.574,358.18c1.189-0.632,3.19-1.112,4.127-1.112c0.177,0,0.228,0.077,0.228,0.506c0,1.164-0.456,4.406-0.937,7.571
			c-0.557,3.671-0.937,6.786-0.937,8.229c0,0.582,0.152,0.659,0.33,0.659c0.38,0,1.342-0.583,1.772-0.862l0.228,0.48
			c-1.62,1.393-3.342,1.747-3.798,1.747c-0.177,0-0.506-0.176-0.506-1.088c0-2.379,0.659-6.456,0.86-8.024
			c0.405-2.965,0.836-5.85,0.836-7.445c0-0.33,0-0.632-0.329-0.632c-0.253,0-0.708,0.126-1.696,0.505L147.574,358.18z"/>
		<path d="M156.41,369.752c0-1.898,1.292-5.341,3.469-5.341c0.734,0,0.937,0.682,0.937,1.291c0,0.453-0.051,0.811-0.127,1.165
			L156.41,369.752 M156.41,370.513c1.95-1.344,5.849-3.8,6.938-4.838c0.076-0.2,0.102-0.429,0.102-0.582
			c0-0.074-0.025-0.151-0.127-0.151c-0.101,0-0.405,0.406-0.937,0.811v-0.659c0-1.138-0.709-1.442-1.772-1.442
			c-3.722,0-6.355,3.95-6.355,7.519c0,2.306,0.912,4.229,3.368,4.229c1.848,0,3.696-0.986,4.912-2.354l-0.278-0.429
			c-0.962,0.811-2.253,1.745-3.544,1.745c-1.823,0-2.305-1.695-2.305-3.215V370.513z"/>
		<path d="M166.513,374.26c0.152-2.027,0.431-4.102,1.317-5.95c0.557-1.141,1.848-3.291,3.317-3.291
			c1.215,0,1.418,1.467,1.418,2.403c0,2.965-1.696,6.965-5.166,6.965C167.095,374.387,166.792,374.36,166.513,374.26
			 M164.487,358.713c0.988-0.379,1.443-0.505,1.697-0.505c0.329,0,0.329,0.302,0.329,0.632c0,1.646-1.19,11.47-2.228,16.838
			c0.886,0,0.886-0.102,0.886-0.835c0.633,0.151,1.266,0.302,1.924,0.302c4.127,0,7.52-3.95,7.52-7.976
			c0-1.747-0.684-3.519-2.608-3.519c-1.975,0-3.798,2.558-4.558,4.228l-0.051-0.049c0.507-3.545,1.266-8.863,1.266-10.256
			c0-0.429-0.05-0.506-0.227-0.506c-0.937,0-2.938,0.48-4.127,1.112L164.487,358.713z"/>
		<path d="M176.388,364.994c1.266-0.887,3.215-1.343,3.874-1.343c0.126,0,0.253,0,0.253,0.505c0,0.938-0.354,3.066-0.557,4.256
			l0.101,0.05c1.114-2.404,2.684-4.811,4.431-4.811c0.456,0,0.937,0.203,0.937,0.733c0,0.635-0.684,0.887-1.215,0.887
			c-0.354,0-0.708-0.102-1.013-0.252c-0.506,0.126-2.962,2.48-3.748,7.67l-0.329,2.229h-1.924c0.532-3.141,0.962-6.278,1.267-9.215
			c0-0.582-0.051-0.838-0.33-0.838c-0.228,0-0.937,0.28-1.544,0.635L176.388,364.994z"/>
		<path d="M189.351,373.878c-1.19,0-1.393-1.544-1.393-2.429c0-3.747,2.076-6.988,5.241-6.988c0.253,0,0.531,0.049,0.759,0.15
			l-0.329,2.354C192.87,372.233,190.49,373.878,189.351,373.878 M196.972,373.17c-0.431,0.279-1.392,0.862-1.772,0.862
			c-0.177,0-0.33-0.077-0.33-0.659c0.152-4,0.633-7.141,1.291-10.229c-0.835,0.05-0.937,0.074-0.937,0.783
			c-0.709-0.1-1.469-0.151-2-0.151c-4.127,0-7.318,4.053-7.318,8.203c0,1.495,0.659,3.418,2.431,3.418
			c2.127,0,3.924-2.607,4.735-4.429h0.051c-0.177,1.316-0.228,2.456-0.228,3.341c0,0.912,0.329,1.088,0.506,1.088
			c0.456,0,2.178-0.354,3.798-1.747L196.972,373.17z"/>
		<path d="M201.934,364.131h2.38l-0.076,0.684h-2.406c-0.582,2.989-1.114,6.33-1.114,8.028c0,0.555,0.051,1.365,0.785,1.365
			c0.608,0,1.469-0.429,2.304-1.011l0.278,0.53c-0.937,0.811-2.532,1.67-3.797,1.67c-1.19,0-1.57-0.758-1.57-1.846
			c0-2.204,0.659-5.951,1.241-8.737h-1.367l0.101-0.684c0.456,0,1.013,0,1.241-0.127c0.481-0.252,1.417-2.305,1.848-3.14
			l0.734-0.102L201.934,364.131z"/>
		<path d="M205.58,364.994c1.266-0.887,3.215-1.343,3.874-1.343c0.126,0,0.253,0,0.253,0.505c0,0.786-1.064,8.459-1.064,9.218
			c0,0.582,0.152,0.659,0.33,0.659c0.38,0,1.342-0.583,1.772-0.862l0.228,0.48c-1.62,1.393-3.342,1.747-3.798,1.747
			c-0.177,0-0.506-0.176-0.506-1.088c0-0.582,0.988-8.053,0.988-8.607c0-0.582-0.051-0.838-0.329-0.838
			c-0.228,0-0.937,0.28-1.544,0.635L205.58,364.994 M207.808,360.636c0-0.733,0.683-1.544,1.443-1.544
			c0.532,0,0.811,0.432,0.811,0.938c0,0.709-0.608,1.519-1.368,1.519C208.162,361.548,207.808,361.145,207.808,360.636z"/>
		<path d="M213.15,374.917c0.532-3.141,0.962-6.278,1.266-9.215c0-0.582-0.05-0.838-0.329-0.838c-0.228,0-0.937,0.28-1.544,0.635
			l-0.203-0.506c1.266-0.887,3.215-1.343,3.874-1.343c0.126,0,0.253,0,0.253,0.505c0,0.938-0.354,3.066-0.557,4.256l0.102,0.05
			c0.684-1.594,2.886-4.811,4.685-4.811c1.342,0,1.747,1.164,1.747,2.329c0,1.772-0.835,6.558-0.835,7.19
			c0,0.582,0.152,0.659,0.329,0.659c0.38,0,1.342-0.583,1.773-0.86l0.227,0.48c-1.62,1.394-3.342,1.748-3.797,1.748
			c-0.177,0-0.506-0.179-0.506-1.091c0-0.583,0.835-6.277,0.835-7.495c0-1.165-0.278-1.442-0.785-1.442
			c-1.012,0-3.52,2.456-4.279,7.52l-0.329,2.229H213.15z"/>
		<path d="M228.266,368.082c0-1.596,0.734-3.747,2.633-3.747c1.393,0,1.722,1.393,1.722,2.533c0,1.67-0.532,4.024-2.608,4.024
			C228.52,370.892,228.266,369.247,228.266,368.082 M229.886,375.626c3.621,1.014,3.772,1.849,3.772,2.582
			c0,1.849-2.431,2.61-3.924,2.61c-1.52,0-3.417-0.583-3.417-2.432C226.317,376.59,228.392,375.804,229.886,375.626
			 M224.519,378.742c0,2.305,2.836,2.758,4.608,2.758c3.596,0,6.331-1.568,6.331-3.797c0-2.102-2.203-2.785-3.824-3.315
			c-2.253-0.736-3.114-1.267-3.114-1.926c0-0.354,0.203-0.632,0.455-0.885c0.228,0.024,0.431,0.074,0.659,0.074
			c2.684,0,4.887-2.303,4.887-4.986c0-0.509-0.102-0.938-0.279-1.418c1.52,0.176,1.57,0.102,1.696-0.48
			c0.127-0.533,0.152-0.863,0.152-1.039c0-0.178-0.051-0.252-0.152-0.252c-0.228,0-0.303,0.2-0.43,0.428
			c-0.126,0.204-0.329,0.432-1.013,0.432c-0.531,0-0.987-0.179-1.519-0.354c-0.506-0.151-1.063-0.329-1.823-0.329
			c-2.533,0-4.786,2.379-4.786,4.912c0,1.393,0.583,2.305,1.874,2.835c-0.38,0.508-1.013,1.242-1.013,1.898
			c0,0.964,0.987,1.47,1.721,1.824v0.05C227.203,375.451,224.519,376.64,224.519,378.742z"/>
		<path d="M247.179,364.131h2.381l-0.076,0.684h-2.405c-0.582,2.989-1.114,6.33-1.114,8.028c0,0.555,0.051,1.365,0.785,1.365
			c0.607,0,1.469-0.429,2.304-1.011l0.279,0.53c-0.938,0.811-2.532,1.67-3.799,1.67c-1.189,0-1.569-0.758-1.569-1.846
			c0-2.204,0.658-5.951,1.24-8.737h-1.367l0.102-0.684c0.456,0,1.013,0,1.24-0.127c0.481-0.252,1.419-2.305,1.849-3.14l0.734-0.102
			L247.179,364.131z"/>
		<path d="M251.205,358.18c1.189-0.632,3.19-1.112,4.127-1.112c0.177,0,0.228,0.077,0.228,0.506c0,1.393-0.785,6.711-1.392,10.838
			l0.05,0.05c0.685-1.594,2.887-4.811,4.685-4.811c1.342,0,1.747,1.164,1.747,2.329c0,1.772-0.836,6.558-0.836,7.19
			c0,0.582,0.151,0.659,0.329,0.659c0.38,0,1.342-0.583,1.772-0.86l0.229,0.48c-1.621,1.394-3.343,1.748-3.799,1.748
			c-0.177,0-0.506-0.179-0.506-1.091c0-0.583,0.835-6.277,0.835-7.495c0-1.165-0.278-1.442-0.784-1.442
			c-1.013,0-3.52,2.456-4.279,7.52l-0.329,2.229h-1.924c1.266-8.204,2.051-14.762,2.051-16.077c0-0.33,0-0.632-0.33-0.632
			c-0.253,0-0.709,0.126-1.696,0.505L251.205,358.18z"/>
		<path d="M265.865,369.752c0-1.898,1.291-5.341,3.469-5.341c0.733,0,0.937,0.682,0.937,1.291c0,0.453-0.051,0.811-0.126,1.165
			L265.865,369.752 M265.865,370.513c1.949-1.344,5.849-3.8,6.937-4.838c0.076-0.2,0.102-0.429,0.102-0.582
			c0-0.074-0.025-0.151-0.126-0.151c-0.102,0-0.405,0.406-0.937,0.811v-0.659c0-1.138-0.71-1.442-1.773-1.442
			c-3.722,0-6.354,3.95-6.354,7.519c0,2.306,0.911,4.229,3.367,4.229c1.849,0,3.696-0.986,4.912-2.354l-0.278-0.429
			c-0.963,0.811-2.254,1.745-3.545,1.745c-1.823,0-2.304-1.695-2.304-3.215V370.513z"/>
		<path d="M285.867,358.84l-0.127,0.761h-1.062c-0.279,0-0.532,0.049-0.532,0.226c0,0.532,1.823,7.42,2.938,11.901l3.747-7.545
			l-0.507-2c-0.607-2.382-0.684-2.582-1.14-2.582h-0.987l0.127-0.761h5.418l-0.126,0.761h-1.19c-0.278,0-0.531,0.049-0.531,0.226
			c0,0.255,1.493,6.305,2.861,11.95c4.253-8.102,5.596-11.215,5.596-11.849c0-0.303-0.229-0.327-0.507-0.327h-1.52l0.127-0.761
			h4.659l-0.128,0.761h-0.81c-0.278,0-0.329,0.049-0.431,0.302l-7.469,14.863c-0.254,0.53-0.38,0.709-0.608,0.709
			c-0.177,0-0.227-0.203-0.354-0.685l-2.126-9.417h-0.051l-4.532,9.393c-0.253,0.558-0.38,0.709-0.607,0.709
			c-0.178,0-0.229-0.203-0.355-0.685l-3.062-12.607c-0.608-2.382-0.685-2.582-1.14-2.582h-1.063l0.126-0.761H285.867z"/>
		<path d="M302.126,370.969c0-2.153,0.86-6.558,3.696-6.558c1.798,0,2.076,2.302,2.076,3.67c0,2.151-0.861,6.559-3.697,6.559
			C302.404,374.64,302.126,372.334,302.126,370.969 M300.075,371.601c0,2.203,1.266,3.797,3.493,3.797
			c3.316,0,6.381-3.568,6.381-7.948c0-2.203-1.267-3.799-3.494-3.799C303.138,363.651,300.075,367.222,300.075,371.601z"/>
		<path d="M312.102,374.917c0.53-3.141,0.962-6.278,1.266-9.215c0-0.582-0.051-0.838-0.328-0.838c-0.229,0-0.938,0.28-1.546,0.635
			l-0.202-0.506c1.266-0.887,3.215-1.343,3.874-1.343c0.127,0,0.253,0,0.253,0.505c0,0.938-0.354,3.066-0.558,4.256l0.102,0.05
			c0.684-1.594,2.888-4.811,4.685-4.811c1.342,0,1.747,1.164,1.747,2.329c0,1.772-0.835,6.558-0.835,7.19
			c0,0.582,0.15,0.659,0.329,0.659c0.379,0,1.341-0.583,1.772-0.86l0.228,0.48c-1.621,1.394-3.343,1.748-3.799,1.748
			c-0.177,0-0.506-0.179-0.506-1.091c0-0.583,0.835-6.277,0.835-7.495c0-1.165-0.277-1.442-0.784-1.442
			c-1.013,0-3.52,2.456-4.279,7.52l-0.329,2.229H312.102z"/>
		<path d="M327.673,373.878c-1.19,0-1.392-1.544-1.392-2.429c0-3.747,2.075-6.988,5.24-6.988c0.253,0,0.531,0.049,0.76,0.15
			l-0.33,2.354C331.191,372.233,328.812,373.878,327.673,373.878 M330.888,358.713c0.988-0.379,1.444-0.505,1.697-0.505
			c0.329,0,0.329,0.302,0.329,0.632c0,0.632-0.228,3.368-0.507,4.988c-0.278-0.027-0.582-0.052-0.861-0.052
			c-4.126,0-7.317,4.053-7.317,8.203c0,1.495,0.659,3.418,2.432,3.418c2.126,0,3.925-2.607,4.735-4.429h0.051
			c-0.178,1.316-0.229,2.456-0.229,3.341c0,0.912,0.328,1.088,0.506,1.088c0.456,0,2.177-0.354,3.798-1.747l-0.228-0.48
			c-0.431,0.279-1.394,0.862-1.772,0.862c-0.177,0-0.33-0.077-0.33-0.659c0-1.797,0.482-5.063,0.938-8.229
			c0.481-3.165,0.937-6.229,0.937-7.571c0-0.429-0.051-0.506-0.228-0.506c-0.938,0-2.938,0.48-4.127,1.112L330.888,358.713z"/>
		<path d="M338.788,369.752c0-1.898,1.291-5.341,3.469-5.341c0.733,0,0.937,0.682,0.937,1.291c0,0.453-0.051,0.811-0.126,1.165
			L338.788,369.752 M338.788,370.513c1.949-1.344,5.848-3.8,6.938-4.838c0.075-0.2,0.102-0.429,0.102-0.582
			c0-0.074-0.026-0.151-0.127-0.151c-0.102,0-0.405,0.406-0.937,0.811v-0.659c0-1.138-0.71-1.442-1.773-1.442
			c-3.722,0-6.354,3.95-6.354,7.519c0,2.306,0.91,4.229,3.366,4.229c1.85,0,3.697-0.986,4.913-2.354l-0.279-0.429
			c-0.962,0.811-2.253,1.745-3.544,1.745c-1.823,0-2.304-1.695-2.304-3.215V370.513z"/>
		<path d="M347.041,364.994c1.267-0.887,3.216-1.343,3.874-1.343c0.128,0,0.254,0,0.254,0.505c0,0.938-0.354,3.066-0.558,4.256
			l0.102,0.05c1.114-2.404,2.685-4.811,4.432-4.811c0.454,0,0.937,0.203,0.937,0.733c0,0.635-0.684,0.887-1.216,0.887
			c-0.354,0-0.709-0.102-1.012-0.252c-0.508,0.126-2.964,2.48-3.748,7.67l-0.329,2.229h-1.925c0.531-3.141,0.963-6.278,1.267-9.215
			c0-0.582-0.051-0.838-0.33-0.838c-0.228,0-0.937,0.28-1.544,0.635L347.041,364.994z"/>
		<path d="M363.271,365.475c-0.684,0-1.315-0.432-1.569-1.141c-1.797,0-2.431,1.039-2.431,1.874c0,2.102,4.583,2.835,4.583,6
			c0,2.077-2.456,3.189-4.255,3.189c-0.91,0-3.164-0.403-3.164-1.618c0-0.432,0.354-0.659,0.759-0.659
			c0.811,0,1.419,0.709,1.672,1.418c0.229,0.126,0.481,0.178,0.733,0.178c1.242,0,2.279-0.634,2.279-1.975
			c0-2.179-4.405-3.267-4.405-5.775c0-2.151,2.381-3.315,4.279-3.315c0.657,0,2.354,0.228,2.354,1.164
			C364.106,365.271,363.701,365.475,363.271,365.475z"/>
		<path d="M374.538,370.969c0-2.153,0.861-6.558,3.696-6.558c1.798,0,2.077,2.302,2.077,3.67c0,2.151-0.861,6.559-3.697,6.559
			C374.816,374.64,374.538,372.334,374.538,370.969 M372.486,371.601c0,2.203,1.267,3.797,3.495,3.797
			c3.316,0,6.381-3.568,6.381-7.948c0-2.203-1.267-3.799-3.495-3.799C375.552,363.651,372.486,367.222,372.486,371.601z"/>
		<path d="M388.032,364.815c-0.354,3.344-0.859,8.836-1.088,10.154c-0.228,1.264-1.189,6.278-5.545,6.278
			c-0.733,0-1.595-0.38-1.595-1.039c0-0.429,0.405-0.656,0.784-0.656c0.659,0,1.14,0.456,1.47,0.937
			c2.228-0.153,2.733-3.646,2.835-4.558c0.127-0.962,0.658-5.014,1.24-11.116h-1.67l0.126-0.684h1.62l0.305-1.849
			c0.506-3.138,2.151-5.394,4.886-5.394c0.456,0,1.52,0.256,1.52,0.989c0,0.403-0.381,0.607-0.734,0.607
			c-0.632,0-1.013-0.432-1.392-0.836c-1.672,0.204-2.381,2.481-2.685,6.481h1.974l-0.126,0.684H388.032z"/>
		<path d="M410.111,371.552c0.558-4.077,1.317-9.116,1.317-11.116c0-0.761-0.126-0.835-0.811-0.835h-1.189l0.126-0.761h5.039
			l-0.126,0.761h-1.09c-0.582,0-0.658,0.176-0.709,0.53l-2.177,14.585c-0.026,0.226-0.077,0.404-0.255,0.404
			c-0.201,0-0.505-0.48-1.088-1.368l-7.798-11.924c-1.165,6.33-1.621,10.229-1.621,11.495c0,0.759,0.127,0.835,0.811,0.835h1.57
			l-0.127,0.759h-5.14l0.126-0.759h0.811c0.583,0,0.658-0.179,0.709-0.532c0.379-2.633,2.024-11.141,2.024-12.355
			c0-0.785-0.632-1.67-1.468-1.67h-1.013l0.126-0.761h3.621L410.111,371.552z"/>
		<path d="M418.618,373.878c-1.189,0-1.393-1.544-1.393-2.429c0-3.747,2.077-6.988,5.242-6.988c0.253,0,0.531,0.049,0.76,0.15
			l-0.33,2.354C422.138,372.233,419.759,373.878,418.618,373.878 M426.239,373.17c-0.43,0.279-1.392,0.862-1.771,0.862
			c-0.178,0-0.33-0.077-0.33-0.659c0.152-4,0.634-7.141,1.291-10.229c-0.835,0.05-0.937,0.074-0.937,0.783
			c-0.709-0.1-1.469-0.151-2-0.151c-4.126,0-7.317,4.053-7.317,8.203c0,1.495,0.659,3.418,2.432,3.418
			c2.126,0,3.924-2.607,4.734-4.429h0.051c-0.177,1.316-0.228,2.456-0.228,3.341c0,0.912,0.328,1.088,0.505,1.088
			c0.457,0,2.179-0.354,3.799-1.747L426.239,373.17z"/>
		<path d="M431.202,364.131h2.38l-0.076,0.684h-2.405c-0.582,2.989-1.113,6.33-1.113,8.028c0,0.555,0.051,1.365,0.784,1.365
			c0.608,0,1.468-0.429,2.305-1.011l0.277,0.53c-0.937,0.811-2.531,1.67-3.797,1.67c-1.19,0-1.569-0.758-1.569-1.846
			c0-2.204,0.657-5.951,1.24-8.737h-1.367l0.101-0.684c0.456,0,1.014,0,1.241-0.127c0.481-0.252,1.418-2.305,1.848-3.14l0.735-0.102
			L431.202,364.131z"/>
		<path d="M444.926,364.131c-0.456,3.747-0.887,7.267-0.887,9.242c0,0.582,0.151,0.659,0.329,0.659c0.38,0,1.342-0.583,1.771-0.862
			l0.229,0.48c-1.62,1.393-3.343,1.747-3.797,1.747c-0.179,0-0.507-0.176-0.507-1.088c0-0.835,0-1.467,0.051-2.126l0.151-1.898
			l-0.052-0.053c-0.759,1.8-2.632,5.165-4.784,5.165c-1.24,0-1.696-1.138-1.696-2.2c0-0.912,0.253-2.558,0.456-4.103
			c0.202-1.546,0.43-2.988,0.43-3.393c0-0.582-0.051-0.838-0.329-0.838c-0.229,0-0.938,0.28-1.544,0.635l-0.202-0.506
			c1.265-0.887,3.214-1.343,3.874-1.343c0.126,0,0.252,0,0.252,0.505c0,0.888-0.961,6.712-0.961,8.484
			c0,0.53,0.049,1.238,0.886,1.238c0.835,0,3.418-2.961,4-6.986l0.405-2.761H444.926z"/>
		<path d="M447.836,364.994c1.267-0.887,3.216-1.343,3.874-1.343c0.128,0,0.254,0,0.254,0.505c0,0.938-0.354,3.066-0.558,4.256
			l0.102,0.05c1.114-2.404,2.685-4.811,4.432-4.811c0.455,0,0.937,0.203,0.937,0.733c0,0.635-0.684,0.887-1.215,0.887
			c-0.354,0-0.709-0.102-1.013-0.252c-0.507,0.126-2.963,2.48-3.747,7.67l-0.33,2.229h-1.925c0.532-3.141,0.963-6.278,1.267-9.215
			c0-0.582-0.051-0.838-0.329-0.838c-0.229,0-0.938,0.28-1.544,0.635L447.836,364.994z"/>
		<path d="M458.476,369.752c0-1.898,1.291-5.341,3.469-5.341c0.734,0,0.937,0.682,0.937,1.291c0,0.453-0.05,0.811-0.127,1.165
			L458.476,369.752 M458.476,370.513c1.95-1.344,5.849-3.8,6.938-4.838c0.075-0.2,0.1-0.429,0.1-0.582
			c0-0.074-0.024-0.151-0.126-0.151s-0.405,0.406-0.937,0.811v-0.659c0-1.138-0.709-1.442-1.772-1.442
			c-3.723,0-6.354,3.95-6.354,7.519c0,2.306,0.911,4.229,3.367,4.229c1.849,0,3.696-0.986,4.912-2.354l-0.279-0.429
			c-0.961,0.811-2.253,1.745-3.544,1.745c-1.824,0-2.305-1.695-2.305-3.215V370.513z"/>
	</g>
</g>
</svg>
