<?xml version="1.0" encoding="utf-8"?>
<!-- Generator: Adobe Illustrator 19.2.1, SVG Export Plug-In . SVG Version: 6.00 Build 0)  -->
<svg version="1.1" id="Layer_1" xmlns="http://www.w3.org/2000/svg" xmlns:xlink="http://www.w3.org/1999/xlink" x="0px" y="0px"
	 viewBox="0 0 645.7 214.6" style="enable-background:new 0 0 645.7 214.6;" xml:space="preserve">
<metadata><?xpacket begin="﻿" id="W5M0MpCehiHzreSzNTczkc9d"?>
<x:xmpmeta xmlns:x="adobe:ns:meta/" x:xmptk="Adobe XMP Core 5.6-c111 79.158366, 2015/09/25-01:12:00        ">
   <rdf:RDF xmlns:rdf="http://www.w3.org/1999/02/22-rdf-syntax-ns#">
      <rdf:Description rdf:about=""/>
   </rdf:RDF>
</x:xmpmeta>
                                                                                                    
                                                                                                    
                                                                                                    
                                                                                                    
                                                                                                    
                                                                                                    
                                                                                                    
                                                                                                    
                                                                                                    
                                                                                                    
                                                                                                    
                                                                                                    
                                                                                                    
                                                                                                    
                                                                                                    
                                                                                                    
                                                                                                    
                                                                                                    
                                                                                                    
                                                                                                    
                           
<?xpacket end="w"?></metadata>
<style type="text/css">
	.st0{fill:#FFCB05;}
	.st1{fill:#54534A;}
	.st2{fill:none;}
</style>
<g>
	<path class="st0" d="M571.7,95.7c3.2-3.8,8.5-11.9,8-17.3c-0.1-1.5-1.5-2.5-3.3-3.1c-3.5-1.2-8.7-0.8-10.2,1.2
		c0.2-0.3,0.2-0.3-0.1,0.1c-2.1,3.2-0.9,1.4-0.2,0.3c-3.8,5.8-6.5,13.2-7.7,20.1c0,0.1-0.1,0.3-0.1,0.4c0,0.1,0,0.1,0,0.2
		c0,0.1,0,0.1,0,0.2C557.7,103,570,97.6,571.7,95.7z"/>
	<path class="st0" d="M312,112.7c-0.5-1.1-1.1-2.1-1.8-3c-1.9-2.4-4.5-4.2-7.8-5.3c-1.3-0.5-2.8-0.8-4.3-1.1
		c11.7-13,21.2-27.5,25.4-41c1.9-6.1,0.9-11.9-1.7-16.9c-1.9-3.6-4.7-6.7-7.9-9c-0.2-0.1-0.3-0.2-0.4-0.4c-4.1-3.1-8.4-2.8-12.9,1.2
		c-28.1,23.9-61.1,66.3-71.7,107.1c-0.4,1.5-0.7,3-1,4.4c-7.5,6.5-17.6,14.3-20.9,13c-0.9-0.4-1.6-0.8-2.2-1.4
		c-2.9-2.4-3.2-6.3-1.4-10.6c7.3-13.9,20.5-28.9,23.6-33.7c0.4-0.6-0.2-1.2-1.1-1.6c-0.3-0.1-0.7-0.2-1-0.3c-0.1,0-0.2,0-0.3,0
		c0,0,0,0,0,0c-3.5-0.6-7.8-0.5-11.6,1.6c-1.4-6.6-4.3-13.4-10.5-16.2c-7.4-3.3-17.4-2.8-29.1,3.8c-15.6,8.8-29.8,25.3-37.4,40.9
		c-4.8,3.7-33.1,25-52.4,14.8c-3.7-2-6.7-4.6-9-7.7c-11.9-15.9-6.7-45.5,16-74.1c27.2-34.2,51.2-49.9,64.3-40.5
		c1.9,1.4,3.1,3.1,3.9,4.9c2.3,5.7-0.3,12.5-1.1,14.3c-0.1,0.2-0.1,0.3-0.2,0.5c-2,4.5-4.1,9.1-5.1,13.6c-0.7,3.1-0.6,5.5,0.1,7.5
		c1.1,3.3,3.8,5.6,7.8,8c3,1.9,5.7,1.1,6.9-1.8c6.4-14.4,14.5-37.4,8.1-50.7c-1.6-3.2-4-5.9-7.5-7.7c-4.3-2.2-10-3.4-16.5-3.6
		c-0.3,0-0.7,0-1,0c-0.4,0-0.8,0-1.2,0c-0.2,0-0.5,0-0.7,0c-0.2,0-0.5,0-0.7,0c0,0,0,0,0,0C121.4,22.3,85.5,42,58.9,83.3
		c-22.3,34.7-22.7,65.8-10.1,83.2c6.7,9.3,17,14.7,29.6,14.7c17.5,0,43.9-16.2,52-21.5c-0.3,1.8-0.4,3.5-0.4,5.2
		c0.1,4.4,1.2,8.2,3.7,11c3,3.4,7.9,5.3,15.1,5.3c18.2,0,31.4-14.1,31.4-14.1s-0.1,2.3,0.7,5c0.5,1.8,1.4,3.7,2.9,5.4
		c2,2.1,5,3.7,9.7,3.7c8.5,0,23.2-8.8,33.9-16.7c0.3,1.5,0.8,2.8,1.3,4.1c0.6,1.4,1.4,2.8,2.3,4c0.1,0.2,0.3,0.3,0.4,0.5
		c3.2,4,8,6.6,14.3,7.7c0,0,2.9,0.6,7.8,0.7c2.6,0,5.2-0.3,7.6-0.8c18-2.9,31-13.6,42-30.4C313.1,135.6,316.2,121.6,312,112.7z
		 M156.9,160.5c-6.3-5.6,3.9-23.7,10.7-30.8c6.8-7.1,21.3-18.7,26.1-14.6c0.9,0.7,1.3,1.8,1.5,3c0.9,6.4-6.4,18.3-11.6,24.8
		c-5.1,6.4-19.7,22.2-26.2,17.9C157.3,160.8,157.1,160.7,156.9,160.5z M266.3,110.8c20.7-31.4,39.4-53.3,43.2-53.3
		c0.1,0,0.1,0,0.2,0c0,0,0.2,0.2,0.2,0.7c0.1,0.9-0.2,2.3-0.9,4.3c-3.2,9.6-15.2,30.9-39.2,49.9c-2.7,2.1-5.5,4.2-8.4,6.2
		C263.1,115.7,264.3,113.8,266.3,110.8z M248.8,156.8L248.8,156.8c2.9-15,29.6-37.7,34.1-39.8c4-1.4,6.8-1.4,8.1-0.9
		c1.4,0.6,2.3,1.9,2.6,3.7c0.7,4.8-2.9,13.6-11.8,25.6c-11,15-24.5,22.7-30.2,18.4C249.9,162.5,248.9,160.2,248.8,156.8z"/>
	<path class="st0" d="M599.6,106.7c0.6-0.8,1.2-1.6,2-2.4c3.4-4.3,5.1-6.9,2-9.2c-0.4-0.3-0.9-0.5-1.5-0.7c-0.7-0.2-1.5-0.3-2.4-0.3
		c-3.3,0-7.5,1.5-11.2,3.9c-4.8,3.2-7.3,6.4-8.8,11.3c-6.5,9.4-15.7,19-22.8,26.4c0.5,6.6,1.1,11.6,2,15.2c0,0,0,0,0,0
		c0.1,0.3,0.2,0.7,0.2,1c0,0,0,0,0.1-0.1c3.2-3.9,6.1-7.9,8.8-11.7c1.2-1.5,2.4-2.9,3.5-4.3c2.4-2.8,4.7-5.7,6.9-8.5
		c0.1,1.2,0.2,2.5,0.3,3.9c0,0.6,0.1,1.2,0.1,1.8c0.3,3.4,0.6,7.2,0.7,11c0,0.1,0,0.2,0,0.3c0.1,2.7,0.2,5.4,0.2,8
		c-0.3,5.5-2.1,11-8.8,13.5c-6.6,2.4-12.1,0.5-15.6-3.5c-0.8-1-1.6-2.1-2.2-3.3c-1.9-3.6-3.2-9.2-4-17.8c-0.4-2.2-1.8-2.7-2.7-2.8
		c-0.2,0-0.3,0-0.4,0c-1,0-2.1,0.4-3.4,1.2c-6,3.6-8.6,10.7-7.5,17.9c-4.3,3-8.1,5-9.9,4.3c-0.8-0.3-1.5-0.7-2.1-1.2
		c-3-2.4-3-6.3-1.5-10.7c4.9-9.3,12.2-19.1,17.5-26c0.8-1,0.9-1.1,0.9-1.1c2.4-3.1,4.2-5.5,5.2-6.8c0.3-0.4-0.1-0.9-0.7-1.2
		c-0.4-0.2-0.8-0.3-1.3-0.4c0,0,0,0,0,0c0,0-0.1,0-0.1,0c-3.5-0.7-8-0.6-11.9,1.5c-1.4-6.6-4.3-13.4-10.5-16.2
		c-7.4-3.3-17.4-2.8-29.1,3.8c-18.5,10.5-35.2,31.8-40.9,49.6c-10.4,10.7-18.6,16.7-27.8,16.5c-0.4,0-0.8-0.1-1.2-0.1
		c-0.1,0-0.3-0.1-0.4-0.1c0,0,0,0,0,0c-1.5-0.4-2.8-1.3-3.8-2.5c-3-3.3-4.4-8.9-3.6-14.3c16.8-13,34.6-29.4,50.1-47.4
		c12.7-13.6,23.1-29,27.5-43.4c1.9-6.1,0.9-12.1-1.8-17.1c-2-3.7-4.8-6.8-8-9.1c-0.1-0.1-0.3-0.2-0.4-0.3c-4.2-3.2-8.5-2.8-13,1.2
		c-23.1,19.6-49.5,51.6-64.3,85.1c-3.4,7.7-6.2,15.4-8.2,23.1c-0.7,2.7-1.2,5.3-1.5,7.7c-4.8,3.3-9.5,6.3-14.1,9l-0.1,0.1
		c-8.7,4.9-19.8,7.2-26.1,7.1c-5.4-0.1-9.5-1.7-12.2-4.5c-1.9-2-3.1-4.7-3.3-8c-0.1-1.1-0.1-2.3-0.1-3.6
		c17.2,1.4,30.2-1.2,41.9-13.7c0.2-0.2,0.4-0.5,0.7-0.7c0,0,0,0,0.1-0.1c0.3-0.3,0.6-0.6,0.9-1c0.1-0.1,0.2-0.2,0.3-0.3
		c0.5-0.6,0.9-1.2,1.4-1.8c0.1-0.1,0.1-0.1,0.2-0.2c0.5-0.7,0.9-1.3,1.3-2c0,0,0,0,0,0c4.5-7.5,5.1-15.2,3.3-20
		c-0.4-1.1-0.9-2-1.6-2.7c-3.8-4.6-8.2-7.7-14.2-10.8c-1-0.5-2-0.8-3.1-1.1c0,0-0.1,0-0.1,0c-1.1-0.3-2.3-0.4-3.5-0.5c0,0,0,0,0,0
		c-0.6,0-1.1,0-1.7,0c-0.2,0-0.4,0-0.5,0c-0.4,0-0.9,0.1-1.3,0.1c-0.2,0-0.5,0-0.7,0.1c-0.4,0.1-0.8,0.1-1.2,0.2
		c-0.2,0-0.5,0.1-0.7,0.1c-0.6,0.1-1.2,0.2-1.7,0.4c0,0-0.1,0-0.3,0.1c-12.6,3.3-28.2,14.3-38.9,32.7c-9,15.4-8.8,30.3-1.2,40.1
		c5.6,7.4,15.3,11.9,28.3,11.8c20.9-0.2,28.2-4.8,49-17c0.4,1.4,0.9,2.7,1.5,3.9c0.5,1.1,1.2,2.1,1.9,3c0.1,0.2,0.3,0.3,0.4,0.5
		c0.5,0.6,0.9,1.1,1.5,1.6c4.4,4.4,11.2,6.8,20.1,7c0.3,0,0.6,0,0.8,0c11,0,20.8-5,28.5-10.9c0.4,1.4,1.1,2.6,1.9,3.8
		c0.3,0.4,0.6,0.9,1,1.3c3,3.4,7.9,5.3,15.1,5.3c18.2,0,31.4-14.1,31.4-14.1s-0.1,2.3,0.7,5c0.5,1.7,1.4,3.6,2.9,5.2
		c2,2.1,5,3.7,9.7,3.7c0,0,1,0,2.4-0.1c10.3-0.5,19.3-4.9,27.3-11.2c5.5,5.6,13,9,22.1,10.9c22,4.6,32-7.8,35.1-15.9
		c1.6-3.5,2.2-7.4,2.4-11c0-0.5,0-1,0.1-1.5c0-0.1,0-0.2,0-0.3l0,0c0.1-5.3-0.6-10.9-1.3-16.7c-1.1-8.6-2.2-17.4-1.2-27.3
		C599.1,107.5,599.3,107.1,599.6,106.7z M341.6,138.6c2.7-6.2,6.9-12.5,12.6-18.1c6-6.4,11.2-8.7,14.4-8c0.9,0.2,1.6,0.6,1.6,0.6
		c0.2,0.2,0.4,0.4,0.6,0.6c0,0,0.2,0.2,0.2,0.3c0.3,0.6,0.5,1.3,0.5,2.1c0.1,2.8-1.5,7-5.2,11.2c-4.5,5.1-10.4,11-20.9,11.4
		C344.2,138.7,342.9,138.7,341.6,138.6z M447.9,89.6c5.6-7.7,10.7-14.3,15.1-19.5c6.7-8,11.6-12.6,13.4-12.6c0.1,0,0.1,0,0.2,0
		c0,0,0.2,0.2,0.2,0.7c0.1,0.9-0.2,2.3-0.9,4.3c-1.4,4.2-4.5,10.6-9.4,18l0,0l-5.4,8.1c0,0,0,0,0,0c-9.4,12.5-20,24-30.9,34.3
		c-2.8,2.7-5.7,5.3-8.6,7.8C428.9,116.5,439.9,100.6,447.9,89.6z M475.4,160.5c-6.2-5.6,3.9-23.7,10.7-30.8
		c6.8-7.1,21.3-18.7,26.1-14.6c0.9,0.7,1.3,1.8,1.5,3c0.9,6.4-6.4,18.3-11.6,24.8c-5.1,6.4-19.7,22.2-26.2,17.9
		C475.7,160.8,475.5,160.7,475.4,160.5z"/>
</g>
<g>
	<g>
		<path class="st1" d="M313.5,138.4c0.2-0.6,0.4-1.2,0.6-1.8c0.1-0.4,0.3-0.8,0.4-1.3c0.1-0.5,0.3-1,0.4-1.5
			c0.1-0.3,0.2-0.6,0.2-0.9c2-8.6,2.5-21-9.2-26.9c1.6,1,3.1,2.2,4.2,3.7c0.7,0.9,1.3,2,1.8,3c3.7,7.9,1.8,19.6-5.4,32.4
			c-0.1,0.1-0.2,0.3-0.2,0.4c-0.4,0.7-0.8,1.5-1.3,2.2c-0.5,0.9-1.1,1.8-1.7,2.7c-11.1,16.8-24.1,27.5-42,30.4c0,0,0,0,0,0v0
			c-2.5,0.5-5,0.8-7.6,0.8c-4.9-0.1-7.8-0.7-7.8-0.7c-6.3-1.2-11.1-3.8-14.3-7.7c-0.1-0.2-0.3-0.3-0.4-0.5c-0.6-0.8-1.1-1.6-1.5-2.4
			c2.3,5.3,5.8,8.8,9.7,11.1c0.2,0.1,0.4,0.2,0.5,0.3c0.5,0.3,0.9,0.5,1.4,0.7c0.1,0,0.1,0.1,0.2,0.1c4.7,2.1,9.7,2.7,13.8,2.7
			c0.2,0,0.4,0,0.6,0c2.6,0,5.2-0.3,7.6-0.8c17.9-2.9,31-13.6,42-30.4c2.9-4.4,5.2-8.7,6.9-12.8c0.2-0.4,0.4-1.1,0.7-1.9
			C313.3,138.9,313.4,138.6,313.5,138.4z"/>
		<path class="st1" d="M563.4,103.4c3.7-0.2,9.4-3,10.5-4.3c3.2-3.8,8.5-11.9,8-17.3c0-0.1,0-0.3-0.1-0.4c-0.3-2.1-1.5-4.9-5.5-6.2
			c1.8,0.6,3.2,1.7,3.3,3.1c0.5,5.4-4.8,13.5-8,17.3c-1.7,1.9-14,7.3-13.7,2C557.2,104.1,562.3,103.6,563.4,103.4z"/>
		<path class="st1" d="M309,62.5c0.6-1.9,0.9-3.4,0.9-4.3c0-0.5-0.1-0.6-0.2-0.7c0,0-0.1,0-0.2,0c-3.8,0-22.5,21.9-43.2,53.3
			c-2,3-3.2,4.8-4.9,7.8c3-2,5.8-4.1,8.4-6.2C286.8,86.8,302.3,67.8,309,62.5z"/>
		<path class="st1" d="M251.5,163.7c-0.3-1-0.5-2.2-0.5-3.5l0,0c2.9-15,29.6-37.8,34.1-39.8c4-1.4,6.8-1.4,8.1-0.9
			c0.1,0.1,0.2,0.1,0.3,0.2c-0.3-1.8-1.1-3-2.6-3.7c-1.3-0.6-4.1-0.5-8.1,0.9c-4.5,2.1-31.3,24.9-34.1,39.8l0,0
			C248.9,160.2,249.9,162.5,251.5,163.7z"/>
		<path class="st1" d="M167.6,129.7c-6.8,7.1-17,25.2-10.7,30.8c0.2,0.1,0.3,0.3,0.5,0.4c-1.7-7.4,6.6-21.7,12.4-27.7
			c6.5-6.7,19.9-17.6,25.4-15c-0.2-1.2-0.6-2.3-1.5-3C188.9,111,174.5,122.6,167.6,129.7z"/>
		<path class="st1" d="M92.6,80.5c27.2-34.2,51.2-49.9,64.3-40.5c0.6,0.4,1.2,0.9,1.6,1.4c-0.7-1.8-1.9-3.5-3.9-4.9
			c-13.1-9.4-37,6.3-64.3,40.5c-22.8,28.6-28,58.2-16,74.1C65.4,134.6,71.4,107.1,92.6,80.5z"/>
		<path class="st1" d="M225.6,165.8c-0.2,0.2-0.5,0.3-0.7,0.5c-0.4,0.3-0.8,0.6-1.3,0.9c-0.3,0.2-0.6,0.4-0.9,0.6
			c-0.4,0.3-0.7,0.5-1.1,0.8c-0.3,0.2-0.7,0.5-1,0.7c-0.3,0.2-0.6,0.4-1,0.6c-0.4,0.3-0.8,0.5-1.2,0.8c-0.2,0.1-0.5,0.3-0.7,0.4
			c-2.3,1.5-4.7,2.9-7.1,4.2c-0.1,0-0.1,0.1-0.2,0.1c-0.6,0.3-1.2,0.6-1.8,1c0,0-0.1,0-0.1,0c-3.8,1.9-7.5,3.4-10.7,4.2c0,0,0,0,0,0
			h0c-1.6,0.4-3.1,0.6-4.4,0.6c-4.7,0-7.7-1.6-9.7-3.7c-1.3-1.4-2.2-3.1-2.7-4.7c2.8,10,9.6,11.9,14.5,11.9c0.1,0,0.1,0,0.2,0
			c0.1,0,0.2,0,0.3,0c0.3,0,0.6,0,0.9-0.1c0.2,0,0.4,0,0.6-0.1c1.6-0.2,2.7-0.5,3-0.6c8.3-2.2,19.4-8.9,28.2-15.3
			c-0.6-1.3-1-2.7-1.3-4.1C226.9,164.9,226.3,165.4,225.6,165.8z"/>
		<path class="st1" d="M224.3,113.9L224.3,113.9C224.3,113.9,224.3,113.9,224.3,113.9C224.3,113.9,224.3,113.9,224.3,113.9z"/>
		<path class="st1" d="M152.2,77.3c1.3,5.1,5.2,8.4,7.7,10c0.7,0.5,1.5,1,2.3,1.5c3,1.9,5.7,1.1,6.9-1.8c3.8-8.6,8.2-20.2,9.8-31.1
			c0-0.1,0-0.3,0.1-0.4c0.1-0.9,0.2-1.7,0.3-2.6c0-0.1,0-0.3,0-0.4c0.1-0.7,0.1-1.5,0.1-2.2c0-0.1,0-0.3,0-0.4c0.1-2.4,0-4.8-0.3-7
			c0,0,0-0.1,0-0.1c-0.1-0.4-0.1-0.8-0.2-1.2c-1.2-6.2-3.9-10.3-7-13.2c1.2,1.3,2.2,2.7,3,4.3c2.9,5.9,2.9,13.8,1.4,21.9
			c0,0,0,0,0,0c-0.1,0.6-0.2,1.2-0.4,1.9c0,0,0,0.1,0,0.1c-0.1,0.6-0.3,1.2-0.4,1.8c0,0,0,0.1,0,0.1c-0.1,0.6-0.3,1.2-0.4,1.8
			c0,0,0,0.1,0,0.1c-1,3.8-2.2,7.6-3.5,11.2c0,0.1,0,0.1-0.1,0.2c-0.2,0.5-0.4,1-0.6,1.6c0,0.1-0.1,0.2-0.1,0.3
			c-0.2,0.5-0.3,0.9-0.5,1.3c-0.1,0.2-0.1,0.3-0.2,0.5c-0.2,0.4-0.3,0.8-0.5,1.2c-0.1,0.2-0.1,0.3-0.2,0.5c-0.2,0.4-0.3,0.8-0.5,1.1
			c-0.1,0.2-0.1,0.3-0.2,0.5c-0.2,0.4-0.3,0.7-0.5,1.1c-0.1,0.2-0.1,0.3-0.2,0.5c-0.2,0.4-0.3,0.7-0.5,1.1c-0.1,0.1-0.1,0.3-0.2,0.5
			c-0.2,0.5-0.4,1-0.6,1.5c-1.3,2.9-3.9,3.6-6.9,1.8C156,82.8,153.3,80.6,152.2,77.3z"/>
		<path class="st1" d="M180.3,167.1c0,0-13.3,14.1-31.4,14.1c-7.2,0-12.1-2-15.1-5.3c-2.1-2.3-3.2-5.3-3.6-8.8
			c0.3,9.1,5.5,13.5,10.4,15.6c2,1,4.5,1.6,7.3,1.9c0.6,0.1,1,0.1,1.4,0.1c0.6,0,1.2,0,1.8,0c14.5,0,25.8-8.9,29.9-12.6
			C180.2,169.4,180.3,167.1,180.3,167.1z"/>
		<path class="st1" d="M130.5,159.7c-8.1,5.3-34.5,21.5-52,21.5c-0.7,0-1.4,0-2-0.1c-0.2,0-0.4,0-0.6,0c-0.5,0-1-0.1-1.4-0.1
			c-0.3,0-0.6-0.1-0.9-0.1c-0.5-0.1-0.9-0.1-1.4-0.2c-0.4-0.1-0.8-0.1-1.1-0.2c-0.2,0-0.3-0.1-0.5-0.1c-9-1.8-16.4-6.7-21.6-13.9
			c-1.2-1.6-2.2-3.3-3.2-5.2c2.4,5.2,5.4,9.3,8.4,12.3c2.7,2.9,5.8,5.2,9.3,7c0.1,0,0.2,0.1,0.2,0.1c0.2,0.1,0.3,0.2,0.5,0.3
			c2,1,3.3,1.4,3.3,1.4s0,0,0,0c4,1.5,8.5,2.2,13.2,2.2c16,0,39.2-13.4,49.4-19.8c0-0.2,0-0.4,0-0.6c0,0,0,0,0,0
			C130.1,162.8,130.2,161.3,130.5,159.7z"/>
		<path class="st1" d="M549.2,141.1c0.8,8.6,2.1,14.1,4,17.8c0.6,1.2,1.3,2.3,2.2,3.3c-1.9-3.6-3.1-9.1-3.9-17.6c0,0,0,0,0,0
			c-0.1-0.9-0.8-6.4-4.9-6.3C547.4,138.4,548.7,138.9,549.2,141.1z"/>
		<path class="st1" d="M543.2,114L543.2,114C543.2,114,543.2,114,543.2,114C543.2,114,543.2,114,543.2,114z"/>
		<path class="st1" d="M571.5,135.8c-1.1,1.4-2.3,2.8-3.5,4.3c-2.7,3.8-5.7,7.8-8.9,11.7c1.3,3,2.2,3.5,2.2,3.5
			c3.2-4,6.1-8,8.9-11.7c1.2-1.5,2.4-2.9,3.5-4.3c1.8-2.1,3.5-4.2,5.1-6.3c-0.1-0.6-0.1-1.2-0.1-1.8c-0.1-1.4-0.2-2.7-0.3-3.9
			C576.2,130.1,573.9,133,571.5,135.8z"/>
		<path class="st1" d="M392.9,166.7c-1,0.6-2,1.2-3,1.8c-0.1,0.1-0.3,0.2-0.4,0.3c-0.4,0.3-0.9,0.5-1.3,0.7
			c-0.1,0.1-0.2,0.1-0.4,0.2c-0.4,0.2-0.8,0.5-1.2,0.7c-0.1,0.1-0.3,0.2-0.4,0.3c-0.4,0.2-0.8,0.4-1.1,0.7c-0.1,0.1-0.3,0.1-0.4,0.2
			c-0.4,0.2-0.8,0.4-1.1,0.6c-0.1,0.1-0.2,0.1-0.3,0.2c-0.4,0.2-0.8,0.4-1.1,0.6c-0.1,0.1-0.2,0.1-0.3,0.2c-0.4,0.2-0.7,0.4-1.1,0.6
			c-0.1,0.1-0.2,0.1-0.3,0.2c-0.4,0.2-0.7,0.4-1.1,0.6c-0.1,0.1-0.2,0.1-0.3,0.2c-0.4,0.2-0.7,0.4-1.1,0.6c-0.1,0-0.2,0.1-0.3,0.1
			c-0.4,0.2-0.7,0.4-1.1,0.5c-0.1,0-0.1,0.1-0.2,0.1c-0.4,0.2-0.7,0.4-1.1,0.5c-0.1,0-0.1,0-0.2,0.1c-0.4,0.2-0.8,0.4-1.1,0.5
			c0,0-0.1,0-0.1,0c-4.6,2.1-9,3.5-14.1,4.4c0,0,0,0,0,0c-0.4,0.1-0.9,0.1-1.3,0.2c0,0-0.1,0-0.1,0c-0.4,0.1-0.9,0.1-1.3,0.2
			c0,0-0.1,0-0.1,0c-0.4,0.1-0.9,0.1-1.4,0.2c0,0-0.1,0-0.1,0c-0.5,0-0.9,0.1-1.4,0.1c-0.1,0-0.1,0-0.2,0c-0.5,0-1,0.1-1.4,0.1
			c-0.1,0-0.1,0-0.2,0c-0.5,0-1,0.1-1.5,0.1c0,0-0.1,0-0.1,0c-0.5,0-1.1,0-1.6,0.1c0,0,0,0,0,0c-1,0-2.1,0.1-3.1,0.1
			c-13.1,0.1-22.7-4.5-28.3-11.8c-2.2-2.9-3.8-6.2-4.7-9.9c2.5,14.6,12.6,20.8,21.9,23.4c4,1.2,8.4,1.9,13.4,1.8
			c20.6-0.2,28-4.7,48.3-16.5c-0.6-1.2-1.1-2.5-1.5-3.9C394.1,166,393.5,166.3,392.9,166.7z"/>
		<path class="st1" d="M486.1,129.7c-6.8,7.1-17,25.2-10.7,30.8c0.2,0.1,0.3,0.3,0.5,0.4c-1.7-7.4,6.6-21.7,12.4-27.7
			c6.5-6.7,19.9-17.6,25.4-15c-0.2-1.2-0.6-2.3-1.5-3C507.3,111,492.9,122.6,486.1,129.7z"/>
		<path class="st1" d="M450.2,93.1c5.6-7.7,10.7-14.3,15.1-19.5c4.5-5.3,8.2-9.1,10.6-11.1c0.6-1.9,0.9-3.4,0.9-4.3
			c0-0.5-0.1-0.6-0.2-0.7c0,0-0.1,0-0.2,0c-1.8,0-6.6,4.6-13.4,12.6c-4.4,5.3-9.5,11.9-15.1,19.5c-8.1,11-19,26.9-26.3,41
			c2.9-2.5,5.7-5.1,8.6-7.8C436.6,112.1,444.2,101.3,450.2,93.1z"/>
		<path class="st1" d="M345.4,138.6c2.7-5.1,6.3-10.2,11-14.7c6-6.4,11.2-8.7,14.4-8c0.2,0.1,0.4,0.1,0.6,0.2c0-0.8-0.2-1.6-0.5-2.1
			c0-0.1-0.2-0.3-0.2-0.3c-0.2-0.2-0.4-0.4-0.6-0.6c0,0-0.7-0.4-1.6-0.6c-3.2-0.6-8.4,1.6-14.4,8c-5.7,5.6-10,11.9-12.6,18.1
			C342.9,138.7,344.2,138.7,345.4,138.6z"/>
		<path class="st1" d="M601,111.3c0.3-0.4,0.6-0.7,0.8-1.1c0.6-0.8,1.2-1.6,2-2.4c2-2.5,3.4-4.5,3.6-6.1c0.6-2.4,0.4-6-5.3-7.3
			c0.6,0.2,1.1,0.4,1.5,0.7c3.1,2.3,1.4,4.8-2,9.2c-0.7,0.8-1.3,1.6-2,2.4c-0.3,0.4-0.5,0.7-0.8,1.1c-1,9.9,0.1,18.7,1.2,27.3
			c0.7,5.9,1.4,11.4,1.3,16.7l0,0c0,0.1,0,0.2,0,0.3c0,0.5,0,1-0.1,1.5c-0.3,3.6-0.8,7.5-2.4,11c-3,8.1-13,20.5-35.1,15.9
			c-9-1.9-16.6-5.3-22.1-10.9c-0.6,0.5-1.2,0.9-1.7,1.3c-0.2,0.1-0.3,0.2-0.5,0.4c-0.4,0.3-0.9,0.6-1.3,0.9
			c-0.2,0.1-0.4,0.3-0.6,0.4c-0.5,0.3-1,0.6-1.5,1c-0.1,0.1-0.2,0.2-0.4,0.2c-1.3,0.8-2.6,1.5-3.9,2.2c-0.1,0.1-0.2,0.1-0.4,0.2
			c-0.6,0.3-1.1,0.6-1.7,0.8c-0.1,0.1-0.2,0.1-0.3,0.2c-4.7,2.1-9.7,3.4-15,3.7c-1.4,0.1-2.4,0.1-2.4,0.1c-4.7,0-7.7-1.6-9.7-3.7
			c-1.3-1.4-2.1-3-2.7-4.6c1.4,6,4.7,9.1,8.6,10.6c1.2,0.5,2.6,0.9,4.3,1c4.2,0.5,8.4-0.3,11.5-1c0.1,0,0.2,0,0.2-0.1
			c0,0,0.1,0,0.1,0c7.1-1.8,13.6-5.4,19.5-10c5.5,5.6,13,9,22.1,10.9c22,4.6,32-7.8,35.1-15.9c1.6-3.5,2.2-7.4,2.4-11
			c0-0.5,0-1,0.1-1.5c0-0.1,0-0.2,0-0.3l0,0c0.1-5.3-0.6-10.9-1.3-16.7C601.1,130,600,121.2,601,111.3z"/>
		<path class="st1" d="M499.1,170.7c0-0.2-0.1-0.5-0.1-0.7c0-0.1,0-0.2,0-0.3c0-0.2-0.1-0.4-0.1-0.6c0-0.1,0-0.1,0-0.2
			c-0.1-1.1-0.1-1.8-0.1-1.8s0,0-0.1,0.1c0,0,0,0,0,0c0,0-0.1,0.1-0.1,0.1c0,0-0.1,0.1-0.1,0.1c0,0-0.1,0.1-0.1,0.1
			c0,0-0.1,0.1-0.2,0.2c0,0-0.1,0.1-0.1,0.1c-0.1,0.1-0.1,0.1-0.2,0.2c0,0-0.1,0.1-0.1,0.1c-0.1,0.1-0.2,0.1-0.2,0.2
			c-0.1,0-0.1,0.1-0.2,0.1c-0.1,0.1-0.2,0.2-0.3,0.3c-0.1,0.1-0.1,0.1-0.2,0.2c-0.1,0.1-0.2,0.2-0.3,0.3c-0.1,0.1-0.2,0.1-0.2,0.2
			c-0.1,0.1-0.2,0.2-0.3,0.3c-0.1,0.1-0.2,0.2-0.3,0.2c-0.1,0.1-0.2,0.2-0.3,0.3c-0.1,0.1-0.2,0.2-0.3,0.3c-0.1,0.1-0.2,0.2-0.3,0.3
			c-0.1,0.1-0.2,0.2-0.4,0.3c-0.1,0.1-0.2,0.2-0.3,0.2c-0.2,0.1-0.3,0.2-0.5,0.4c-0.1,0-0.1,0.1-0.2,0.1c-1,0.7-2,1.5-3.2,2.2
			c-0.1,0-0.1,0.1-0.1,0.1c-0.3,0.2-0.5,0.3-0.8,0.5c-0.1,0-0.1,0.1-0.2,0.1c-0.3,0.2-0.5,0.3-0.8,0.5c-0.1,0-0.2,0.1-0.2,0.1
			c-0.3,0.2-0.6,0.3-0.8,0.5c-0.1,0-0.2,0.1-0.3,0.1c-0.3,0.2-0.6,0.3-0.9,0.5c-0.1,0-0.2,0.1-0.3,0.1c-0.3,0.2-0.6,0.3-0.9,0.5
			c-0.1,0-0.2,0.1-0.3,0.1c-0.3,0.1-0.6,0.3-1,0.4c-0.1,0-0.2,0.1-0.3,0.1c-0.3,0.1-0.7,0.3-1,0.4c-0.1,0-0.2,0.1-0.3,0.1
			c-0.4,0.1-0.7,0.3-1.1,0.4c-0.1,0-0.2,0.1-0.2,0.1c-0.4,0.1-0.8,0.3-1.1,0.4c-0.1,0-0.1,0-0.2,0.1c-0.4,0.1-0.8,0.3-1.2,0.4
			c0,0-0.1,0-0.1,0c-3.2,0.9-6.7,1.6-10.4,1.6c0,0,0,0,0,0c-0.1,0-0.2,0-0.3,0c-7.2,0-12.1-2-15.1-5.3c-0.4-0.4-0.7-0.8-1-1.3
			c-0.2-0.2-0.3-0.5-0.5-0.7v0c0,0,0,0,0,0c-0.3-0.4-0.5-0.9-0.7-1.4c0-0.1-0.1-0.1-0.1-0.2c-0.2-0.5-0.4-0.9-0.6-1.4
			c-0.5,0.4-1,0.8-1.5,1.2c-0.1,0.1-0.2,0.2-0.4,0.3c-0.4,0.3-0.8,0.6-1.3,0.9c-0.1,0.1-0.2,0.2-0.4,0.2c-0.4,0.3-0.9,0.6-1.3,0.9
			c-0.1,0.1-0.2,0.1-0.3,0.2c-0.5,0.3-0.9,0.6-1.4,0.9c-0.1,0.1-0.2,0.1-0.3,0.2c-0.5,0.3-1,0.6-1.6,0.9c-0.1,0-0.1,0.1-0.2,0.1
			c-0.6,0.3-1.1,0.6-1.7,0.8c0,0-0.1,0-0.1,0.1c-0.6,0.3-1.2,0.6-1.8,0.8c0,0-0.1,0-0.1,0c-0.6,0.3-1.3,0.5-1.9,0.8c0,0,0,0,0,0h0
			c-4.4,1.7-9.2,2.7-14.2,2.7c-0.3,0-0.6,0-0.8,0c-8.9-0.2-15.7-2.6-20.1-7c-0.5-0.5-1-1.1-1.5-1.6c-0.1-0.2-0.3-0.3-0.4-0.5
			c-0.3-0.4-0.5-0.7-0.8-1.1c0.6,1.1,1.3,2.1,1.9,3c0.3,0.5,0.7,1.1,1.1,1.6c0.6,0.8,1.2,1.5,1.9,2.1c1.2,1.2,2.5,2.2,4,3
			c9.7,6.5,21.4,4.4,28.4,2.2c6.2-1.9,11.8-5.1,16.6-8.7c0.8,2.1,3.3,6.5,9.6,8.6c2.4,0.9,5.4,1.3,8.8,1.3
			c14.5,0,25.8-8.9,29.9-12.6c-0.1-0.4-0.2-0.7-0.3-1.1C499.1,170.9,499.1,170.8,499.1,170.7z"/>
		<path class="st1" d="M612,168.6c-4.5,0-8.4,3.5-8.4,8.2c0,4.8,3.8,8.3,8.4,8.3c4.5,0,8.3-3.5,8.3-8.3
			C620.3,172.1,616.5,168.6,612,168.6z M612,183.7c-3.8,0-6.7-2.9-6.7-6.9c0-3.9,2.9-6.9,6.7-6.9c3.7,0,6.7,2.9,6.7,6.9
			C618.7,180.8,615.7,183.7,612,183.7z"/>
		<path class="st1" d="M615.8,174.8c0-1.9-1.1-2.7-3.4-2.7h-3.6v9.5h1.4v-4.1h1.7l2.5,4.1h1.6l-2.7-4.2
			C614.7,177.2,615.8,176.5,615.8,174.8z M610.2,176.2v-3h2c1,0,2.1,0.2,2.1,1.4c0,1.5-1.1,1.6-2.3,1.6H610.2z"/>
		<path class="st1" d="M341.6,163.5c-0.1-0.2-1.1-1.6-1.1-8.1c0,0,27.8,5.2,43.8-15.8c10.6-14,7.1-23.8,2.9-29.5
			c0.4,0.6,0.7,1.2,1,2c1.8,4.8,1.1,12.5-3.3,20c0,0,0,0,0,0c-0.4,0.7-0.8,1.3-1.3,2c-0.1,0.1-0.1,0.1-0.2,0.2
			c-0.4,0.6-0.9,1.2-1.4,1.8c-0.1,0.1-0.2,0.2-0.3,0.3c-0.3,0.4-0.6,0.6-0.9,1c0,0,0,0-0.1,0.1c-0.2,0.2-0.4,0.5-0.7,0.7
			c-11.8,12.5-24.7,15.1-41.9,13.7c-0.1,1.2,0,2.4,0.1,3.6C338.5,158.8,339.7,161.5,341.6,163.5z"/>
		<path class="st1" d="M415.8,155.2c0,0,20.3-13.5,47.5-44c24.9-28,36.9-49,26.4-66.5c2.5,4.9,3.4,10.7,1.6,16.6
			c-4.4,14.4-14.8,29.8-27.5,43.4c-15.5,17.9-33.4,34.4-50.1,47.4c-0.8,5.4,0.7,11,3.6,14.3C417.3,166.4,415.3,163,415.8,155.2z"/>
		<path class="st1" d="M226,114.4c0.7,0.4,1.1,0.9,0.8,1.4c-3,4.8-16.2,19.9-23.6,33.7c-1.8,4.2-1.5,7.9,1.1,10.4
			c-0.2-1.7-0.1-6,3.4-11.2c4.5-6.8,19.4-26.9,21-29C230.1,118,228.4,115.5,226,114.4z"/>
		<path class="st1" d="M522.9,160c-0.2-1.6-0.2-6,3.4-11.3c4.5-6.8,19.4-26.9,21-29c1.5-1.9-0.6-4.6-3.1-5.5c0.1,0,0.3,0.1,0.4,0.2
			c0.6,0.3,1,0.8,0.7,1.2c-0.9,1.4-2.8,3.8-5.2,6.8c0,0-0.1,0.1-0.9,1.1c-5.3,6.9-12.6,16.7-17.5,26
			C520.2,153.9,520.2,157.7,522.9,160z"/>
	</g>
</g>
<g>
	<path class="st2" d="M291,116.1c-1.3-0.6-4.1-0.5-8.1,0.9c-4.5,2.1-31.3,24.9-34.1,39.8l0,0c0.1,3.4,1.1,5.7,2.7,7
		c5.7,4.3,19.2-3.4,30.2-18.4c8.9-12,12.6-20.8,11.8-25.6C293.3,117.9,292.4,116.7,291,116.1z"/>
	<path class="st2" d="M461,88.7C461,88.7,461,88.7,461,88.7l5.4-8.1l0,0c5-7.5,8-13.9,9.4-18c0.6-1.9,0.9-3.4,0.9-4.3
		c0-0.5-0.1-0.6-0.2-0.7c0,0-0.1,0-0.2,0c-1.8,0-6.6,4.6-13.4,12.6c-4.4,5.3-9.5,11.9-15.1,19.5c-8.1,11-19,26.9-26.3,41
		c2.9-2.5,5.7-5.1,8.6-7.8C441.1,112.6,451.6,101.2,461,88.7z"/>
	<path class="st2" d="M309,62.5c0.6-1.9,0.9-3.4,0.9-4.3c0-0.5-0.1-0.6-0.2-0.7c0,0-0.1,0-0.2,0c-3.8,0-22.5,21.9-43.2,53.3
		c-2,3-3.2,4.8-4.9,7.8c3-2,5.8-4.1,8.4-6.2C293.7,93.4,305.8,72.1,309,62.5z"/>
	<path class="st2" d="M193.8,115.1c-4.9-4.2-19.3,7.5-26.1,14.6c-6.8,7.1-17,25.2-10.7,30.8c0.2,0.1,0.3,0.3,0.5,0.4
		c6.5,4.3,21.2-11.5,26.2-17.9c5.1-6.5,12.4-18.5,11.6-24.8C195.1,116.9,194.6,115.9,193.8,115.1z"/>
	<path class="st2" d="M512.2,115.1c-4.9-4.2-19.3,7.5-26.1,14.6c-6.8,7.1-17,25.2-10.7,30.8c0.2,0.1,0.3,0.3,0.5,0.4
		c6.5,4.3,21.2-11.5,26.2-17.9c5.1-6.5,12.4-18.5,11.6-24.8C513.5,116.9,513,115.9,512.2,115.1z"/>
	<path class="st2" d="M345.4,138.6c10.5-0.4,16.4-6.3,20.9-11.4c3.7-4.2,5.2-8.4,5.2-11.2c0-0.8-0.2-1.6-0.5-2.1
		c0-0.1-0.2-0.3-0.2-0.3c-0.2-0.2-0.4-0.4-0.6-0.6c0,0-0.7-0.4-1.6-0.6c-3.2-0.6-8.4,1.6-14.4,8c-5.7,5.6-10,11.9-12.6,18.1
		C342.9,138.7,344.2,138.7,345.4,138.6z"/>
	<path class="st1" d="M323.5,62.2c-4.2,13.6-13.7,28-25.4,41c1.4,0.2,2.7,0.6,4,1c3-3.1,20.5-22.1,22.9-42c1.2-9.3-1.9-15-3.6-17.5
		c0.1,0.2,0.2,0.4,0.4,0.6C324.3,50.3,325.3,56.1,323.5,62.2z"/>
</g>
</svg>
