<?xml version="1.0" encoding="utf-8"?>
<!-- Generator: Adobe Illustrator 19.1.0, SVG Export Plug-In . SVG Version: 6.00 Build 0)  -->
<svg version="1.1" id="Layer_1" xmlns="http://www.w3.org/2000/svg" xmlns:xlink="http://www.w3.org/1999/xlink" x="0px" y="0px"
	 viewBox="0 0 180 180" style="enable-background:new 0 0 180 180;" xml:space="preserve">
<style type="text/css">
	.st0{fill:#FCB912;}
	.st1{fill:#DD0031;}
	.st2{fill:#231F20;}
	.st3{fill:#EC2028;}
	.st4{fill:#DCDBDB;}
	.st5{fill:#A7A6A6;}
	.st6{fill:#003846;}
	.st7{fill:#9CC5CA;}
	.st8{fill:#F8971D;}
	.st9{fill:#439539;}
	.st10{fill:#EE3124;}
	.st11{fill:#6D3220;}
	.st12{fill:#E03A3E;}
	.st13{fill:#666666;}
	.st14{fill:#FDBA12;}
	.st15{fill:#0256C4;}
	.st16{fill:#0356C3;}
	.st17{fill:#0357C4;}
	.st18{fill:#28C1FC;}
	.st19{fill:#085BC6;}
	.st20{fill:#85FDFD;}
	.st21{fill:#1363C9;}
	.st22{fill:#30C3FD;}
	.st23{fill:#8FFDFD;}
	.st24{fill:#3CC7FC;}
	.st25{fill:#1F6BCC;}
	.st26{fill:#4CCBFB;}
	.st27{fill:#A2FDFC;}
	.st28{fill:#2A73CF;}
	.st29{fill:#1F5299;}
	.st30{fill:#5ED0FB;}
	.st31{fill:#367AD2;}
	.st32{fill:#70D5FA;}
	.st33{fill:#81D9FA;}
	.st34{fill:#4684D5;}
	.st35{fill:#1D61C3;}
	.st36{fill:#115BBF;}
	.st37{fill:#799900;}
	.st38{fill:#F27321;}
	.st39{fill:#E44145;}
	.st40{fill:#CE1141;}
	.st41{fill:none;stroke:#000000;stroke-width:0.7395;}
	.st42{fill:#231F20;stroke:#000000;stroke-width:0.7395;}
	.st43{fill:#733A8E;}
	.st44{fill:#663287;}
	.st45{fill:#673388;}
	.st46{fill:#693489;}
	.st47{fill:#A2D6E4;}
	.st48{fill:#CDD62C;}
	.st49{fill:#03A7B7;}
	.st50{fill:#A1D6E4;}
	.st51{fill:#642D87;}
	.st52{fill:#7C4694;}
	.st53{fill:#CCD62E;}
	.st54{fill:#663187;}
	.st55{fill:#04A7B7;}
	.st56{fill:#652E87;}
	.st57{fill:#653086;}
	.st58{fill:#653187;}
	.st59{fill:#673287;}
	.st60{fill:#81BB42;}
	.st61{fill:#018EA0;}
	.st62{fill:#058E9F;}
	.st63{fill:#5E5E5E;}
	.st64{fill:#535353;}
	.st65{fill:#D0D0D0;}
	.st66{fill:#A0A0A0;}
	.st67{fill:#8B8B8B;}
	.st68{fill:#686868;}
	.st69{fill:#777777;}
	.st70{fill:#8A8A8A;}
</style>
<g>
	<g>
		<path class="st15" d="M116.7,95.7c0-3,0-5.9,0-8.9c0-2.8,0-5.5,0-8.3c0-0.1,0-0.3-0.1-0.5c-2.6,3.9-5.1,7.7-7.7,11.7
			c-2.6-4-5.1-7.8-7.8-11.8c0,0.4,0,0.6,0,0.7c0,5.4,0,10.8,0,16.2c0,0.3,0,0.5,0,0.8c-1.7,0-3.3,0-5,0c-0.7,0-0.8-0.2-0.8-0.8
			c0-6.8,0-13.6,0-20.4c0-1.8,0-3.7,0-5.5c0-0.6,0.3-0.8,0.8-0.8c0.7,0,1.4,0,2.1,0c1.3,0.1,2.6-0.4,3.8,0.5c0,0,0,0,0,0
			c0,0.1,0.1,0.2,0.1,0.3c0,0,0,0,0,0c0.1,0.1,0.1,0.2,0.2,0.3c2,3.2,4.1,6.5,6.1,9.7c0.1,0.2,0.3,0.5,0.5,0.8
			c1.2-1.8,2.3-3.6,3.4-5.4c1.2-1.9,2.4-3.9,3.6-5.8c0.1-0.2,0.4-0.4,0.6-0.4c2.1,0,4.1,0,6.2,0c0,0.2,0.1,0.4,0.1,0.6
			c0,8.9,0,17.8,0,26.6c0,0.1,0,0.3,0,0.4C120.8,95.7,118.8,95.7,116.7,95.7z"/>
		<path class="st16" d="M87.7,87.5c1.3,1.3,2.6,2.5,4,3.8c-1.5,1.7-3.2,3.1-5.3,3.9c-5.8,2.1-11.3,1.6-16-2.8
			c-3.2-3-4.5-6.9-4.3-11.2c0.3-7.6,6.4-13.6,14.1-13.6c3.2,0,6.2,0.5,8.8,2.3c0.9,0.6,1.7,1.3,2.6,2c-1.4,1.6-2.6,3-4,4.6
			c-2.5-2.2-5.2-3.6-8.6-3c-1.9,0.3-3.4,1.3-4.6,2.7c-2.9,3.5-2.6,9.1,0.6,12.3C77.4,91,82.8,92.2,87.7,87.5z"/>
		<path class="st17" d="M135,95.7c0-0.3,0-0.5,0-0.8c0-6.7,0-13.4,0-20.2c0-0.3,0-0.6,0-1c-2.8,0-5.6,0-8.4,0c0-1.9,0-3.8,0-5.7
			c7.6,0,15.3,0,22.9,0c0,1.8,0,3.7,0,5.6c-0.2,0-0.5,0-0.7,0c-2.3,0-4.6,0-6.9,0c-0.2,0-0.5,0-0.7,0.1c0,0,0,0-0.1,0c0,0,0,0,0,0
			c0,0.2,0,0.4,0,0.6c0,6.8,0,13.6,0,20.4c0,0.3,0,0.6,0,0.9c-1.7,0-3.3,0-4.8,0c-0.9,0-0.9,0-0.9-0.9c0-6.7,0-13.3,0-20
			c0-0.2,0-0.5,0-0.7c0,0-0.1,0-0.1,0c0,0.2,0,0.4,0,0.6c0,6.7,0,13.4,0,20.1C135,95.1,135,95.4,135,95.7z"/>
		<path class="st18" d="M44.9,82.9c-1.6-1.1-3.2-2.2-4.8-3.2c-2.8-1.8-5.9-3.3-9-4.6c-0.2-0.1-0.5-0.4-0.5-0.5c0-2.1,0-4.2,0-6.4
			c0.3,0,0.5-0.1,0.8-0.1c3.7,0,7.4,0.1,11.1,0c1.2,0,1.7,0.7,2.3,1.4c2,2.4,3.8,4.8,5.7,7.3c0.3,0.4,0.5,0.8,0.8,1.3
			c-0.1,0-0.3-0.1-0.4-0.1c-0.7,0.4-0.8-0.1-1-0.5c-0.1-0.2-0.2-0.5-0.4-0.7c-0.1,0-0.1,0.1-0.2,0.1c0.1,0.2,0.2,0.5,0.2,0.7
			c0.2,0.6,0,1.2-0.5,1.6c-0.3,0.2-0.6,0.4-0.8,0.7c-0.3,0.3-0.6,0.6-0.8,0.9c-0.5,0.7-1.8,0.9-1.5,2.1
			C45.5,82.8,45.2,82.9,44.9,82.9z M44.7,82.3c0,0-0.1,0.1,0,0.1c0,0,0.1,0,0.1,0.1c0,0,0.1-0.1,0-0.1
			C44.8,82.3,44.7,82.3,44.7,82.3z"/>
		<path class="st17" d="M31.6,79.8c3.4,0.9,6.6,2.3,9.7,4c1,0.6,2,1.2,3,1.8c0,0,0,0,0,0c-0.2,0-0.3,0-0.5,0.1
			c0.1,0.2,0.2,0.3,0.2,0.5c-0.4,0.1-0.7,0.2-1.1,0.3c0-0.1-0.1-0.1-0.1-0.2c-0.1,0.1-0.1,0.1-0.2,0.2c-0.4,0.5-0.7,1.2-1.3,1.5
			c-0.8,0.5-1.3,1.2-1.5,2.1c0,0.1-0.2,0.2-0.3,0.2c-1.1-0.1-1.5,1-2.2,1.6c-1,0.9-1.7,2-3.2,2c-0.1,0-0.2,0.2-0.3,0.3
			c0.1,0.1,0.2,0.3,0.3,0.2c0.3,0,0.6-0.1,0.9-0.1c0.3,0,0.6-0.1,0.8-0.1c0,0.2,0.1,0.4,0,0.5c-0.2,0.2-0.5,0.2-0.8,0.3
			c-0.1,0-0.2,0-0.3,0c-0.2,0-0.4,0.1-0.6,0.2c0.2,0.1,0.4,0.3,0.6,0.4c0.2,0.1,0.5,0.2,0.7,0.3c-0.2,0-0.4,0-0.5,0
			c-1.9-0.4-3.2-1.5-4-3.3c-0.1-0.3-0.2-0.6-0.3-0.8c0,0,0,0,0,0c0-3.9,0-7.8,0-11.6C31.2,79.9,31.4,79.8,31.6,79.8z M33.5,94.7
			c0,0.1,0,0.1-0.1,0.2c0.2,0,0.3,0.1,0.5,0.1c0-0.1,0-0.1,0-0.2C33.8,94.8,33.6,94.7,33.5,94.7z M43.4,85.4c0,0-0.1-0.1-0.1,0
			c0,0,0,0.1-0.1,0.1c0,0,0.1,0.1,0.1,0C43.4,85.5,43.4,85.4,43.4,85.4z M42.8,84.9C42.8,84.9,42.8,84.9,42.8,84.9
			C42.8,84.9,42.8,84.9,42.8,84.9C42.8,84.9,42.8,84.9,42.8,84.9C42.8,84.9,42.8,84.9,42.8,84.9z"/>
		<path class="st19" d="M42.9,86.4c0.4-0.1,0.7-0.2,1.1-0.3c0.1,0.2,0.2,0.4,0.3,0.5c0.2-0.1,0.4-0.2,0.5-0.3
			c0.1-0.1,0.2-0.1,0.3-0.2c0.6,0.4,1.3,0.8,1.9,1.3c-0.1,0.1-0.1,0.2-0.3,0.3c0.5,0.1,0.9,0.3,0.4,0.8c-0.9-0.4-1.2-0.3-1.3,0.7
			c0,0.3-0.4,0.6-0.6,0.9c-0.1,0.2-0.3,0.3-0.5,0.4c-1.2,1.3-2.5,2.6-3.7,3.9c-0.5,0.5-1.2,1-1.8,1.5c-1.2,0-2.5,0-3.7,0
			c-0.2-0.1-0.5-0.2-0.7-0.3c-0.2-0.1-0.4-0.2-0.6-0.4c0.2-0.1,0.4-0.1,0.6-0.2c0.1,0,0.2,0,0.3,0c0.3-0.1,0.5-0.2,0.8-0.3
			c0.1-0.1,0-0.3,0-0.5c-0.3,0-0.6,0.1-0.8,0.1c-0.3,0.1-0.6,0.1-0.9,0.1c-0.1,0-0.2-0.2-0.3-0.2c0.1-0.1,0.2-0.3,0.3-0.3
			c1.5,0,2.2-1.2,3.2-2c0.7-0.6,1-1.6,2.2-1.6c0.1,0,0.3-0.1,0.3-0.2c0.2-0.9,0.8-1.5,1.5-2.1c0.5-0.4,0.9-1,1.3-1.5
			C42.7,86.4,42.8,86.4,42.9,86.4z"/>
		<path class="st20" d="M53.4,75.9c-0.5-0.8-0.9-1.7-1.4-2.4c-1-1.6-2.1-3.2-3.1-4.7c-0.1-0.2-0.2-0.4-0.3-0.6
			c0.3,0,0.5-0.1,0.7-0.1c1.5,0,3,0,4.5,0.1c1.5,0.2,2.7,1.1,3.6,2.3c1.2,1.6,1,3.5,1,5.3c-0.1-0.1-0.2-0.3-0.3-0.4
			c-0.1-0.2-0.2-0.4-0.3-0.5c-0.2,0.1-0.4,0.2-0.5,0.4c-0.1,0.2-0.2,0.5-0.3,0.7c-0.2,0.3-0.4,0.6-0.7,1c-0.3-0.3-0.4-0.5-0.6-0.7
			c-0.1,0.7-0.1,1.2-0.2,1.8c-0.9-0.3-1.6-0.7-1.7-1.7C53.8,76.1,53.5,76,53.4,75.9z M54.8,76.7c0.1,0,0.2-0.1,0.3-0.1
			c-0.1-0.2-0.2-0.5-0.2-0.7c-0.1,0-0.3,0.1-0.3,0.1C54.6,76.3,54.7,76.5,54.8,76.7z"/>
		<path class="st21" d="M39.4,95.7c0.6-0.5,1.3-0.9,1.8-1.5c1.3-1.3,2.5-2.6,3.7-3.9c0.1-0.1,0.3-0.2,0.5-0.4
			c0.2-0.3,0.5-0.6,0.6-0.9c0.1-0.9,0.4-1.1,1.3-0.7c0.4-0.5,0-0.7-0.4-0.8c0.1-0.1,0.2-0.2,0.3-0.3c0.8,0.6,1.6,1.2,2.5,1.8
			c0,0.4,0,0.8-0.1,1.2c-0.2,0.1-0.5,0.1-0.6,0.2c-1.3,1.3-2.5,2.6-3.7,3.8c-0.5,0.5-1.1,0.9-1.6,1.3C42.1,95.7,40.7,95.7,39.4,95.7
			z"/>
		<path class="st22" d="M44.9,82.9c0.3-0.1,0.6-0.1,1-0.2c-0.3-1.2,1-1.4,1.5-2.1c0.2-0.3,0.5-0.6,0.8-0.9c0.3-0.3,0.5-0.5,0.8-0.7
			c0.6-0.4,0.8-0.9,0.5-1.6c-0.1-0.2-0.2-0.5-0.2-0.7c0.1,0,0.1-0.1,0.2-0.1c0.1,0.2,0.2,0.5,0.4,0.7c0.2,0.4,0.3,1,1,0.5
			c0.1-0.1,0.3,0,0.4,0.1c0,0,0,0,0,0c0,0,0.1,0.1,0.1,0.1c0.3,0.6,0.7,1.2,1,1.7c0,0.2,0,0.3,0,0.5c0,0-0.1-0.1-0.1-0.2
			c-0.2,0.1-0.3,0.3-0.5,0.4c0,0,0.1,0.1,0.1,0.1c0.2-0.1,0.3-0.2,0.4-0.4c0.1-0.1,0.2-0.1,0.3-0.1c0,0,0,0,0,0
			c-0.2,0.5-0.4,0.9-0.6,1.5c-0.2-0.3-0.2-0.5-0.3-0.6c-0.4,0.7-0.7,1.2-1.1,1.7c-0.7,0.9-1.8,1.5-2.4,2.5c-0.3-0.2-0.7-0.4-1-0.5
			c0,0-0.1,0-0.1,0c0-0.1-0.1-0.2-0.1-0.3c0-0.2,0-0.3,0.1-0.5c-0.2,0.1-0.3,0.2-0.5,0.2c-0.1-0.1-0.3-0.2-0.4-0.3
			C45.7,83.6,45.3,83.2,44.9,82.9z"/>
		<path class="st23" d="M53.4,75.9c0.2,0.1,0.5,0.2,0.5,0.3c0,1,0.8,1.3,1.7,1.7c0.1-0.6,0.1-1.1,0.2-1.8c0.2,0.2,0.3,0.4,0.6,0.7
			c0.3-0.4,0.5-0.7,0.7-1c0.1-0.2,0.1-0.5,0.3-0.7c0.1-0.2,0.4-0.2,0.5-0.4c0.1,0.2,0.2,0.4,0.3,0.5c0.1,0.1,0.2,0.3,0.3,0.4
			c0,1.5,0,3,0,4.5c-0.1,0-0.2,0.1-0.2,0.1c0.2,0.9-0.7,1.3-1.1,1.9c-0.2,0.4-0.4,0.5-0.1,0.9c0.1,0.2,0,0.6,0,1
			c-0.4-0.7-0.7-1.2-1-1.7c-0.3-0.9-0.6-1.9-1-2.8C54.4,78.4,53.9,77.2,53.4,75.9z"/>
		<path class="st16" d="M125.8,109.8c-1.8,1.4-3.4,1.4-4.3,0.2c-0.8-1.1-0.4-2.1,1.1-3.2c-0.7-1.5-0.6-2.5,0.4-3
			c0.9-0.5,2-0.2,2.5,0.6c0.6,0.9,0.2,1.8-1.3,2.7c0.5,0.4,1,0.8,1.5,1.3c0.2-0.4,0.5-0.8,0.7-1.3c0.2,0.1,0.5,0.2,0.7,0.3
			c-0.3,0.6-0.6,1.2-1,1.9c0.4,0.3,0.8,0.6,1.3,1c-0.3,0.3-0.5,0.4-0.9,0.7C126.3,110.6,126.1,110.2,125.8,109.8z M125,109.3
			c-0.6-0.6-1.1-1.1-1.6-1.7c-0.1-0.1-0.2-0.1-0.3-0.1c-0.5,0.1-1.1,0.8-1.1,1.4c0,0.6,0.4,1.1,1,1.2
			C123.9,110.2,124.4,109.9,125,109.3z M124.9,105.3c0-0.5-0.4-0.9-0.9-0.9c-0.5,0-1.1,0.4-0.9,0.9c0.1,0.4,0.4,0.9,0.7,1.1
			C124.1,106.6,124.8,105.8,124.9,105.3z"/>
		<path class="st16" d="M83.1,104c0.8,1.1,1.5,2.2,2.4,3.4c0.7-1.1,1.4-2.1,2.1-3.1c0.4-0.6,0.4-0.6,1.3-0.5c0,2.3,0,4.6,0,6.9
			c-0.3,0-0.5,0-0.9,0c0-1.7,0-3.4,0-5.1c0,0-0.1,0-0.1,0c-0.8,1.1-1.5,2.2-2.3,3.4c-0.8-1.1-1.5-2.2-2.3-3.3c-0.1,0-0.1,0-0.2,0.1
			c0,1.6,0,3.3,0,4.9c0-1.6,0-3.2,0-4.8c-0.1,1.4-0.1,2.8-0.1,4.2c0,0.2-0.2,0.4-0.2,0.6c-0.1-0.2-0.3-0.4-0.3-0.6
			c0-1.4,0-2.8,0-4.1c0-0.6,0-1.2,0-1.8C82.6,104,82.9,104,83.1,104z"/>
		<path class="st24" d="M48.2,85.3c0.6-1,1.7-1.6,2.4-2.5c0.4-0.4,0.6-1,1.1-1.7c0.1,0.2,0.2,0.3,0.3,0.6c0.2-0.6,0.4-1,0.6-1.5
			c0.6,1,1.1,2.1,1.7,3.1c-0.4,0.4-0.7,0.9-1.1,1.2c-0.7,0.6-1.6,1.1-1.9,2.3c-0.1-0.2-0.1-0.4-0.1-0.5c-0.1-0.1-0.2-0.2-0.4-0.2
			c0,0.1-0.2,0.3-0.1,0.3c0.3,0.4-0.1,0.6-0.2,0.9c0,0-0.1,0-0.1-0.1c-0.3-0.5-0.4-1.2-1.2-1.1c0,0,0,0,0,0
			c-0.1-0.1-0.2-0.2-0.3-0.3c-0.1-0.1-0.2-0.2-0.4-0.3C48.3,85.6,48.3,85.4,48.2,85.3z"/>
		<path class="st25" d="M43.5,95.7c0.6-0.4,1.2-0.8,1.6-1.3c1.3-1.3,2.5-2.6,3.7-3.8c0.1-0.1,0.4-0.1,0.6-0.2c0-0.4,0-0.8,0.1-1.2
			c0.7,0.6,1.4,1.1,2.1,1.7c-0.2,0.2-0.4,0.4-0.6,0.6c-1.1,1.1-2.2,2.3-3.3,3.4c-0.2,0.2-0.4,0.5-0.6,0.8
			C46,95.7,44.7,95.7,43.5,95.7z"/>
		<path class="st16" d="M52.9,109.2c0.3-1,0.7-2,1-3c0.2-0.6,0.5-0.8,1.1-0.6c-0.2,0.6-0.4,1.2-0.6,1.9c-0.3,0.9-0.6,1.8-0.9,2.7
			c-0.1,0.3-0.1,0.7-0.6,0.7c-0.6,0-0.5-0.4-0.6-0.7c-0.4-1-0.7-1.9-1.1-3.1c-0.3,0.8-0.5,1.4-0.7,2c-0.2,0.5-0.3,1-0.5,1.4
			c-0.1,0.2-0.3,0.3-0.5,0.3c-0.2,0-0.5-0.1-0.5-0.3c-0.6-1.6-1.1-3.2-1.7-4.9c0.6-0.2,1-0.1,1.1,0.6c0.3,1,0.7,2.1,1.1,3.3
			c0.4-1.3,0.8-2.4,1.1-3.4c0.1-0.2,0.4-0.5,0.6-0.5c0.1,0,0.4,0.3,0.5,0.5c0.4,1,0.7,2.1,1.1,3.2C52.8,109.2,52.8,109.2,52.9,109.2
			z"/>
		<path class="st16" d="M101.5,110.1c0,0.8,0,1.5,0,2.2c-0.3,0-0.5,0-0.9,0c0-1.1,0-2.2,0-3.4c0-1.1,0-2.2,0-3.4
			c0.3,0,0.5,0,0.8-0.1c0.1,0.2,0.1,0.4,0.2,0.7c0.6-0.5,1.3-1,2.1-0.7c0.5,0.2,1.1,0.4,1.5,0.8c0.9,0.9,0.9,2.7,0.1,3.7
			C104.4,111,103.2,111.1,101.5,110.1z M105,108.1c0-1.1-0.8-1.9-1.8-1.9c-0.9,0-1.8,0.9-1.7,2c0,1,0.8,1.9,1.8,1.9
			C104.3,110.1,105,109.3,105,108.1z"/>
		<path class="st16" d="M74.2,110.4c0-0.1,0-0.2-0.1-0.4c-0.7,0.7-1.4,1.1-2.3,0.8c-0.5-0.2-1.1-0.5-1.4-0.9c-0.9-1-0.8-2.8,0.2-3.7
			c1-1,2.2-1,3.6,0.1c0-0.5,0-1,0-1.4c0-0.4,0-0.9,0-1.4c0.3,0,0.6,0,0.9,0c0,1,0,2,0,2.9c0,1.4,0,2.8-0.1,4.2c0-1.4,0-2.9,0-4.3
			c-0.1,1.2-0.2,2.5-0.1,3.7C74.9,110.6,74.7,110.7,74.2,110.4z M74.2,108.2c0-1.1-0.8-2-1.8-2c-1,0-1.7,0.8-1.7,1.9
			c0,1.1,0.7,1.9,1.7,1.9C73.4,110.1,74.2,109.2,74.2,108.2z M74.9,105.9C74.9,105.9,74.9,105.9,74.9,105.9c0-0.7,0-1.4,0-2.2
			c-0.1,0.6-0.1,1.3-0.1,1.9C74.9,105.7,74.9,105.8,74.9,105.9z"/>
		<path class="st16" d="M36.4,109.2c0.1,0.1,0.1,0.1,0.2,0.2c0,0.1,0,0.2,0,0.4c-1.4,1.4-3.7,1.5-5.1,0.1c-1.4-1.4-1.4-3.8,0.1-5.3
			c1.4-1.4,3.7-1.3,5.2,0.2c-0.2,0.2-0.4,0.4-0.5,0.5c-0.8-0.3-1.4-0.7-2.1-0.8c-1.1-0.2-2.1,0.5-2.6,1.5c-0.5,1.1-0.3,2.5,0.6,3.3
			c0.8,0.8,1.9,1,2.9,0.5c0.2-0.1,0.4-0.2,0.6-0.3c0.1-0.1,0.2-0.2,0.3-0.2c0,0,0,0,0,0C36.2,109.2,36.3,109.2,36.4,109.2z"/>
		<path class="st26" d="M50.5,87.5c0.1-0.3,0.5-0.5,0.2-0.9c0,0,0.1-0.2,0.1-0.3c0.1,0.1,0.3,0.1,0.4,0.2c0.1,0.1,0.1,0.2,0.1,0.5
			c0.3-1.2,1.1-1.7,1.9-2.3c0.4-0.4,0.7-0.8,1.1-1.2c0.5,1,0.9,2,1.4,3.1c0,0.8-0.6,0-0.8,0.3c-0.4,0.8-0.9,1.5-1.9,1.5
			c0,0.1,0,0.2-0.1,0.3c-0.1,0.2-0.1,0.4-0.2,0.6c-0.1-0.1-0.2-0.3-0.4-0.4c-0.2-0.1-0.3,0-0.5,0C51.3,88.3,50.9,87.9,50.5,87.5z
			 M54,85.2c0.1,0,0.1,0,0.2,0c0-0.2,0-0.4-0.1-0.7c0,0-0.1,0-0.1,0C54,84.7,54,85,54,85.2z"/>
		<path class="st16" d="M45.3,110.6c-0.1-0.4-0.2-0.2-0.4-0.1c-0.6,0.4-1.3,0.5-2,0.3c-0.9-0.2-1.4-0.8-1.3-1.7
			c0-0.8,0.5-1.4,1.4-1.5c0.7-0.1,1.5,0,2.2,0c0.1-1.2-0.8-1.5-2.9-1c-0.1-0.2-0.2-0.4-0.3-0.6c1.6-1.1,3.6-0.6,4,0.9
			c0,1.2,0,2.4,0,3.7C45.7,110.6,45.5,110.6,45.3,110.6z M43.8,108.2c-0.2,0-0.5,0-0.8,0.2c-0.2,0.1-0.5,0.5-0.5,0.7
			c0,0.3,0.2,0.6,0.5,0.8c0.6,0.4,1.7,0.2,2.1-0.4c0.2-0.3,0.3-0.7,0.2-0.9c0-0.1-0.5-0.2-0.7-0.3C44.3,108.2,44.1,108.2,43.8,108.2
			z"/>
		<path class="st16" d="M108,106c0.1-0.1,0.3-0.1,0.4-0.2c0.7-0.5,1.4-0.6,2.2-0.2c0.7,0.3,1.1,0.9,1.1,1.7c0,0.9,0,1.9,0,2.8
			c0,0.2,0,0.4,0,0.6c-0.3,0-0.6,0-0.9,0c0-1.1,0-2.1,0-3.2c0-0.6-0.3-1-0.8-1.2c-0.6-0.2-1.2-0.1-1.6,0.4c-0.2,0.3-0.3,0.8-0.3,1.2
			c-0.1,0.9,0,1.8,0,2.7c-0.3,0-0.5,0-0.8,0c0-2.4,0-4.8,0-7.3c0.3,0.1,0.5,0.1,0.8,0.2C108,104.4,108,105.2,108,106z"/>
		<path class="st16" d="M64.8,108.2c0,1.5-1.2,2.7-2.7,2.7c-1.6,0-2.7-1.2-2.7-2.8c0-1.5,1.2-2.7,2.7-2.7
			C63.7,105.4,64.9,106.6,64.8,108.2z M64,108.2c0-1.1-0.8-1.9-1.8-1.9c-1,0-1.8,0.9-1.8,1.9c0,1.1,0.8,1.9,1.8,1.9
			C63.2,110.1,64,109.3,64,108.2z"/>
		<path class="st16" d="M149.5,105.6c-0.6,1.5-1.2,3.1-1.9,4.6c-0.2,0.4-0.3,0.8-0.5,1.1c-0.6,1.1-1.5,1.3-2.7,0.7
			c0.1-0.2,0.2-0.4,0.2-0.6c0.4,0,0.7,0.1,1.1,0.1c0.6-0.1,0.8-0.7,0.6-1.3c-0.6-1.3-1.2-2.6-1.8-3.9c-0.1-0.2-0.2-0.5-0.3-0.8
			c0.6-0.2,1-0.1,1.2,0.6c0.4,1.1,1,2.2,1.5,3.5c0.5-1.3,1-2.4,1.3-3.5C148.6,105.5,148.9,105.4,149.5,105.6z"/>
		<path class="st16" d="M113,112.1c0.1-0.2,0.2-0.4,0.3-0.6c0.2,0,0.4,0.1,0.5,0.1c0.4-0.1,0.7-0.2,1-0.4c0.3-0.2,0.2-0.6,0.1-1
			c-0.6-1.3-1.2-2.6-1.8-3.9c-0.1-0.2-0.2-0.5-0.3-0.7c0.7-0.2,1,0,1.2,0.6c0.4,1.1,0.9,2.2,1.5,3.4c0.5-1.2,0.9-2.3,1.3-3.4
			c0.3-0.7,0.3-0.7,1.2-0.6c-0.2,0.6-0.5,1.2-0.7,1.8c-0.5,1.3-1,2.5-1.5,3.7C115.2,112.4,114.3,112.7,113,112.1z"/>
		<path class="st16" d="M95,110.8c-0.4,0-0.9,0.2-0.9-0.5c-0.4,0.2-0.7,0.4-1,0.5c-1.3,0.4-2.5-0.3-2.6-1.7c-0.1-1.2,0-2.3,0-3.5
			c0.3,0,0.5,0,0.9,0c0,1,0,1.9,0,2.8c0,1.1,0.4,1.6,1.3,1.6c0.9,0,1.5-0.6,1.5-1.7c0-0.9,0-1.8,0-2.8c0.3,0,0.5,0,0.8,0
			C95,107.3,95,109,95,110.8z"/>
		<path class="st27" d="M55.9,82.5c0.3,0.5,0.6,1,1,1.7c0-0.4,0.1-0.8,0-1c-0.2-0.4-0.1-0.5,0.1-0.9c0.4-0.6,1.3-1,1.1-1.9
			c0,0,0.1-0.8,0.2-0.8c0,0.2,0.1,1.1,0.1,1.4c0,2.5,0.1,5,0.1,7.4c0,0.7,0,1.5-0.1,2.2c-0.1-0.8-0.4-1.3-0.6-2.2
			c-0.1-0.3-0.2-0.7-0.3-1.1C57,85.8,56.4,84.1,55.9,82.5z"/>
		<path class="st28" d="M47.2,95.7c0.2-0.3,0.4-0.6,0.6-0.8c1.1-1.2,2.2-2.3,3.3-3.4c0.2-0.2,0.4-0.4,0.6-0.6c0.6,0.5,1.2,1,1.8,1.6
			c0,0.2-0.1,0.4-0.1,0.6c-0.3-0.1-0.6-0.2-0.9-0.3c0,0.2,0,0.5,0,0.5c-0.8,0.9-1.6,1.7-2.3,2.5C49.1,95.7,48.2,95.7,47.2,95.7z
			 M51.6,93.3c0,0-0.1,0.1,0,0.1c0,0,0.1,0,0.1,0.1c0,0,0.1-0.1,0-0.1C51.7,93.3,51.6,93.3,51.6,93.3z"/>
		<path class="st16" d="M132.6,104.6c-0.8,0-1.6,0-2.3,0c0-0.3,0-0.5,0-0.8c1.8,0,3.6,0,5.5,0c0,0.2,0,0.5,0,0.8c-0.7,0-1.5,0-2.3,0
			c0,2.1,0,4.1,0,6.2c-0.3,0-0.6,0-0.9,0C132.6,108.7,132.6,106.7,132.6,104.6z"/>
		<path class="st16" d="M59,104.2c-1.6-0.1-1.8,0.1-1.7,1.3c0.2,0,0.5,0,0.7,0c0.2,0,0.5,0,0.8,0c0,0.3,0,0.5,0,0.8
			c-0.6,0-1,0-1.6,0c0,1.5,0,2.9,0,4.4c-0.3,0-0.6,0-0.9,0c0-1.4,0-2.9,0-4.3c-0.3,0-0.5-0.1-0.7-0.1c0-0.2,0-0.5,0-0.7
			c0.2,0,0.4-0.1,0.6-0.1c0-0.2,0-0.4,0.1-0.6c0.1-1.1,1.1-1.8,2.2-1.4C58.8,103.6,58.9,103.9,59,104.2z"/>
		<path class="st29" d="M102,68.7c-1.2-0.9-2.5-0.4-3.8-0.5c-0.7-0.1-1.4,0-2.1,0c-0.6,0-0.8,0.3-0.8,0.8c0,1.8,0,3.7,0,5.5
			c0,6.8,0,13.6,0,20.4c0,0.7,0.2,0.9,0.8,0.8c1.6-0.1,3.3,0,5,0c-0.1,0.1-0.2,0.2-0.4,0.2c-1.8,0-3.7,0-5.5,0c0-9.3,0-18.5,0-27.8
			c2.1,0,4.2,0,6.2,0C101.5,68.1,101.8,68.5,102,68.7z"/>
		<path class="st30" d="M51.7,88.7c0.2,0,0.4,0,0.5,0c0.1,0.1,0.3,0.2,0.4,0.4c0.1-0.2,0.1-0.4,0.2-0.6c0-0.1,0-0.2,0.1-0.3
			c1.1,0,1.6-0.6,1.9-1.5c0.2-0.3,0.7,0.6,0.8-0.3c0.3,0.7,0.6,1.5,0.8,2.2c-0.2,0.1-0.4,0.3-0.6,0.4c-0.4,0.3-0.9,0.6-1,1
			c-0.1,0.8-0.4,0.7-0.9,0.4c-0.1-0.1-0.3,0-0.4,0C52.9,89.9,52.3,89.3,51.7,88.7z"/>
		<path class="st16" d="M99.1,106.4c-1.1,0.4-1.5,0.9-1.6,2.1c0,0.7,0,1.5,0,2.2c-0.3,0-0.6,0-0.9,0c0-1.7,0-3.4,0-5.2
			c0.3,0,0.5,0,0.8,0c0,0.2,0.1,0.5,0.1,0.7c0.5-0.2,0.9-0.5,1.4-0.7C99.4,105.8,99.6,106,99.1,106.4z"/>
		<path class="st16" d="M143.1,110.7c-0.3,0-0.5,0-0.8,0c0-2.4,0-4.8,0-7.3c0.3,0,0.5,0,0.8,0C143.1,105.9,143.1,108.3,143.1,110.7z
			"/>
		<path class="st16" d="M38,105.6c0.3,0,0.5,0,0.8,0c0,0.3,0.1,0.6,0.1,0.9c0.5-0.7,1.1-1.1,2-1c0,0.3,0,0.6,0,0.9
			c-1.6,0.4-2,1-2,2.6c0,0.6,0,1.1,0,1.8c-0.3,0-0.5,0-0.8,0C38,109,38,107.3,38,105.6z"/>
		<path class="st29" d="M135,95.7c0-0.3,0-0.6,0-0.9c0-6.7,0-13.4,0-20.1c0-0.2,0-0.4,0-0.6c0,0,0.1,0,0.1,0c0,0.2,0,0.5,0,0.7
			c0,6.7,0,13.3,0,20c0,0.9,0,0.9,0.9,0.9c1.6,0,3.2,0,4.8,0c0-0.3,0-0.6,0-0.9c0-6.8,0-13.6,0-20.4c0-0.2,0-0.4,0-0.6c0,0,0,0,0,0
			c0,0,0,0,0.1,0c0,7.3,0,14.6,0,22.1c-0.2,0-0.4,0-0.7,0c-1.6,0-3.2,0-4.8,0C135.4,95.9,135.2,95.8,135,95.7z"/>
		<path class="st31" d="M50.1,95.7c0.8-0.8,1.5-1.6,2.3-2.5c0,0,0-0.3,0-0.5c0.3,0.1,0.6,0.2,0.9,0.3c0-0.2,0.1-0.4,0.1-0.6
			c0.3,0.3,0.6,0.6,0.8,0.9c-0.3,1.2-1.6,2.4-2.8,2.4C51,95.7,50.5,95.7,50.1,95.7z"/>
		<path class="st32" d="M53.5,90.5c0.1,0,0.3,0,0.4,0c0.5,0.3,0.8,0.4,0.9-0.4c0.1-0.4,0.6-0.7,1-1c0.2-0.2,0.4-0.3,0.6-0.4
			c0.3,0.9,0.6,1.7,0.8,2.6c-0.2-0.1-0.5-0.2-0.8-0.3c0.1,0.3,0.2,0.5,0.3,0.9c-0.4-0.3-0.5-0.4-0.7-0.5c-0.3,0.3-0.6,0.5-0.9,0.7
			C54.6,91.6,54.1,91,53.5,90.5z"/>
		<path class="st16" d="M140.5,110.7c-0.3,0-0.5,0-0.8,0c0-2.4,0-4.8,0-7.3c0.2,0,0.5,0,0.8,0C140.5,105.9,140.5,108.3,140.5,110.7z
			"/>
		<path class="st33" d="M55.2,92.2c0.3-0.2,0.6-0.5,0.9-0.7c0.2,0.1,0.3,0.3,0.7,0.5c-0.1-0.4-0.2-0.6-0.3-0.9
			c0.3,0.1,0.5,0.2,0.8,0.3c0.3,1,0.5,1.9,0.8,2.9c-0.1,0.3-0.2,0.6-0.2,0.9c0,0,0-0.1,0-0.1c0,0-0.1-0.1-0.1-0.1
			C56.8,94,56,93.1,55.2,92.2z"/>
		<path class="st34" d="M51.5,95.6c1.2,0,2.5-1.1,2.8-2.3c0.4,0.3,0.8,0.7,1.3,1c0.5,0.4,0.9,0.7,1.4,1.1c-0.1,0.1-0.1,0.2-0.2,0.3
			c-1.8,0-3.5,0-5.3,0C51.5,95.7,51.5,95.6,51.5,95.6z"/>
		<path class="st16" d="M68.1,105.6c0.3-0.1,0.6-0.2,0.9-0.3c0,0.4,0,0.7,0,1c-0.9,0-1.6,0.5-1.9,1.3c-0.1,0.2-0.2,0.5-0.2,0.7
			c0,0.6,0,1.2,0,1.8c0,0.1-0.2,0.2-0.3,0.4c-0.1-0.1-0.2-0.2-0.2-0.3c0-1.3,0-2.6,0-4c0-0.1,0.2-0.2,0.3-0.4
			c0.1,0.1,0.2,0.2,0.3,0.3c0,0.1,0.1,0.2,0.1,0.5c0.3-0.4,0.5-0.6,0.7-0.9c0,0,0,0,0,0C67.8,105.8,68,105.7,68.1,105.6z"/>
		<path class="st16" d="M137.1,105.6c0.3,0,0.5,0,0.8,0c0,1.7,0,3.4,0,5.2c-0.2,0-0.5,0-0.8,0C137.1,109,137.1,107.3,137.1,105.6z"
			/>
		<path class="st17" d="M31.6,79.8c-0.2,0.1-0.5,0.1-0.8,0.2c0,3.8,0,7.7,0,11.6c-0.1-0.4-0.2-0.8-0.2-1.3c0-3.5,0-7,0-10.5
			c0-0.1,0-0.2,0-0.4C31,79.5,31.3,79.7,31.6,79.8z"/>
		<path class="st16" d="M67.7,105.9c-0.2,0.2-0.4,0.5-0.7,0.9c-0.1-0.3-0.1-0.4-0.1-0.5c-0.1-0.1-0.2-0.2-0.3-0.3
			c-0.1,0.1-0.3,0.2-0.3,0.4c0,1.3,0,2.6,0,4c0,0.1,0.2,0.2,0.2,0.3c0.1-0.1,0.3-0.2,0.3-0.4c0-0.6,0-1.2,0-1.8
			c0-0.3,0.2-0.5,0.2-0.7c-0.1,1-0.1,2-0.2,3.1c-0.3,0-0.5,0-0.9,0c0-1.2,0-2.3,0-3.5c0-0.6,0.1-1.2,0.1-1.8c0.2,0,0.3,0,0.5,0
			c0.1,0.2,0.3,0.5,0.4,0.7C67.3,106.2,67.5,106,67.7,105.9z"/>
		<path class="st16" d="M76.5,109.6c0.4,0,0.7,0,1.1,0c0,0.4,0.1,0.9,0,1.2c-0.1,0.4-0.4,0.7-0.7,0.9c-0.1,0.1-0.4,0-0.5,0.1
			c0.1-0.2,0.1-0.4,0.2-0.5c0.2-0.2,0.3-0.3,0.1-0.7C76.5,110.5,76.5,110,76.5,109.6z"/>
		<path class="st16" d="M83.1,104c-0.2,0-0.5,0-0.8,0c0,0.7,0,1.2,0,1.8c0,1.4,0,2.8,0,4.1c0,0.2,0.2,0.4,0.3,0.6
			c0.1-0.2,0.2-0.4,0.2-0.6c0-1.4,0-2.8,0.1-4.2c0,1.6,0,3.2,0,4.8c-0.2,0.1-0.5,0.2-0.8,0.3c0-2.4,0-4.7,0-7c0.2,0,0.4,0,0.7-0.1
			C82.9,103.8,83,103.9,83.1,104z"/>
		<path class="st35" d="M137,104.5c0-0.3,0-0.6,0-0.9c0.3,0,0.6,0,1,0c0,0.3,0,0.6,0,0.9C137.7,104.5,137.4,104.5,137,104.5z"/>
		<path class="st29" d="M116.7,95.7c2,0,4,0,6,0c-0.1,0.1-0.2,0.2-0.4,0.2c-1.8,0-3.6,0-5.4,0C116.9,95.9,116.8,95.8,116.7,95.7z"/>
		<path class="st16" d="M74.2,110.4c0.5,0.3,0.7,0.2,0.7-0.4c0-1.2,0-2.5,0.1-3.7c0,1.4,0,2.9,0,4.3C74.7,110.8,74.4,111,74.2,110.4
			z"/>
		<path class="st17" d="M45.2,86.1c-0.1,0.1-0.2,0.2-0.3,0.2c-0.2,0.1-0.4,0.2-0.5,0.3c-0.1-0.2-0.2-0.4-0.3-0.5
			c0.2,0,0.3,0,0.5-0.1c-0.1-0.2-0.2-0.3-0.2-0.5c0,0,0,0,0,0C44.6,85.7,44.9,85.9,45.2,86.1z"/>
		<path class="st16" d="M45.3,110.6c0.2,0,0.4,0,0.7,0c0-1.3,0-2.5,0-3.7c0,1.2,0,2.5,0,3.7c0,0-0.1,0.1-0.1,0.1c-0.2,0-0.3,0-0.5,0
			C45.4,110.7,45.3,110.6,45.3,110.6z"/>
		<path class="st30" d="M49.1,86.4c0.9-0.2,0.9,0.6,1.2,1.1C50,87.1,49.5,86.7,49.1,86.4z"/>
		<path class="st16" d="M99.1,106.4c0.5-0.4,0.3-0.7-0.1-0.9c0.2,0,0.4-0.1,0.6-0.1C99.5,105.9,100,106.4,99.1,106.4z"/>
		<path class="st26" d="M48.2,85.3c0.1,0.2,0.2,0.4,0.3,0.5c-0.4-0.4-0.9-0.7-1.3-1.1C47.5,84.9,47.8,85.1,48.2,85.3z"/>
		<path class="st29" d="M108,106c0-0.8,0-1.7,0-2.5C108,104.4,108,105.2,108,106z"/>
		<path class="st28" d="M30.8,91.6c0.1,0.3,0.2,0.6,0.3,0.8C31,92.2,30.9,91.9,30.8,91.6z"/>
		<path class="st26" d="M46.5,84.2c0.1-0.1,0.3-0.1,0.5-0.2c0,0.2-0.1,0.4-0.1,0.5c-0.1,0-0.1,0-0.2,0
			C46.7,84.4,46.6,84.3,46.5,84.2C46.5,84.2,46.5,84.2,46.5,84.2z"/>
		<path class="st30" d="M46.5,84.2C46.5,84.2,46.5,84.2,46.5,84.2c-0.2,0-0.3-0.1-0.4-0.3C46.2,84,46.4,84.1,46.5,84.2z"/>
		<path class="st24" d="M52.3,80.3c0-0.2,0-0.3,0-0.5c0.1,0.2,0.2,0.3,0.3,0.5C52.5,80.3,52.4,80.3,52.3,80.3z"/>
		<path class="st31" d="M68.1,105.6c-0.1,0.1-0.3,0.2-0.4,0.2C67.8,105.8,68,105.7,68.1,105.6z"/>
		<path class="st36" d="M82.8,103.8c-0.2,0-0.4,0-0.7,0.1C82.4,103.8,82.6,103.8,82.8,103.8z"/>
		<path class="st16" d="M36.4,109.2c-0.1,0-0.2,0-0.4,0C36.2,109.2,36.3,109.2,36.4,109.2z"/>
		<path class="st16" d="M36.1,109.2c-0.1,0.1-0.2,0.2-0.3,0.2C35.9,109.4,36,109.3,36.1,109.2z"/>
		<path class="st16" d="M36.6,109.8c0-0.1,0-0.2,0-0.4C36.6,109.6,36.6,109.7,36.6,109.8z"/>
		<path class="st16" d="M45.4,110.7c0.2,0,0.3,0,0.5,0C45.8,110.7,45.6,110.7,45.4,110.7z"/>
		<path class="st33" d="M46.8,84.5c0.1,0,0.1,0,0.2,0c0,0.1,0.1,0.2,0.1,0.3C47,84.6,46.9,84.5,46.8,84.5z"/>
		<path class="st30" d="M48.8,86.1c0.1,0.1,0.2,0.2,0.3,0.3C49,86.3,48.9,86.2,48.8,86.1z"/>
		<path class="st34" d="M66.7,105.5c-0.2,0-0.3,0-0.5,0C66.4,105.6,66.6,105.5,66.7,105.5z"/>
		<path class="st29" d="M102.4,69.3c-0.1-0.1-0.1-0.2-0.2-0.3C102.2,69.1,102.3,69.2,102.4,69.3z"/>
		<path class="st29" d="M102.2,69c0-0.1-0.1-0.2-0.1-0.3C102.1,68.8,102.1,68.9,102.2,69z"/>
		<path class="st18" d="M51.3,78.1c0,0-0.1-0.1-0.1-0.1C51.2,78,51.3,78.1,51.3,78.1z"/>
		<path class="st27" d="M57.7,94.9c0,0,0.1,0.1,0.1,0.1C57.7,95,57.7,94.9,57.7,94.9z"/>
		<path class="st22" d="M44.7,82.3c0,0,0.1,0,0.1,0.1c0,0,0,0.1,0,0.1c0,0-0.1,0-0.1-0.1C44.6,82.4,44.7,82.3,44.7,82.3z"/>
		<path class="st19" d="M44.3,85.6c0.1,0.1,0.1,0.3,0.2,0.5c-0.2,0-0.3,0-0.5,0.1c-0.1-0.1-0.1-0.3-0.2-0.5
			C44,85.6,44.1,85.6,44.3,85.6z"/>
		<path class="st19" d="M33.5,94.7c0.2,0,0.3,0.1,0.5,0.1c0,0.1,0,0.1,0,0.2c-0.2,0-0.3-0.1-0.5-0.1C33.4,94.8,33.4,94.8,33.5,94.7z
			"/>
		<path class="st19" d="M43.4,85.4c0,0,0,0.1-0.1,0.1c0,0-0.1,0-0.1,0c0,0,0-0.1,0.1-0.1C43.3,85.3,43.4,85.3,43.4,85.4z"/>
		<path class="st16" d="M42.9,86.4c-0.1,0-0.2,0-0.3,0c0.1-0.1,0.1-0.1,0.2-0.2C42.9,86.2,42.9,86.3,42.9,86.4z"/>
		<path class="st19" d="M42.8,84.9C42.8,84.9,42.8,84.9,42.8,84.9C42.8,84.9,42.8,84.9,42.8,84.9C42.8,84.9,42.8,84.9,42.8,84.9
			C42.8,84.9,42.8,84.9,42.8,84.9z"/>
		<path class="st23" d="M54.8,76.7c-0.1-0.2-0.2-0.4-0.2-0.7c0,0,0.2-0.1,0.3-0.1c0.1,0.2,0.2,0.5,0.2,0.7
			C55,76.7,54.9,76.7,54.8,76.7z"/>
		<path class="st24" d="M52.4,80.4c-0.2,0.1-0.3,0.2-0.5,0.3c0,0-0.1-0.1-0.1-0.1c0.2-0.1,0.3-0.3,0.5-0.4
			C52.2,80.3,52.3,80.4,52.4,80.4z"/>
		<path class="st29" d="M74.9,105.9c0-0.1,0-0.2,0-0.3c0-0.6,0-1.3,0.1-1.9C75,104.5,75,105.2,74.9,105.9
			C74.9,105.9,74.9,105.9,74.9,105.9z"/>
		<path class="st24" d="M54,85.2c0-0.2,0-0.4,0-0.7c0,0,0.1,0,0.1,0c0,0.2,0,0.4,0.1,0.7C54.1,85.2,54.1,85.2,54,85.2z"/>
		<path class="st31" d="M51.6,93.3c0,0,0.1,0,0.1,0.1c0,0,0,0.1,0,0.1c0,0-0.1,0-0.1-0.1C51.5,93.4,51.5,93.3,51.6,93.3z"/>
	</g>
</g>
</svg>
