<?xml version="1.0" encoding="utf-8"?>
<!-- Generator: Adobe Illustrator 18.1.1, SVG Export Plug-In . SVG Version: 6.00 Build 0)  -->
<svg version="1.1" id="makermark-icon-2" xmlns="http://www.w3.org/2000/svg" xmlns:xlink="http://www.w3.org/1999/xlink" x="0px"
	 y="0px" viewBox="0 0 400 400" style="enable-background:new 0 0 400 400;" xml:space="preserve">
<style type="text/css">
	.st0{fill:none;stroke:#231F20;stroke-width:2;stroke-miterlimit:10;}
	.st1{fill:#AAAD00;stroke:#231F20;stroke-width:2;stroke-miterlimit:10;}
</style>
<g id="bar1">
	<rect id="bar1-outline" x="1.5" y="303.18" class="st0" width="66.125" height="50.771"/>
	<line id="dash1_4_" class="st0" x1="26.775" y1="332.224" x2="5.491" y2="332.224"/>
</g>
<g id="bar2">
	<rect id="bar2-outline" x="79.43" y="260.391" class="st0" width="66.125" height="93.56"/>
	<line id="dash1_3_" class="st0" x1="100.853" y1="332.224" x2="79.43" y2="332.224"/>
	<line id="dash2_3_" class="st0" x1="100.853" y1="310.94" x2="79.43" y2="310.94"/>
	<line id="dash3_3_" class="st0" x1="100.853" y1="289.656" x2="79.43" y2="289.656"/>
</g>
<g id="bar3">
	<rect id="bar3-outline" x="156.954" y="197.204" class="st0" width="65.722" height="156.304"/>
	<line id="dash1_2_" class="st0" x1="178.377" y1="332.224" x2="156.954" y2="332.224"/>
	<line id="dash2_2_" class="st0" x1="178.377" y1="310.94" x2="156.954" y2="310.94"/>
	<line id="dash3_2_" class="st0" x1="178.377" y1="289.656" x2="156.954" y2="289.656"/>
	<line id="dash4_2_" class="st0" x1="178.377" y1="268.372" x2="156.954" y2="268.372"/>
	<line id="dash5_2_" class="st0" x1="178.377" y1="247.089" x2="156.954" y2="247.089"/>
	<line id="dash6_2_" class="st0" x1="178.377" y1="225.805" x2="156.954" y2="225.805"/>
</g>
<g id="bar4">
	<rect id="bar4-outline" x="234.074" y="153.971" class="st0" width="66.53" height="199.98"/>
	<line id="dash1_1_" class="st0" x1="255.496" y1="332.224" x2="234.074" y2="332.224"/>
	<line id="dash2_1_" class="st0" x1="255.496" y1="310.94" x2="234.074" y2="310.94"/>
	<line id="dash3_1_" class="st0" x1="255.496" y1="289.656" x2="234.074" y2="289.656"/>
	<line id="dash4_1_" class="st0" x1="255.496" y1="268.372" x2="234.074" y2="268.372"/>
	<line id="dash5_1_" class="st0" x1="255.496" y1="247.089" x2="234.074" y2="247.089"/>
	<line id="dash6_1_" class="st0" x1="255.496" y1="225.805" x2="234.074" y2="225.805"/>
	<line id="dash7_1_" class="st0" x1="255.496" y1="204.521" x2="234.074" y2="204.521"/>
	<line id="dash8_1_" class="st0" x1="255.496" y1="183.237" x2="234.074" y2="183.237"/>
</g>
<g id="bar5">
	<polygon id="b5-outline" class="st1" points="377.728,353.951 311.198,353.951 311.198,98.197 287.964,98.026 344.542,46.049 
		398.5,98.629 377.728,98.455 	"/>
	<line id="dash1" class="st0" x1="332.761" y1="332.224" x2="311.339" y2="332.224"/>
	<line id="dash2" class="st0" x1="332.761" y1="310.94" x2="311.339" y2="310.94"/>
	<line id="dash3" class="st0" x1="332.761" y1="289.656" x2="311.339" y2="289.656"/>
	<line id="dash4" class="st0" x1="332.761" y1="268.372" x2="311.339" y2="268.372"/>
	<line id="dash5" class="st0" x1="332.761" y1="247.089" x2="311.339" y2="247.089"/>
	<line id="dash6" class="st0" x1="332.761" y1="225.805" x2="311.339" y2="225.805"/>
	<line id="dash7" class="st0" x1="332.761" y1="204.521" x2="311.339" y2="204.521"/>
	<line id="dash8" class="st0" x1="332.761" y1="183.237" x2="311.339" y2="183.237"/>
	<line id="dash9" class="st0" x1="332.761" y1="161.953" x2="311.339" y2="161.953"/>
	<line id="dash10" class="st0" x1="332.761" y1="140.669" x2="311.339" y2="140.669"/>
	<line id="dash11" class="st0" x1="332.761" y1="119.385" x2="311.339" y2="119.385"/>
</g>
</svg>
