<?xml version="1.0" encoding="utf-8"?>
<!-- Generator: Adobe Illustrator 19.2.1, SVG Export Plug-In . SVG Version: 6.00 Build 0)  -->
<svg version="1.1" id="Layer_1" xmlns="http://www.w3.org/2000/svg" xmlns:xlink="http://www.w3.org/1999/xlink" x="0px" y="0px"
	 viewBox="0 0 205.3 119.4" style="enable-background:new 0 0 205.3 119.4;" xml:space="preserve">
<style type="text/css">
	.st0{fill:#FFFFFF;}
	.st1{fill:#21368B;}
	.st2{fill:#FFEA53;}
</style>
<g>
	<g>
		<g>
			<path class="st0" d="M102.6,0L102.6,0L102.6,0L102,0c-1.7,0-3.4,0.5-4.8,1.4c-1.3-0.8-2.8-1.2-4.3-1.2c-0.2,0-0.3,0-0.5,0l-0.8,0
				C89.9,0.4,88.3,1,87,2c-1.2-0.6-2.5-0.9-3.9-0.9c-0.3,0-0.7,0-1,0.1l-0.7,0.1c-1.7,0.2-3.3,0.9-4.5,2c-1.1-0.5-2.2-0.7-3.4-0.7
				c-0.5,0-1,0-1.6,0.1l-0.7,0.1c-1.7,0.3-3.2,1.1-4.4,2.3c-0.9-0.3-1.9-0.5-2.9-0.5c-0.7,0-1.4,0.1-2.1,0.3L61,5
				c-1.7,0.4-3.2,1.3-4.3,2.6c-0.8-0.2-1.5-0.3-2.3-0.3c-0.9,0-1.8,0.1-2.7,0.4L50.9,8c-1.6,0.6-3.1,1.6-4.1,2.9
				c-0.5-0.1-1.1-0.2-1.7-0.2c-1.2,0-2.3,0.2-3.4,0.7l-0.7,0.3c-1.6,0.7-2.9,1.8-3.8,3.3c-0.3,0-0.6,0-0.9,0c-1.4,0-2.9,0.4-4.1,1
				c-0.2,0.1-0.5,0.3-0.7,0.4C30,17.2,28.8,18.5,28,20c-1.8,0-3.5,0.6-4.9,1.6c-0.2,0.2-0.4,0.3-0.7,0.5c-1.5,1.1-2.5,2.5-3,4.2
				c-1.8,0.3-3.5,1.1-4.8,2.3c-0.2,0.2-0.4,0.4-0.6,0.6c-1.3,1.3-2.1,3-2.3,4.8c-1.8,0.6-3.3,1.7-4.4,3.3c-0.1,0.2-0.3,0.4-0.4,0.6
				c-1.1,1.6-1.5,3.5-1.3,5.4c-1.7,1-2.9,2.6-3.5,4.4c-0.1,0.3-0.2,0.5-0.3,0.8c-0.6,1.9-0.5,3.9,0.3,5.7C0.7,55.7,0,57.6,0,59.6
				v0.1c0,0.2,0,0.5,0,0.7c0,2,0.8,3.9,2.1,5.3c-0.8,1.8-0.8,3.8-0.2,5.7C2,71.8,2.1,72,2.2,72.3c0.7,1.8,1.9,3.4,3.6,4.3
				c-0.2,1.9,0.3,3.8,1.4,5.4c0.1,0.2,0.3,0.4,0.4,0.6c1.1,1.5,2.6,2.7,4.4,3.2c0.2,1.8,1.1,3.5,2.4,4.8c0.1,0.1,0.3,0.3,0.4,0.4
				l0.1,0.1c1.3,1.3,3,2.1,4.8,2.3c0.5,1.7,1.6,3.1,3.1,4.2l0.6,0.4c1.5,1,3.2,1.6,5,1.6c0.8,1.6,2,2.8,3.6,3.7l0.6,0.3
				c1.3,0.7,2.7,1,4.1,1c0.3,0,0.6,0,0.9,0c0.9,1.4,2.2,2.6,3.9,3.3l0.7,0.3c1.1,0.4,2.2,0.7,3.3,0.7c0.6,0,1.1-0.1,1.7-0.2
				c1,1.3,2.4,2.3,4.1,2.9l0.7,0.2c0.9,0.3,1.8,0.4,2.7,0.4c0.8,0,1.6-0.1,2.4-0.3c1.1,1.3,2.6,2.1,4.3,2.6l0.7,0.2
				c0.7,0.2,1.4,0.3,2.1,0.3c1,0,2-0.2,2.9-0.5c1.2,1.2,2.7,1.9,4.4,2.3l0.7,0.1c0.5,0.1,1,0.1,1.5,0.1c1.2,0,2.4-0.2,3.4-0.7
				c1.3,1.1,2.9,1.8,4.6,2l0.7,0.1c0.3,0,0.7,0.1,1,0.1c1.4,0,2.7-0.3,3.9-0.9c1.3,1,2.9,1.6,4.7,1.7l0.7,0c0.2,0,0.3,0,0.5,0
				c1.5,0,3-0.4,4.3-1.2c1.4,0.9,3,1.4,4.8,1.4h0.1h0.6c1.7,0,3.4-0.5,4.7-1.4c1.3,0.8,2.8,1.2,4.3,1.2c0.2,0,0.3,0,0.5,0l0.7,0
				c1.7-0.1,3.3-0.7,4.7-1.7c1.2,0.6,2.5,0.9,3.9,0.9c0.3,0,0.7,0,1-0.1l0.7-0.1c1.7-0.2,3.3-0.9,4.6-2c1.1,0.5,2.2,0.7,3.4,0.7
				c0.5,0,1,0,1.6-0.1l0.7-0.1c1.7-0.3,3.2-1.1,4.4-2.3c0.9,0.3,1.9,0.5,2.9,0.5c0.7,0,1.4-0.1,2.1-0.3l0.7-0.2
				c1.7-0.4,3.2-1.3,4.3-2.6c0.8,0.2,1.5,0.3,2.3,0.3c0.9,0,1.8-0.1,2.7-0.4l0.7-0.2c1.7-0.6,3.1-1.6,4.1-2.9
				c0.5,0.1,1.1,0.2,1.7,0.2c1.2,0,2.3-0.2,3.4-0.7l0.7-0.3c1.6-0.7,2.9-1.8,3.8-3.3c0.3,0,0.6,0,0.9,0c1.4,0,2.9-0.4,4.1-1l0.6-0.3
				c1.6-0.9,2.8-2.2,3.5-3.7c1.8,0,3.5-0.6,4.9-1.6c0.2-0.1,0.4-0.3,0.7-0.5c1.5-1.1,2.5-2.5,3-4.2c1.8-0.2,3.5-1.1,4.8-2.3l0.5-0.5
				c1.3-1.3,2.2-3,2.4-4.8c1.8-0.6,3.3-1.7,4.4-3.3c0.2-0.2,0.3-0.5,0.5-0.7c1-1.6,1.5-3.5,1.3-5.3c1.7-1,2.9-2.6,3.5-4.4
				c0.1-0.3,0.2-0.5,0.3-0.8c0.6-1.9,0.5-3.9-0.3-5.7c1.3-1.5,2.1-3.4,2.1-5.4v-0.2c0-0.3,0-0.6,0-0.8c0-2-0.8-3.9-2.2-5.4
				c0.8-1.8,0.8-3.8,0.2-5.7c-0.1-0.3-0.2-0.5-0.3-0.8c-0.7-1.9-2-3.4-3.6-4.4c0.2-1.9-0.3-3.8-1.4-5.4l-0.1-0.2
				c-0.1-0.2-0.2-0.3-0.3-0.5c-1.1-1.5-2.6-2.7-4.4-3.2c-0.3-1.8-1.1-3.5-2.4-4.8l-0.2-0.2c-0.1-0.1-0.3-0.3-0.4-0.4
				c-1.3-1.3-3-2-4.8-2.3c-0.6-1.7-1.6-3.1-3.1-4.2l-0.6-0.4c-1.5-1-3.2-1.6-5-1.6c0,0,0,0,0,0c-0.8-1.5-2-2.8-3.6-3.7l-0.7-0.4
				c-1.3-0.7-2.7-1-4.1-1c-0.3,0-0.6,0-0.9,0c-0.9-1.4-2.2-2.6-3.9-3.3l-0.7-0.3c-1.1-0.4-2.2-0.7-3.3-0.7c-0.6,0-1.1,0.1-1.7,0.2
				c-1-1.3-2.4-2.3-4.1-2.9L153,7.5c-0.9-0.3-1.8-0.4-2.7-0.4c-0.8,0-1.6,0.1-2.4,0.3c-1.1-1.3-2.6-2.1-4.3-2.6L143,4.7
				c-0.7-0.2-1.4-0.2-2.1-0.2c-1,0-2,0.2-2.9,0.5c-1.2-1.2-2.7-1.9-4.4-2.2l-0.8-0.1c-0.5-0.1-1-0.1-1.5-0.1c-1.2,0-2.4,0.2-3.4,0.7
				c-1.3-1.1-2.9-1.8-4.6-2l-0.7-0.1c-0.3,0-0.7-0.1-1-0.1c-1.4,0-2.7,0.3-3.9,0.9c-1.3-1-3-1.6-4.7-1.7l-0.7,0c-0.2,0-0.3,0-0.5,0
				c-1.6,0-3.1,0.4-4.4,1.2C106,0.5,104.4,0,102.6,0L102.6,0z"/>
		</g>
		<path class="st1" d="M200.8,59.9v-0.2c0-0.3,0-0.5,0-0.8c0-2-1-3.7-2.5-4.8c1-1.5,1.3-3.4,0.7-5.3c-0.1-0.2-0.2-0.5-0.3-0.7
			c-0.7-1.8-2.1-3.1-3.8-3.8c0.5-1.7,0.3-3.5-0.8-5.1c-0.1-0.2-0.3-0.4-0.4-0.6c-1.1-1.5-2.8-2.4-4.6-2.7c0.1-1.7-0.5-3.4-1.9-4.7
			c-0.2-0.2-0.4-0.3-0.5-0.5c-1.3-1.2-3.1-1.8-4.9-1.8c-0.2-1.6-1.1-3.2-2.6-4.2l-0.6-0.4c-1.5-1-3.3-1.4-5-1.1
			c-0.4-1.6-1.5-3-3.1-3.8l-0.6-0.3c-1.6-0.8-3.4-1-5-0.5c-0.6-1.5-1.8-2.8-3.5-3.5l-0.7-0.3c-1.7-0.7-3.5-0.7-5-0.1
			c-0.7-1.4-2.1-2.6-3.8-3.1l-0.7-0.2c-1.7-0.5-3.5-0.4-5,0.3c-0.9-1.4-2.3-2.4-4-2.8l-0.7-0.2c-1.7-0.4-3.5-0.1-4.9,0.7
			c-0.9-1.3-2.4-2.2-4.2-2.5l-0.7-0.1c-1.8-0.3-3.5,0.1-4.8,1c-1-1.2-2.6-2.1-4.3-2.3l-0.7-0.1c-1.8-0.2-3.5,0.3-4.8,1.3
			c-1.1-1.2-2.7-1.9-4.5-2l-0.7,0c-1.8-0.1-3.5,0.5-4.7,1.5c-1.2-1.1-2.8-1.8-4.6-1.8l-0.7,0c-1.8,0-3.4,0.7-4.6,1.8
			c-1.2-1-2.9-1.6-4.7-1.5l-0.7,0c-1.8,0.1-3.3,0.9-4.4,2c-1.3-1-3-1.4-4.8-1.2l-0.7,0.1c-1.8,0.2-3.3,1.1-4.3,2.3
			c-1.4-0.9-3.1-1.3-4.9-1l-0.7,0.1c-1.8,0.3-3.2,1.3-4.2,2.6c-1.4-0.8-3.2-1.1-4.9-0.6l-0.7,0.2c-1.7,0.4-3.1,1.5-4,2.8
			c-1.5-0.7-3.3-0.9-5-0.3l-0.7,0.2c-1.7,0.6-3,1.7-3.7,3.1c-1.6-0.6-3.3-0.6-5,0.1l-0.7,0.3c-1.7,0.7-2.9,2-3.5,3.5
			c-1.6-0.4-3.4-0.3-5,0.5c-0.2,0.1-0.4,0.2-0.7,0.4c-1.6,0.9-2.7,2.3-3.1,3.8c-1.7-0.3-3.5,0.1-5,1.1c-0.2,0.1-0.4,0.3-0.6,0.4
			c-1.5,1.1-2.4,2.6-2.6,4.2c-1.8-0.1-3.5,0.5-4.9,1.8c-0.2,0.2-0.4,0.4-0.6,0.5c-1.3,1.3-1.9,3-1.8,4.7c-1.8,0.3-3.5,1.2-4.5,2.7
			c-0.1,0.2-0.3,0.4-0.4,0.6c-1.1,1.6-1.3,3.5-0.7,5.1c-1.7,0.7-3.2,2-3.8,3.8c-0.1,0.2-0.2,0.5-0.2,0.7c-0.6,1.9-0.2,3.8,0.8,5.3
			c-1.5,1.1-2.4,2.9-2.4,4.8v0.1c0,0.2,0,0.4,0,0.7c0,1.9,1,3.7,2.5,4.8c-1,1.5-1.4,3.4-0.7,5.3c0.1,0.2,0.2,0.5,0.3,0.7
			c0.7,1.8,2.1,3.1,3.8,3.8c-0.5,1.7-0.3,3.6,0.8,5.1c0.1,0.2,0.3,0.4,0.4,0.6c1.1,1.5,2.8,2.5,4.6,2.7C16,85,16.6,86.7,18,88
			c0.2,0.2,0.4,0.3,0.5,0.5c1.3,1.3,3.1,1.8,4.9,1.8c0.2,1.6,1.1,3.2,2.6,4.2l0.6,0.4c1.5,1,3.3,1.4,5,1.1c0.4,1.6,1.5,3,3.1,3.8
			l0.6,0.3c1.6,0.8,3.4,1,5,0.5c0.6,1.5,1.8,2.8,3.5,3.5l0.7,0.3c1.7,0.7,3.5,0.7,5,0.1c0.7,1.4,2.1,2.6,3.8,3.1l0.7,0.2
			c1.7,0.5,3.5,0.4,4.9-0.3c0.9,1.4,2.3,2.4,4,2.8l0.7,0.2c1.7,0.4,3.5,0.1,4.9-0.7c0.9,1.3,2.4,2.2,4.2,2.5l0.7,0.1
			c1.8,0.3,3.5-0.1,4.9-1c1,1.2,2.6,2.1,4.3,2.3l0.7,0.1c1.8,0.2,3.5-0.3,4.8-1.3c1.1,1.2,2.7,1.9,4.4,2l0.7,0
			c1.8,0.1,3.4-0.5,4.7-1.5c1.2,1.1,2.8,1.8,4.6,1.8h0.1h0.6c1.8,0,3.4-0.7,4.6-1.8c1.2,1,2.9,1.6,4.7,1.5l0.7,0
			c1.8-0.1,3.4-0.9,4.5-2c1.3,1,3,1.4,4.8,1.2l0.7-0.1c1.8-0.2,3.3-1.1,4.3-2.3c1.4,0.9,3.1,1.3,4.9,1l0.7-0.1
			c1.8-0.3,3.2-1.3,4.2-2.6c1.4,0.8,3.2,1.1,4.9,0.7l0.7-0.2c1.7-0.4,3.1-1.5,4-2.8c1.5,0.7,3.3,0.9,5,0.3l0.7-0.2
			c1.7-0.6,3-1.7,3.7-3.1c1.6,0.6,3.4,0.6,5-0.1l0.7-0.3c1.7-0.7,2.9-2,3.5-3.5c1.6,0.4,3.4,0.3,5-0.5l0.6-0.3
			c1.6-0.9,2.7-2.3,3.1-3.8c1.7,0.3,3.5-0.1,5-1.1c0.2-0.1,0.4-0.3,0.6-0.4c1.5-1.1,2.4-2.6,2.6-4.2c1.8,0.1,3.5-0.5,4.9-1.8
			l0.5-0.5c1.3-1.3,2-3,1.9-4.7c1.8-0.2,3.4-1.2,4.5-2.7c0.2-0.2,0.3-0.4,0.4-0.6c1.1-1.6,1.3-3.5,0.7-5.1c1.7-0.7,3.2-2,3.8-3.8
			c0.1-0.3,0.2-0.5,0.3-0.8c0.6-1.8,0.2-3.8-0.8-5.3C199.8,63.6,200.8,61.9,200.8,59.9z"/>
	</g>
	<g>
		<g>
			<path class="st2" d="M81.9,27.5L60.5,89c-1.8,5.5-6.2,6-13,8c-0.4,0.1-0.6-0.3-0.5-0.5c0.4-0.8,11.4-27.4,13.4-32.4
				c0.1-0.2-0.1-0.5-0.3-0.5h-4.1c-2.7,0-4-1.4-3.5-4.2l0.8-3.9c0-0.2,0.2-0.3,0.4-0.3h10.7c0.1,0,0.3-0.1,0.3-0.2
				c1.1-2.6,6.9-16.8,7.2-17.6c0.1-0.1,0-0.3-0.1-0.4c-8.7-7.2-17.1-8.7-25.1-7.1c-6.4,1.3-14.1,6.1-15,12.8
				c-1.1,7.8,6.7,12.2,15,9.7c0.2-0.1,0.5,0.1,0.5,0.5c-1.1,8.7-11.4,11.7-16.8,8.8c-4.7-2.5-7.4-9.3-4-19.2
				c5.1-14.6,19.8-20.9,27.1-21.8c11.6-1.4,28.2,6.4,28.2,6.4C81.8,27.1,81.9,27.3,81.9,27.5z M174,74.9c0,0.4-0.1,0.7-0.3,1l-2.1,3
				c-0.3,0.5-0.9,0.8-1.5,0.8c-0.2,0-0.4,0-0.6-0.1c-1.2-0.4-2.8-0.8-4.1-0.9c0,0,0,0,0,0c-0.1,0-0.3,0.1-0.3,0.2
				c-3.1,10.5-9.5,15.7-13.4,17.5c-4.5,2.2-13.7,4.8-12.1-4.3c1.8-9.9,13.2-15.6,15.9-16.8c0,0,2.1-0.9,3.3-1.2
				c0.1,0,0.2-0.1,0.3-0.3c0-0.3,0.1-1-0.1-1.7c0-0.2-0.3-0.4-0.5-0.3c-0.4,0.1-1.7,0.9-2.8,1.1c-3.7,0.9-5.7-2.3-4.7-4.6
				c2.2-4.9,9.1-3.3,10.5-2.9c0.2,0.1,0.3,0,0.4-0.1c1.7-2.2,2.1-4.7,2.1-4.7c1.1-4-3-5.2-6.2-2.7c-2.5,2-6.6,6.4-8.3,8.7
				c-1.7,2.2-4.1,4.4-4.1,4.4c-2.1,2.1-6,2.8-8,1.2c-2.6-2,0.8-8.8,2.2-11.6c1.4-2.8,2.2-5,0.4-5c-1.8,0-2.8,0.9-4.5,4.5l-6,12.5
				c-0.1,0.2-0.2,0.2-0.4,0.2h-6.3c-0.3,0-0.4-0.3-0.3-0.5l5.9-14.1c0.8-2.2-0.8-3-2.5-0.8c-0.8,1-1.4,1.8-1.9,2.4
				C117.5,68.3,113,73,109.3,73c-2.9,0-3.8-2.1-4.1-3.3c-0.1-0.3-0.4-0.4-0.6-0.2c-3.5,3.3-4.9,3.5-7.1,3.5c-1.8,0-4.4-1.7-4.8-3.8
				c-0.1-0.6-0.2-1.2-0.3-1.7c0-0.4-0.5-0.5-0.7-0.2c-3.6,5.3-5.7,5.8-9,5.8c-2.6,0-5.5-2-5.5-6.4c0-6,5-9.4,6.5-10.4
				c0.2-0.1,0.2-0.5,0-0.6c-0.4-0.3-1-0.7-1.5-1.2c-0.6-0.6-1-1.2-1.3-1.6c-0.1-0.2-0.4-0.2-0.6-0.1L75.7,57c-0.2,0.1-0.3,0.2-0.5,0
				l-1-1.1c-0.1-0.2-0.1-0.4,0-0.5c7.4-6.8,10-11.4,10.5-13.1c0.1-0.3,0.5-0.3,0.7,0c2,5,6.2,8.2,7.9,8.9c0.2,0.1,0.3,0.4,0.1,0.6
				c-6.1,7.2-8.3,11.6-5.5,13.6c0.6,0.4,3.2,0.7,4.3-2.4c0.2-0.4,0.2-0.8,0.3-1.2c0.1-0.8,0.3-1.6,0.5-2.3c0,0,0,0,0,0
				c2.3-7.9,9.2-10.8,9.5-10.9c0.3-0.1,5.7-2.8,9.4,0.6c0.1,0.1,0.4,0.2,0.6-0.1c1-1.3,1.9-1.2,3.3-1.2h5c0.2,0,0.4,0.2,0.3,0.5
				c0,0-6.8,16.1-6.9,16.3c-0.4,0.9,0,1.5,1.2,0.9c2.3-1.1,6-6.5,6-6.5h0c2-2.9,6-8.6,8.3-10.1c2.7-1.7,7.9-3.8,8.6,2.6
				c0,0.3,0.4,0.5,0.6,0.2c1.4-1.4,4.9-4.7,9.2-4c4.1,0.7,3,4.2,1.2,7.7c-3.1,5.8-5,8.8-3.6,9.9c1.1,0.8,2.6-1,4.6-4
				c2-3,5.2-6.8,5.2-6.8c1.4-1.6,4.5-4.3,4.5-4.3c6.8-4.5,13-4.2,14.3,3.2c1.1,5.9-8.2,13.3-9.9,14.7c-0.1,0.1-0.2,0.3-0.1,0.4
				c0.2,0.4,0.7,1.4,0.8,2.1c0.1,0.6,0.2,1.5,0.3,2c0,0.2,0.2,0.3,0.4,0.3c0,0,0,0,0,0c0.4,0,0.9,0,1.3,0c1.7,0,3.4,0.1,5.1,0.4
				l0.1,0C173.4,73.3,174,74.1,174,74.9z M106.8,52.9c-2.1,1-2.9,2.6-4.1,5.3c-1.3,2.8-2.2,7.2-0.2,8.2c2,1,3.4-1.4,3.7-2
				c0.7-1.6,3.3-7.4,3.8-9.1C110.5,53.6,108.9,51.8,106.8,52.9z M157.8,68.8c-0.9-1.3-2.3-1.8-3.2-1.3c-2.5,1.2-1.1,4.1,2.1,2.5
				c0.4-0.2,0.7-0.4,1.1-0.6C157.9,69.3,158,69.1,157.8,68.8z M158.1,79.6c0-0.2-0.2-0.4-0.4-0.4c0,0-0.1,0-0.1,0
				c-5.8,1.7-10.9,6-12.4,11.3c-1,3.3,0.6,4.6,2.8,3.8C153,92.4,156.7,84.8,158.1,79.6C158.1,79.7,158.1,79.6,158.1,79.6z"/>
		</g>
		<path class="st2" d="M169.8,68.1c0,1.8,1.4,3.1,3.1,3.1c1.7,0,3.1-1.3,3.1-3.1c0-1.7-1.4-3-3.1-3C171.2,65,169.8,66.3,169.8,68.1
			 M172.9,70.6c-1.4,0-2.5-1.1-2.5-2.6c0-1.4,1.1-2.5,2.5-2.5c1.4,0,2.5,1.1,2.5,2.5C175.3,69.6,174.2,70.6,172.9,70.6 M172.2,68.3
			h0.6l0.9,1.5h0.6l-1-1.5c0.5-0.1,0.9-0.3,0.9-1c0-0.7-0.4-1-1.2-1h-1.3v3.5h0.5V68.3z M172.2,67.9v-1.1h0.7c0.4,0,0.8,0.1,0.8,0.5
			c0,0.5-0.4,0.6-0.9,0.6H172.2z"/>
	</g>
</g>
</svg>
