<?xml version="1.0" encoding="utf-8"?>
<!-- Generator: Adobe Illustrator 19.2.1, SVG Export Plug-In . SVG Version: 6.00 Build 0)  -->
<svg version="1.1" id="Layer_1" xmlns="http://www.w3.org/2000/svg" xmlns:xlink="http://www.w3.org/1999/xlink" x="0px" y="0px"
	 viewBox="0 0 841.9 595.3" style="enable-background:new 0 0 841.9 595.3;" xml:space="preserve">
<style type="text/css">
	.st0{fill:#E93E3B;}
	.st1{fill:#FFFFFF;}
</style>
<path class="st0" d="M421,197.8c-53.7,0-97.2,38.5-97.2,86c0,47.5,43.5,86,97.2,86c53.7,0,97.2-38.5,97.2-86
	C518.2,236.3,474.7,197.8,421,197.8z"/>
<g>
	<path class="st1" d="M421.2,365.8c-51.5,0-93.4-36.8-93.4-82.1c0-45.3,41.9-82.1,93.4-82.1c51.5,0,93.4,36.8,93.4,82.1
		C514.6,328.9,472.7,365.8,421.2,365.8z M421.2,202.6c-50.9,0-92.3,36.4-92.3,81.1c0,44.7,41.4,81.1,92.3,81.1
		c50.9,0,92.3-36.4,92.3-81.1C513.5,238.9,472.1,202.6,421.2,202.6z"/>
</g>
<path class="st1" d="M426,268.1l-1-0.1v-1l2.6,0.1l4.2-0.1c0.8,0,1.4,0.1,1.9,0.3c0.5,0.2,0.9,0.6,1.2,1.2c0.3,0.6,0.5,1.3,0.5,2.2
	c0,0.9-0.2,1.8-0.5,2.6c-0.3,0.8-0.8,1.4-1.5,1.9c-0.7,0.5-1.4,0.8-2.2,0.8c-0.2,0-0.4,0-0.6,0c-0.2,0-0.4-0.1-0.6-0.1
	c-0.1-0.2-0.2-0.5-0.3-0.9l0.2-0.3c0.1,0.1,0.3,0.1,0.4,0.1c0.1,0,0.2,0,0.3,0c0.6,0,1.1-0.3,1.5-0.8c0.4-0.6,0.6-1.4,0.6-2.4
	c0-1.1-0.2-1.9-0.6-2.5c-0.4-0.6-1-0.8-1.7-0.8c-0.3,0-0.7,0.1-1.1,0.2c0,0.5-0.1,1.2-0.1,2.2l0,2.4v4.6c0,1.1,0,2.3,0,3.5
	c0,0.7,0.1,1.1,0.1,1.3c0,0.1,0.1,0.2,0.1,0.2c0.1,0.1,0.2,0.1,0.3,0.1l1.2,0.1v1.1c-1.6-0.1-2.7-0.1-3.5-0.1c-0.9,0-1.7,0-2.5,0.1
	v-1.1c0.7,0,1.1-0.1,1.3-0.2c0.1,0,0.1-0.1,0.1-0.2c0-0.1,0.1-0.4,0.1-0.9c0.1-1.3,0.1-2.7,0.1-4.3V273l0-2.3c0-1,0-1.6,0-1.8
	c0-0.2,0-0.4-0.1-0.5c0-0.1-0.1-0.1-0.1-0.2C426.3,268.2,426.2,268.1,426,268.1z"/>
<path class="st1" d="M438.1,284v-0.6c0.2-0.1,0.4-0.2,0.7-0.5c0.1-0.1,0.2-0.2,0.3-0.2c0,0,0-0.1,0-0.1c0-0.2,0.1-0.9,0.1-2.2
	c0-1.2,0-2.7,0-4.5c0-2.6,0-4.1,0-4.7c0-1.5-0.1-2.4-0.1-2.6c0-0.1-0.1-0.2-0.1-0.2c-0.1-0.1-0.6-0.2-1.4-0.2V267
	c0.8,0.1,1.6,0.1,2.6,0.1c1.1,0,2.2,0,3.1-0.1v1.1c-0.7,0-1.1,0.1-1.3,0.2c-0.1,0-0.1,0.1-0.1,0.2c0,0.1-0.1,0.6-0.1,1.5
	c0,0.9,0,2,0,3.4c0,0.1,0,1.3,0,3.5c0,1.2,0,2.3,0,3.4c0,1.1,0,1.8,0,2.1c0.8,0,1.4,0.1,1.7,0.1c0.9,0,1.7-0.1,2.4-0.2
	c0.3-0.1,0.4-0.1,0.5-0.2c0-0.1,0.1-0.2,0.2-0.5c0.1-0.6,0.2-1.3,0.4-2.1h0.8c0,0.2,0,0.4,0,0.4l-0.2,2.5c0,0.8-0.1,1.2-0.1,1.4
	c-0.2,0.1-0.4,0.1-0.5,0.1c-0.4,0-0.9,0.1-1.7,0.1c-0.1,0-0.8,0-2.1-0.1c-1,0-1.7,0-2.1,0C440.2,283.9,439.3,283.9,438.1,284z"/>
<path class="st1" d="M457.6,277.4c-0.6,0-1.2,0-1.9,0c-0.7,0-1.4,0-1.9,0l1.9-6.3L457.6,277.4z M453.9,284v-1
	c-0.7,0-1.2-0.1-1.3-0.2c-0.1-0.1-0.1-0.2-0.1-0.4c0-0.3,0.1-1,0.5-2.1l0.4-1.5h4.7l0.8,2.7c0.1,0.5,0.2,0.8,0.2,1
	c0,0.2-0.1,0.3-0.1,0.3c-0.1,0.1-0.5,0.1-1.2,0.2v1l3.2-0.1l2.5,0.1v-1c-0.2,0-0.3,0-0.4-0.1c-0.3,0-0.5,0-0.5-0.1
	c-0.1,0-0.1-0.1-0.2-0.1c-0.1-0.1-0.1-0.2-0.2-0.3l-0.4-1.1l-0.6-1.7l-4.1-12.7h-1.3l-0.8,2.8l-2.4,7.8c-0.5,1.5-0.8,2.5-0.9,3
	c-0.3,1.1-0.6,1.7-0.6,1.9c-0.1,0.2-0.1,0.3-0.2,0.4c-0.1,0.1-0.2,0.1-0.2,0.2c-0.1,0-0.4,0.1-0.9,0.1v1l2.1-0.1L453.9,284z"/>
<path class="st1" d="M465.5,284v-1c0.7,0,1.1-0.1,1.2-0.1c0.1,0,0.1-0.1,0.2-0.2c0-0.1,0.1-0.2,0.1-0.5c0-0.3,0.1-1.1,0.1-2.2
	c0-0.7,0-1.5,0-2.6v-3.9l0-3.5c0-0.6,0-1-0.1-1.2c0-0.2-0.1-0.3-0.1-0.4c-0.1-0.1-0.2-0.2-0.3-0.2c-0.1-0.1-0.5-0.1-1.2-0.2v-1
	c0.8,0.1,1.3,0.1,1.7,0.1l1.3,0l0.8,0c1.3,2.2,2.8,4.7,4.5,7.5c1.3,2.1,2.3,3.7,3.2,4.8v-2.8c0-4.4,0-6.9-0.1-7.7
	c0-0.3-0.1-0.5-0.2-0.6c-0.1-0.1-0.6-0.2-1.4-0.2v-1c0.7,0.1,1.4,0.1,2,0.1c0.6,0,1.4,0,2.3-0.1v1c-0.7,0-1.2,0.1-1.3,0.2
	c0,0-0.1,0.1-0.1,0.2c-0.1,0.4-0.1,1.3-0.2,2.8c0,1.4,0,2.5,0,3.2c0,5.4,0,8.7,0.1,9.8l-0.1,0.1c-0.5-0.1-1-0.2-1.6-0.3
	c-2-2.9-4.8-7.3-8.3-13.2v6c0,1.3,0,2.6,0.1,3.9c0,0.9,0.1,1.5,0.1,1.7c0,0.1,0.1,0.2,0.1,0.2c0.1,0.1,0.2,0.1,0.3,0.1
	c0.4,0.1,0.7,0.1,0.9,0.1c0,0,0.1,0,0.2,0v1c-1.2,0-1.8,0-2,0C467.4,283.9,466.6,283.9,465.5,284z"/>
<path class="st1" d="M438.2,229.4c-2-0.3-10.5-1.7-19.3-1.4c-33.9,1-60.1,24.6-60.6,55.5c-0.4,27.5,19,53.9,61.3,54.8
	c12.5,0.3,42.7-6.2,46.8-10.4l0.5-0.2V305c0,0,0.3-4.1,2.8-7.8c2.1-3.1,7.6-4.6,7.6-4.6v-4.2h-52.8l-0.1,4c0,0,8.7,1.1,13,2.4
	c5.7,1.8,6.6,6.3,6.6,6.3v25.7c0,0-9.1,6.1-27.3,3.6c-12.6-1.7-33.5-16.4-32.7-47c0.9-31.7,21.5-43.9,37.4-47.5
	c11.6-2.6,28.7,0.3,35.4,8.9c5.1,6.5,3.9,15.8,3.9,15.8l3.2-0.1l3.1-15.8C467.1,244.7,455.2,232.2,438.2,229.4z"/>
</svg>
