<?xml version="1.0" encoding="utf-8"?>
<!-- Generator: Adobe Illustrator 19.1.0, SVG Export Plug-In . SVG Version: 6.00 Build 0)  -->
<svg version="1.1" id="Layer_1" xmlns="http://www.w3.org/2000/svg" xmlns:xlink="http://www.w3.org/1999/xlink" x="0px" y="0px"
	 viewBox="1669 -346.8 612 792" style="enable-background:new 1669 -346.8 612 792;" xml:space="preserve">
<style type="text/css">
	.st0{fill-rule:evenodd;clip-rule:evenodd;fill:#123F8C;}
	.st1{fill:#123F8C;}
	.st2{fill-rule:evenodd;clip-rule:evenodd;fill:#E73137;}
	.st3{fill:#ED0031;}
	.st4{fill:#6491F5;}
	.st5{fill-rule:evenodd;clip-rule:evenodd;fill:#055A1C;}
	.st6{fill:#008639;}
	.st7{fill:#1D1D1B;}
	.st8{fill:#D52B1E;}
	.st9{fill-rule:evenodd;clip-rule:evenodd;fill:#D52B1E;}
	.st10{fill:#FFFFFF;}
	.st11{fill:#868686;}
	.st12{fill:#E20613;}
	.st13{fill:#00ADEE;}
	.st14{fill-rule:evenodd;clip-rule:evenodd;fill:#FFFFFF;}
	.st15{clip-path:url(#SVGID_2_);}
	.st16{fill:none;stroke:#585858;stroke-width:2.734;}
	.st17{fill:none;stroke:#4B4B4B;stroke-width:1.7088;}
	.st18{fill:none;stroke:#4A4A4A;stroke-width:1.7088;}
	.st19{fill:none;stroke:#494949;stroke-width:1.7088;}
	.st20{fill:none;stroke:#484848;stroke-width:1.7088;}
	.st21{fill:none;stroke:#474747;stroke-width:1.7088;}
	.st22{fill:none;stroke:#464646;stroke-width:1.7088;}
	.st23{fill:none;stroke:#454545;stroke-width:1.7088;}
	.st24{fill:none;stroke:#444444;stroke-width:1.7088;}
	.st25{fill:none;stroke:#434343;stroke-width:1.7088;}
	.st26{fill:none;stroke:#424242;stroke-width:1.7088;}
	.st27{fill:none;stroke:#414141;stroke-width:1.7088;}
	.st28{fill:none;stroke:#404040;stroke-width:1.7088;}
	.st29{fill:none;stroke:#3F3F3F;stroke-width:1.7088;}
	.st30{fill:none;stroke:#3E3E3E;stroke-width:1.7088;}
	.st31{fill:none;stroke:#3D3D3D;stroke-width:1.7088;}
	.st32{fill:none;stroke:#0A0A0A;stroke-width:1.7088;}
	.st33{fill:none;stroke:#090909;stroke-width:1.7088;}
	.st34{fill:none;stroke:#080808;stroke-width:1.7088;}
	.st35{fill:none;stroke:#070707;stroke-width:1.7088;}
	.st36{fill:none;stroke:#060606;stroke-width:1.7088;}
	.st37{fill:none;stroke:#050505;stroke-width:1.7088;}
	.st38{fill:none;stroke:#585858;stroke-width:1.7088;}
	.st39{fill:none;stroke:#575757;stroke-width:1.7088;}
	.st40{fill:none;stroke:#565656;stroke-width:1.7088;}
	.st41{fill:none;stroke:#555555;stroke-width:1.7088;}
	.st42{fill:none;stroke:#545454;stroke-width:1.7088;}
	.st43{fill:none;stroke:#535353;stroke-width:1.7088;}
	.st44{fill:none;stroke:#525252;stroke-width:1.7088;}
	.st45{fill:none;stroke:#515151;stroke-width:1.7088;}
	.st46{fill:none;stroke:#505050;stroke-width:1.7088;}
	.st47{fill:none;stroke:#4F4F4F;stroke-width:1.7088;}
	.st48{fill:none;stroke:#4E4E4E;stroke-width:1.7088;}
	.st49{fill:none;stroke:#4D4D4D;stroke-width:1.7088;}
	.st50{fill:none;stroke:#4C4C4C;stroke-width:1.7088;}
	.st51{fill:none;stroke:#3B3B3B;stroke-width:1.7088;}
	.st52{fill:none;stroke:#3A3A3A;stroke-width:1.7088;}
	.st53{fill:none;stroke:#393939;stroke-width:1.7088;}
	.st54{fill:none;stroke:#383838;stroke-width:1.7088;}
	.st55{fill:none;stroke:#363636;stroke-width:1.7088;}
	.st56{fill:none;stroke:#353535;stroke-width:1.7088;}
	.st57{fill:none;stroke:#343434;stroke-width:1.7088;}
	.st58{fill:none;stroke:#323232;stroke-width:1.7088;}
	.st59{fill:none;stroke:#313131;stroke-width:1.7088;}
	.st60{fill:none;stroke:#303030;stroke-width:1.7088;}
	.st61{fill:none;stroke:#2F2F2F;stroke-width:1.7088;}
	.st62{fill:none;stroke:#2E2E2E;stroke-width:1.7088;}
	.st63{fill:none;stroke:#2C2C2C;stroke-width:1.7088;}
	.st64{fill:none;stroke:#2B2B2B;stroke-width:1.7088;}
	.st65{fill:none;stroke:#2A2A2A;stroke-width:1.7088;}
	.st66{fill:none;stroke:#292929;stroke-width:1.7088;}
	.st67{fill:none;stroke:#282828;stroke-width:1.7088;}
	.st68{fill:none;stroke:#262626;stroke-width:1.7088;}
	.st69{fill:none;stroke:#252525;stroke-width:1.7088;}
	.st70{fill:none;stroke:#242424;stroke-width:1.7088;}
	.st71{fill:none;stroke:#232323;stroke-width:1.7088;}
	.st72{fill:none;stroke:#222222;stroke-width:1.7088;}
	.st73{fill:none;stroke:#202020;stroke-width:1.7088;}
	.st74{fill:none;stroke:#1F1F1F;stroke-width:1.7088;}
	.st75{fill:none;stroke:#1E1E1E;stroke-width:1.7088;}
	.st76{fill:none;stroke:#1D1D1D;stroke-width:1.7088;}
	.st77{fill:none;stroke:#1C1C1C;stroke-width:1.7088;}
	.st78{fill:none;stroke:#1A1A1A;stroke-width:1.7088;}
	.st79{fill:none;stroke:#191919;stroke-width:1.7088;}
	.st80{fill:none;stroke:#181818;stroke-width:1.7088;}
	.st81{fill:none;stroke:#171717;stroke-width:1.7088;}
	.st82{fill:none;stroke:#161616;stroke-width:1.7088;}
	.st83{fill:none;stroke:#151515;stroke-width:1.7088;}
	.st84{fill:none;stroke:#131313;stroke-width:1.7088;}
	.st85{fill:none;stroke:#121212;stroke-width:1.7088;}
	.st86{fill:none;stroke:#111111;stroke-width:1.7088;}
	.st87{fill:none;stroke:#101010;stroke-width:1.7088;}
	.st88{fill:none;stroke:#0F0F0F;stroke-width:1.7088;}
	.st89{fill:none;stroke:#0D0D0D;stroke-width:1.7088;}
	.st90{fill:none;stroke:#0C0C0C;stroke-width:1.7088;}
	.st91{fill:none;stroke:#0B0B0B;stroke-width:1.7088;}
	.st92{fill:none;stroke:#040404;stroke-width:1.7088;}
	.st93{fill:none;stroke:#030303;stroke-width:1.7088;}
	.st94{fill:none;stroke:#020202;stroke-width:1.7088;}
	.st95{fill:none;stroke:#010101;stroke-width:1.7088;}
	.st96{fill:none;stroke:#000000;stroke-width:1.7088;}
	.st97{fill:none;stroke:#272727;stroke-width:1.7088;}
	.st98{fill:none;stroke:#0E0E0E;stroke-width:1.7088;}
	.st99{fill:none;stroke:#3C3C3C;stroke-width:1.7088;}
	.st100{fill:none;stroke:#373737;stroke-width:1.7088;}
	.st101{fill:none;stroke:#333333;stroke-width:1.7088;}
	.st102{clip-path:url(#SVGID_4_);}
	.st103{fill:none;stroke:#141414;stroke-width:1.7088;}
	.st104{fill:none;stroke:#1B1B1B;stroke-width:1.7088;}
	.st105{clip-path:url(#SVGID_6_);}
	.st106{fill:none;stroke:#000000;stroke-width:3.4175;}
	.st107{fill:none;stroke:#2D2D2D;stroke-width:1.7088;}
	.st108{clip-path:url(#SVGID_8_);}
	.st109{fill:none;stroke:#303030;stroke-width:3.4175;}
	.st110{fill:none;stroke:#585858;stroke-width:3.4175;}
	.st111{fill:#585858;}
	.st112{clip-path:url(#SVGID_10_);fill:none;stroke:#050505;stroke-width:2.734;}
	.st113{clip-path:url(#SVGID_10_);fill:none;stroke:#585858;stroke-width:2.734;}
	.st114{clip-path:url(#SVGID_10_);}
	.st115{clip-path:url(#SVGID_12_);fill:none;stroke:#000000;stroke-width:5.1262;}
	.st116{clip-path:url(#SVGID_12_);fill:none;stroke:#585858;stroke-width:5.1262;}
	.st117{clip-path:url(#SVGID_12_);fill:none;stroke:#050505;stroke-width:5.1262;}
	.st118{clip-path:url(#SVGID_12_);}
	.st119{fill:none;stroke:#050505;stroke-width:5.1262;}
	.st120{fill:none;stroke:#050505;stroke-width:5.0428;}
	.st121{fill:none;stroke:#060606;stroke-width:4.9595;}
	.st122{fill:none;stroke:#060606;stroke-width:4.8761;}
	.st123{fill:none;stroke:#060606;stroke-width:4.7928;}
	.st124{fill:none;stroke:#060606;stroke-width:4.7094;}
	.st125{fill:none;stroke:#060606;stroke-width:4.6261;}
	.st126{fill:none;stroke:#070707;stroke-width:4.5427;}
	.st127{fill:none;stroke:#070707;stroke-width:4.4594;}
	.st128{fill:none;stroke:#070707;stroke-width:4.376;}
	.st129{fill:none;stroke:#070707;stroke-width:4.2927;}
	.st130{fill:none;stroke:#080808;stroke-width:4.2093;}
	.st131{fill:none;stroke:#080808;stroke-width:4.126;}
	.st132{fill:none;stroke:#080808;stroke-width:4.0426;}
	.st133{fill:none;stroke:#080808;stroke-width:3.9593;}
	.st134{fill:none;stroke:#090909;stroke-width:3.8759;}
	.st135{fill:none;stroke:#090909;stroke-width:3.7926;}
	.st136{fill:none;stroke:#090909;stroke-width:3.7092;}
	.st137{fill:none;stroke:#090909;stroke-width:3.6259;}
	.st138{fill:none;stroke:#090909;stroke-width:3.5425;}
	.st139{fill:none;stroke:#0A0A0A;stroke-width:3.4592;}
	.st140{fill:none;stroke:#0A0A0A;stroke-width:3.3758;}
	.st141{fill:none;stroke:#0A0A0A;stroke-width:3.2925;}
	.st142{fill:none;stroke:#0A0A0A;stroke-width:3.2091;}
	.st143{fill:none;stroke:#0B0B0B;stroke-width:3.1258;}
	.st144{fill:none;stroke:#0B0B0B;stroke-width:3.0424;}
	.st145{fill:none;stroke:#0B0B0B;stroke-width:2.9591;}
	.st146{fill:none;stroke:#0B0B0B;stroke-width:2.8757;}
	.st147{fill:none;stroke:#0C0C0C;stroke-width:2.7924;}
	.st148{fill:none;stroke:#0C0C0C;stroke-width:2.709;}
	.st149{fill:none;stroke:#0C0C0C;stroke-width:2.6257;}
	.st150{fill:none;stroke:#0C0C0C;stroke-width:2.5423;}
	.st151{fill:none;stroke:#0C0C0C;stroke-width:2.459;}
	.st152{fill:none;stroke:#0D0D0D;stroke-width:2.3756;}
	.st153{fill:none;stroke:#0D0D0D;stroke-width:2.2923;}
	.st154{fill:none;stroke:#0D0D0D;stroke-width:2.2089;}
	.st155{fill:none;stroke:#0D0D0D;stroke-width:2.1256;}
	.st156{fill:none;stroke:#0E0E0E;stroke-width:2.0422;}
	.st157{fill:none;stroke:#0E0E0E;stroke-width:1.9589;}
	.st158{fill:none;stroke:#0E0E0E;stroke-width:1.8755;}
	.st159{fill:none;stroke:#0E0E0E;stroke-width:1.7922;}
	.st160{fill:none;stroke:#212121;stroke-width:1.7088;}
	.st161{fill:url(#SVGID_13_);}
	.st162{clip-path:url(#SVGID_15_);}
	.st163{fill:none;stroke:#FFFFFF;stroke-width:2.734;}
	.st164{fill:none;stroke:#C2C3C4;stroke-width:1.7088;}
	.st165{fill:none;stroke:#C0C2C2;stroke-width:1.7088;}
	.st166{fill:none;stroke:#BEC0C1;stroke-width:1.7088;}
	.st167{fill:none;stroke:#BDBFBF;stroke-width:1.7088;}
	.st168{fill:none;stroke:#BBBDBE;stroke-width:1.7088;}
	.st169{fill:none;stroke:#BABCBC;stroke-width:1.7088;}
	.st170{fill:none;stroke:#B8BABB;stroke-width:1.7088;}
	.st171{fill:none;stroke:#B6B8B9;stroke-width:1.7088;}
	.st172{fill:none;stroke:#B5B7B7;stroke-width:1.7088;}
	.st173{fill:none;stroke:#B3B5B6;stroke-width:1.7088;}
	.st174{fill:none;stroke:#B2B4B4;stroke-width:1.7088;}
	.st175{fill:none;stroke:#B0B2B3;stroke-width:1.7088;}
	.st176{fill:none;stroke:#AEB1B1;stroke-width:1.7088;}
	.st177{fill:none;stroke:#ADAFB0;stroke-width:1.7088;}
	.st178{fill:none;stroke:#ABADAE;stroke-width:1.7088;}
	.st179{fill:none;stroke:#A9ACAD;stroke-width:1.7088;}
	.st180{fill:none;stroke:#A8AAAB;stroke-width:1.7088;}
	.st181{fill:none;stroke:#5A5F60;stroke-width:1.7088;}
	.st182{fill:none;stroke:#595D5F;stroke-width:1.7088;}
	.st183{fill:none;stroke:#575C5D;stroke-width:1.7088;}
	.st184{fill:none;stroke:#565A5C;stroke-width:1.7088;}
	.st185{fill:none;stroke:#54595A;stroke-width:1.7088;}
	.st186{fill:none;stroke:#535759;stroke-width:1.7088;}
	.st187{fill:none;stroke:#515658;stroke-width:1.7088;}
	.st188{fill:none;stroke:#505556;stroke-width:1.7088;}
	.st189{fill:none;stroke:#4E5355;stroke-width:1.7088;}
	.st190{fill:none;stroke:#4D5253;stroke-width:1.7088;}
	.st191{fill:none;stroke:#4B5052;stroke-width:1.7088;}
	.st192{fill:none;stroke:#4A4F50;stroke-width:1.7088;}
	.st193{fill:none;stroke:#484D4F;stroke-width:1.7088;}
	.st194{fill:none;stroke:#474C4E;stroke-width:1.7088;}
	.st195{fill:none;stroke:#454B4C;stroke-width:1.7088;}
	.st196{fill:none;stroke:#44494B;stroke-width:1.7088;}
	.st197{fill:none;stroke:#424849;stroke-width:1.7088;}
	.st198{fill:none;stroke:#FFFFFF;stroke-width:1.7088;}
	.st199{fill:none;stroke:#FDFDFD;stroke-width:1.7088;}
	.st200{fill:none;stroke:#FBFBFB;stroke-width:1.7088;}
	.st201{fill:none;stroke:#F9F9F9;stroke-width:1.7088;}
	.st202{fill:none;stroke:#F7F8F8;stroke-width:1.7088;}
	.st203{fill:none;stroke:#F5F6F6;stroke-width:1.7088;}
	.st204{fill:none;stroke:#F4F4F4;stroke-width:1.7088;}
	.st205{fill:none;stroke:#F2F2F2;stroke-width:1.7088;}
	.st206{fill:none;stroke:#F0F0F0;stroke-width:1.7088;}
	.st207{fill:none;stroke:#EEEEEE;stroke-width:1.7088;}
	.st208{fill:none;stroke:#ECECED;stroke-width:1.7088;}
	.st209{fill:none;stroke:#EAEBEB;stroke-width:1.7088;}
	.st210{fill:none;stroke:#E8E9E9;stroke-width:1.7088;}
	.st211{fill:none;stroke:#E6E7E7;stroke-width:1.7088;}
	.st212{fill:none;stroke:#E4E5E5;stroke-width:1.7088;}
	.st213{fill:none;stroke:#E2E3E3;stroke-width:1.7088;}
	.st214{fill:none;stroke:#E0E1E1;stroke-width:1.7088;}
	.st215{fill:none;stroke:#DEDFE0;stroke-width:1.7088;}
	.st216{fill:none;stroke:#DDDDDE;stroke-width:1.7088;}
	.st217{fill:none;stroke:#DBDCDC;stroke-width:1.7088;}
	.st218{fill:none;stroke:#D9DADA;stroke-width:1.7088;}
	.st219{fill:none;stroke:#D7D8D8;stroke-width:1.7088;}
	.st220{fill:none;stroke:#D5D6D6;stroke-width:1.7088;}
	.st221{fill:none;stroke:#D3D4D5;stroke-width:1.7088;}
	.st222{fill:none;stroke:#D1D2D3;stroke-width:1.7088;}
	.st223{fill:none;stroke:#CFD0D1;stroke-width:1.7088;}
	.st224{fill:none;stroke:#CDCFCF;stroke-width:1.7088;}
	.st225{fill:none;stroke:#CBCDCD;stroke-width:1.7088;}
	.st226{fill:none;stroke:#C9CBCB;stroke-width:1.7088;}
	.st227{fill:none;stroke:#C7C9C9;stroke-width:1.7088;}
	.st228{fill:none;stroke:#C6C7C8;stroke-width:1.7088;}
	.st229{fill:none;stroke:#C4C5C6;stroke-width:1.7088;}
	.st230{fill:none;stroke:#BFC1C2;stroke-width:1.7088;}
	.st231{fill:none;stroke:#BDBFC0;stroke-width:1.7088;}
	.st232{fill:none;stroke:#BBBDBD;stroke-width:1.7088;}
	.st233{fill:none;stroke:#B9BBBB;stroke-width:1.7088;}
	.st234{fill:none;stroke:#B6B9B9;stroke-width:1.7088;}
	.st235{fill:none;stroke:#B4B6B7;stroke-width:1.7088;}
	.st236{fill:none;stroke:#B2B4B5;stroke-width:1.7088;}
	.st237{fill:none;stroke:#AEB0B0;stroke-width:1.7088;}
	.st238{fill:none;stroke:#ABAEAE;stroke-width:1.7088;}
	.st239{fill:none;stroke:#A9ABAC;stroke-width:1.7088;}
	.st240{fill:none;stroke:#A7A9AA;stroke-width:1.7088;}
	.st241{fill:none;stroke:#A5A7A8;stroke-width:1.7088;}
	.st242{fill:none;stroke:#A2A5A6;stroke-width:1.7088;}
	.st243{fill:none;stroke:#A0A3A4;stroke-width:1.7088;}
	.st244{fill:none;stroke:#9EA0A1;stroke-width:1.7088;}
	.st245{fill:none;stroke:#9C9E9F;stroke-width:1.7088;}
	.st246{fill:none;stroke:#999C9D;stroke-width:1.7088;}
	.st247{fill:none;stroke:#979A9B;stroke-width:1.7088;}
	.st248{fill:none;stroke:#959899;stroke-width:1.7088;}
	.st249{fill:none;stroke:#939697;stroke-width:1.7088;}
	.st250{fill:none;stroke:#909394;stroke-width:1.7088;}
	.st251{fill:none;stroke:#8E9192;stroke-width:1.7088;}
	.st252{fill:none;stroke:#8C8F90;stroke-width:1.7088;}
	.st253{fill:none;stroke:#8A8D8E;stroke-width:1.7088;}
	.st254{fill:none;stroke:#878B8C;stroke-width:1.7088;}
	.st255{fill:none;stroke:#85898A;stroke-width:1.7088;}
	.st256{fill:none;stroke:#838688;stroke-width:1.7088;}
	.st257{fill:none;stroke:#818485;stroke-width:1.7088;}
	.st258{fill:none;stroke:#7F8283;stroke-width:1.7088;}
	.st259{fill:none;stroke:#7C8081;stroke-width:1.7088;}
	.st260{fill:none;stroke:#7A7E7F;stroke-width:1.7088;}
	.st261{fill:none;stroke:#787C7D;stroke-width:1.7088;}
	.st262{fill:none;stroke:#76797B;stroke-width:1.7088;}
	.st263{fill:none;stroke:#737779;stroke-width:1.7088;}
	.st264{fill:none;stroke:#717576;stroke-width:1.7088;}
	.st265{fill:none;stroke:#6F7374;stroke-width:1.7088;}
	.st266{fill:none;stroke:#6D7172;stroke-width:1.7088;}
	.st267{fill:none;stroke:#6A6F70;stroke-width:1.7088;}
	.st268{fill:none;stroke:#686C6E;stroke-width:1.7088;}
	.st269{fill:none;stroke:#666A6C;stroke-width:1.7088;}
	.st270{fill:none;stroke:#646869;stroke-width:1.7088;}
	.st271{fill:none;stroke:#626667;stroke-width:1.7088;}
	.st272{fill:none;stroke:#5F6465;stroke-width:1.7088;}
	.st273{fill:none;stroke:#5D6263;stroke-width:1.7088;}
	.st274{fill:none;stroke:#5B5F61;stroke-width:1.7088;}
	.st275{fill:none;stroke:#565B5D;stroke-width:1.7088;}
	.st276{fill:none;stroke:#525758;stroke-width:1.7088;}
	.st277{fill:none;stroke:#4E5254;stroke-width:1.7088;}
	.st278{fill:none;stroke:#494E50;stroke-width:1.7088;}
	.st279{fill:none;stroke:#454A4B;stroke-width:1.7088;}
	.st280{fill:none;stroke:#424749;stroke-width:1.7088;}
	.st281{fill:none;stroke:#414748;stroke-width:1.7088;}
	.st282{fill:none;stroke:#414648;stroke-width:1.7088;}
	.st283{fill:none;stroke:#404647;stroke-width:1.7088;}
	.st284{fill:none;stroke:#404547;stroke-width:1.7088;}
	.st285{fill:none;stroke:#3F4546;stroke-width:1.7088;}
	.st286{fill:none;stroke:#3F4446;stroke-width:1.7088;}
	.st287{fill:none;stroke:#3E4445;stroke-width:1.7088;}
	.st288{fill:none;stroke:#3E4345;stroke-width:1.7088;}
	.st289{fill:none;stroke:#3D4244;stroke-width:1.7088;}
	.st290{fill:none;stroke:#3C4143;stroke-width:1.7088;}
	.st291{fill:none;stroke:#3B4143;stroke-width:1.7088;}
	.st292{fill:none;stroke:#3B4042;stroke-width:1.7088;}
	.st293{fill:none;stroke:#3A4042;stroke-width:1.7088;}
	.st294{fill:none;stroke:#3A3F41;stroke-width:1.7088;}
	.st295{fill:none;stroke:#393F41;stroke-width:1.7088;}
	.st296{fill:none;stroke:#393E40;stroke-width:1.7088;}
	.st297{fill:none;stroke:#383E40;stroke-width:1.7088;}
	.st298{fill:none;stroke:#383D3F;stroke-width:1.7088;}
	.st299{fill:none;stroke:#373D3F;stroke-width:1.7088;}
	.st300{fill:none;stroke:#373C3E;stroke-width:1.7088;}
	.st301{fill:none;stroke:#363C3E;stroke-width:1.7088;}
	.st302{fill:none;stroke:#363B3D;stroke-width:1.7088;}
	.st303{fill:none;stroke:#353B3C;stroke-width:1.7088;}
	.st304{fill:none;stroke:#353A3C;stroke-width:1.7088;}
	.st305{fill:none;stroke:#343A3B;stroke-width:1.7088;}
	.st306{fill:none;stroke:#34393B;stroke-width:1.7088;}
	.st307{fill:none;stroke:#33393A;stroke-width:1.7088;}
	.st308{fill:none;stroke:#32383A;stroke-width:1.7088;}
	.st309{fill:none;stroke:#323839;stroke-width:1.7088;}
	.st310{fill:none;stroke:#8D9091;stroke-width:1.7088;}
	.st311{fill:none;stroke:#8A8E8F;stroke-width:1.7088;}
	.st312{fill:none;stroke:#888B8C;stroke-width:1.7088;}
	.st313{fill:none;stroke:#85888A;stroke-width:1.7088;}
	.st314{fill:none;stroke:#828687;stroke-width:1.7088;}
	.st315{fill:none;stroke:#808384;stroke-width:1.7088;}
	.st316{fill:none;stroke:#7D8182;stroke-width:1.7088;}
	.st317{fill:none;stroke:#787B7D;stroke-width:1.7088;}
	.st318{fill:none;stroke:#75797A;stroke-width:1.7088;}
	.st319{fill:none;stroke:#727677;stroke-width:1.7088;}
	.st320{fill:none;stroke:#707475;stroke-width:1.7088;}
	.st321{fill:none;stroke:#6A6E70;stroke-width:1.7088;}
	.st322{fill:none;stroke:#676C6D;stroke-width:1.7088;}
	.st323{fill:none;stroke:#65696A;stroke-width:1.7088;}
	.st324{fill:none;stroke:#626668;stroke-width:1.7088;}
	.st325{fill:none;stroke:#5D6163;stroke-width:1.7088;}
	.st326{fill:none;stroke:#A6A9AA;stroke-width:1.7088;}
	.st327{fill:none;stroke:#A5A8A8;stroke-width:1.7088;}
	.st328{fill:none;stroke:#A4A6A7;stroke-width:1.7088;}
	.st329{fill:none;stroke:#A1A4A5;stroke-width:1.7088;}
	.st330{fill:none;stroke:#A0A2A3;stroke-width:1.7088;}
	.st331{fill:none;stroke:#9EA1A2;stroke-width:1.7088;}
	.st332{fill:none;stroke:#9DA0A1;stroke-width:1.7088;}
	.st333{fill:none;stroke:#9C9F9F;stroke-width:1.7088;}
	.st334{fill:none;stroke:#9B9D9E;stroke-width:1.7088;}
	.st335{fill:none;stroke:#989B9C;stroke-width:1.7088;}
	.st336{fill:none;stroke:#97999A;stroke-width:1.7088;}
	.st337{fill:none;stroke:#949798;stroke-width:1.7088;}
	.st338{clip-path:url(#SVGID_17_);}
	.st339{fill:none;stroke:#454A4C;stroke-width:1.7088;}
	.st340{fill:none;stroke:#494F50;stroke-width:1.7088;}
	.st341{fill:none;stroke:#4C5152;stroke-width:1.7088;}
	.st342{fill:none;stroke:#515557;stroke-width:1.7088;}
	.st343{fill:none;stroke:#535859;stroke-width:1.7088;}
	.st344{fill:none;stroke:#555A5B;stroke-width:1.7088;}
	.st345{fill:none;stroke:#585C5E;stroke-width:1.7088;}
	.st346{fill:none;stroke:#5C6162;stroke-width:1.7088;}
	.st347{fill:none;stroke:#5F6365;stroke-width:1.7088;}
	.st348{fill:none;stroke:#616567;stroke-width:1.7088;}
	.st349{fill:none;stroke:#636869;stroke-width:1.7088;}
	.st350{fill:none;stroke:#666A6B;stroke-width:1.7088;}
	.st351{fill:none;stroke:#383E3F;stroke-width:1.7088;}
	.st352{fill:none;stroke:#3B4142;stroke-width:1.7088;}
	.st353{fill:none;stroke:#3D4344;stroke-width:1.7088;}
	.st354{fill:none;stroke:#33383A;stroke-width:1.7088;}
	.st355{fill:none;stroke:#33393B;stroke-width:1.7088;}
	.st356{fill:none;stroke:#343A3C;stroke-width:1.7088;}
	.st357{fill:none;stroke:#353B3D;stroke-width:1.7088;}
	.st358{fill:none;stroke:#363C3D;stroke-width:1.7088;}
	.st359{fill:none;stroke:#373D3E;stroke-width:1.7088;}
	.st360{fill:none;stroke:#3A4041;stroke-width:1.7088;}
	.st361{fill:none;stroke:#3C4243;stroke-width:1.7088;}
	.st362{fill:none;stroke:#424748;stroke-width:1.7088;}
	.st363{fill:none;stroke:#9C9FA0;stroke-width:1.7088;}
	.st364{fill:none;stroke:#A1A3A4;stroke-width:1.7088;}
	.st365{fill:none;stroke:#A3A6A6;stroke-width:1.7088;}
	.st366{fill:none;stroke:#A5A8A9;stroke-width:1.7088;}
	.st367{fill:none;stroke:#AAACAD;stroke-width:1.7088;}
	.st368{fill:none;stroke:#ACAFB0;stroke-width:1.7088;}
	.st369{fill:none;stroke:#AFB1B2;stroke-width:1.7088;}
	.st370{fill:none;stroke:#B1B3B4;stroke-width:1.7088;}
	.st371{fill:none;stroke:#B4B6B6;stroke-width:1.7088;}
	.st372{fill:none;stroke:#6B6F71;stroke-width:1.7088;}
	.st373{fill:none;stroke:#7C7F80;stroke-width:1.7088;}
	.st374{fill:none;stroke:#7F8284;stroke-width:1.7088;}
	.st375{fill:none;stroke:#898C8D;stroke-width:1.7088;}
	.st376{fill:none;stroke:#8F9293;stroke-width:1.7088;}
	.st377{fill:none;stroke:#929596;stroke-width:1.7088;}
	.st378{fill:none;stroke:#969899;stroke-width:1.7088;}
	.st379{fill:none;stroke:#999C9C;stroke-width:1.7088;}
	.st380{fill:none;stroke:#6B6F70;stroke-width:1.7088;}
	.st381{fill:none;stroke:#6D7173;stroke-width:1.7088;}
	.st382{fill:none;stroke:#737778;stroke-width:1.7088;}
	.st383{fill:none;stroke:#7B7E80;stroke-width:1.7088;}
	.st384{fill:none;stroke:#808485;stroke-width:1.7088;}
	.st385{fill:none;stroke:#838687;stroke-width:1.7088;}
	.st386{fill:none;stroke:#8B8E8F;stroke-width:1.7088;}
	.st387{fill:none;stroke:#9B9E9F;stroke-width:1.7088;}
	.st388{fill:none;stroke:#A4A7A8;stroke-width:1.7088;}
	.st389{fill:none;stroke:#A7AAAA;stroke-width:1.7088;}
	.st390{fill:none;stroke:#BCBEBE;stroke-width:1.7088;}
	.st391{fill:none;stroke:#BFC1C1;stroke-width:1.7088;}
	.st392{clip-path:url(#SVGID_19_);}
	.st393{fill:none;stroke:#888C8D;stroke-width:1.7088;}
	.st394{fill:none;stroke:#878A8B;stroke-width:1.7088;}
	.st395{fill:none;stroke:#86898A;stroke-width:1.7088;}
	.st396{fill:none;stroke:#858889;stroke-width:1.7088;}
	.st397{fill:none;stroke:#848788;stroke-width:1.7088;}
	.st398{fill:none;stroke:#838788;stroke-width:1.7088;}
	.st399{fill:none;stroke:#818586;stroke-width:1.7088;}
	.st400{fill:none;stroke:#7E8182;stroke-width:1.7088;}
	.st401{fill:none;stroke:#7B7F80;stroke-width:1.7088;}
	.st402{fill:none;stroke:#797D7E;stroke-width:1.7088;}
	.st403{fill:none;stroke:#777B7C;stroke-width:1.7088;}
	.st404{fill:none;stroke:#6C7072;stroke-width:1.7088;}
	.st405{clip-path:url(#SVGID_21_);}
	.st406{fill:none;stroke:#96999A;stroke-width:1.7088;}
	.st407{fill:none;stroke:#989B9B;stroke-width:1.7088;}
	.st408{fill:none;stroke:#999B9C;stroke-width:1.7088;}
	.st409{fill:none;stroke:#9A9D9E;stroke-width:1.7088;}
	.st410{fill:none;stroke:#FFFFFF;stroke-width:6.835;}
	.st411{fill:none;stroke:#9FA2A3;stroke-width:1.7088;}
	.st412{fill:none;stroke:#A3A6A7;stroke-width:1.7088;}
	.st413{fill:none;stroke:#A6A8A9;stroke-width:1.7088;}
	.st414{fill:none;stroke:#ADB0B0;stroke-width:1.7088;}
	.st415{fill:none;stroke:#B3B5B5;stroke-width:1.7088;}
	.st416{fill:none;stroke:#BEBFC0;stroke-width:1.7088;}
	.st417{fill:none;stroke:#C3C5C5;stroke-width:1.7088;}
	.st418{fill:none;stroke:#C8CACA;stroke-width:1.7088;}
	.st419{fill:none;stroke:#CECFD0;stroke-width:1.7088;}
	.st420{fill:none;stroke:#D3D5D5;stroke-width:1.7088;}
	.st421{fill:none;stroke:#DEDFDF;stroke-width:1.7088;}
	.st422{fill:none;stroke:#E9EAEA;stroke-width:1.7088;}
	.st423{fill:none;stroke:#EFEFEF;stroke-width:1.7088;}
	.st424{fill:none;stroke:#FAFAFA;stroke-width:1.7088;}
	.st425{fill-rule:evenodd;clip-rule:evenodd;fill:#424849;}
	.st426{clip-path:url(#SVGID_23_);fill:none;stroke:#424849;stroke-width:2.734;}
	.st427{clip-path:url(#SVGID_23_);fill:none;stroke:#FFFFFF;stroke-width:2.734;}
	.st428{clip-path:url(#SVGID_23_);}
	.st429{fill:none;stroke:#484E4F;stroke-width:1.7088;}
	.st430{fill:none;stroke:#4F5355;stroke-width:1.7088;}
	.st431{fill:none;stroke:#55595B;stroke-width:1.7088;}
	.st432{fill:none;stroke:#676B6C;stroke-width:1.7088;}
	.st433{fill:none;stroke:#7F8384;stroke-width:1.7088;}
	.st434{fill:none;stroke:#8B8F90;stroke-width:1.7088;}
	.st435{fill:none;stroke:#919596;stroke-width:1.7088;}
	.st436{fill:none;stroke:#989A9B;stroke-width:1.7088;}
	.st437{fill:none;stroke:#BCBEBF;stroke-width:1.7088;}
	.st438{fill:none;stroke:#C2C4C4;stroke-width:1.7088;}
	.st439{fill:none;stroke:#CED0D0;stroke-width:1.7088;}
	.st440{fill:none;stroke:#D4D6D6;stroke-width:1.7088;}
	.st441{fill:none;stroke:#DADCDC;stroke-width:1.7088;}
	.st442{fill:none;stroke:#E1E1E2;stroke-width:1.7088;}
	.st443{fill:none;stroke:#E7E7E8;stroke-width:1.7088;}
	.st444{fill:none;stroke:#EDEDED;stroke-width:1.7088;}
	.st445{fill:none;stroke:#F3F3F3;stroke-width:1.7088;}
	.st446{fill:none;stroke:#505557;stroke-width:1.7088;}
	.st447{fill:none;stroke:#595E5F;stroke-width:1.7088;}
	.st448{fill:none;stroke:#5E6264;stroke-width:1.7088;}
	.st449{fill:none;stroke:#636768;stroke-width:1.7088;}
	.st450{fill:none;stroke:#676B6D;stroke-width:1.7088;}
	.st451{fill:none;stroke:#6C7071;stroke-width:1.7088;}
	.st452{fill:none;stroke:#707476;stroke-width:1.7088;}
	.st453{fill:none;stroke:#7A7D7E;stroke-width:1.7088;}
	.st454{fill:none;stroke:#7E8283;stroke-width:1.7088;}
	.st455{fill:none;stroke:#919495;stroke-width:1.7088;}
	.st456{fill:none;stroke:#ACAFAF;stroke-width:1.7088;}
	.st457{fill:none;stroke:#B5B7B8;stroke-width:1.7088;}
	.st458{fill:none;stroke:#BABCBD;stroke-width:1.7088;}
	.st459{fill:none;stroke:#BFC0C1;stroke-width:1.7088;}
	.st460{fill:none;stroke:#C8C9CA;stroke-width:1.7088;}
	.st461{fill:none;stroke:#CCCECE;stroke-width:1.7088;}
	.st462{fill:none;stroke:#D6D7D7;stroke-width:1.7088;}
	.st463{fill:none;stroke:#DADBDC;stroke-width:1.7088;}
	.st464{fill:none;stroke:#DFE0E0;stroke-width:1.7088;}
	.st465{fill:none;stroke:#E3E4E4;stroke-width:1.7088;}
	.st466{fill:none;stroke:#F1F2F2;stroke-width:1.7088;}
	.st467{fill:none;stroke:#F6F6F6;stroke-width:1.7088;}
	.st468{fill:none;stroke:#FAFBFB;stroke-width:1.7088;}
	.st469{clip-path:url(#SVGID_25_);fill:none;stroke:#424849;stroke-width:5.1262;}
	.st470{clip-path:url(#SVGID_25_);fill:none;stroke:#424849;stroke-width:3.4175;}
	.st471{clip-path:url(#SVGID_25_);fill:none;stroke:#FFFFFF;stroke-width:3.0757;}
	.st472{clip-path:url(#SVGID_25_);fill:none;stroke:#FFFFFF;stroke-width:5.1262;}
	.st473{clip-path:url(#SVGID_25_);}
	.st474{fill:none;stroke:#4A4F51;stroke-width:1.7088;}
	.st475{fill:none;stroke:#54595B;stroke-width:1.7088;}
	.st476{fill:none;stroke:#565B5C;stroke-width:1.7088;}
	.st477{fill:none;stroke:#5C6062;stroke-width:1.7088;}
	.st478{fill:none;stroke:#606566;stroke-width:1.7088;}
	.st479{fill:none;stroke:#666B6C;stroke-width:1.7088;}
	.st480{fill:none;stroke:#686C6D;stroke-width:1.7088;}
	.st481{fill:none;stroke:#696D6F;stroke-width:1.7088;}
	.st482{fill:none;stroke:#6E7273;stroke-width:1.7088;}
	.st483{fill:none;stroke:#6F7375;stroke-width:1.7088;}
	.st484{fill:none;stroke:#747879;stroke-width:1.7088;}
	.st485{fill:none;stroke:#7A7D7F;stroke-width:1.7088;}
	.st486{fill:none;stroke:#7D8081;stroke-width:1.7088;}
	.st487{fill:none;stroke:#848889;stroke-width:1.7088;}
	.st488{fill:none;stroke:#F9F9FA;stroke-width:1.7088;}
	.st489{fill:none;stroke:#EEEEEF;stroke-width:1.7088;}
	.st490{fill:none;stroke:#ECEDED;stroke-width:1.7088;}
	.st491{fill:none;stroke:#E3E3E4;stroke-width:1.7088;}
	.st492{fill:none;stroke:#DDDEDE;stroke-width:1.7088;}
	.st493{fill:none;stroke:#D7D8D9;stroke-width:1.7088;}
	.st494{fill:none;stroke:#D5D6D7;stroke-width:1.7088;}
	.st495{fill:none;stroke:#D1D3D3;stroke-width:1.7088;}
	.st496{fill:none;stroke:#D0D1D1;stroke-width:1.7088;}
	.st497{fill:none;stroke:#CECFCF;stroke-width:1.7088;}
	.st498{fill:none;stroke:#CCCDCE;stroke-width:1.7088;}
	.st499{fill:none;stroke:#CACBCC;stroke-width:1.7088;}
	.st500{fill:none;stroke:#C6C8C8;stroke-width:1.7088;}
	.st501{fill:none;stroke:#C4C6C6;stroke-width:1.7088;}
	.st502{fill:none;stroke:#C2C4C5;stroke-width:1.7088;}
	.st503{fill:none;stroke:#C0C2C3;stroke-width:1.7088;}
	.st504{fill:none;stroke:#BDBEBF;stroke-width:1.7088;}
	.st505{fill:none;stroke:#B7B9BA;stroke-width:1.7088;}
	.st506{fill:none;stroke:#818486;stroke-width:1.7088;}
	.st507{fill:none;stroke:#717577;stroke-width:1.7088;}
	.st508{fill:none;stroke:#6B7071;stroke-width:1.7088;}
	.st509{fill:none;stroke:#6A6E6F;stroke-width:1.7088;}
	.st510{fill:none;stroke:#606466;stroke-width:1.7088;}
	.st511{fill:none;stroke:#5A5E60;stroke-width:1.7088;}
	.st512{fill:none;stroke:#585D5E;stroke-width:1.7088;}
	.st513{fill:none;stroke:#4C5153;stroke-width:1.7088;}
	.st514{fill:none;stroke:#464B4D;stroke-width:1.7088;}
	.st515{fill:none;stroke:#444A4B;stroke-width:1.7088;}
	.st516{fill:none;stroke:#AFB2B2;stroke-width:1.7088;}
	.st517{fill:none;stroke:#ABAEAF;stroke-width:1.7088;}
	.st518{fill:none;stroke:#A2A4A5;stroke-width:1.7088;}
	.st519{fill:none;stroke:#A0A3A3;stroke-width:1.7088;}
	.st520{fill:none;stroke:#4F5456;stroke-width:1.7088;}
	.st521{fill:none;stroke:#767A7B;stroke-width:1.7088;}
	.st522{fill:none;stroke:#808385;stroke-width:1.7088;}
	.st523{fill:none;stroke:#ACAEAF;stroke-width:1.7088;}
	.st524{fill:none;stroke:#B6B8B8;stroke-width:1.7088;}
	.st525{fill:none;stroke:#BBBCBD;stroke-width:1.7088;}
	.st526{fill:none;stroke:#D8D9D9;stroke-width:1.7088;}
	.st527{fill:none;stroke:#E2E2E3;stroke-width:1.7088;}
	.st528{fill:none;stroke:#E7E7E7;stroke-width:1.7088;}
	.st529{fill:none;stroke:#EBECEC;stroke-width:1.7088;}
	.st530{fill:none;stroke:#F0F1F1;stroke-width:1.7088;}
	.st531{fill:none;stroke:#F5F5F6;stroke-width:1.7088;}
	.st532{fill-rule:evenodd;clip-rule:evenodd;fill:#E30613;}
	.st533{display:none;}
	.st534{display:inline;fill-rule:evenodd;clip-rule:evenodd;fill:#FFFFFF;}
	.st535{display:none;fill:#FFFFFF;}
	.st536{display:inline;fill:#FFFFFF;}
	.st537{display:inline;}
	.st538{display:inline;clip-path:url(#SVGID_27_);}
	.st539{display:inline;clip-path:url(#SVGID_29_);}
	.st540{display:inline;clip-path:url(#SVGID_31_);}
	.st541{display:inline;clip-path:url(#SVGID_33_);}
	.st542{display:none;fill:#585858;}
	.st543{display:inline;clip-path:url(#SVGID_35_);fill:none;stroke:#050505;stroke-width:2.734;}
	.st544{display:inline;clip-path:url(#SVGID_35_);fill:none;stroke:#585858;stroke-width:2.734;}
	.st545{display:inline;clip-path:url(#SVGID_35_);}
	.st546{display:inline;clip-path:url(#SVGID_37_);fill:none;stroke:#000000;stroke-width:5.1262;}
	.st547{display:inline;clip-path:url(#SVGID_37_);fill:none;stroke:#585858;stroke-width:5.1262;}
	.st548{display:inline;clip-path:url(#SVGID_37_);fill:none;stroke:#050505;stroke-width:5.1262;}
	.st549{display:inline;clip-path:url(#SVGID_37_);}
	.st550{display:none;fill:url(#SVGID_38_);}
	.st551{display:inline;clip-path:url(#SVGID_40_);}
	.st552{display:inline;clip-path:url(#SVGID_42_);}
	.st553{display:inline;clip-path:url(#SVGID_44_);}
	.st554{display:inline;clip-path:url(#SVGID_46_);}
	.st555{display:none;fill-rule:evenodd;clip-rule:evenodd;fill:#424849;}
	.st556{display:none;fill-rule:evenodd;clip-rule:evenodd;fill:#FFFFFF;}
	.st557{display:inline;clip-path:url(#SVGID_48_);fill:none;stroke:#424849;stroke-width:2.734;}
	.st558{display:inline;clip-path:url(#SVGID_48_);fill:none;stroke:#FFFFFF;stroke-width:2.734;}
	.st559{display:inline;clip-path:url(#SVGID_48_);}
	.st560{display:inline;clip-path:url(#SVGID_50_);fill:none;stroke:#424849;stroke-width:5.1262;}
	.st561{display:inline;clip-path:url(#SVGID_50_);fill:none;stroke:#424849;stroke-width:3.4175;}
	.st562{display:inline;clip-path:url(#SVGID_50_);fill:none;stroke:#FFFFFF;stroke-width:3.0757;}
	.st563{display:inline;clip-path:url(#SVGID_50_);fill:none;stroke:#FFFFFF;stroke-width:5.1262;}
	.st564{display:inline;clip-path:url(#SVGID_50_);}
	.st565{display:inline;fill:#1D1D1B;}
	.st566{display:inline;fill-rule:evenodd;clip-rule:evenodd;fill:#E30613;}
	.st567{display:inline;clip-path:url(#SVGID_52_);}
	.st568{display:inline;clip-path:url(#SVGID_54_);}
	.st569{display:inline;clip-path:url(#SVGID_56_);}
	.st570{display:inline;clip-path:url(#SVGID_58_);}
	.st571{display:inline;clip-path:url(#SVGID_60_);fill:none;stroke:#050505;stroke-width:2.734;}
	.st572{display:inline;clip-path:url(#SVGID_60_);fill:none;stroke:#585858;stroke-width:2.734;}
	.st573{display:inline;clip-path:url(#SVGID_60_);}
	.st574{display:inline;clip-path:url(#SVGID_62_);fill:none;stroke:#000000;stroke-width:5.1262;}
	.st575{display:inline;clip-path:url(#SVGID_62_);fill:none;stroke:#585858;stroke-width:5.1262;}
	.st576{display:inline;clip-path:url(#SVGID_62_);fill:none;stroke:#050505;stroke-width:5.1262;}
	.st577{display:inline;clip-path:url(#SVGID_62_);}
	.st578{display:none;fill:url(#SVGID_63_);}
	.st579{display:inline;clip-path:url(#SVGID_65_);}
	.st580{display:inline;clip-path:url(#SVGID_67_);}
	.st581{display:inline;clip-path:url(#SVGID_69_);}
	.st582{display:inline;clip-path:url(#SVGID_71_);}
	.st583{display:inline;clip-path:url(#SVGID_73_);fill:none;stroke:#424849;stroke-width:2.734;}
	.st584{display:inline;clip-path:url(#SVGID_73_);fill:none;stroke:#FFFFFF;stroke-width:2.734;}
	.st585{display:inline;clip-path:url(#SVGID_73_);}
	.st586{display:inline;clip-path:url(#SVGID_75_);fill:none;stroke:#424849;stroke-width:5.1262;}
	.st587{display:inline;clip-path:url(#SVGID_75_);fill:none;stroke:#424849;stroke-width:3.4175;}
	.st588{display:inline;clip-path:url(#SVGID_75_);fill:none;stroke:#FFFFFF;stroke-width:3.0757;}
	.st589{display:inline;clip-path:url(#SVGID_75_);fill:none;stroke:#FFFFFF;stroke-width:5.1262;}
	.st590{display:inline;clip-path:url(#SVGID_75_);}
	.st591{fill:none;}
	.st592{fill:#231916;}
	.st593{fill:#E42313;}
	.st594{fill:#252525;}
	.st595{fill:#0099CC;}
	.st596{fill:url(#SVGID_76_);}
	.st597{fill:#002949;}
	.st598{clip-path:url(#SVGID_78_);fill:#FFFFFF;}
</style>
<path class="st4" d="M1926.8,99h-18.6v-5.8c-6,5.1-12.8,7.3-20.1,7.3c-10.7,0-20.9-4.8-27.3-12.2c-5.7-6.5-9.2-15.5-9.2-25.3
	c0-21.3,15.8-37.7,35.5-37.7c8.2,0,15.5,2.7,21.2,7.3v-5.8h18.6V99z M1907.5,52.1c-4-5.4-10.4-8.9-17.9-8.9
	c-11.3,0-18.6,9.4-18.6,19.8c0,11.3,8.2,19.7,19.1,19.7c7.3,0,13.7-3.6,17.4-8.9V52.1z"/>
<path class="st4" d="M1941.8,77c4.9,4.5,12.5,7.2,19.8,7.2c5.2,0,9.2-2.5,9.2-6.1c0-10.9-35-7-35-30.2c0-13.9,13.4-22.5,27.7-22.5
	c9.4,0,19.7,3.6,24.4,7.3l-9.1,14c-3.7-2.7-8.6-4.9-13.9-4.9c-5.4,0-9.8,2.1-9.8,5.8c0,9.4,35,5.7,35,30.7
	c0,13.9-13.6,22.3-28.8,22.3c-10,0-20.6-3.4-29-9.7L1941.8,77z"/>
<path class="st4" d="M2065.9,26.8V99h-18.6v-5.8c-5.7,5.1-12.5,7.3-19.5,7.3c-10,0-18.9-4.6-24.6-11.6c-4.6-5.7-7.3-13.1-7.3-23.8
	V26.8h19.4v39c0,6.5,1.3,9.8,3.6,12.4c3,3.3,7.2,4.5,10.9,4.5c8.2,0,14.2-5.5,16.8-8.9V26.8H2065.9z"/>
<path class="st4" d="M2075.5,99V26.8h18.6v5.8c5.7-5.1,12.5-7.3,19.5-7.3c9.8,0,18.6,4.5,24.3,11.3c5.8-6.1,14.9-11.3,25.6-11.3
	c10,0,19.5,4.5,25.3,11.6c4.6,5.7,7.3,13.1,7.3,23.8V99h-19.4V60c0-6.6-1.3-9.8-3.6-12.4c-3-3.3-7.1-4.5-10.9-4.5
	c-8.3,0-14.9,5.8-17.4,9.5c0.3,2.4,0.6,5.1,0.6,8V99h-19.4V60c0-6.6-1.3-9.8-3.6-12.4c-3-3.3-7.2-4.5-10.9-4.5
	c-8.2,0-14.1,5.5-16.8,8.9V99H2075.5z"/>
<path class="st4" d="M1807.3,59.4v16l14.7-1.8c-5.4,5.4-12.6,9.3-21.5,9.3c-16.2,0-27.1-13-27.1-28.2c0-14.5,11.5-26.8,26.8-26.8
	c12.8,0,22.1,9.1,24.6,18.2h20.3c-3.9-21.3-21.7-36.7-44.7-36.7c-25.6,0-46.5,18.1-46.5,45.2c0,25.8,19.4,45.9,45.4,45.9
	c14.6,0,24.8-4.9,31.9-13.2l-0.8,11.7h15V59.4H1807.3z"/>
</svg>
