<?xml version="1.0" encoding="utf-8"?>
<!-- Generator: Adobe Illustrator 19.2.1, SVG Export Plug-In . SVG Version: 6.00 Build 0)  -->
<!DOCTYPE svg PUBLIC "-//W3C//DTD SVG 1.1//EN" "http://www.w3.org/Graphics/SVG/1.1/DTD/svg11.dtd">
<svg version="1.1" id="Layer_1" xmlns="http://www.w3.org/2000/svg" xmlns:xlink="http://www.w3.org/1999/xlink" x="0px" y="0px"
	 viewBox="0 0 389.2 99.7" style="enable-background:new 0 0 389.2 99.7;" xml:space="preserve">
<style type="text/css">
	.st0{fill:#FFFFFF;}
	.st1{fill:none;stroke:#FFFFFF;stroke-width:0.3096;stroke-miterlimit:10;}
</style>
<g>
	<g>
		<path class="st0" d="M294.4,92.9c0,5-2.4,6.8-5.7,6.8c-1.1,0-5.1,0-5.5-4.2h2.7c0.1,1.5,1.3,2.1,2.7,2.1c3.4,0,3.3-2.6,3.3-3.8
			v-2.2h-0.1c-0.6,1.4-2.1,2.3-3.8,2.3c-4.9,0-5.2-6.2-5.2-8.4c0-4.5,1.2-8.8,5.5-8.8c1.9,0,3.3,1.2,3.6,2.6h0.1v-2.1h2.5
			L294.4,92.9L294.4,92.9z M285.4,85.5c0,2.7,0.4,6.1,3,6.1c2.9,0,3.5-2.7,3.5-6.1c0-3.3-0.5-6.5-3.4-6.5
			C286.1,79,285.4,81.6,285.4,85.5z"/>
		<path class="st0" d="M297.1,77.1h2.7v2.5h0.1c0.7-1.6,1.7-2.9,3.6-2.9c0.5,0,0.9,0.1,1.2,0.2v2.6c-0.3,0-0.5-0.1-1.4-0.1
			c-1.3,0-3.5,1.2-3.5,4v10.6h-2.7V77.1z"/>
		<path class="st0" d="M310.9,76.7c4.9,0,6,4.1,6,8.8c0,4.7-1.2,8.8-6,8.8c-4.9,0-6-4.1-6-8.8C304.9,80.8,306.1,76.7,310.9,76.7z
			 M314.2,85.5c0-3.6-0.5-6.8-3.4-6.8c-2.7,0-3.2,3.1-3.2,6.8c0,3.6,0.5,6.8,3.2,6.8C313.7,92.4,314.2,89.2,314.2,85.5z"/>
		<path class="st0" d="M330,93.9h-2.5V92h-0.1c-0.7,1.5-2.5,2.4-4.1,2.4c-4.4,0-4.4-3.4-4.4-5.3V77.1h2.7v11.6
			c0,1.3,0.1,3.4,2.5,3.4c1.4,0,3.4-1,3.4-3.4V77.1h2.7L330,93.9L330,93.9z"/>
		<path class="st0" d="M332.8,77.1h2.5v2h0.1c0.4-1.2,1.9-2.5,3.6-2.5c4,0,5.5,3.5,5.5,8.5c0,3.8-1.2,9.1-5.5,9.1
			c-1.5,0-2.9-0.9-3.5-2.4h-0.1v7.4h-2.7L332.8,77.1L332.8,77.1z M338.6,92.1c2.4,0,3.1-2.6,3.1-6.9c0-3.7-0.6-6.3-3.1-6.3
			c-2.9,0-3.4,2.7-3.4,6.5C335.2,88.8,335.8,92.1,338.6,92.1z"/>
	</g>
</g>
<g>
	<g>
		<path class="st0" d="M61.8,12.2h2.7v4.9h2.9v2h-2.9v10.8c0,1.3,0.4,1.9,1.7,1.9c0.6,0,0.9-0.1,1.2-0.1v2.1
			c-0.4,0.1-1.1,0.2-2.1,0.2c-2.7,0-3.4-1.2-3.4-3.4V19.2h-2.5v-2h2.5V12.2z"/>
		<path class="st0" d="M68.4,11.5h2.7V19h0.1c0.7-1.4,2.6-2.4,4.1-2.4c4.3,0,4.3,3.4,4.3,5.3v11.9h-2.7V22.3c0-1.3-0.1-3.4-2.5-3.4
			c-1.4,0-3.4,1-3.4,3.4v11.6h-2.7C68.4,33.9,68.4,11.5,68.4,11.5z"/>
		<path class="st0" d="M84.4,25.8c0,2.6,0,6.5,3.2,6.5c2.5,0,2.8-2.6,2.8-3.9h2.7c0,1.8-1.1,5.9-5.7,5.9c-4.2,0-5.8-2.8-5.8-8.6
			c0-4.2,0.8-9,6-9c5.1,0,5.6,4.4,5.6,8.1v1.1C93.2,25.8,84.4,25.8,84.4,25.8z M90.6,23.8v-0.9c0-1.9-0.5-4.1-2.9-4.1
			c-2.7,0-3.1,3.4-3.1,4.4v0.6L90.6,23.8L90.6,23.8z"/>
	</g>
</g>
<path class="st0" d="M81.4,39.9v26.4c0,7.4-3.3,10.9-11.6,10.9c-6,0-9.5-2.7-9.5-7.4h6.8c0,0.9,0.4,1.6,1.1,2.1
	c0.7,0.4,1.5,0.8,2.4,0.8c2.9,0,3.9-2.1,3.9-5V64h-0.1c-1.4,2-3.6,3.5-5.9,3.5c-5.7,0-8.5-3.9-8.5-14.1c0-6.5,1.1-14.2,8.8-14.2
	c2,0,4.3,1,5.8,3.8h0.1v-3.1H81.4z M70.7,61.9c3,0,3.9-3.3,3.9-8c0-6.8-0.9-9.3-3.7-9.3c-3.2,0-3.7,2.6-3.7,10
	C67.2,58.5,67.7,61.9,70.7,61.9z"/>
<path class="st0" d="M85.3,48.4v-0.7c0-6.4,4.4-8.6,9.7-8.6c8.5,0,10.1,3.5,10.1,8.5v14.6c0,2.7,0.2,3.7,0.9,5.4h-6.8
	c-0.4-0.9-0.7-1.9-0.9-2.9h-0.1c-1.7,2.9-3.6,3.6-7.1,3.6c-5,0-6.7-4.2-6.7-8c0-5.3,2.1-7.3,7-8.7l4.1-1.1c2.1-0.5,2.8-1.4,2.8-3.3
	c0-2.1-0.9-3.5-3.3-3.5c-2.2,0-3.3,1.4-3.3,3.6v0.8L85.3,48.4L85.3,48.4z M98.3,53.8c-1,0.8-2.2,1.2-3,1.4c-2.9,0.6-4.1,2-4.1,4.5
	c0,2.1,0.8,3.9,2.7,3.9c1.9,0,4.4-1.2,4.4-4.2V53.8z"/>
<path class="st0" d="M109,39.9h6.8v3.7h0.1c1.4-2.7,3.5-4.4,6.4-4.4c0.4,0,0.9,0.1,1.3,0.1v6.8c-0.8-0.1-1.4-0.1-2.2-0.1
	c-2.5,0-5.3,1.3-5.3,5v16.7H109L109,39.9L109,39.9z"/>
<path class="st0" d="M125.7,39.9h6.8v3.7h0.1c1.4-2.7,3.5-4.4,6.4-4.4c0.4,0,0.9,0.1,1.3,0.1v6.8c-0.8-0.1-1.4-0.1-2.2-0.1
	c-2.5,0-5.3,1.3-5.3,5v16.7h-7.2L125.7,39.9L125.7,39.9z"/>
<path class="st0" d="M142,30.3h7.2v6.1H142V30.3z M142,39.9h7.2v27.8H142V39.9z"/>
<path class="st0" d="M173.8,39.9v26.4c0,7.4-3.3,10.9-11.6,10.9c-6,0-9.5-2.7-9.5-7.4h6.8c0,0.9,0.4,1.6,1.1,2.1
	c0.7,0.5,1.6,0.8,2.5,0.8c2.9,0,3.9-2.1,3.9-5V64h-0.1c-1.4,2-3.6,3.5-5.9,3.5c-5.7,0-8.5-3.9-8.5-14.1c0-6.5,1.1-14.2,8.8-14.2
	c2,0,4.3,1,5.8,3.8h0.1v-3.1H173.8z M163.1,61.9c3,0,3.9-3.3,3.9-8c0-6.8-0.9-9.3-3.7-9.3c-3.2,0-3.7,2.6-3.7,10
	C159.6,58.5,160.1,61.9,163.1,61.9z"/>
<path class="st0" d="M177.6,48.4v-0.7c0-6.4,4.4-8.6,9.7-8.6c8.5,0,10.1,3.5,10.1,8.5v14.6c0,2.7,0.2,3.7,0.9,5.4h-6.8
	c-0.4-0.9-0.7-1.9-0.9-2.9h-0.1c-1.7,2.9-3.6,3.6-7.1,3.6c-5,0-6.7-4.2-6.7-8c0-5.3,2.1-7.3,7-8.7l4.1-1.1c2.1-0.5,2.8-1.4,2.8-3.3
	c0-2.1-0.9-3.5-3.3-3.5c-2.2,0-3.3,1.4-3.3,3.6v0.8L177.6,48.4L177.6,48.4z M190.7,53.8c-1,0.8-2.2,1.2-3,1.4
	c-2.9,0.6-4.1,2-4.1,4.5c0,2.1,0.8,3.9,2.7,3.9c1.9,0,4.4-1.2,4.4-4.2V53.8z"/>
<path class="st0" d="M201.4,39.9h6.8v3.3h0.1c1.5-2.7,4.1-4,7.1-4c4.5,0,7.1,2.4,7.1,7.9v20.6h-7.2V48.5c0-2.8-1-3.9-3-3.9
	c-2.6,0-3.8,1.6-3.8,4.6v18.5h-7.2L201.4,39.9L201.4,39.9z"/>
<path class="st0" d="M228.5,30.8h7.2v36.9h-7.2V30.8z"/>
<path class="st0" d="M239.4,71.5c0.6,0.1,1.2,0.2,1.9,0.2c2.7,0,3.6-1.4,3.8-3.9l-7.8-27.9h7.4l4.2,19.2h0.1l3.6-19.2h7.2l-6.7,25.9
	c-2.5,9.6-4.1,11-10.7,11h-2.9L239.4,71.5L239.4,71.5z"/>
<path class="st0" d="M261.5,39.9h6.8v2.8h0.1c1.8-2.6,4-3.5,7-3.5c3.3,0,5.7,1.6,6.4,4.4h0.1c1.1-2.9,3.6-4.4,7-4.4
	c4.8,0,6.9,2.9,6.9,8.3v20.2h-7.2V48.2c0-2.3-0.8-3.6-2.8-3.6c-2.3,0-3.7,1.5-3.7,4.8v18.3h-7.2V48.2c0-2.3-0.8-3.6-2.8-3.6
	c-2.3,0-3.7,1.5-3.7,4.8v18.3h-7.2V39.9H261.5z"/>
<path class="st0" d="M299.5,48.4v-0.7c0-6.4,4.4-8.6,9.7-8.6c8.5,0,10.1,3.5,10.1,8.5v14.6c0,2.7,0.2,3.7,0.9,5.4h-6.8
	c-0.4-0.9-0.7-1.9-0.9-2.9h-0.1c-1.7,2.9-3.6,3.6-7.1,3.6c-5,0-6.7-4.2-6.7-8c0-5.3,2.1-7.3,7-8.7l4.1-1.1c2.1-0.5,2.8-1.4,2.8-3.3
	c0-2.1-0.9-3.5-3.3-3.5c-2.2,0-3.3,1.4-3.3,3.6v0.8L299.5,48.4L299.5,48.4z M312.5,53.8c-1,0.8-2.2,1.2-3,1.4
	c-2.9,0.6-4.1,2-4.1,4.5c0,2.1,0.8,3.9,2.7,3.9c1.9,0,4.4-1.2,4.4-4.2V53.8z"/>
<path class="st0" d="M323.2,39.9h6.8v3.3h0.1c1.5-2.7,4.1-4,7.1-4c4.5,0,7.1,2.4,7.1,7.9v20.6h-7.2V48.5c0-2.8-1-3.9-3-3.9
	c-2.6,0-3.8,1.6-3.8,4.6v18.5h-7.1V39.9z"/>
<g>
	<g>
		<g>
			<path class="st0" d="M26.9,45.1c0.3-0.2,0-0.4-0.4-0.6c-1-0.4-2.1-1-2.9-1.2c-0.3-0.1-0.6-0.2-0.9-0.4c-0.5-0.1,0.9,1.4,2.6,2.3
				c0.2,0.1,0.4,0.2,0.5,0.3C26.2,45.6,26.5,45.4,26.9,45.1z"/>
			<path class="st0" d="M21.3,51c0,0,0.1-0.1,0.1-0.2c-0.1-4.2-0.7-24.4-0.7-24.5c-0.2-1-2.2-1.2-4.1-0.8c-1.6,0.3-2.8,0.9-3.3,1.6
				c-0.2,0.3-0.2,0.5-0.2,0.7c0,0,6.6,19.2,8,23.1C21.2,51,21.2,51,21.3,51z"/>
			<path class="st0" d="M38.9,56.9c-0.1-0.5-1.2-0.9-1.6-1L22,51.8l0,0v0.1l12.2,5.7c-1.5,2.4-7.7,3.2-15.9,0
				C9.5,54.2,4.5,49.5,5.2,46c0.5-2.8,5.5-4.1,11.6-3.3c0.4-0.2-1.5-1.5-3.5-2c-6.1-0.6-11,0.5-12.2,3.7C-0.7,49.3,6.6,57.1,16.9,61
				c8.5,3.2,17.4,3.2,20.9-1.1c0,0,0,0,0-0.1C38.4,58.9,39.1,57.8,38.9,56.9z"/>
		</g>
	</g>
</g>
<line class="st1" x1="49.1" y1="17.2" x2="49.1" y2="69.9"/>
</svg>
