<?xml version="1.0" encoding="utf-8"?>
<!-- Generator: Adobe Illustrator 18.1.1, SVG Export Plug-In . SVG Version: 6.00 Build 0)  -->
<svg version="1.1" id="Layer_1" xmlns="http://www.w3.org/2000/svg" xmlns:xlink="http://www.w3.org/1999/xlink" x="0px" y="0px"
	 viewBox="0 0 286.5 123.3" enable-background="new 0 0 286.5 123.3" xml:space="preserve">
<g>
	<path fill="#4F2984" d="M30.7,35h3.9v11.9h14.8V35h3.9v28.8h-3.9V50.3H34.7v13.5h-3.9V35z"/>
	<path fill="#4F2984" d="M70,43.4c1.4,0.7,2.4,1.6,3.2,2.7c0.7,1.1,1.2,2.3,1.4,3.7c0.2,1,0.3,2.5,0.3,4.6H59.6
		c0.1,2.1,0.6,3.8,1.5,5.1c0.9,1.3,2.4,1.9,4.3,1.9c1.8,0,3.3-0.6,4.4-1.8c0.6-0.7,1-1.5,1.3-2.4h3.5c-0.1,0.8-0.4,1.6-0.9,2.6
		c-0.5,0.9-1.1,1.7-1.7,2.3c-1.1,1-2.4,1.7-3.9,2.1c-0.8,0.2-1.8,0.3-2.9,0.3c-2.6,0-4.8-1-6.6-2.8c-1.8-1.9-2.7-4.5-2.7-8
		c0-3.4,0.9-6.1,2.7-8.2c1.8-2.1,4.2-3.1,7.1-3.1C67.1,42.4,68.6,42.7,70,43.4z M71.2,51.6c-0.1-1.5-0.5-2.8-1-3.7
		c-1-1.7-2.6-2.6-4.8-2.6c-1.6,0-2.9,0.6-4,1.8c-1.1,1.2-1.7,2.7-1.7,4.5H71.2z"/>
	<path fill="#4F2984" d="M89.2,51.1c0.8-0.1,1.3-0.4,1.6-1c0.2-0.3,0.2-0.8,0.2-1.4c0-1.2-0.4-2.1-1.3-2.6c-0.8-0.5-2.1-0.8-3.6-0.8
		c-1.8,0-3.1,0.5-3.9,1.5c-0.4,0.6-0.7,1.4-0.8,2.5h-3.3c0.1-2.6,0.9-4.4,2.5-5.4c1.6-1,3.5-1.5,5.6-1.5c2.5,0,4.5,0.5,6,1.4
		c1.5,0.9,2.3,2.4,2.3,4.4v12.1c0,0.4,0.1,0.7,0.2,0.9c0.1,0.2,0.5,0.3,1,0.3c0.2,0,0.3,0,0.5,0c0.2,0,0.4,0,0.6-0.1v2.6
		c-0.6,0.2-1,0.3-1.3,0.3c-0.3,0-0.7,0.1-1.2,0.1c-1.2,0-2.1-0.4-2.6-1.3c-0.3-0.5-0.5-1.1-0.6-1.9c-0.7,0.9-1.7,1.8-3.1,2.4
		c-1.3,0.7-2.8,1-4.4,1c-1.9,0-3.5-0.6-4.8-1.8c-1.2-1.2-1.8-2.7-1.8-4.4c0-1.9,0.6-3.5,1.8-4.5c1.2-1.1,2.8-1.7,4.8-2L89.2,51.1z
		 M81.8,60.6c0.7,0.6,1.6,0.9,2.6,0.9c1.2,0,2.4-0.3,3.6-0.8c2-0.9,2.9-2.5,2.9-4.7v-2.8c-0.4,0.3-1,0.5-1.7,0.7
		c-0.7,0.2-1.3,0.3-2,0.4l-2.1,0.3c-1.3,0.2-2.2,0.4-2.9,0.8c-1.1,0.6-1.6,1.6-1.6,2.9C80.7,59.2,81.1,60,81.8,60.6z"/>
	<path fill="#4F2984" d="M99.1,35h3.5v28.8h-3.5V35z"/>
	<path fill="#4F2984" d="M108.2,37h3.5v5.8h3.4v2.9h-3.4v13.6c0,0.7,0.3,1.2,0.7,1.5c0.3,0.1,0.7,0.2,1.4,0.2c0.2,0,0.4,0,0.5,0
		c0.2,0,0.4,0,0.7-0.1v2.8c-0.4,0.1-0.8,0.2-1.3,0.3c-0.4,0.1-0.9,0.1-1.4,0.1c-1.6,0-2.8-0.4-3.3-1.3c-0.6-0.8-0.9-1.9-0.9-3.3
		V45.7h-2.9v-2.9h2.9V37z"/>
	<path fill="#4F2984" d="M118.9,35h3.5v10.7c0.8-1.1,1.6-1.8,2.3-2.2c1.1-0.7,2.6-1.1,4.2-1.1c3,0,5.1,1.1,6.2,3.2
		c0.6,1.2,0.9,2.8,0.9,4.8v13.5h-3.6V50.6c0-1.5-0.2-2.7-0.6-3.4c-0.6-1.1-1.8-1.7-3.6-1.7c-1.5,0-2.8,0.5-4,1.5
		c-1.2,1-1.8,2.9-1.8,5.7v11.1h-3.5V35z"/>
</g>
<path fill="#52924E" d="M162.5,40h-15.3v6.1h14v5h-14v7.4h16v5.2h-21.9V34.9h21.2V40z"/>
<path fill="#52924E" d="M177.3,43.2c0.6,0.5,1.3,1.3,2,2.4v-3.1h5.4v29.7h-5.5V61.2c-0.4,0.9-1.1,1.6-2.1,2.3c-1,0.7-2.4,1-4.1,1
	c-2.5,0-4.6-1-6.3-3c-1.7-2-2.6-4.6-2.6-7.9c0-3.6,0.9-6.4,2.6-8.5c1.7-2.1,3.9-3.2,6.4-3.2C174.8,41.9,176.2,42.3,177.3,43.2z
	 M178.5,57.2c0.5-1.1,0.8-2.5,0.8-4.1c0-1.3-0.2-2.5-0.7-3.5c-0.8-1.9-2.2-2.8-4.2-2.8c-1.4,0-2.5,0.5-3.4,1.6
	c-0.9,1.1-1.3,2.7-1.3,5c0,1.5,0.2,2.7,0.6,3.6c0.7,1.8,2.1,2.7,4.1,2.7C176.3,59.7,177.7,58.9,178.5,57.2z"/>
<path fill="#52924E" d="M193.3,42.4v12.9c0,1.2,0.1,2.1,0.4,2.7c0.5,1.1,1.5,1.6,3,1.6c1.9,0,3.2-0.8,3.9-2.3
	c0.4-0.8,0.5-1.9,0.5-3.3V42.4h5.6v21.4h-5.4v-3c-0.1,0.1-0.2,0.3-0.4,0.6c-0.2,0.3-0.5,0.6-0.7,0.9c-0.9,0.8-1.7,1.3-2.5,1.6
	c-0.8,0.3-1.8,0.4-2.9,0.4c-3.2,0-5.3-1.1-6.4-3.4c-0.6-1.3-0.9-3.1-0.9-5.5V42.4H193.3z"/>
<path fill="#52924E" d="M215.9,39.9h-5.6v-5.2h5.6V39.9z M210.2,42.4h5.6v21.4h-5.6V42.4z"/>
<path fill="#52924E" d="M218.6,46.6v-3.9h3v-6h5.5v6h3.5v3.9h-3.5v11.3c0,0.9,0.1,1.4,0.3,1.6c0.2,0.2,0.9,0.3,2,0.3
	c0.2,0,0.3,0,0.5,0c0.2,0,0.4,0,0.6-0.1v4.2l-2.6,0.2c-2.6,0.1-4.4-0.4-5.4-1.4c-0.6-0.6-0.9-1.6-0.9-3V46.6H218.6z"/>
<path fill="#52924E" d="M235.4,67.9l0.7,0.1c0.5,0,1.1,0,1.6-0.1c0.5-0.1,0.9-0.2,1.3-0.5c0.3-0.2,0.6-0.7,0.9-1.4
	c0.3-0.7,0.4-1.1,0.3-1.3l-7.8-22.3h6.2l4.7,15.8l4.4-15.8h5.9l-7.3,21c-1.4,4-2.5,6.6-3.4,7.5c-0.8,1-2.5,1.5-4.9,1.5
	c-0.5,0-0.9,0-1.2,0c-0.3,0-0.8,0-1.4-0.1V67.9z"/>
<g>
	<path fill="#52924E" d="M260.2,45.1c0,1.5-1.2,2.7-2.8,2.7c-1.6,0-2.8-1.2-2.8-2.7s1.2-2.7,2.8-2.7C259,42.4,260.2,43.6,260.2,45.1
		z M255.3,45.1c0,1.2,0.9,2.2,2.1,2.2c1.2,0,2.1-1,2.1-2.1c0-1.2-0.9-2.2-2.1-2.2C256.3,43,255.3,43.9,255.3,45.1z M257,46.5h-0.6
		v-2.7c0.2,0,0.6-0.1,1-0.1c0.5,0,0.7,0.1,0.9,0.2c0.2,0.1,0.3,0.3,0.3,0.6c0,0.3-0.2,0.5-0.6,0.6v0c0.3,0.1,0.4,0.3,0.5,0.7
		c0.1,0.4,0.1,0.6,0.2,0.7h-0.7c-0.1-0.1-0.1-0.3-0.2-0.7c0-0.3-0.2-0.4-0.6-0.4H257V46.5z M257,45h0.3c0.3,0,0.6-0.1,0.6-0.4
		c0-0.2-0.2-0.4-0.6-0.4c-0.2,0-0.3,0-0.3,0V45z"/>
</g>
<path fill="#6A737B" d="M210.3,86.7c-0.1-0.3-0.3-0.5-0.5-0.7c-0.2-0.2-0.5-0.4-0.8-0.5c-0.3-0.1-0.6-0.3-0.9-0.4
	c-0.3-0.1-0.6-0.2-0.9-0.3c-0.3-0.1-0.5-0.2-0.8-0.4c-0.2-0.1-0.4-0.3-0.5-0.5c-0.1-0.2-0.2-0.4-0.2-0.7c0-0.2,0-0.4,0.1-0.5
	c0.1-0.2,0.2-0.3,0.3-0.4c0.1-0.1,0.3-0.2,0.5-0.3c0.2-0.1,0.5-0.1,0.8-0.1c0.3,0,0.6,0,0.9,0.1c0.3,0.1,0.5,0.2,0.7,0.2
	c0.2,0.1,0.3,0.2,0.5,0.2c0.1,0.1,0.2,0.1,0.3,0.1c0,0,0.1,0,0.1,0c0,0,0.1-0.1,0.1-0.1c0-0.1,0-0.1,0.1-0.2c0-0.1,0-0.2,0-0.3
	c0-0.1,0-0.2,0-0.3c0-0.1,0-0.1,0-0.2c0-0.1,0-0.1-0.1-0.1c0,0-0.1-0.1-0.1-0.1c-0.1-0.1-0.2-0.1-0.3-0.2c-0.1-0.1-0.3-0.1-0.5-0.2
	c-0.2-0.1-0.4-0.1-0.7-0.2c-0.2,0-0.5-0.1-0.8-0.1c-0.6,0-1.1,0.1-1.5,0.2c-0.4,0.2-0.8,0.4-1.1,0.6c-0.3,0.3-0.5,0.5-0.6,0.9
	c-0.1,0.3-0.2,0.7-0.2,1.1c0,0.4,0.1,0.8,0.2,1.1c0.1,0.3,0.3,0.6,0.5,0.8c0.2,0.2,0.5,0.4,0.8,0.5c0.3,0.1,0.6,0.3,0.9,0.4
	c0.3,0.1,0.6,0.2,0.9,0.3c0.3,0.1,0.5,0.2,0.7,0.4c0.2,0.1,0.4,0.3,0.5,0.5c0.1,0.2,0.2,0.4,0.2,0.7c0,0.3,0,0.5-0.1,0.7
	c-0.1,0.2-0.2,0.3-0.4,0.5c-0.2,0.1-0.4,0.2-0.6,0.3c-0.2,0.1-0.5,0.1-0.8,0.1c-0.4,0-0.7,0-1-0.1c-0.3-0.1-0.6-0.2-0.8-0.3
	c-0.2-0.1-0.4-0.2-0.6-0.3c-0.2-0.1-0.3-0.1-0.3-0.1c0,0-0.1,0-0.1,0c0,0-0.1,0.1-0.1,0.1c0,0.1,0,0.1-0.1,0.2c0,0.1,0,0.2,0,0.3
	c0,0.2,0,0.4,0.1,0.5c0,0.1,0.1,0.2,0.2,0.3c0.1,0.1,0.2,0.1,0.4,0.2c0.2,0.1,0.4,0.2,0.6,0.2c0.2,0.1,0.5,0.1,0.8,0.2
	c0.3,0.1,0.6,0.1,1,0.1c0.5,0,1-0.1,1.5-0.2c0.4-0.1,0.8-0.3,1.2-0.6c0.3-0.3,0.6-0.6,0.8-0.9c0.2-0.4,0.3-0.8,0.3-1.3
	C210.5,87.3,210.4,87,210.3,86.7 M201.3,91.9c-0.1,0.2-0.3,0.4-0.5,0.6c-0.2,0.2-0.5,0.3-0.8,0.4c-0.3,0.1-0.8,0.2-1.3,0.2
	c-0.8,0-1.5-0.1-1.9-0.3c-0.5-0.2-0.7-0.6-0.7-1c0-0.1,0-0.3,0-0.4c0-0.1,0.1-0.3,0.2-0.4c0.1-0.1,0.2-0.3,0.3-0.4
	c0.1-0.2,0.3-0.3,0.5-0.5l2.4,0.1c0.6,0,1,0.1,1.3,0.3c0.3,0.2,0.5,0.5,0.5,0.9C201.4,91.4,201.4,91.7,201.3,91.9 M200.4,84.6
	c-0.1,0.3-0.2,0.5-0.4,0.7c-0.2,0.2-0.4,0.3-0.6,0.4c-0.2,0.1-0.5,0.2-0.9,0.2c-0.6,0-1.1-0.2-1.5-0.5c-0.4-0.4-0.5-0.8-0.5-1.5
	c0-0.3,0-0.5,0.1-0.8c0.1-0.3,0.2-0.5,0.4-0.7c0.2-0.2,0.4-0.3,0.6-0.5c0.2-0.1,0.5-0.2,0.9-0.2c0.6,0,1.1,0.2,1.5,0.5
	c0.3,0.4,0.5,0.9,0.5,1.5C200.5,84.1,200.5,84.3,200.4,84.6 M203.1,80.8c-0.1-0.1-0.1-0.2-0.3-0.2H200c-0.2-0.1-0.4-0.1-0.7-0.1
	c-0.2,0-0.5,0-0.8,0c-0.5,0-1,0.1-1.5,0.2c-0.4,0.2-0.8,0.4-1.2,0.7c-0.3,0.3-0.6,0.6-0.7,1.1c-0.2,0.4-0.3,0.9-0.3,1.4
	c0,0.5,0.1,0.8,0.2,1.2c0.1,0.3,0.3,0.6,0.5,0.9c-0.3,0.3-0.5,0.6-0.6,0.9c-0.2,0.3-0.3,0.7-0.3,1.1c0,0.3,0.1,0.6,0.2,0.9
	c0.2,0.3,0.4,0.5,0.8,0.7c-0.2,0.2-0.4,0.3-0.6,0.5c-0.2,0.2-0.3,0.4-0.4,0.6c-0.1,0.2-0.2,0.4-0.3,0.6c-0.1,0.2-0.1,0.4-0.1,0.7
	c0,0.4,0.1,0.7,0.2,1c0.2,0.3,0.4,0.6,0.7,0.8c0.3,0.2,0.8,0.4,1.3,0.5c0.5,0.1,1.2,0.2,1.9,0.2c0.8,0,1.5-0.1,2-0.3
	c0.6-0.2,1-0.4,1.4-0.7c0.4-0.3,0.6-0.6,0.8-1c0.2-0.4,0.3-0.8,0.3-1.2c0-0.4-0.1-0.8-0.2-1.1c-0.2-0.3-0.4-0.6-0.7-0.8
	c-0.3-0.2-0.6-0.4-1-0.5c-0.4-0.1-0.8-0.2-1.3-0.2l-2.4-0.1c-0.4,0-0.7-0.1-0.9-0.3c-0.2-0.2-0.3-0.4-0.3-0.6c0-0.2,0-0.4,0.1-0.6
	c0.1-0.2,0.2-0.3,0.3-0.4c0.2,0.2,0.5,0.3,0.8,0.4c0.3,0.1,0.7,0.2,1.1,0.2c0.5,0,1-0.1,1.5-0.2c0.4-0.2,0.8-0.4,1.1-0.7
	c0.3-0.3,0.6-0.6,0.7-1.1c0.2-0.4,0.3-0.9,0.3-1.4c0-0.3,0-0.6-0.1-0.9c-0.1-0.3-0.3-0.6-0.5-0.8h1.3c0.1,0,0.2-0.1,0.3-0.2
	c0.1-0.1,0.1-0.3,0.1-0.5C203.2,81.1,203.2,80.9,203.1,80.8 M193.1,84.5c0-0.7-0.1-1.2-0.2-1.7c-0.1-0.5-0.3-0.9-0.6-1.2
	c-0.3-0.4-0.6-0.6-1-0.8c-0.4-0.2-1-0.3-1.6-0.3c-0.5,0-1.1,0.1-1.6,0.4c-0.5,0.3-1.1,0.7-1.6,1.3v-1.2c0-0.1,0-0.1,0-0.1
	c0,0-0.1-0.1-0.1-0.1c-0.1,0-0.1-0.1-0.2-0.1c-0.1,0-0.2,0-0.4,0c-0.2,0-0.3,0-0.4,0c-0.1,0-0.2,0-0.2,0.1c-0.1,0-0.1,0.1-0.1,0.1
	c0,0,0,0.1,0,0.1v9.4c0,0.1,0,0.1,0,0.1c0,0,0.1,0.1,0.1,0.1c0.1,0,0.2,0.1,0.3,0.1c0.1,0,0.2,0,0.4,0c0.2,0,0.3,0,0.4,0
	c0.1,0,0.2,0,0.3-0.1c0.1,0,0.1-0.1,0.1-0.1c0,0,0-0.1,0-0.1v-6.6c0.5-0.6,0.9-1,1.4-1.3c0.4-0.3,0.9-0.5,1.3-0.5
	c0.3,0,0.6,0.1,0.9,0.2c0.3,0.1,0.5,0.3,0.6,0.5c0.2,0.2,0.3,0.5,0.4,0.8c0.1,0.3,0.1,0.8,0.1,1.3v5.5c0,0.1,0,0.1,0,0.1
	c0,0,0.1,0.1,0.1,0.1c0.1,0,0.1,0.1,0.3,0.1c0.1,0,0.3,0,0.4,0c0.2,0,0.3,0,0.4,0c0.1,0,0.2,0,0.3-0.1c0.1,0,0.1-0.1,0.1-0.1
	c0,0,0-0.1,0-0.1V84.5z M182.7,76.9c-0.1-0.1-0.4-0.2-0.8-0.2c-0.4,0-0.7,0.1-0.8,0.2c-0.2,0.1-0.2,0.4-0.2,0.8
	c0,0.4,0.1,0.7,0.2,0.8c0.2,0.1,0.4,0.2,0.8,0.2c0.4,0,0.7-0.1,0.8-0.2c0.2-0.1,0.2-0.4,0.2-0.8C182.9,77.3,182.8,77.1,182.7,76.9
	 M182.7,80.9c0-0.1,0-0.1,0-0.1c0,0-0.1-0.1-0.1-0.1c-0.1,0-0.1,0-0.3-0.1c-0.1,0-0.3,0-0.4,0c-0.2,0-0.3,0-0.4,0
	c-0.1,0-0.2,0-0.3,0.1c-0.1,0-0.1,0.1-0.1,0.1c0,0,0,0.1,0,0.1v9.4c0,0.1,0,0.1,0,0.1c0,0,0.1,0.1,0.1,0.1c0.1,0,0.2,0.1,0.3,0.1
	c0.1,0,0.3,0,0.4,0c0.2,0,0.3,0,0.4,0c0.1,0,0.2,0,0.3-0.1c0.1,0,0.1-0.1,0.1-0.1c0,0,0-0.1,0-0.1V80.9z M179.9,80.7
	c0,0-0.1-0.1-0.1-0.1c-0.1,0-0.1,0-0.2-0.1c-0.1,0-0.2,0-0.4,0c-0.2,0-0.3,0-0.5,0c-0.1,0-0.2,0-0.3,0.1c-0.1,0-0.1,0.1-0.2,0.1
	c0,0-0.1,0.1-0.1,0.2l-2.6,7.7l0,0.1l0-0.1l-2.6-7.7c0-0.1-0.1-0.1-0.1-0.2c0,0-0.1-0.1-0.1-0.1c-0.1,0-0.2,0-0.3-0.1
	c-0.1,0-0.3,0-0.5,0c-0.2,0-0.3,0-0.4,0c-0.1,0-0.2,0-0.3,0c-0.1,0-0.1,0.1-0.1,0.1c0,0,0,0.1,0,0.1c0,0,0,0,0,0.1c0,0,0,0.1,0,0.1
	c0,0.1,0,0.1,0.1,0.2l3.2,8.9c0,0.1,0.1,0.1,0.1,0.2c0,0,0.1,0.1,0.2,0.1c0.1,0,0.2,0.1,0.3,0.1c0.1,0,0.3,0,0.5,0
	c0.2,0,0.4,0,0.5,0c0.1,0,0.3,0,0.3-0.1c0.1,0,0.2-0.1,0.2-0.1c0,0,0.1-0.1,0.1-0.2l3.2-8.9c0,0,0-0.1,0-0.1c0,0,0-0.1,0-0.1
	c0,0,0-0.1,0-0.1c0,0,0-0.1,0-0.1C179.9,80.8,179.9,80.8,179.9,80.7 M168.6,88c-0.4,0.5-0.8,0.8-1.2,1.1c-0.4,0.2-0.8,0.3-1.3,0.3
	c-0.6,0-1-0.1-1.3-0.4c-0.3-0.3-0.5-0.7-0.5-1.2c0-0.3,0.1-0.5,0.2-0.8c0.1-0.2,0.3-0.4,0.5-0.6c0.2-0.2,0.5-0.3,0.9-0.4
	c0.3-0.1,0.8-0.1,1.2-0.1h1.5V88z M170.3,83.9c0-0.6-0.1-1.1-0.2-1.5c-0.1-0.4-0.3-0.8-0.6-1.1c-0.3-0.3-0.7-0.5-1.1-0.7
	c-0.5-0.2-1-0.2-1.7-0.2c-0.4,0-0.7,0-1.1,0.1c-0.4,0.1-0.7,0.1-1,0.2c-0.3,0.1-0.6,0.2-0.8,0.3c-0.2,0.1-0.4,0.2-0.5,0.3
	c-0.1,0.1-0.2,0.2-0.2,0.3c0,0.1,0,0.2,0,0.4c0,0.1,0,0.2,0,0.3c0,0.1,0,0.2,0.1,0.2c0,0.1,0.1,0.1,0.1,0.1c0,0,0.1,0,0.1,0
	c0.1,0,0.2,0,0.4-0.2c0.2-0.1,0.4-0.2,0.6-0.3c0.3-0.1,0.6-0.2,0.9-0.3c0.3-0.1,0.7-0.2,1.1-0.2c0.4,0,0.7,0,1,0.1
	c0.3,0.1,0.5,0.2,0.7,0.4c0.2,0.2,0.3,0.4,0.4,0.7c0.1,0.3,0.1,0.6,0.1,1v0.7h-1.3c-0.7,0-1.4,0.1-2,0.2c-0.6,0.1-1.1,0.3-1.5,0.6
	c-0.4,0.3-0.7,0.6-0.9,1c-0.2,0.4-0.3,0.8-0.3,1.4c0,0.5,0.1,0.9,0.2,1.2c0.2,0.4,0.4,0.7,0.7,0.9c0.3,0.2,0.6,0.4,1,0.6
	c0.4,0.1,0.8,0.2,1.3,0.2c0.6,0,1.1-0.1,1.6-0.4c0.5-0.2,1-0.6,1.4-1v0.9c0,0.1,0,0.1,0.1,0.2c0,0,0.1,0.1,0.2,0.1
	c0.1,0,0.2,0,0.4,0c0.2,0,0.3,0,0.4,0c0.1,0,0.2-0.1,0.2-0.1c0.1,0,0.1-0.1,0.1-0.2V83.9z M161.4,85.3c-0.2-0.4-0.4-0.7-0.7-1
	c-0.3-0.3-0.6-0.5-1-0.8c-0.4-0.2-0.7-0.4-1.1-0.6c-0.4-0.2-0.8-0.4-1.1-0.5c-0.4-0.2-0.7-0.4-1-0.6c-0.3-0.2-0.5-0.4-0.7-0.7
	c-0.2-0.3-0.3-0.6-0.3-1c0-0.3,0-0.5,0.1-0.7c0.1-0.2,0.2-0.4,0.4-0.6c0.2-0.2,0.4-0.3,0.7-0.4c0.3-0.1,0.6-0.2,1-0.2
	c0.4,0,0.8,0.1,1.1,0.2c0.3,0.1,0.6,0.2,0.8,0.3c0.2,0.1,0.4,0.2,0.6,0.3c0.2,0.1,0.3,0.1,0.4,0.1c0,0,0.1,0,0.1,0
	c0,0,0.1-0.1,0.1-0.1c0-0.1,0-0.1,0-0.2c0-0.1,0-0.2,0-0.3c0-0.1,0-0.2,0-0.3c0-0.1,0-0.2,0-0.2c0-0.1,0-0.1-0.1-0.1
	c0,0-0.1-0.1-0.1-0.2c-0.1-0.1-0.2-0.2-0.4-0.3c-0.2-0.1-0.4-0.2-0.7-0.3c-0.3-0.1-0.6-0.2-0.9-0.2c-0.3-0.1-0.6-0.1-0.9-0.1
	c-0.6,0-1.1,0.1-1.6,0.2c-0.5,0.2-0.9,0.4-1.3,0.7c-0.4,0.3-0.7,0.7-0.9,1.1c-0.2,0.4-0.3,0.9-0.3,1.5c0,0.5,0.1,1,0.3,1.4
	c0.2,0.4,0.4,0.7,0.7,1c0.3,0.3,0.6,0.5,1,0.8c0.4,0.2,0.7,0.4,1.1,0.6c0.4,0.2,0.8,0.4,1.1,0.5c0.4,0.2,0.7,0.4,1,0.6
	c0.3,0.2,0.5,0.4,0.7,0.7c0.2,0.3,0.3,0.6,0.3,1c0,0.4-0.1,0.7-0.2,0.9c-0.1,0.3-0.3,0.5-0.5,0.7c-0.2,0.2-0.5,0.3-0.8,0.4
	c-0.3,0.1-0.7,0.2-1.1,0.2c-0.5,0-1-0.1-1.4-0.2c-0.4-0.1-0.7-0.3-1-0.4c-0.3-0.1-0.5-0.3-0.7-0.4c-0.2-0.1-0.3-0.2-0.4-0.2
	c-0.1,0-0.1,0-0.1,0c0,0-0.1,0.1-0.1,0.1c0,0.1-0.1,0.1-0.1,0.2c0,0.1,0,0.2,0,0.4c0,0.2,0,0.4,0.1,0.5c0,0.1,0.1,0.2,0.2,0.3
	c0.1,0.1,0.2,0.2,0.4,0.3c0.2,0.1,0.5,0.2,0.8,0.3c0.3,0.1,0.6,0.2,1,0.3c0.4,0.1,0.8,0.1,1.3,0.1c0.6,0,1.2-0.1,1.8-0.3
	c0.6-0.2,1-0.4,1.5-0.8c0.4-0.3,0.7-0.8,1-1.3c0.2-0.5,0.3-1.1,0.3-1.7C161.7,86.2,161.6,85.7,161.4,85.3 M148,84.6
	c0-0.7-0.1-1.2-0.2-1.7c-0.1-0.5-0.3-0.9-0.6-1.2c-0.3-0.4-0.6-0.6-1-0.8c-0.4-0.2-1-0.3-1.6-0.3c-0.5,0-1,0.1-1.5,0.4
	c-0.5,0.3-1,0.6-1.5,1.2v-5.6c0-0.1,0-0.1,0-0.1c0,0-0.1-0.1-0.1-0.1c-0.1,0-0.1,0-0.3-0.1c-0.1,0-0.3,0-0.4,0c-0.2,0-0.3,0-0.4,0
	c-0.1,0-0.2,0-0.3,0.1c-0.1,0-0.1,0.1-0.1,0.1c0,0,0,0.1,0,0.1v13.9c0,0.1,0,0.1,0,0.1c0,0,0.1,0.1,0.1,0.1c0.1,0,0.2,0.1,0.3,0.1
	c0.1,0,0.3,0,0.4,0c0.2,0,0.3,0,0.4,0c0.1,0,0.2,0,0.3-0.1c0.1,0,0.1-0.1,0.1-0.1c0,0,0-0.1,0-0.1v-6.6c0.5-0.6,0.9-1,1.4-1.3
	c0.4-0.3,0.9-0.5,1.3-0.5c0.3,0,0.6,0.1,0.9,0.2c0.3,0.1,0.5,0.3,0.6,0.5c0.2,0.2,0.3,0.5,0.4,0.8c0.1,0.3,0.1,0.8,0.1,1.3v5.5
	c0,0.1,0,0.1,0,0.1c0,0,0.1,0.1,0.1,0.1c0.1,0,0.1,0.1,0.3,0.1c0.1,0,0.3,0,0.4,0c0.2,0,0.3,0,0.4,0c0.1,0,0.2,0,0.3-0.1
	c0.1,0,0.1-0.1,0.1-0.1c0,0,0-0.1,0-0.1V84.6z M138.5,89.3c0-0.1,0-0.1,0-0.2c0,0,0-0.1-0.1-0.1c0,0-0.1,0-0.1,0c-0.1,0-0.1,0-0.2,0
	c-0.1,0-0.2,0.1-0.2,0.1c-0.1,0-0.2,0.1-0.3,0.1c-0.1,0-0.3,0-0.4,0c-0.5,0-0.8-0.2-1-0.5c-0.2-0.3-0.3-0.8-0.3-1.5V82h2.4
	c0.1,0,0.2-0.1,0.2-0.2c0.1-0.1,0.1-0.3,0.1-0.5c0-0.1,0-0.2,0-0.3c0-0.1,0-0.2-0.1-0.2c0-0.1-0.1-0.1-0.1-0.1c0,0-0.1,0-0.1,0h-2.4
	v-2.2c0,0,0-0.1,0-0.1c0,0-0.1-0.1-0.1-0.1c-0.1,0-0.2-0.1-0.3-0.1c-0.1,0-0.3,0-0.4,0c-0.2,0-0.3,0-0.4,0c-0.1,0-0.2,0-0.3,0.1
	c-0.1,0-0.1,0.1-0.1,0.1c0,0,0,0.1,0,0.1v2.2h-1.3c-0.1,0-0.1,0-0.2,0c0,0-0.1,0.1-0.1,0.1c0,0.1-0.1,0.1-0.1,0.2c0,0.1,0,0.2,0,0.3
	c0,0.3,0,0.4,0.1,0.5c0.1,0.1,0.1,0.2,0.2,0.2h1.3v5.5c0,0.5,0.1,1,0.2,1.4c0.1,0.4,0.3,0.7,0.5,1c0.2,0.3,0.5,0.5,0.9,0.6
	c0.3,0.1,0.8,0.2,1.2,0.2c0.2,0,0.3,0,0.5,0c0.2,0,0.3,0,0.5-0.1c0.1,0,0.3-0.1,0.4-0.1c0.1,0,0.2-0.1,0.2-0.2
	c0.1-0.1,0.1-0.1,0.1-0.3c0-0.1,0-0.3,0-0.5C138.5,89.4,138.5,89.3,138.5,89.3 M131.3,76.3c0-0.1,0-0.1,0-0.1c0,0-0.1-0.1-0.1-0.1
	c-0.1,0-0.1,0-0.3-0.1c-0.1,0-0.2,0-0.4,0c-0.2,0-0.3,0-0.4,0c-0.1,0-0.2,0-0.3,0.1c-0.1,0-0.1,0.1-0.1,0.1c0,0,0,0.1,0,0.1v13.9
	c0,0.1,0,0.1,0,0.1c0,0,0.1,0.1,0.1,0.1c0.1,0,0.2,0.1,0.3,0.1c0.1,0,0.2,0,0.4,0c0.2,0,0.3,0,0.4,0c0.1,0,0.2,0,0.3-0.1
	c0.1,0,0.1-0.1,0.1-0.1c0,0,0-0.1,0-0.1V76.3z M125.6,88c-0.4,0.5-0.8,0.8-1.2,1.1c-0.4,0.2-0.8,0.3-1.3,0.3c-0.6,0-1-0.1-1.3-0.4
	c-0.3-0.3-0.5-0.7-0.5-1.2c0-0.3,0.1-0.5,0.2-0.8c0.1-0.2,0.3-0.4,0.5-0.6c0.2-0.2,0.5-0.3,0.9-0.4c0.3-0.1,0.8-0.1,1.2-0.1h1.5V88z
	 M127.3,83.9c0-0.6-0.1-1.1-0.2-1.5c-0.1-0.4-0.3-0.8-0.6-1.1c-0.3-0.3-0.7-0.5-1.1-0.7c-0.5-0.2-1-0.2-1.7-0.2
	c-0.4,0-0.7,0-1.1,0.1c-0.4,0.1-0.7,0.1-1,0.2c-0.3,0.1-0.6,0.2-0.8,0.3c-0.2,0.1-0.4,0.2-0.5,0.3c-0.1,0.1-0.2,0.2-0.2,0.3
	c0,0.1,0,0.2,0,0.4c0,0.1,0,0.2,0,0.3c0,0.1,0,0.2,0.1,0.2c0,0.1,0.1,0.1,0.1,0.1c0,0,0.1,0,0.1,0c0.1,0,0.2,0,0.4-0.2
	c0.2-0.1,0.4-0.2,0.6-0.3c0.3-0.1,0.5-0.2,0.9-0.3c0.3-0.1,0.7-0.2,1.1-0.2c0.4,0,0.7,0,1,0.1c0.3,0.1,0.5,0.2,0.7,0.4
	c0.2,0.2,0.3,0.4,0.4,0.7c0.1,0.3,0.1,0.6,0.1,1v0.7h-1.3c-0.7,0-1.4,0.1-2,0.2c-0.6,0.1-1.1,0.3-1.5,0.6c-0.4,0.3-0.7,0.6-0.9,1
	c-0.2,0.4-0.3,0.8-0.3,1.4c0,0.5,0.1,0.9,0.2,1.2c0.2,0.4,0.4,0.7,0.7,0.9c0.3,0.2,0.6,0.4,1,0.6c0.4,0.1,0.8,0.2,1.3,0.2
	c0.6,0,1.1-0.1,1.6-0.4c0.5-0.2,1-0.6,1.4-1v0.9c0,0.1,0,0.1,0.1,0.2c0,0,0.1,0.1,0.2,0.1c0.1,0,0.3,0,0.4,0c0.2,0,0.3,0,0.4,0
	c0.1,0,0.2-0.1,0.2-0.1c0.1,0,0.1-0.1,0.1-0.2V83.9z M111.7,84.7c0-0.4,0.1-0.7,0.2-1.1c0.1-0.3,0.3-0.7,0.5-0.9
	c0.2-0.3,0.5-0.5,0.8-0.6c0.3-0.2,0.7-0.2,1.1-0.2c0.8,0,1.5,0.3,1.9,0.8c0.4,0.5,0.6,1.2,0.6,2.1H111.7z M118.5,84.9
	c0-0.6-0.1-1.2-0.2-1.7c-0.2-0.5-0.4-1-0.7-1.4c-0.3-0.4-0.8-0.7-1.3-1c-0.5-0.2-1.1-0.4-1.9-0.4c-0.7,0-1.3,0.1-1.9,0.4
	c-0.6,0.2-1,0.6-1.4,1c-0.4,0.4-0.7,1-0.9,1.6c-0.2,0.6-0.3,1.4-0.3,2.2c0,0.8,0.1,1.6,0.3,2.2c0.2,0.6,0.5,1.2,0.9,1.6
	c0.4,0.4,0.9,0.7,1.5,1c0.6,0.2,1.3,0.3,2,0.3c0.4,0,0.9,0,1.3-0.1c0.4-0.1,0.7-0.1,1-0.2c0.3-0.1,0.5-0.2,0.7-0.3
	c0.2-0.1,0.3-0.1,0.3-0.2c0,0,0.1-0.1,0.1-0.1c0,0,0-0.1,0.1-0.1c0-0.1,0-0.1,0-0.2c0-0.1,0-0.1,0-0.2c0-0.1,0-0.2,0-0.3
	c0-0.1,0-0.2,0-0.2c0,0-0.1-0.1-0.1-0.1c0,0-0.1,0-0.1,0c-0.1,0-0.2,0-0.4,0.1c-0.2,0.1-0.4,0.2-0.6,0.2c-0.3,0.1-0.6,0.2-0.9,0.2
	c-0.3,0.1-0.7,0.1-1.2,0.1c-0.6,0-1-0.1-1.4-0.2c-0.4-0.2-0.7-0.4-1-0.7c-0.2-0.3-0.4-0.7-0.5-1.1c-0.1-0.4-0.2-0.9-0.2-1.4h6.2
	c0.2,0,0.3-0.1,0.5-0.2c0.1-0.1,0.2-0.3,0.2-0.6V84.9z M108,77.3c0-0.1,0-0.1,0-0.1c0,0-0.1-0.1-0.1-0.1c-0.1,0-0.2,0-0.3-0.1
	c-0.1,0-0.3,0-0.4,0c-0.2,0-0.3,0-0.4,0c-0.1,0-0.2,0-0.3,0.1c-0.1,0-0.1,0.1-0.1,0.1c0,0,0,0.1,0,0.1v5.4H100v-5.4
	c0-0.1,0-0.1,0-0.1c0,0-0.1-0.1-0.1-0.1c-0.1,0-0.2,0-0.3-0.1c-0.1,0-0.3,0-0.4,0c-0.2,0-0.3,0-0.4,0c-0.1,0-0.2,0-0.3,0.1
	c-0.1,0-0.1,0.1-0.1,0.1c0,0,0,0.1,0,0.1v12.9c0,0.1,0,0.1,0,0.1c0,0,0.1,0.1,0.1,0.1c0.1,0,0.2,0,0.3,0.1c0.1,0,0.3,0,0.4,0
	c0.2,0,0.3,0,0.4,0c0.1,0,0.2,0,0.3-0.1c0.1,0,0.1-0.1,0.1-0.1c0,0,0-0.1,0-0.1v-6h6.1v6c0,0.1,0,0.1,0,0.1c0,0,0.1,0.1,0.1,0.1
	c0.1,0,0.2,0,0.3,0.1c0.1,0,0.3,0,0.4,0c0.2,0,0.3,0,0.4,0c0.1,0,0.2,0,0.3-0.1c0.1,0,0.1-0.1,0.1-0.1c0,0,0-0.1,0-0.1V77.3z
	 M90.8,91.9c-0.1,0.2-0.2,0.4-0.5,0.6c-0.2,0.2-0.5,0.3-0.8,0.4C89.1,93,88.7,93,88.2,93c-0.8,0-1.5-0.1-1.9-0.3
	c-0.5-0.2-0.7-0.6-0.7-1c0-0.1,0-0.3,0-0.4c0-0.1,0.1-0.3,0.2-0.4c0.1-0.1,0.2-0.3,0.3-0.4c0.1-0.2,0.3-0.3,0.5-0.5l2.4,0.1
	c0.6,0,1,0.1,1.3,0.3c0.3,0.2,0.5,0.5,0.5,0.9C90.9,91.4,90.9,91.7,90.8,91.9 M89.9,84.6c-0.1,0.3-0.2,0.5-0.4,0.7
	c-0.2,0.2-0.4,0.3-0.6,0.4c-0.3,0.1-0.5,0.2-0.9,0.2c-0.6,0-1.1-0.2-1.5-0.5c-0.4-0.4-0.5-0.8-0.5-1.5c0-0.3,0-0.5,0.1-0.8
	c0.1-0.3,0.2-0.5,0.4-0.7c0.2-0.2,0.4-0.3,0.6-0.5c0.2-0.1,0.5-0.2,0.9-0.2c0.6,0,1.1,0.2,1.5,0.5c0.4,0.4,0.5,0.9,0.5,1.5
	C90,84.1,90,84.3,89.9,84.6 M92.6,80.8c-0.1-0.1-0.1-0.2-0.3-0.2h-2.8c-0.2-0.1-0.4-0.1-0.7-0.1c-0.2,0-0.5,0-0.8,0
	c-0.5,0-1,0.1-1.5,0.2c-0.4,0.2-0.8,0.4-1.2,0.7c-0.3,0.3-0.6,0.6-0.8,1.1c-0.2,0.4-0.3,0.9-0.3,1.4c0,0.5,0.1,0.8,0.2,1.2
	c0.1,0.3,0.3,0.6,0.5,0.9c-0.3,0.3-0.5,0.6-0.6,0.9c-0.2,0.3-0.3,0.7-0.3,1.1c0,0.3,0.1,0.6,0.2,0.9c0.2,0.3,0.4,0.5,0.8,0.7
	c-0.2,0.2-0.4,0.3-0.6,0.5c-0.2,0.2-0.3,0.4-0.4,0.6c-0.1,0.2-0.2,0.4-0.3,0.6c-0.1,0.2-0.1,0.4-0.1,0.7c0,0.4,0.1,0.7,0.2,1
	c0.2,0.3,0.4,0.6,0.7,0.8c0.3,0.2,0.8,0.4,1.3,0.5c0.5,0.1,1.2,0.2,1.9,0.2c0.8,0,1.5-0.1,2-0.3c0.6-0.2,1-0.4,1.4-0.7
	c0.4-0.3,0.6-0.6,0.8-1c0.2-0.4,0.3-0.8,0.3-1.2c0-0.4-0.1-0.8-0.2-1.1c-0.2-0.3-0.4-0.6-0.7-0.8c-0.3-0.2-0.6-0.4-1-0.5
	c-0.4-0.1-0.8-0.2-1.3-0.2L87,88.5c-0.4,0-0.7-0.1-0.9-0.3c-0.2-0.2-0.3-0.4-0.3-0.6c0-0.2,0-0.4,0.1-0.6c0.1-0.2,0.2-0.3,0.3-0.4
	c0.2,0.2,0.5,0.3,0.8,0.4c0.3,0.1,0.7,0.2,1.1,0.2c0.5,0,1-0.1,1.5-0.2c0.4-0.2,0.8-0.4,1.2-0.7c0.3-0.3,0.6-0.6,0.7-1.1
	c0.2-0.4,0.3-0.9,0.3-1.4c0-0.3,0-0.6-0.1-0.9c-0.1-0.3-0.3-0.6-0.5-0.8h1.3c0.1,0,0.2-0.1,0.3-0.2c0.1-0.1,0.1-0.3,0.1-0.5
	C92.7,81.1,92.7,80.9,92.6,80.8 M82.6,84.5c0-0.7-0.1-1.2-0.2-1.7c-0.1-0.5-0.3-0.9-0.6-1.2c-0.3-0.4-0.6-0.6-1-0.8
	c-0.4-0.2-1-0.3-1.6-0.3c-0.5,0-1.1,0.1-1.6,0.4c-0.5,0.3-1.1,0.7-1.6,1.3v-1.2c0-0.1,0-0.1,0-0.1c0,0-0.1-0.1-0.1-0.1
	c-0.1,0-0.1-0.1-0.2-0.1c-0.1,0-0.2,0-0.4,0c-0.2,0-0.3,0-0.4,0c-0.1,0-0.2,0-0.2,0.1c-0.1,0-0.1,0.1-0.1,0.1c0,0,0,0.1,0,0.1v9.4
	c0,0.1,0,0.1,0,0.1c0,0,0.1,0.1,0.1,0.1c0.1,0,0.2,0.1,0.3,0.1c0.1,0,0.3,0,0.4,0c0.2,0,0.3,0,0.4,0c0.1,0,0.2,0,0.3-0.1
	c0.1,0,0.1-0.1,0.1-0.1c0,0,0-0.1,0-0.1v-6.6c0.5-0.6,0.9-1,1.4-1.3c0.4-0.3,0.9-0.5,1.3-0.5c0.3,0,0.6,0.1,0.9,0.2
	c0.3,0.1,0.5,0.3,0.6,0.5c0.2,0.2,0.3,0.5,0.4,0.8c0.1,0.3,0.1,0.8,0.1,1.3v5.5c0,0.1,0,0.1,0,0.1c0,0,0.1,0.1,0.1,0.1
	c0.1,0,0.1,0.1,0.3,0.1c0.1,0,0.3,0,0.4,0c0.2,0,0.3,0,0.4,0c0.1,0,0.2,0,0.3-0.1c0.1,0,0.1-0.1,0.1-0.1c0,0,0-0.1,0-0.1V84.5z
	 M72.2,76.9c-0.1-0.1-0.4-0.2-0.8-0.2c-0.4,0-0.7,0.1-0.8,0.2c-0.2,0.1-0.2,0.4-0.2,0.8c0,0.4,0.1,0.7,0.2,0.8
	c0.1,0.1,0.4,0.2,0.8,0.2c0.4,0,0.7-0.1,0.8-0.2c0.2-0.1,0.2-0.4,0.2-0.8C72.4,77.3,72.4,77.1,72.2,76.9 M72.2,80.9
	c0-0.1,0-0.1,0-0.1c0,0-0.1-0.1-0.1-0.1c-0.1,0-0.1,0-0.3-0.1c-0.1,0-0.3,0-0.4,0c-0.2,0-0.3,0-0.4,0c-0.1,0-0.2,0-0.3,0.1
	c-0.1,0-0.1,0.1-0.1,0.1c0,0,0,0.1,0,0.1v9.4c0,0.1,0,0.1,0,0.1c0,0,0.1,0.1,0.1,0.1c0.1,0,0.2,0.1,0.3,0.1c0.1,0,0.2,0,0.4,0
	c0.2,0,0.3,0,0.4,0c0.1,0,0.2,0,0.3-0.1c0.1,0,0.1-0.1,0.1-0.1c0,0,0-0.1,0-0.1V80.9z M66.5,87.4c-0.3,0.3-0.5,0.6-0.8,0.9
	c-0.2,0.2-0.5,0.4-0.7,0.6c-0.2,0.1-0.4,0.2-0.6,0.3c-0.2,0.1-0.4,0.1-0.7,0.1c-0.5,0-0.8-0.1-1.1-0.3c-0.3-0.2-0.5-0.5-0.7-0.8
	c-0.2-0.4-0.3-0.8-0.4-1.2c-0.1-0.5-0.1-0.9-0.1-1.4c0-0.4,0-0.9,0.1-1.3c0.1-0.4,0.2-0.8,0.4-1.2c0.2-0.3,0.4-0.6,0.7-0.8
	c0.3-0.2,0.7-0.3,1.1-0.3c0.5,0,0.9,0.2,1.4,0.5c0.4,0.3,0.9,0.7,1.3,1.3V87.4z M68.2,76.4c0,0,0-0.1,0-0.1c0,0-0.1-0.1-0.1-0.1
	c-0.1,0-0.1,0-0.3-0.1c-0.1,0-0.3,0-0.4,0c-0.2,0-0.3,0-0.4,0c-0.1,0-0.2,0-0.3,0.1c-0.1,0-0.1,0.1-0.1,0.1c0,0,0,0.1,0,0.1v5.4
	c-0.4-0.5-0.9-0.8-1.3-1.1c-0.5-0.2-1-0.4-1.5-0.4c-0.7,0-1.2,0.1-1.7,0.4c-0.5,0.2-0.9,0.6-1.3,1.1c-0.3,0.5-0.6,1-0.8,1.7
	c-0.2,0.6-0.3,1.4-0.3,2.2c0,0.7,0.1,1.3,0.2,1.9c0.1,0.6,0.4,1.1,0.7,1.6c0.3,0.5,0.7,0.8,1.2,1.1c0.5,0.3,1.1,0.4,1.8,0.4
	c0.6,0,1.2-0.1,1.7-0.4c0.5-0.3,1-0.7,1.5-1.3v1.2c0,0.1,0,0.1,0,0.1c0,0,0.1,0.1,0.1,0.1c0.1,0,0.1,0,0.2,0.1c0.1,0,0.2,0,0.4,0
	c0.1,0,0.3,0,0.4,0c0.1,0,0.2,0,0.2-0.1c0.1,0,0.1-0.1,0.1-0.1c0,0,0-0.1,0-0.1V76.4z M57.8,76.3c0-0.1,0-0.1,0-0.1
	c0,0-0.1-0.1-0.1-0.1c-0.1,0-0.2,0-0.3-0.1c-0.1,0-0.3,0-0.4,0c-0.2,0-0.3,0-0.4,0c-0.1,0-0.2,0-0.3,0.1c-0.1,0-0.1,0.1-0.1,0.1
	c0,0,0,0.1,0,0.1v13.9c0,0.1,0,0.1,0,0.1c0,0,0.1,0.1,0.1,0.1c0.1,0,0.2,0.1,0.3,0.1c0.1,0,0.3,0,0.4,0c0.2,0,0.3,0,0.4,0
	c0.1,0,0.2,0,0.3-0.1c0.1,0,0.1-0.1,0.1-0.1c0,0,0-0.1,0-0.1V76.3z M53.8,76.9c-0.1-0.1-0.4-0.2-0.8-0.2c-0.4,0-0.7,0.1-0.8,0.2
	c-0.2,0.1-0.2,0.4-0.2,0.8c0,0.4,0.1,0.7,0.2,0.8c0.1,0.1,0.4,0.2,0.8,0.2c0.4,0,0.7-0.1,0.8-0.2c0.2-0.1,0.2-0.4,0.2-0.8
	C54,77.3,53.9,77.1,53.8,76.9 M53.8,80.9c0-0.1,0-0.1,0-0.1c0,0-0.1-0.1-0.1-0.1c-0.1,0-0.1,0-0.3-0.1c-0.1,0-0.3,0-0.4,0
	c-0.2,0-0.3,0-0.4,0c-0.1,0-0.2,0-0.3,0.1c-0.1,0-0.1,0.1-0.1,0.1c0,0,0,0.1,0,0.1v9.4c0,0.1,0,0.1,0,0.1c0,0,0.1,0.1,0.1,0.1
	c0.1,0,0.2,0.1,0.3,0.1c0.1,0,0.3,0,0.4,0c0.2,0,0.3,0,0.4,0c0.1,0,0.2,0,0.3-0.1c0.1,0,0.1-0.1,0.1-0.1c0,0,0-0.1,0-0.1V80.9z
	 M49.8,80.9c0-0.1,0-0.1,0-0.1c0,0-0.1-0.1-0.1-0.1c-0.1,0-0.1-0.1-0.3-0.1c-0.1,0-0.3,0-0.4,0c-0.2,0-0.3,0-0.4,0
	c-0.1,0-0.2,0-0.3,0.1c-0.1,0-0.1,0.1-0.1,0.1c0,0,0,0.1,0,0.1v6.5c-0.5,0.6-0.9,1-1.4,1.3c-0.4,0.3-0.9,0.5-1.3,0.5
	c-0.3,0-0.6-0.1-0.9-0.2c-0.3-0.1-0.5-0.3-0.6-0.5c-0.2-0.2-0.3-0.5-0.4-0.8c-0.1-0.3-0.1-0.8-0.1-1.3v-5.5c0-0.1,0-0.1,0-0.1
	c0,0-0.1-0.1-0.1-0.1c-0.1,0-0.2-0.1-0.3-0.1c-0.1,0-0.2,0-0.4,0c-0.2,0-0.3,0-0.4,0c-0.1,0-0.2,0-0.3,0.1c-0.1,0-0.1,0.1-0.1,0.1
	c0,0,0,0.1,0,0.1v5.7c0,0.7,0.1,1.3,0.2,1.7c0.1,0.5,0.3,0.9,0.6,1.2c0.3,0.4,0.6,0.6,1,0.8c0.4,0.2,1,0.3,1.6,0.3
	c0.5,0,1.1-0.1,1.6-0.4c0.5-0.3,1.1-0.7,1.6-1.3v1.2c0,0.1,0,0.1,0,0.1c0,0,0.1,0.1,0.1,0.1c0.1,0,0.1,0.1,0.2,0.1
	c0.1,0,0.2,0,0.4,0c0.1,0,0.3,0,0.4,0c0.1,0,0.2,0,0.2-0.1c0.1,0,0.1-0.1,0.1-0.1c0,0,0-0.1,0-0.1V80.9z M38,87.7
	c-0.1,0.3-0.3,0.5-0.5,0.7c-0.2,0.2-0.5,0.3-0.8,0.4C36.3,89,36,89,35.6,89H33v-4.7h2.1c0.6,0,1,0.1,1.4,0.2
	c0.4,0.1,0.7,0.3,0.9,0.5c0.2,0.2,0.4,0.5,0.6,0.8c0.1,0.3,0.2,0.7,0.2,1.1C38.2,87.1,38.1,87.5,38,87.7 M37.2,81.5
	c-0.1,0.3-0.2,0.5-0.4,0.7c-0.2,0.2-0.4,0.4-0.7,0.5c-0.3,0.1-0.7,0.2-1.1,0.2h-2v-4.4h1.8c0.5,0,0.9,0,1.2,0.1
	c0.3,0.1,0.6,0.2,0.8,0.4c0.2,0.2,0.3,0.4,0.4,0.7c0.1,0.3,0.1,0.6,0.1,0.9C37.4,80.9,37.3,81.2,37.2,81.5 M39.8,85.4
	c-0.1-0.4-0.3-0.7-0.6-1c-0.2-0.3-0.5-0.5-0.8-0.7c-0.3-0.2-0.7-0.3-1-0.4c0.3-0.1,0.6-0.3,0.8-0.5c0.2-0.2,0.4-0.4,0.6-0.7
	c0.1-0.2,0.3-0.5,0.3-0.8c0.1-0.3,0.1-0.6,0.1-0.9c0-0.5-0.1-1-0.3-1.4c-0.2-0.4-0.4-0.8-0.8-1.1c-0.3-0.3-0.8-0.5-1.3-0.7
	c-0.5-0.2-1.2-0.2-2-0.2h-3.1c-0.2,0-0.3,0.1-0.5,0.2c-0.1,0.1-0.2,0.3-0.2,0.6v12c0,0.3,0.1,0.5,0.2,0.6c0.1,0.1,0.3,0.2,0.5,0.2
	h3.5c0.5,0,1,0,1.3-0.1c0.4-0.1,0.8-0.2,1.1-0.3c0.3-0.1,0.7-0.3,0.9-0.5c0.3-0.2,0.5-0.5,0.7-0.7c0.2-0.3,0.3-0.6,0.5-1
	c0.1-0.4,0.2-0.7,0.2-1.2C40.1,86.2,40,85.8,39.8,85.4"/>
<g>
	<path fill="#6A737B" d="M211.2,82.8c0.2,0.1,0.4,0.2,0.6,0.2c0.3,0,0.5-0.2,0.5-0.4c0-0.2-0.1-0.4-0.5-0.5
		c-0.4-0.2-0.7-0.4-0.7-0.7c0-0.4,0.3-0.7,0.8-0.7c0.3,0,0.5,0.1,0.6,0.1l-0.1,0.3c-0.1-0.1-0.3-0.1-0.5-0.1c-0.4,0-0.5,0.2-0.5,0.4
		c0,0.2,0.2,0.4,0.5,0.5c0.4,0.2,0.7,0.4,0.7,0.8c0,0.4-0.3,0.8-0.9,0.8c-0.3,0-0.5-0.1-0.7-0.2L211.2,82.8z"/>
	<path fill="#6A737B" d="M215.3,82c0-0.4,0-0.8,0-1.1h0c-0.1,0.3-0.2,0.6-0.3,1l-0.5,1.3h-0.3l-0.4-1.2c-0.1-0.4-0.2-0.7-0.3-1h0
		c0,0.3,0,0.8-0.1,1.2l-0.1,1.1H213l0.2-2.6h0.4l0.4,1.3c0.1,0.3,0.2,0.6,0.3,0.9h0c0.1-0.3,0.2-0.5,0.3-0.9l0.5-1.3h0.4l0.2,2.6
		h-0.3L215.3,82z"/>
</g>
</svg>
