<?xml version="1.0" encoding="utf-8"?>
<!-- Generator: Adobe Illustrator 19.1.0, SVG Export Plug-In . SVG Version: 6.00 Build 0)  -->
<svg version="1.1" id="Livello_1" xmlns="http://www.w3.org/2000/svg" xmlns:xlink="http://www.w3.org/1999/xlink" x="0px" y="0px"
	 viewBox="0 0 515 515" style="enable-background:new 0 0 515 515;" xml:space="preserve">
<style type="text/css">
	.st0{fill:#2C2C2C;}
	.st1{fill:#919191;}
</style>
<g>
	<g>
		<g>
			<path class="st0" d="M94.5,271.7l-22.4,30.6c0,0-4,6.8-4.3,12.9c-0.3,6.1,4.5,10.9,10.5,11.5c6,0.6,74.7,0,74.7,0l15.2-22.3h-61
				c0,0-2.3,0.3-3-2.1c-0.6-2.3,0.7-3.6,0.7-3.6l18.9-27H94.5z"/>
			<path class="st0" d="M220.2,227.8L204,251.9h-93.6c0,0,5.2-8.2,15.3-15.7c10.2-7.5,21.5-8.7,21.5-8.7L220.2,227.8z"/>
		</g>
		<polygon class="st0" points="201.3,272 229.3,272 194.3,326.5 164.7,326.5 		"/>
		<g>
			<path class="st0" d="M215.6,251.5h58.5c0,0,2.5-0.4,4.5,1.6c2,2,1.8,3.9,1.8,4.9c0,1-3.3,6.7-5.5,9.3c-2.1,2.6-6.2,4.3-7.8,4.7
				c-1.6,0.4-3.3,0.4-3.3,0.4H237l11,54h28.7l-6.9-34.3c0,0,14.2-3,23.2-10.8c6.7-5.8,16.4-27.6,16.4-27.6s1.6-4.9,2-9.7
				c0.4-4.7-2.4-10.2-3.5-11.8c-3.7-5.2-9.8-4.3-9.8-4.3h-67L215.6,251.5z"/>
		</g>
		<polygon class="st0" points="346.4,227.7 375.1,227.7 358.8,251.7 330.4,251.7 		"/>
		<polygon class="st0" points="317.4,272 344.9,272 308.8,326.5 280.7,326.5 		"/>
		<polygon class="st0" points="387,227.7 479,227.7 462,251.7 371,251.7 		"/>
		<polygon class="st0" points="420.1,272 402.8,296.7 369.2,296.7 349,326.5 320.9,326.5 357.5,272 		"/>
	</g>
	<g>
		<path class="st1" d="M87.7,209c8.9-3.1,12.6-4.7,17.5,0.5c4.9,5.3,7.4,12.2,7.4,12.2s-4.2,4.3-11.1,6.8c-4.5,1.7-10,2.4-10,2.4
			s1.3-4.8,2.7-8.7c1.4-4,5.6-13.2,5.6-13.2l-4.3-0.5c0,0-5,6.9-9,16.3c-3.1,7.2-4.9,15.3-4.9,15.3s15.8-1.8,24.9-4.8
			c9.1-3,15.9-5.7,17.6-7.6c1.7-2,5-6.6,7.1-18.6c1.8-10.2-1.4-17.4-1.4-17.4s-1.1-0.5-5.8,1.6c-0.9,0.4-1.7,0.9-2.4,1.3
			c-1.6,0.9-3.5,2.9-4.6,4.4c1.5,3.2,3,8.3,1.8,12.7c-5.2-8.1-9.9-12.3-14.2-13.8c-6.2-2.1-9.5-1.1-22.1,4.7
			c-11,5-31.3,17-41.5,23.4c-2.6,1.6-4.4,2.7-4.4,2.7S78.1,212.3,87.7,209"/>
		<path class="st1" d="M108.1,196.6c0,0,3.7-3.8,10.6-7.7c8-4.5,19.9-8.8,19.9-8.8s-9.6,1.8-22.5,8c-4.8,2.3-11.1,7.5-11.1,7.5
			L108.1,196.6z"/>
	</g>
</g>
</svg>
