<?xml version="1.0" encoding="utf-8"?>
<!-- Generator: Adobe Illustrator 19.2.1, SVG Export Plug-In . SVG Version: 6.00 Build 0)  -->
<svg version="1.1" id="Layer_1" xmlns="http://www.w3.org/2000/svg" xmlns:xlink="http://www.w3.org/1999/xlink" x="0px" y="0px"
	 viewBox="0 0 270 160" style="enable-background:new 0 0 270 160;" xml:space="preserve">
<style type="text/css">
	.st0{fill:#EC2227;}
	.st1{fill:#010101;}
	.st2{fill:#FCB918;}
	.st3{fill:#FEBC1B;}
	.st4{fill:#0096D6;}
	.st5{fill:none;}
	.st6{fill:#0A79BD;}
	.st7{fill:#1D1D1D;}
	.st8{fill:#EA2E29;}
	.st9{fill:#1661AB;}
	.st10{fill:#DC3133;}
	.st11{fill:#FFFFFF;}
	.st12{fill:#3A3536;}
	.st13{fill:#181615;}
	.st14{fill:#716E6F;}
	.st15{fill:#F05423;}
	.st16{fill:#84C441;}
	.st17{fill:#2DABE2;}
	.st18{fill:#F9BC15;}
	.st19{fill:#3863AE;}
	.st20{fill:url(#ellipse106_1_);}
	.st21{fill:url(#ellipse108_1_);}
	.st22{fill:#1C2854;}
	.st23{fill:none;stroke:#010101;stroke-width:9.730445e-02;stroke-miterlimit:79.8403;}
	.st24{fill:#1D2856;}
	.st25{fill:#010101;fill-opacity:0.502;}
	.st26{fill:url(#path112_1_);stroke:#010101;stroke-width:7.784356e-02;stroke-miterlimit:79.8403;}
	.st27{fill:#1D4079;}
	.st28{fill:#B4B4B4;stroke:#010101;stroke-width:9.730445e-02;stroke-miterlimit:79.8403;}
	.st29{fill:#B3B3B3;}
	.st30{fill:#D9D9D8;stroke:#010101;stroke-width:0.6227;}
	.st31{fill:#F9F9FA;stroke:#010101;stroke-width:9.730445e-02;stroke-miterlimit:79.8403;}
	.st32{fill:none;stroke:#010101;stroke-width:0.5838;stroke-linecap:round;stroke-linejoin:round;}
	.st33{fill:none;stroke:#010101;stroke-width:0.3892;stroke-linecap:round;stroke-linejoin:round;}
	.st34{fill:none;stroke:#1A1A1A;stroke-width:0.3114;stroke-linecap:round;stroke-linejoin:round;}
	.st35{fill:url(#path3243_1_);stroke:#1A1A1A;stroke-width:3.892178e-02;stroke-miterlimit:79.8403;}
	.st36{fill:none;stroke:#010101;stroke-width:0.2919;stroke-linecap:round;stroke-linejoin:round;}
	.st37{fill:#999A9E;}
	.st38{fill:#EC108C;}
	.st39{fill:#FFDA50;}
	.st40{fill:#FFD950;}
	.st41{fill:#FFD850;}
	.st42{fill:#FFD74E;}
	.st43{fill:#FFD74F;}
	.st44{fill:#FFD64F;}
	.st45{fill:#FFD64E;}
	.st46{fill:#FFD54E;}
	.st47{fill:#FFD44E;}
	.st48{fill:#FFD34D;}
	.st49{fill:#FFD34E;}
	.st50{fill:#FFD24F;}
	.st51{fill:#FFD14F;}
	.st52{fill:#FFCF4F;}
	.st53{fill:#FFCF51;}
	.st54{fill:#FFCD50;}
	.st55{fill:#FFCC50;}
	.st56{fill:#FFCC52;}
	.st57{fill:#FFCB52;}
	.st58{fill:#FFCA52;}
	.st59{fill:#FFCB53;}
	.st60{fill:#FFCA53;}
	.st61{fill:#FFC953;}
	.st62{fill:#FFC853;}
	.st63{fill:#FFC754;}
	.st64{fill:#FFC654;}
	.st65{fill:#FEC652;}
	.st66{fill:#FEC552;}
	.st67{fill:#FEC351;}
	.st68{fill:#FEC152;}
	.st69{fill:#FBC052;}
	.st70{fill:#FBBF52;}
	.st71{fill:#FBBE52;}
	.st72{fill:#FBBD52;}
	.st73{fill:#FBBD53;}
	.st74{fill:#FBBC53;}
	.st75{fill:#FABA53;}
	.st76{fill:#FCBB53;}
	.st77{fill:#FCBA53;}
	.st78{fill:#FDB953;}
	.st79{fill:#FBB955;}
	.st80{fill:#FBB854;}
	.st81{fill:#FCB754;}
	.st82{fill:#FCB654;}
	.st83{fill:#FCB554;}
	.st84{fill:#FCB454;}
	.st85{fill:#FCB354;}
	.st86{fill:#FBB153;}
	.st87{fill:#F9AF54;}
	.st88{fill:#F8AE54;}
	.st89{fill:#F8AD56;}
	.st90{fill:#F8AC56;}
	.st91{fill:#F8AB56;}
	.st92{fill:#F8AA57;}
	.st93{fill:#F9A957;}
	.st94{fill:#F7A857;}
	.st95{fill:#F8A758;}
	.st96{fill:#F8A658;}
	.st97{fill:#F8A558;}
	.st98{fill:#F9A458;}
	.st99{fill:#F9A358;}
	.st100{fill:#F9A157;}
	.st101{fill:#F99F58;}
	.st102{fill:#F89E56;}
	.st103{fill:#F89D56;}
	.st104{fill:#F89C56;}
	.st105{fill:#F89A56;}
	.st106{fill:#F89956;}
	.st107{fill:#F79754;}
	.st108{fill:#F79654;}
	.st109{fill:#F79455;}
	.st110{fill:#F79354;}
	.st111{fill:#F79255;}
	.st112{fill:#F79055;}
	.st113{fill:#F68E56;}
	.st114{fill:#F68D55;}
	.st115{fill:#F68B56;}
	.st116{fill:#F68A55;}
	.st117{fill:#F58854;}
	.st118{fill:#F48654;}
	.st119{fill:#F48455;}
	.st120{fill:#F28354;}
	.st121{fill:#F28154;}
	.st122{fill:#F27F54;}
	.st123{fill:#F47E54;}
	.st124{fill:#F47C54;}
	.st125{fill:#F47A54;}
	.st126{fill:#F47854;}
	.st127{fill:#F37753;}
	.st128{fill:#F37554;}
	.st129{fill:#F37354;}
	.st130{fill:#F37154;}
	.st131{fill:#F36F54;}
	.st132{fill:#F26D53;}
	.st133{fill:#F16C53;}
	.st134{fill:#F16952;}
	.st135{fill:#F16652;}
	.st136{fill:#F16352;}
	.st137{fill:#F06052;}
	.st138{fill:#F15E53;}
	.st139{fill:#EF5B53;}
	.st140{fill:#EE5853;}
	.st141{fill:#EF5653;}
	.st142{fill:#EF5353;}
	.st143{fill:#F05052;}
	.st144{fill:#EE4B51;}
	.st145{fill:#006AA9;}
	.st146{fill-rule:evenodd;clip-rule:evenodd;fill:#FED423;}
	.st147{fill-rule:evenodd;clip-rule:evenodd;fill:#EC1D4D;}
	.st148{fill-rule:evenodd;clip-rule:evenodd;fill:#006AA9;}
	.st149{fill-rule:evenodd;clip-rule:evenodd;fill:#008558;}
	.st150{fill-rule:evenodd;clip-rule:evenodd;fill:none;stroke:#000000;stroke-width:6.389251e-02;stroke-miterlimit:3.864;}
	.st151{fill-rule:evenodd;clip-rule:evenodd;fill:none;stroke:#020303;stroke-width:6.389251e-02;stroke-miterlimit:3.864;}
	.st152{fill-rule:evenodd;clip-rule:evenodd;fill:#D4AF7D;}
	
		.st153{fill-rule:evenodd;clip-rule:evenodd;fill:none;stroke:#D1AD7C;stroke-width:6.389251e-02;stroke-linecap:round;stroke-miterlimit:3.864;}
	.st154{fill-rule:evenodd;clip-rule:evenodd;fill:#ED174C;}
	.st155{fill-rule:evenodd;clip-rule:evenodd;fill:none;stroke:#EC1D4D;stroke-width:6.389251e-02;stroke-miterlimit:3.864;}
	.st156{fill-rule:evenodd;clip-rule:evenodd;}
	
		.st157{fill-rule:evenodd;clip-rule:evenodd;fill:none;stroke:#020303;stroke-width:6.389251e-02;stroke-linecap:round;stroke-miterlimit:3.864;}
	
		.st158{fill-rule:evenodd;clip-rule:evenodd;fill:none;stroke:#000000;stroke-width:6.389251e-02;stroke-linecap:round;stroke-miterlimit:3.864;}
	.st159{fill:#020303;}
	.st160{fill:none;stroke:#000000;stroke-width:6.389251e-02;stroke-linecap:round;stroke-miterlimit:3.864;}
	.st161{fill:none;stroke:#020303;stroke-width:6.389251e-02;stroke-linecap:round;stroke-miterlimit:3.864;}
	.st162{fill-rule:evenodd;clip-rule:evenodd;fill:none;stroke:#000000;stroke-width:0.113;stroke-miterlimit:3.864;}
	.st163{fill-rule:evenodd;clip-rule:evenodd;fill:#020303;}
	.st164{fill:none;stroke:#000000;stroke-width:6.389251e-02;stroke-miterlimit:3.864;}
</style>
<g id="Logo">
	<g>
		<g>
			<path class="st1" d="M121.2,78.1c-0.1,0.1-0.3,0.1-0.4,0c-0.1-0.1-0.2-0.2-0.1-0.4l5-15.5l-13.1-9.6c-0.1-0.1-0.2-0.2-0.1-0.4
				c0-0.2,0.2-0.2,0.3-0.2h16.2l4.9-15.5c0.1-0.1,0.2-0.2,0.3-0.2c0.2,0,0.3,0.1,0.3,0.2l5,15.5h16.2c0.2,0,0.3,0.1,0.3,0.2
				c0.1,0.2,0,0.3-0.1,0.4L143,62.3l5,15.5c0.1,0.1,0,0.3-0.1,0.4c-0.1,0.1-0.3,0.1-0.4,0l-13.1-9.5L121.2,78.1z"/>
			<g>
				<path class="st1" d="M123.9,62.9l-12.8-9.3c-0.2-0.2-0.4-0.4-0.5-0.6c-0.1,0.6,0.2,1.2,0.7,1.6l12.4,9L123.9,62.9z"/>
				<path class="st1" d="M144.8,62.9l12.8-9.3c0.2-0.2,0.4-0.4,0.5-0.6c0.1,0.6-0.2,1.2-0.7,1.6l-12.4,9L144.8,62.9z"/>
				<path class="st1" d="M134.3,71.5l12.5,9.1c0.8,0.6,1.8,0.4,2.4-0.4c0.2-0.3,0.3-0.6,0.3-1c-0.1,0.2-0.3,0.4-0.5,0.6
					c-0.6,0.4-1.4,0.4-2,0l-12.8-9.3l-12.7,9.3c-0.6,0.4-1.3,0.4-2,0c-0.2-0.2-0.4-0.4-0.5-0.6c0,0.4,0.1,0.7,0.3,1
					c0.6,0.8,1.6,0.9,2.4,0.4L134.3,71.5z"/>
			</g>
		</g>
		<g>
			<g>
				<path class="st1" d="M100.2,73.2v0.7h-0.6v2.9h-0.8v-2.9h-0.6v-0.7H100.2z"/>
				<path class="st1" d="M101.8,76.8v-3.5h0.8c0.5,0,1.4,0.1,1.4,1c0,0.4-0.2,0.7-0.6,0.9l0.7,1.6h-0.8l-0.7-1.6l0,0v1.6L101.8,76.8
					L101.8,76.8z M102.5,74.8h0.2c0.4,0,0.5-0.2,0.5-0.5c0-0.3-0.2-0.5-0.5-0.4h-0.1L102.5,74.8C102.5,74.8,102.5,74.8,102.5,74.8z"
					/>
				<path class="st1" d="M107,73.2l0.9,3.5h-0.8l-0.2-0.6h-0.8l-0.2,0.6h-0.8l0.9-3.5C106.2,73.2,107,73.2,107,73.2z M106.6,74.7
					l-0.1-0.5l0,0l-0.1,0.5l-0.2,0.9h0.6L106.6,74.7z"/>
				<path class="st1" d="M109.2,76.8v-3.5h0.6c0.2,0,1.8-0.2,1.8,1.8c0,1-0.4,1.7-1.7,1.7L109.2,76.8L109.2,76.8z M110.8,75.1
					c0-0.5-0.2-1.1-0.8-1.1v2.3C110.6,76.2,110.8,75.5,110.8,75.1z"/>
				<path class="st1" d="M114.6,73.2v0.7h-0.8v0.8h0.7v0.7h-0.7v0.8h0.8v0.7h-1.6v-3.5L114.6,73.2L114.6,73.2z"/>
			</g>
			<g>
				<path class="st1" d="M155.1,73.2l0.4,2.1l0,0l0.3-2.1h1l0.4,3.5h-0.8l-0.2-2.5l0,0l-0.1,0.9l-0.3,1.7h-0.6l-0.4-1.7l-0.1-0.8
					v-0.1l0,0l-0.1,2.5h-0.9l0.4-3.5L155.1,73.2L155.1,73.2L155.1,73.2z"/>
				<path class="st1" d="M160.1,73.2l0.9,3.5h-0.8l-0.2-0.6h-0.8l-0.2,0.6h-0.8l0.9-3.5C159.2,73.2,160.1,73.2,160.1,73.2z
					 M159.7,74.7l-0.1-0.5l0,0l-0.1,0.5l-0.2,0.9h0.5L159.7,74.7z"/>
				<path class="st1" d="M162.3,76.8v-3.5h0.8c0.5,0,1.4,0.1,1.4,1c0,0.4-0.2,0.7-0.6,0.9l0.7,1.6h-0.8l-0.7-1.6l0,0v1.6L162.3,76.8
					L162.3,76.8z M163.1,74.8h0.2c0.4,0,0.5-0.2,0.5-0.5c0-0.3-0.2-0.5-0.5-0.4h-0.2V74.8z"/>
				<path class="st1" d="M166.9,73.2v1.6l0,0l0.6-1.6h0.8l-0.7,1.6l0.8,1.9h-0.8l-0.7-1.8l0,0v1.8h-0.8v-3.5L166.9,73.2L166.9,73.2z
					"/>
			</g>
		</g>
		<g>
			<g>
				<path class="st1" d="M97.6,107.2c-1,1-2.3,2-3.6,2.4c-1.2,0.4-4.7,0.7-5.7-2.2c-0.2-0.6-0.1-0.8,0.5-1c0.8-0.3,3-0.9,5.3-1.8
					c2.1-0.8,3.9-1.7,4.5-2.1c1-0.7,1.2-1.7,0.7-2.6c-1.5-3.3-4.7-6.7-10.2-5.7c-4.4,0.9-7.5,4.8-7.5,9.2c0,5.6,3.3,8.8,7.6,9.8
					c3.9,0.9,8.6-1,10.5-4.2C100.5,107.9,98.2,106.4,97.6,107.2z M87.7,102.8c-0.4-1.2-0.1-4.8,1.9-5.5c2.1-0.7,3.4,0.4,4,2.4
					c0.2,0.8,0.2,1.6-0.1,1.9c-0.4,0.5-1,0.7-1.6,0.9l-1.6,0.5C88.8,103.7,88.1,103.8,87.7,102.8z"/>
				<path class="st1" d="M148.4,107.2c-1,1-2.3,2-3.6,2.4c-1.2,0.4-4.7,0.7-5.7-2.2c-0.2-0.6-0.1-0.8,0.5-1c0.8-0.3,3-0.9,5.3-1.8
					c2.1-0.8,3.9-1.7,4.5-2.1c1-0.7,1.2-1.7,0.7-2.6c-1.5-3.3-4.7-6.7-10.2-5.7c-4.4,0.8-7.5,4.7-7.5,9.2c0,5.6,3.3,8.8,7.6,9.8
					c3.9,0.9,8.6-1,10.5-4.2C151.3,107.9,149.1,106.4,148.4,107.2z M138.6,102.8c-0.3-0.7-0.3-2.3,0.3-3.6c0.3-0.9,0.8-1.6,1.7-1.9
					c0.9-0.4,1.8-0.3,2.4,0.1c0.7,0.4,1.2,1.2,1.6,2.4c0.2,0.8,0.2,1.6-0.1,1.9c-0.4,0.5-0.9,0.7-1.6,0.9c-0.7,0.3-1.3,0.4-1.6,0.5
					C139.7,103.7,138.9,103.8,138.6,102.8z"/>
				<path class="st1" d="M187.1,107.2c-1,1-2.3,2-3.6,2.4c-1.2,0.4-4.7,0.7-5.7-2.2c-0.2-0.6-0.1-0.8,0.5-1c0.8-0.3,3-0.9,5.3-1.8
					c2.1-0.8,3.9-1.7,4.5-2.1c1-0.7,1.2-1.7,0.7-2.6c-1.5-3.3-4.7-6.7-10.2-5.7c-4.4,0.8-7.5,4.7-7.5,9.2c0,5.6,3.3,8.8,7.6,9.8
					c3.9,0.9,8.5-1,10.5-4.2C190.1,107.9,187.9,106.4,187.1,107.2z M177.3,102.8c-0.3-0.7-0.3-2.3,0.3-3.6c0.3-0.9,0.8-1.6,1.7-1.9
					c0.9-0.4,1.8-0.3,2.4,0.1c0.7,0.4,1.2,1.2,1.6,2.4c0.2,0.8,0.2,1.6-0.1,1.9c-0.4,0.5-0.9,0.7-1.6,0.9c-0.7,0.3-1.3,0.4-1.6,0.5
					C178.4,103.7,177.7,103.8,177.3,102.8z"/>
				<path class="st1" d="M67.4,101.4c-0.3,0-0.6,0.3-0.6,0.6v6.3c0,1,0.3,1.6,0.8,1.9c0.3,0.1,0.9,0.4,1.2,0.6
					c0.3,0.1,0.3,0.4,0.2,0.7c-0.1,0.3-0.1,1.1-0.2,1.4c-0.1,0.3-0.3,0.5-0.8,0.5h-9c-0.5,0-0.7-0.1-0.8-0.5
					c-0.1-0.3-0.1-1.1-0.2-1.5c-0.1-0.4,0.1-0.5,0.3-0.6c0.3-0.2,1-0.4,1.2-0.6c0.6-0.3,0.8-1,0.8-1.8V92.8c0-0.9-0.3-1.6-0.9-1.9
					c-0.3-0.2-0.9-0.4-1.2-0.5c-0.3-0.1-0.3-0.4-0.3-0.7c0.1-0.3,0.1-0.8,0.2-1c0.1-0.4,0.3-0.5,0.8-0.5h8.7c0.5,0,0.7,0.1,0.8,0.5
					c0.1,0.3,0.1,0.8,0.2,1c0.1,0.3,0,0.5-0.3,0.7c-0.3,0.2-0.7,0.4-1,0.6c-0.4,0.2-0.6,0.6-0.6,1.6v4.5c0,0.3,0.3,0.6,0.6,0.6h4.9
					c0.3,0,0.6-0.3,0.6-0.6v-4.5c0-1-0.3-1.4-0.6-1.6c-0.3-0.2-0.7-0.4-1-0.6c-0.3-0.1-0.3-0.4-0.3-0.7c0.1-0.3,0.1-0.8,0.2-1
					c0.1-0.4,0.3-0.5,0.8-0.5h8.7c0.5,0,0.7,0.1,0.8,0.5c0.1,0.3,0.1,0.8,0.2,1c0.1,0.3,0,0.5-0.3,0.7c-0.3,0.2-0.9,0.4-1.2,0.5
					c-0.6,0.3-0.9,1-0.9,1.9v15.5c0,0.8,0.3,1.6,0.8,1.8c0.3,0.2,0.9,0.4,1.2,0.6c0.2,0.1,0.3,0.3,0.3,0.6c-0.1,0.3-0.1,1.1-0.2,1.5
					c0,0.4-0.3,0.5-0.8,0.5h-9c-0.5,0-0.7-0.2-0.8-0.5c-0.1-0.3-0.1-1.1-0.2-1.4c-0.1-0.3-0.1-0.6,0.2-0.7c0.4-0.2,1-0.5,1.2-0.6
					c0.5-0.3,0.8-0.9,0.8-1.9v-6.3c0-0.3-0.3-0.6-0.6-0.6L67.4,101.4L67.4,101.4z"/>
				<path class="st1" d="M164.7,100.9c0,0,3.3,6,4.2,7.6c0.7,1.2,1.5,1.6,2.5,2.2c0.3,0.2,0.4,0.3,0.3,0.8c-0.1,0.4-0.1,1-0.1,1.3
					c-0.1,0.4-0.4,0.5-0.8,0.5c-0.4,0-4.3,0-4.8,0c-0.6,0-0.8-0.1-1.1-0.5c-0.3-0.4-4.3-7.8-4.3-7.8l-1.5,1.5v2
					c0,0.9,0.4,1.6,0.8,1.8c0.3,0.2,0.7,0.4,1,0.6c0.3,0.2,0.3,0.3,0.3,0.7c0,0.3-0.1,1-0.2,1.3c-0.1,0.3-0.3,0.5-0.8,0.5h-8
					c-0.5,0-0.7-0.1-0.8-0.5c-0.1-0.3-0.1-1.1-0.2-1.3c-0.1-0.4,0-0.5,0.3-0.7c0.3-0.2,0.7-0.4,1-0.6c0.4-0.2,0.7-0.8,0.7-1.8V92.6
					c0-1.1-0.4-1.6-0.7-1.8c-0.2-0.1-0.9-0.5-1-0.6c-0.2-0.1-0.3-0.4-0.2-0.7c0.1-0.3,0.1-0.6,0.2-0.9c0.1-0.4,0.3-0.5,0.8-0.5h5.8
					c0.5,0,1,0.4,1,1v12c0,0,3.3-3,3.7-3.4c0.4-0.3,0.3-0.6,0.1-0.7c-0.3-0.2-0.7-0.3-0.9-0.4c-0.2-0.1-0.4-0.2-0.3-0.6
					c0.1-0.4,0.1-0.9,0.1-1.2c0.1-0.4,0.2-0.5,0.7-0.5c0.5,0,6.7,0,7.1,0c0.5,0,0.6,0.2,0.6,0.5c0.1,0.3,0.1,1,0.2,1.3
					c0,0.3-0.2,0.4-0.6,0.6c-1,0.4-1.5,0.6-2.9,2C166.1,99.6,164.7,100.9,164.7,100.9z"/>
				<g>
					<path class="st1" d="M108.4,108.3c0,0.9,0.3,1.5,0.7,1.8c0.3,0.2,0.7,0.4,1,0.6c0.3,0.2,0.3,0.3,0.3,0.7c0,0.3-0.1,1-0.2,1.3
						c-0.1,0.3-0.3,0.5-0.8,0.5h-8.1c-0.5,0-0.7-0.1-0.8-0.5c-0.1-0.3-0.1-1.1-0.2-1.3c-0.1-0.4,0-0.5,0.3-0.7
						c0.3-0.2,0.7-0.4,1-0.6c0.4-0.2,0.7-0.8,0.7-1.8v-8.8c0-1.2-0.4-1.7-0.7-2c-0.2-0.1-0.6-0.3-0.7-0.4c-0.3-0.2-0.3-0.4-0.2-0.7
						c0.1-0.3,0.1-0.8,0.2-1c0-0.4,0.3-0.5,0.8-0.5h6.1c0.3,0,0.5,0.3,0.5,0.5L108.4,108.3z"/>
					<ellipse class="st1" cx="104.9" cy="90.7" rx="3.2" ry="3.1"/>
				</g>
				<path class="st1" d="M129.4,99.5c0-3.2-1.5-4.5-3.2-5c-2-0.6-4.3,0.4-5.6,1c-0.5,0.2-0.9,0.5-0.9,0.5c-0.3-0.7-0.5-0.9-0.9-0.9
					H113c-0.5,0-0.7,0.1-0.8,0.5c-0.1,0.3-0.1,0.8-0.2,1c-0.1,0.3,0,0.5,0.2,0.7c0.2,0.1,0.5,0.3,0.7,0.4c0.4,0.2,0.7,0.8,0.7,2v8.8
					c0,1-0.3,1.6-0.7,1.8c-0.3,0.2-0.7,0.4-1,0.6c-0.2,0.2-0.3,0.3-0.3,0.7c0.1,0.3,0.1,1.1,0.2,1.3c0.1,0.4,0.3,0.5,0.8,0.5h8
					c0.5,0,0.7-0.1,0.8-0.5c0.1-0.3,0.1-1,0.2-1.3c0.1-0.4,0-0.6-0.3-0.7c-0.3-0.2-0.7-0.4-1-0.6c-0.5-0.3-0.7-1.1-0.7-1.8v-7
					c0-1.8,0.9-2.9,2.1-3c0.8-0.1,1.9,0.4,1.9,1.9c0,1.2,0,6.7,0,9.4c0,2.7,2.3,3.7,4.1,3.7c1.9,0,3.5-0.9,4.3-2.4
					c0.2-0.5-0.1-0.8-0.3-1.1c-0.3-0.3-0.5-0.6-0.9-0.4c-0.4,0.2-0.9,0.7-1.1,0.5c-0.2-0.1-0.2-0.3-0.2-0.7L129.4,99.5L129.4,99.5
					L129.4,99.5z"/>
				<path class="st1" d="M207.7,99.5c0-3.2-1.5-4.5-3.2-5c-2-0.6-4.3,0.4-5.6,1c-0.5,0.2-0.9,0.5-0.9,0.5c-0.3-0.7-0.5-0.9-0.9-0.9
					h-5.8c-0.5,0-0.7,0.1-0.8,0.5c-0.1,0.3-0.1,0.8-0.2,1c-0.1,0.3,0,0.5,0.2,0.7c0.2,0.1,0.5,0.3,0.7,0.4c0.4,0.2,0.7,0.8,0.7,2
					v8.8c0,1-0.3,1.6-0.7,1.8c-0.3,0.2-0.7,0.4-1,0.6c-0.2,0.2-0.3,0.3-0.3,0.7c0.1,0.3,0.1,1.1,0.2,1.3c0.1,0.4,0.3,0.5,0.8,0.5h8
					c0.5,0,0.7-0.1,0.8-0.5c0.1-0.3,0.1-1,0.2-1.3c0.1-0.4,0-0.6-0.3-0.7c-0.3-0.2-0.7-0.4-1-0.6c-0.5-0.3-0.7-1.1-0.7-1.8v-7
					c0-1.8,0.9-2.9,2.1-3c0.8-0.1,1.9,0.4,1.9,1.9c0,1.2,0,6.7,0,9.4c0,2.7,2.3,3.7,4.1,3.7c1.9,0,3.5-0.9,4.3-2.4
					c0.2-0.5-0.1-0.8-0.3-1.1c-0.3-0.3-0.5-0.6-0.9-0.4c-0.4,0.2-0.9,0.7-1.1,0.5c-0.2-0.1-0.2-0.3-0.2-0.7L207.7,99.5L207.7,99.5
					L207.7,99.5z"/>
			</g>
			<path class="st1" d="M211.9,89.5c0,2-1.6,3.6-3.6,3.6c-2,0-3.6-1.6-3.6-3.6c0-2,1.6-3.6,3.6-3.6
				C210.3,85.9,211.9,87.5,211.9,89.5z M211.1,89.5c0-1.6-1.2-2.9-2.9-2.9c-1.6,0-2.9,1.2-2.9,2.9c0,1.6,1.3,2.9,2.9,2.9
				C209.9,92.3,211.1,91.1,211.1,89.5z M209.8,90.3c0.1,0.4,0.3,0.7,0.4,0.9c-0.4,0-0.6,0-0.9,0c-0.2-0.4-0.2-0.7-0.3-1
				c-0.1-0.4-0.4-0.5-0.8-0.5c-0.3,0-0.3,0-0.3,0v1.5h-0.9v-3.8c0,0,1.6,0,1.8,0c0.4,0,1.2,0.3,1.2,1.1c0,0.5-0.3,0.9-0.6,1
				C209.6,89.7,209.7,89.9,209.8,90.3z M208.9,88.6c0-0.3-0.3-0.4-0.6-0.4c-0.3,0-0.6,0-0.6,0V89c0,0,0.4,0,0.7,0
				C208.7,89,208.9,88.8,208.9,88.6z"/>
		</g>
	</g>
</g>
</svg>
