<?xml version="1.0" encoding="utf-8"?>
<!-- Generator: Adobe Illustrator 19.1.0, SVG Export Plug-In . SVG Version: 6.00 Build 0)  -->
<svg version="1.1" id="Livello_1" xmlns="http://www.w3.org/2000/svg" xmlns:xlink="http://www.w3.org/1999/xlink" x="0px" y="0px"
	 viewBox="0 0 515 515" style="enable-background:new 0 0 515 515;" xml:space="preserve">
<style type="text/css">
	.st0{fill-rule:evenodd;clip-rule:evenodd;fill:#1D1D1D;}
</style>
<g>
	<path class="st0" d="M61.8,294.8v-8.2h4.5l0,0c2.3,0,6.8-0.5,6.8-5.9l0,0v-49l0,0c0-2.9-0.2-10-5.9-10l0,0h-5.2l5.9-10.4h348.6
		v10.4H95.8l0,0c-2.9,0-6.8,0.7-6.8,6.6l0,0v15.4l0,0c0.7,1.8,3.4,2.5,4.8,2.5c1.4,0,6.1-0.2,6.1-7.7l0,0h6.8v25.2h-6.8l0,0
		c0-2.3-2.5-6.1-5.9-6.3c-2.7-0.2-5,0.7-5,4.3l0,0v19l0,0c0,2,2.5,5.9,8.4,5.9l0,0h4.1v8.2H61.8L61.8,294.8L61.8,294.8z"/>
	<path class="st0" d="M263,233.6c0,1.8,2.3,3.6,3.6,4.1c1.6-1.1,10-5.9,16.5-5.9c6.6,0,10,3.4,10,8.6l0,0v24.9h-15.9v-19.3l0,0
		c0-2.5-0.7-4.3-2.9-4.5c-2.3-0.2-8.2,4.5-9.7,6.8l0,0v34.4l0,0c0,3.2,3.2,5.4,5.9,5.4l0,0v6.6h-27.6V288l0,0c2.7,0,5.7-0.9,5.9-5
		l0,0v-38.3l0,0c0-1.1-1.8-4.3-5.9-4.3l0,0v-6.8H263L263,233.6L263,233.6z"/>
	<path class="st0" d="M452.8,233.6h-27.6v6.8l0,0c4.1,0,5.9,3.2,5.9,4.3l0,0V283l0,0c-0.2,4.1-3.2,5-5.9,5l0,0v6.8h27.6v-6.6l0,0
		c-2.7,0-5.9-2.3-5.9-5.4l0,0v-37.6l0,0c0-2.7,2.9-4.8,5.9-4.8l0,0V233.6L452.8,233.6L452.8,233.6z"/>
	<path class="st0" d="M201.8,233.6c0,1.8,2.3,3.6,3.6,4.1c1.6-1.1,10-5.9,16.5-5.9c6.6,0,10,3.4,10,8.6l0,0v24.9h-15.9v-19.3l0,0
		c0-2.5-0.7-4.3-2.9-4.5c-2.3-0.2-8.2,4.5-9.7,6.8l0,0v34.4l0,0c0,3.2,3.2,5.4,5.9,5.4l0,0v6.6h-27.6V288l0,0c2.7,0,5.7-0.9,5.9-5
		l0,0v-38.3l0,0c0-1.1-1.8-4.3-5.9-4.3l0,0v-6.8H201.8L201.8,233.6L201.8,233.6z"/>
	<path class="st0" d="M385.7,233.6c0,1.8,2.3,3.6,3.6,4.1c1.6-1.1,10-5.9,16.5-5.9c6.6,0,10,3.4,10,8.6l0,0v24.9H400v-19.3l0,0
		c0-2.5-0.7-4.3-2.9-4.5c-2.3-0.2-8.2,4.5-9.7,6.8l0,0v34.4l0,0c0,3.2,3.2,5.4,5.9,5.4l0,0v6.6h-27.6V288l0,0c2.7,0,5.7-0.9,5.9-5
		l0,0v-38.3l0,0c0-1.1-1.8-4.3-5.9-4.3l0,0v-6.8H385.7L385.7,233.6L385.7,233.6z"/>
	<path class="st0" d="M169.7,275.8h-15.9v6.1l0,0c0,2.5-0.5,7.7-7.9,7.7c-7.5,0-9.7-5-9.7-8.6l0,0v-12.9l0,0c0-1.1,0.9-2.7,2.5-2.7
		l0,0h31v-16.5l0,0c0-7.5-1.6-9.7-4.8-12.9c-3.2-3.2-14.3-4.1-19.3-4.1c-12.7,0-16.8,1.8-20.4,4.8c-3.6,2.9-5,9.1-5,13.6l0,0v25.6
		l0,0c0,6.8,1.4,11.6,5.7,15.9c4.3,4.3,17.4,4.3,20.2,4.3c2.7,0,11.8,0.2,18.4-4.5C171.1,286.7,169.7,275.8,169.7,275.8L169.7,275.8
		L169.7,275.8L169.7,275.8z M136.2,247.7c0-3.6,1.1-9.1,9.1-9.1c7.9,0,8.6,5.9,8.6,9.1l0,0v8.2l0,0c0,1.4-1.1,2.7-2.7,2.7l0,0h-12.2
		l0,0c-1.4,0-2.7-1.1-2.7-2.5l0,0V247.7L136.2,247.7L136.2,247.7z"/>
	<path class="st0" d="M351.5,282.8v-34l0,0c0-5.2-0.2-10.7-5.7-14.5c-5.4-3.9-14.3-3.6-17.7-3.6c-3.4,0-14.7,0-19.9,5.9
		c-5.2,5.9-4.3,11.6-4.3,13.8l0,0h14.8l0,0c0,0,1-7.7,3.1-9.7c2.1-2.1,7.5-4.3,11.7-0.7c1.5,1.3,2.2,3.1,2.2,5l0,0v9.7l0,0
		c0,0.9-0.9,2.3-2,2.3c0,0-20.6,0.5-24.2,3.2c-3.6,2.7-6.8,4.5-6.8,14.5c0,10,2.5,13.8,5.4,15.9c2.9,2,4.3,4.3,17.7,4.3l0,0h31.7
		v-6.6l0,0C354.6,288.2,351.5,286,351.5,282.8L351.5,282.8L351.5,282.8L351.5,282.8z M335.6,286.7c0,0.6-0.9,1.4-1.6,1.4l0,0h-7.8
		l0,0c-5.6,0-7.1-4.8-7.1-7.7l0,0v-8.7l0,0c0-8.5,8.8-8.3,12.4-8.3c3.5,0,4.2,2.9,4.2,4.9l0,0V286.7L335.6,286.7L335.6,286.7z"/>
	<path class="st0" d="M437.9,221.7c7.9,0,14.4-2.4,14.4-5.4c0-3-6.4-5.4-14.4-5.4c-7.9,0-14.4,2.4-14.4,5.4
		C423.5,219.3,430,221.7,437.9,221.7L437.9,221.7L437.9,221.7L437.9,221.7z"/>
</g>
</svg>
