<?xml version="1.0" encoding="utf-8"?>
<!-- Generator: Adobe Illustrator 19.1.0, SVG Export Plug-In . SVG Version: 6.00 Build 0)  -->
<svg version="1.1" id="Livello_1" xmlns="http://www.w3.org/2000/svg" xmlns:xlink="http://www.w3.org/1999/xlink" x="0px" y="0px"
	 viewBox="0 0 515 515" style="enable-background:new 0 0 515 515;" xml:space="preserve">
<style type="text/css">
	.st0{fill:#3A3A3A;}
	.st1{fill-rule:evenodd;clip-rule:evenodd;fill:#FFFFFF;}
	.st2{fill-rule:evenodd;clip-rule:evenodd;fill:#5E5E5E;}
</style>
<g>
	<path class="st0" d="M24,363c0-73,0-146,0-219c155.3,0,310.7,0,466,0c0,73,0,146,0,219C334.7,363,179.3,363,24,363z M386.4,247.9
		c0.1,0,0.1,0,0.2,0c0,0.3,0,0.6,0,0.9c0,14,0,28,0,41.9c0,1.5,0.3,1.9,1.7,2c1.3,0.1,2.6,0.2,3.9,0.2c3.4,0,6.7-0.1,10.1-0.2
		c1.6-0.1,1.9-0.6,1.9-2.2c0-21.6,0-43.1,0-64.7c0-2.6,0-5.2,0-7.7c0-0.9-0.4-1.4-1.2-1.6c-0.9-0.2-1.9-0.4-2.8-0.4
		c-2.5-0.1-5.1-0.1-7.6,0c-2,0-3.9,0.1-5.9,0.2c-1.4,0.1-2.2,0.8-2.8,2.1c-2.9,7.1-5.9,14.1-8.8,21.2c-3,7.5-6,15.1-8.9,22.7
		c-0.1,0.2-0.2,0.5-0.2,0.5c-2.1-5.5-4.2-11.1-6.5-16.6c-3.9-9.4-7.9-18.7-11.9-28c-0.3-0.6-0.9-1.2-1.5-1.4
		c-1.2-0.4-2.5-0.6-3.7-0.6c-3.7-0.1-7.5-0.1-11.2,0c-1,0-2.1,0.1-3.1,0.2c-1.5,0.2-1.8,0.6-1.8,2.1c0,24.1,0,48.2,0,72.3
		c0,1.6,0.2,1.9,1.9,2.1c1.2,0.1,2.4,0.2,3.6,0.2c3.4,0,6.9-0.1,10.3-0.2c1.7-0.1,2-0.6,2-2.3c0-13.9,0-27.7,0-41.6c0-0.3,0-0.7,0-1
		c0.7,1.4,1.1,2.8,1.7,4.1c3.8,8.8,7.5,17.6,11.3,26.5c0.5,1.3,1.4,2,2.7,2c4,0.1,8,0.1,12,0c1.2,0,1.9-0.7,2.4-1.8
		c0.9-2.3,1.9-4.6,2.8-6.9c3.1-7.8,6.2-15.6,9.3-23.4C386.2,248.2,386.3,248,386.4,247.9z M245.6,232.7c0,0.5,0,0.8,0,1.2
		c0,19,0,38.1,0,57.1c0,1.2,0.3,1.6,1.5,1.8c1.3,0.1,2.6,0.2,3.9,0.2c3.4,0,6.8,0,10.2-0.2c1.8-0.1,2.1-0.5,2.1-2.3
		c0-18.9,0-37.8,0-56.8c0-0.3,0-0.6,0-1c0.4,0,0.7,0,1,0c5.3,0,10.6,0,15.9,0c1.5,0,2-0.4,2.1-1.9c0.1-3.2,0.2-6.4,0.2-9.6
		c0-1.2,0-2.5-0.2-3.7c-0.1-1.2-0.4-1.5-1.6-1.5c-6.5,0-12.9,0-19.4,0c-11.1,0-22.2,0-33.3,0c-1.2,0-1.4,0.2-1.6,1.4
		c-0.1,0.6-0.2,1.2-0.2,1.8c0,3.2,0,6.4,0,9.6c0,0.8,0.1,1.5,0.2,2.3c0.2,1.2,0.6,1.5,1.8,1.5c2.8,0,5.7,0,8.5,0
		C239.6,232.7,242.5,232.7,245.6,232.7z M159.8,216.1c-13.9,0-27.8,0-41.8,0c-2.3,0-4.2,1.9-4.2,4.2c0,2.7,0,5.3,0,8
		c0,0.6,0.2,1.3,0.5,1.9c1,1.9,2.7,2.4,4.7,2.4c26.6,0,53.3,0,79.9,0c1.1,0,2.1-0.1,3.2-0.2c1.9-0.2,3.6-2,3.7-3.9
		c0-2.7,0-5.5,0-8.2c0-2.2-2.1-4.3-4.4-4.3C187.5,216.1,173.6,216.1,159.8,216.1z M294.2,254.5c0,12.1,0,24.3,0,36.4
		c0,1.3,0.3,1.7,1.6,1.8c1.3,0.1,2.6,0.2,3.9,0.2c3.4,0,6.9-0.1,10.3-0.2c1.6-0.1,1.9-0.6,1.9-2.3c0-19.4,0-38.9,0-58.3
		c0-4.7,0-9.3,0-14c0-0.9-0.4-1.4-1.2-1.7c-0.4-0.1-0.8-0.2-1.2-0.2c-3-0.1-6.1-0.2-9.1-0.2c-1.4,0-2.9,0.1-4.3,0.2
		c-1.6,0.2-1.9,0.5-1.9,2.1C294.2,230.4,294.2,242.5,294.2,254.5z M169,246.3c0,5.5,0,10.9,0,16.4c0.2,0,0.4,0,0.5,0
		c10.8,0,21.5,0,32.3,0c2.2,0,4-1.9,4-4c0-2.6,0-5.2,0-7.8c0-0.5,0-0.9-0.1-1.4c-0.6-2.1-2.2-3.2-4.5-3.2c-10.4,0-20.8,0-31.2,0
		C169.6,246.3,169.3,246.3,169,246.3z M168.9,292.9c0.2,0,0.4,0,0.5,0c10.8,0,21.6,0,32.3,0c2,0,3.9-1.9,4-3.9c0-2.7,0-5.3,0-8
		c0-0.4,0-0.9-0.2-1.3c-0.7-2.1-2.1-3.1-4.6-3.1c-10.4,0-20.8,0-31.1,0c-0.3,0-0.6,0-0.9,0C168.9,282,168.9,287.4,168.9,292.9z
		 M150.6,276.6c-0.3,0-0.5,0-0.7,0c-10.7,0-21.4,0-32.1,0c-2.2,0-4.1,1.9-4.1,4.1c0,2.6,0,5.3,0,7.9c0,2.5,1.9,4.3,4.4,4.3
		c10.5,0,21,0,31.5,0c0.3,0,0.6,0,1,0C150.6,287.4,150.6,282.1,150.6,276.6z M150.6,262.7c0-5.5,0-10.9,0-16.4c-0.2,0-0.3,0-0.5,0
		c-10.7,0-21.5,0-32.2,0c-2.2,0-4.1,2-4.1,4.2c0,2.5,0.1,5.1,0,7.6c-0.1,2.5,2.1,4.7,4.6,4.6c10.4-0.1,20.8,0,31.1,0
		C149.8,262.7,150.2,262.7,150.6,262.7z"/>
	<path class="st1" d="M386.4,247.9c-0.1,0.2-0.2,0.3-0.3,0.5c-3.1,7.8-6.2,15.6-9.3,23.4c-0.9,2.3-1.9,4.6-2.8,6.9
		c-0.4,1.2-1.2,1.8-2.4,1.8c-4,0-8,0-12,0c-1.3,0-2.1-0.8-2.7-2c-3.7-8.8-7.5-17.6-11.3-26.5c-0.6-1.3-1-2.7-1.7-4.1
		c0,0.3,0,0.7,0,1c0,13.9,0,27.7,0,41.6c0,1.7-0.3,2.2-2,2.3c-3.4,0.2-6.9,0.2-10.3,0.2c-1.2,0-2.4,0-3.6-0.2
		c-1.7-0.2-1.9-0.5-1.9-2.1c0-24.1,0-48.2,0-72.3c0-1.5,0.3-1.9,1.8-2.1c1-0.1,2.1-0.2,3.1-0.2c3.7,0,7.5,0,11.2,0
		c1.2,0,2.5,0.2,3.7,0.6c0.6,0.2,1.3,0.8,1.5,1.4c4,9.3,8,18.6,11.9,28c2.3,5.5,4.3,11.1,6.5,16.6c0,0,0.1-0.3,0.2-0.5
		c3-7.6,5.9-15.1,8.9-22.7c2.9-7.1,5.9-14.1,8.8-21.2c0.6-1.4,1.4-2,2.8-2.1c2-0.1,3.9-0.2,5.9-0.2c2.5,0,5.1,0,7.6,0
		c0.9,0,1.9,0.2,2.8,0.4c0.8,0.2,1.2,0.7,1.2,1.6c0,2.6,0,5.2,0,7.7c0,21.6,0,43.1,0,64.7c0,1.6-0.3,2.1-1.9,2.2
		c-3.4,0.2-6.7,0.2-10.1,0.2c-1.3,0-2.6-0.1-3.9-0.2c-1.5-0.2-1.7-0.5-1.7-2c0-14,0-28,0-41.9c0-0.3,0-0.6,0-0.9
		C386.5,247.9,386.4,247.9,386.4,247.9z"/>
	<path class="st1" d="M245.6,232.7c-3,0-5.9,0-8.8,0c-2.8,0-5.7,0-8.5,0c-1.2,0-1.6-0.3-1.8-1.5c-0.1-0.8-0.2-1.5-0.2-2.3
		c0-3.2,0-6.4,0-9.6c0-0.6,0.1-1.2,0.2-1.8c0.1-1.2,0.4-1.4,1.6-1.4c11.1,0,22.2,0,33.3,0c6.5,0,12.9,0,19.4,0
		c1.2,0,1.5,0.2,1.6,1.5c0.1,1.2,0.2,2.4,0.2,3.7c0,3.2,0,6.4-0.2,9.6c-0.1,1.6-0.6,1.9-2.1,1.9c-5.3,0-10.6,0-15.9,0
		c-0.3,0-0.7,0-1,0c0,0.4,0,0.7,0,1c0,18.9,0,37.8,0,56.8c0,1.8-0.3,2.2-2.1,2.3c-3.4,0.2-6.8,0.2-10.2,0.2c-1.3,0-2.6-0.1-3.9-0.2
		c-1.2-0.1-1.5-0.5-1.5-1.8c0-19,0-38.1,0-57.1C245.6,233.5,245.6,233.1,245.6,232.7z"/>
	<path class="st2" d="M159.8,216.1c13.9,0,27.7,0,41.6,0c2.4,0,4.5,2,4.4,4.3c-0.1,2.7,0,5.5,0,8.2c0,1.9-1.7,3.8-3.7,3.9
		c-1.1,0.1-2.1,0.2-3.2,0.2c-26.6,0-53.3,0-79.9,0c-2,0-3.7-0.5-4.7-2.4c-0.3-0.6-0.5-1.3-0.5-1.9c-0.1-2.7,0-5.3,0-8
		c0-2.3,1.9-4.2,4.2-4.2C131.9,216.1,145.9,216.1,159.8,216.1z"/>
	<path class="st1" d="M294.2,254.5c0-12,0-24.1,0-36.1c0-1.6,0.3-1.9,1.9-2.1c1.4-0.1,2.9-0.2,4.3-0.2c3,0,6.1,0.1,9.1,0.2
		c0.4,0,0.8,0.1,1.2,0.2c0.8,0.2,1.2,0.7,1.2,1.7c0,4.7,0,9.3,0,14c0,19.4,0,38.9,0,58.3c0,1.7-0.3,2.2-1.9,2.3
		c-3.4,0.2-6.9,0.2-10.3,0.2c-1.3,0-2.6-0.1-3.9-0.2c-1.3-0.2-1.6-0.5-1.6-1.8C294.2,278.8,294.2,266.6,294.2,254.5z"/>
	<path class="st2" d="M169,246.3c0.3,0,0.6,0,0.9,0c10.4,0,20.8,0,31.2,0c2.4,0,3.9,1.1,4.5,3.2c0.1,0.4,0.1,0.9,0.1,1.4
		c0,2.6,0,5.2,0,7.8c0,2.2-1.9,4-4,4c-10.8,0-21.5,0-32.3,0c-0.2,0-0.3,0-0.5,0C169,257.3,169,251.8,169,246.3z"/>
	<path class="st2" d="M168.9,292.9c0-5.5,0-10.9,0-16.3c0.3,0,0.6,0,0.9,0c10.4,0,20.8,0,31.1,0c2.5,0,3.9,1,4.6,3.1
		c0.1,0.4,0.2,0.9,0.2,1.3c0,2.7,0,5.3,0,8c0,2-2,3.9-4,3.9c-10.8,0-21.6,0-32.3,0C169.3,292.9,169.2,292.9,168.9,292.9z"/>
	<path class="st2" d="M150.6,276.6c0,5.5,0,10.9,0,16.4c-0.3,0-0.7,0-1,0c-10.5,0-21,0-31.5,0c-2.5,0-4.4-1.9-4.4-4.3
		c0-2.6,0-5.3,0-7.9c0-2.2,1.9-4.1,4.1-4.1c10.7,0,21.4,0,32.1,0C150.1,276.5,150.3,276.6,150.6,276.6z"/>
	<path class="st2" d="M150.6,262.7c-0.4,0-0.8,0-1.1,0c-10.4,0-20.8,0-31.1,0c-2.5,0-4.7-2.1-4.6-4.6c0.1-2.5,0-5.1,0-7.6
		c0-2.2,1.9-4.1,4.1-4.2c10.7,0,21.5,0,32.2,0c0.1,0,0.3,0,0.5,0C150.6,251.8,150.6,257.2,150.6,262.7z"/>
</g>
</svg>
