<?xml version="1.0" encoding="utf-8"?>
<!-- Generator: Adobe Illustrator 19.2.1, SVG Export Plug-In . SVG Version: 6.00 Build 0)  -->
<!DOCTYPE svg PUBLIC "-//W3C//DTD SVG 1.1//EN" "http://www.w3.org/Graphics/SVG/1.1/DTD/svg11.dtd">
<svg version="1.1" id="Logotype" xmlns="http://www.w3.org/2000/svg" xmlns:xlink="http://www.w3.org/1999/xlink" x="0px" y="0px"
	 viewBox="0 0 266.6 151.5" style="enable-background:new 0 0 266.6 151.5;" xml:space="preserve">
<style type="text/css">
	.st0{fill:#0A0A09;}
	.st1{fill:#020202;}
	.st2{fill:#070606;}
	.st3{fill:#030303;}
	.st4{fill:#040404;}
	.st5{fill:#060505;}
	.st6{fill:#060606;}
	.st7{fill:#343232;}
	.st8{fill:#413F3E;}
	.st9{fill:#403E3D;}
	.st10{fill:#FFFFFF;}
	.st11{fill:#F9F9F9;}
	.st12{fill:#444141;}
	.st13{fill:#FEFEFE;}
</style>
<g id="rYaGZF.tif">
	<g>
		<path class="st0" d="M0,123.6c0.3-0.3,0.7-0.2,1-0.2c3.2,0,6.4,0,9.6,0c0.5,0,1-0.1,1,0.8c0,0.8-0.5,0.7-0.9,0.7
			c-0.9,0-2-0.3-2.5,0.2c-0.6,0.5-0.2,1.7-0.2,2.6c0,6.8,0,13.7,0,20.5c0,1.1,0.3,1.4,1.4,1.3c1.6-0.1,3.2-0.1,4.8,0
			c2,0.1,3.3-0.8,4.4-2.4c0.7-1.1,1.2-2.3,1.4-3.5c0.1-0.7,0.5-0.7,1-0.6c0.7,0,0.4,0.5,0.4,0.9c-0.1,2.1-0.3,4.2-0.4,6.3
			c0,0.7-0.2,0.9-0.9,0.9c-6.4,0-12.7,0-19.1,0c-0.3,0-0.6,0-0.9-0.2c0-0.4,0-0.8,0-1.2c0.3-0.6,0.9-0.6,1.5-0.6
			c1.5-0.1,1.5-0.1,1.5-1.6c0-4.6,0-9.3,0-13.9c0-2.3,0-4.6,0-6.8c0-1.3-0.1-1.3-1.4-1.4c-0.6,0-1.1,0-1.6-0.4
			C0,124.4,0,124,0,123.6z"/>
		<path class="st1" d="M163.2,75.6c4.1,1.7,8.2,3.5,12.6,4.4c6.8,1.4,13.6,1.6,20.5,0.7c5.6-0.7,11.1-2.1,16.3-4.4
			c3.4-1.5,6.6-3.2,8.7-6.4c0.8-1.3,1.4-2.6,1.9-4.2c-3,0.9-5.9,1.7-8.9,2.1c-5.1,0.8-10.3,1.4-15.4-0.3c-1-0.3-2-0.8-2.9-1.3
			c-3.3-2-4.3-4.5-3.2-8.2c0.9-3,2.9-5,5.4-6.6c11.1-7.2,24.9-0.2,28.4,8.2c0.1,0.2,0.1,0.4,0.2,0.6c0.8,2,0.8,2,2.7,0.9
			c3.2-1.8,6-4.1,7.9-7.3c1.8-3,2.3-6.2,1.3-9.5c-2.4-8.2-7.4-14-16-16.1c-3.3-0.8-6.7-0.9-10.1-0.8c-9.3,0.4-18.3,2.1-26.8,5.8
			c-2.9,1.3-5.8,2.8-8.1,5c-1.6,1.5-3,3.1-2.8,5.4c0,0.3-0.1,0.6-0.5,0.7c-0.5,0.1-0.7-0.2-0.9-0.6c-0.9-2.2-0.8-4.3,0.3-6.3
			c1.2-2.1,3-3.5,5-4.7c5.2-3.1,10.9-4.9,16.7-6.2c7.1-1.5,14.3-1.9,21.5-1.2c7.2,0.7,13.9,2.7,19.3,7.9c3.9,3.7,6.2,8.3,6.6,13.7
			c0.4,5.2-2.1,9-5.9,12.2c-2.6,2.1-5.6,3.7-8.7,5c-0.7,0.3-1,0.7-1.2,1.4c-1.3,5-4.5,8.4-8.8,11.1c-5.1,3.2-10.7,4.9-16.5,6
			c-6.1,1.2-12.3,1.7-18.5,1.2c-7.4-0.6-14.7-2-21.3-5.7c-0.7-0.4-1.1-0.3-1.8,0.2c-3,2.5-6.1,4.9-9.4,7.1c1.1,1.1,2.1,2.3,3,3.5
			c2.9,4.3,2.6,9-0.9,12.8c-3.5,3.9-8.1,6-13.1,7.2c-15.2,3.7-28.9,0.3-41.2-9.2c-7.5-5.8-13.3-13.2-18.4-21.1
			c-2.7-4.2-5.4-8.3-8.1-12.5c-0.4-0.6-0.7-0.9-1.6-0.7c-7.5,1.4-14.9,1.3-22.1-1.2c-5.5-1.9-9.8-5.4-12.2-10.9
			c-0.4-1-0.8-2.1-0.8-3.2c-0.1-3.4,1.3-5.3,4.7-5.7c8.2-0.9,15.7,0.9,22.3,6c3.5,2.7,6.3,6.1,8.7,9.8c0.4,0.7,0.8,0.8,1.5,0.5
			c8.4-2.5,16-6.6,23.2-11.7c0.1-0.1,0.4-0.2,0.3-0.6c-2.8-0.2-5.5-0.6-8.2-1.3c-5.6-1.5-10.8-3.7-15-7.9C66,32,66.6,21.9,74.7,15.6
			c5.4-4.2,11.5-5.6,18.2-5.3c1,0,2,0,3,0.2c0.4,0.1,0.7,0,1-0.2c6.8-4.2,14.3-5.3,22.2-4.9c5.1,0.3,10.1,1.1,14.7,3.3
			c1,0.4,2,0.9,2.8,1.5c0.8,0.6,1.4,0.5,2.2,0c4.9-3.1,10.1-5.7,15.7-7.5c7.8-2.6,15.9-3,24-2.5c3.5,0.2,6.9,0.9,10.1,2.2
			c1.1,0.5,2.2,1,3.2,1.7c4.4,3,5.6,7.7,3.1,12.5c-0.5,1-1.2,2-2,2.8c-1,0.7-1.9,1.6-2.6,2.6c-3.4,3-7.5,4.9-11.6,6.7
			c-8.6,3.7-17.6,5.9-26.9,6.8c-2.1,0.2-4.2,0.3-6.3,0.5c-0.4,0-0.8,0.1-1.1,0.4c-6.3,5.4-13.9,7.9-21.8,9.9
			c-4.8,1.3-9.8,2-14.8,2.2c-0.6,0-1,0.3-1.5,0.7c-9.4,8-20.1,13-32.4,15.5c6,9,11.3,18.3,19,26.4c-0.3-1.2-0.7-2-0.8-2.8
			c-0.4-2.1,0.2-3.9,1.7-5.5c2.5-2.6,5.6-4,8.9-5.2c7.3-2.8,14.8-4.3,22.6-3.8c8.1,0.5,15.7,2.5,22,7.9c0.4,0.3,0.6,0.3,1,0
			c2.9-2.2,5.9-4.4,8.9-6.5c0.6-0.4,0.7-0.7,0.1-1.2c-1.2-1.3-2.3-2.7-3-4.3c-0.5-1.1-0.8-2.2-0.5-3.4c0.9-0.5,0.9-0.5,1.3,1
			c0.7,2.5,2.5,4.1,4.4,5.6c0.5,0.4,0.7-0.1,1-0.3c3.4-2.7,6.7-5.4,9.9-8.3c1.4-1.2,2.7-2.4,4.2-4c-2,0.7-3.7,1.3-5.4,1.9
			c-1.7,0.6-3.4,1.1-5.2,1.1c-1,0-2-0.2-2.5-1.1c-0.5-1-0.4-2.1,0.2-3.1c0.3-0.5,0.8-1,1.1-1.6c-1.5,1-2.9,2-4.4,2.9
			c-3.1,1.9-6.3,3.6-9.9,4.2c-0.3,0-0.6,0.1-0.8,0.1c-2.2,0.1-2.8-0.5-2.8-2.6c0-0.6,0.1-1.2,0.1-2c-1.7,0.7-3.3,1.5-5,2.1
			c-2,0.8-4,1.6-6.2,1.6c-1.3,0-2.6-0.1-3.2-1.4c-0.7-1.3,0-2.5,0.7-3.6c0.3-0.4,0.6-0.8,1-1.2c-0.4-0.4-0.6,0.1-0.8,0.2
			c-2.9,1.9-5.7,3.9-8.8,5.6c-0.3,0.2-0.6,0.3-0.9,0.4c-1.5,0.7-2.7,0.8-3.3,0c-0.7-0.8-0.7-2.7,0-3.9c1.3-2,3.2-3.5,4.9-5
			c0.3-0.2,0.6-0.5,0.7-0.9c-1.1,0.8-2.2,1.6-3.3,2.4c-3.3,2.4-6.6,4.7-10.1,6.8c-1.8,1-3.8,1.2-5.8,0.9c-0.3,0-0.7,0-0.6-0.5
			c0-0.4,0.3-0.6,0.6-0.7c0.1,0,0.2,0,0.2,0c2.7,0.3,4.8-1.3,6.9-2.7c4.2-2.8,8.1-5.8,12.1-8.8c1-0.7,2-1.5,3.3-1.6
			c0.9-0.1,1.9-0.1,2.4,0.9c0.4,1,0.3,1.9-0.4,2.8c-1.4,1.6-2.9,3-4.4,4.4c-1.2,1.1-2.3,2.2-3.5,3.3c-0.3,0.3-0.6,0.6-0.8,1.1
			c1.1-0.2,1.9-0.8,2.7-1.3c4.1-2.7,8.2-5.5,12.4-8.2c1-0.7,2-1.3,3.1-1.8c0.8-0.4,1.8-0.6,2.5,0.3c0.6,0.7,0.6,2.2-0.1,3
			c-2.1,2.4-4.4,4.6-6.8,6.8c-0.3,0.3-0.6,0.5-1,1c3.3-0.6,6-2,8.9-3c2.1-0.8,3.6-2,4.8-4c3.1-5,7.9-8.2,12.8-11.1
			c1.7-1,3.5-1.9,5.3-2.7c0.8-0.3,1.5-0.5,2.3-0.5c1.4,0,1.9,0.6,1.2,2c-0.5,1.2-1.4,2.1-2.3,3.1c-3.6,3.8-8,6.8-12.6,9.3
			c-2.5,1.4-4.3,3.3-5.8,5.7c-0.3,0.5-0.8,1.1-0.3,1.6c0.4,0.5,1,0.1,1.5,0.1c3.3-0.5,6.2-2.2,8.8-4c2.9-2,5.7-4.2,8.6-6.3
			c1.3-0.9,2.5-1.8,4.2-1.7c1.6,0.1,2.3,1.1,1.7,2.6c-0.3,0.8-0.8,1.4-1.4,2c-1.7,1.8-3.7,3.4-5.7,5c-0.3,0.2-0.9,0.5-0.7,0.9
			c0.2,0.4,0.7,0.1,1.1,0c6.4-1.6,12.2-4.3,17-9.1c0.5-0.5,1-1,1.5-1.4c0.7-0.5,1.1-0.2,1.1,0.7c0,0.5-0.2,0.8-0.5,1.2
			c-1.4,1.7-2.9,3.4-4.5,4.9c-0.5,0.1-0.8,0.4-1,0.7c-5,5.6-10.4,10.8-15.6,16.1C163.5,74.6,162.8,74.9,163.2,75.6z"/>
		<path class="st2" d="M226.6,141.8c0-5.4,0-10.9,0-16.3c0-0.5-0.2-0.7-0.7-0.7c-0.6,0-1.1,0-1.7,0c-0.5,0-0.8,0-0.8-0.7
			c0-0.7,0.3-0.8,0.8-0.8c2.1,0,4.2,0,6.4,0c0.5,0,0.8,0.1,0.8,0.7c0,0.6-0.2,0.7-0.7,0.8c-2.4,0.1-2.4,0.1-2.4,2.5
			c0,7.6,0,15.3,0,22.9c0,0.4,0.4,1.1-0.4,1.2c-0.7,0.1-1.2-0.1-1.6-0.8c-4.4-7.6-8.9-15.2-13.3-22.8c-0.2-0.3-0.4-0.7-0.6-1
			c-0.3,0.3-0.2,0.7-0.2,0.9c0,6.8,0,13.7,0,20.5c0,1,0.3,1.2,1.2,1.1c0.4-0.1,0.9,0,1.3,0c0.6,0,0.6,0.4,0.6,0.8
			c0,0.4,0,0.7-0.5,0.7c-2.3,0-4.6,0-7,0c-0.6,0-0.5-0.4-0.5-0.7c0-0.3-0.1-0.8,0.5-0.8c0.2,0,0.4,0,0.6,0c2.1,0,2.1,0,2.1-2.1
			c0-7.1,0-14.2,0-21.4c0-0.9-0.2-1.2-1.1-1.1c-0.4,0.1-0.9,0-1.3,0c-0.6,0.1-0.7-0.2-0.7-0.8c0-0.5,0.2-0.7,0.7-0.7
			c2.4,0,4.8,0,7.2,0c0.7,0,0.8,0.5,1.1,0.9c3.2,5.5,6.5,11,9.7,16.5c0.2,0.3,0.4,0.7,0.6,1C226.4,141.8,226.5,141.8,226.6,141.8z"
			/>
		<path class="st3" d="M260.8,140.8c1.6,0,3.3,0,4.9,0c0.6,0,0.9,0.1,0.9,0.8c0,0.7-0.3,0.8-0.9,0.7c-1.3-0.2-1.7,0.2-1.9,1.6
			c-0.6,4.4-3,6.7-7.7,7.4c-6.6,1-11.5-1.5-13.8-8.2c-0.4-1.3-0.7-2.6-0.8-4c-0.5-5.6,1-10.5,5.6-14.1c3.7-2.9,8.7-3.1,12.6-0.5
			c0.6,0.4,0.9,0.3,1.2-0.2c0.2-0.2,0.4-0.5,0.6-0.6c0.6-0.1,1.2-0.4,1.2,0.7c-0.1,2,0,3.9,0,5.9c0,0.3,0.2,0.8-0.5,0.7
			c-0.4,0-1,0.2-1.1-0.5c-0.2-0.9-0.6-1.7-1-2.5c-2.3-3.9-8.1-5.4-11.3-1.4c-1.1,1.4-1.5,3.1-1.7,4.8c-0.6,4.5-0.8,8.9,0.1,13.4
			c0.8,4.1,4.1,6,8.2,5.1c2.2-0.5,3.3-2,3.6-4.7c0.3-2.8,0.3-2.8-2.5-2.9c-0.5,0-1.4,0.5-1.3-0.7c0-0.6,0.2-0.8,0.8-0.8
			C257.6,140.8,259.2,140.8,260.8,140.8z"/>
		<path class="st4" d="M39.3,135.2c0,2.8,0.1,5.6,0,8.4c-0.1,3.1,1.8,5.6,4.5,5.9c3.8,0.4,6.3-1.3,7-4.9c0.2-0.9,0.3-1.9,0.3-2.9
			c0-5.3,0-10.6,0-16c0-0.9-0.3-1.2-1.1-1.1c-0.4,0.1-0.8,0-1.2,0c-0.5,0-0.8,0-0.8-0.7c0-0.6,0.2-0.8,0.8-0.8c2.2,0,4.3,0,6.5,0
			c0.5,0,0.7,0.2,0.7,0.7c0,0.4,0,0.8-0.6,0.7c0,0-0.1,0-0.1,0c-0.8,0-1.8-0.2-2.2,0.2c-0.6,0.5-0.2,1.6-0.2,2.4c0,4.8,0,9.7,0,14.5
			c0,1.2-0.1,2.5-0.3,3.7c-0.8,3.2-2.7,5.1-6,5.7c-2.2,0.4-4.5,0.4-6.6-0.3c-3.2-1-5-3.5-5-6.8c0-6,0-12.1,0-18.1
			c0-1-0.3-1.4-1.2-1.2c-0.4,0.1-0.9,0-1.3,0c-0.5,0-0.6-0.2-0.6-0.7c0-0.4-0.1-0.8,0.6-0.8c3.2,0,6.4,0,9.6,0
			c0.6,0,0.6,0.4,0.6,0.8c0,0.4-0.1,0.7-0.6,0.6c0,0-0.1,0-0.1,0c-0.8,0.1-1.9-0.4-2.3,0.3c-0.4,0.5-0.1,1.5-0.1,2.3
			C39.3,130,39.3,132.6,39.3,135.2z"/>
		<path class="st4" d="M188.9,149.4c-0.8-2.6-1.6-5.1-2.4-7.6c-0.2-0.5-0.4-0.7-0.9-0.7c-2,0-3.9,0-5.9,0c-0.4,0-0.6,0-0.8,0.5
			c-0.7,2.4-1.5,4.8-2.3,7.1c-0.2,0.6,0,0.7,0.5,0.7c0.6,0,1.1,0,1.7,0c0.5,0,0.9-0.1,0.9,0.7c0,0.7-0.3,0.8-0.9,0.8
			c-2.2,0-4.5,0-6.7,0c-0.5,0-0.8-0.1-0.8-0.7c0-0.6,0.1-0.8,0.8-0.8c2.4-0.1,2.4-0.1,3.2-2.5c2.5-7.6,5.1-15.3,7.6-22.9
			c0.2-0.8,0.6-1.1,1.4-1.1c0.8,0,1.2,0.3,1.4,1.1c2.5,8,5,16,7.5,24c0.3,1.1,0.8,1.6,1.9,1.4c0.2,0,0.5,0,0.7,0
			c0.6-0.1,0.7,0.2,0.7,0.8c0,0.6-0.2,0.8-0.7,0.8c-3.1,0-6.2,0-9.2,0c-0.6,0-0.8-0.2-0.8-0.8c0-0.6,0.3-0.7,0.8-0.7
			C187.3,149.4,188,149.4,188.9,149.4z"/>
		<path class="st5" d="M115.4,124.8c-1.2,0-2.2,0-3.1,0c-0.6,0-0.7-0.2-0.7-0.7c0-0.5,0.1-0.7,0.7-0.7c2.5,0,5,0,7.6,0
			c0.6,0,0.7,0.2,0.6,0.7c0,0.5-0.1,0.8-0.6,0.7c0,0-0.1,0-0.1,0c-2.1-0.5-3,0.7-3.8,2.4c-1.6,3.5-3.5,6.8-5.2,10.2
			c-0.3,0.6-0.5,1.2-0.5,1.9c0,3,0,6,0,9c0,0.8,0.2,1.2,1,1.1c0.6-0.1,1.1,0,1.7,0c0.5,0,0.9,0,0.9,0.7c0,0.6-0.2,0.8-0.8,0.8
			c-3.3,0-6.6,0-10,0c-0.6,0-0.9-0.1-0.9-0.8c0-0.7,0.3-0.8,0.9-0.8c0,0,0.1,0,0.1,0c0.8,0,1.9,0.3,2.4-0.1c0.6-0.5,0.2-1.7,0.2-2.5
			c0-2.1-0.1-4.2,0-6.2c0.1-1.4-0.3-2.7-1-3.9c-2.1-3.5-4.1-7-6.1-10.5c-0.5-0.9-1-1.4-2.1-1.2c-0.3,0.1-0.6,0-1,0
			c-0.6,0.1-0.6-0.2-0.6-0.7c0-0.5,0.1-0.7,0.7-0.7c3.4,0,6.7,0,10.1,0c0.6,0,0.8,0.1,0.8,0.7c0,0.6-0.3,0.7-0.8,0.7
			c-0.8,0-1.5,0-2.5,0c2.1,3.7,4.1,7.3,6.3,11.1C111.5,132.2,113.4,128.6,115.4,124.8z"/>
		<path class="st6" d="M147.2,124.8c2.1,3.8,4.2,7.4,6.3,11.1c2-3.7,3.9-7.4,5.9-11.1c-1.1,0-2.1,0-3.1,0c-0.6,0-0.7-0.2-0.7-0.7
			c0-0.5,0-0.7,0.6-0.7c2.5,0,5,0,7.6,0c0.5,0,0.7,0.2,0.7,0.7c0,0.5-0.1,0.8-0.7,0.7c0,0-0.1,0-0.1,0c-2.1-0.5-3,0.7-3.8,2.4
			c-1.6,3.5-3.5,6.8-5.2,10.2c-0.3,0.6-0.5,1.2-0.5,1.9c0,3,0,6.1,0,9.1c0,0.8,0.2,1.1,1,1c0.6-0.1,1.1,0,1.7,0c0.6,0,1,0,1,0.8
			c0,0.7-0.4,0.7-0.9,0.7c-3.3,0-6.6,0-10,0c-0.6,0-0.9-0.2-0.8-0.8c0-0.6,0.3-0.7,0.8-0.7c0.9,0,2.1,0.4,2.6-0.2
			c0.6-0.7,0.2-1.9,0.2-2.9c0-1.6-0.1-3.3,0-4.9c0.2-2.1-0.4-3.9-1.5-5.7c-1.8-2.9-3.6-5.9-5.2-9c-0.7-1.4-1.6-2.2-3.2-1.9
			c-0.4,0.1-1,0.1-0.9-0.7c0-0.6,0.2-0.8,0.7-0.8c3.4,0,6.7,0,10.1,0c0.5,0,0.7,0.2,0.7,0.7c0,0.6-0.2,0.8-0.7,0.7
			C149,124.8,148.2,124.8,147.2,124.8z"/>
		<path class="st6" d="M69.9,137.1c0-3.7,0-7.4,0-11.2c0-0.9-0.3-1.2-1.1-1.1c-0.5,0.1-1,0-1.4,0c-0.5,0-0.8,0-0.8-0.7
			c0-0.6,0.2-0.7,0.8-0.7c3.4,0,6.7,0,10.1,0c0.5,0,0.7,0.2,0.7,0.7c0,0.6-0.1,0.8-0.7,0.8c0,0-0.1,0-0.1,0
			c-0.9,0.1-2.1-0.4-2.7,0.2c-0.6,0.6-0.2,1.8-0.2,2.8c0,6.8,0,13.7,0,20.5c0,1,0.3,1.2,1.2,1.2c1.6-0.1,3.3-0.1,4.9,0
			c2.1,0.1,3.4-0.8,4.4-2.5c0.6-1,1.1-2.1,1.3-3.2c0.1-0.6,0.3-1,1.1-0.9c0.7,0.1,0.4,0.7,0.4,1c-0.1,2-0.2,4.1-0.3,6.1
			c0,0.8-0.3,1-1.1,1c-6.2,0-12.5,0-18.7,0c-0.5,0-1,0.2-1.1-0.7c0-0.9,0.5-0.8,1.1-0.8c2.3,0,2.3,0,2.3-2.3
			C69.9,143.8,69.9,140.4,69.9,137.1z"/>
		<path class="st7" d="M163.2,75.6c-0.9-0.5-0.2-0.9,0.2-1.3c3.1-3.1,6.3-6.2,9.4-9.4c2.2-2.2,4.2-4.5,6.4-6.8
			c0.4-0.4,0.6-1.2,1.4-0.8c-3.1,3.3-6.3,6.7-9.5,10c-2.4,2.5-4.9,4.8-7.3,7.3C163.5,74.9,163,75.1,163.2,75.6z"/>
		<path class="st8" d="M190.3,22c0.1-0.9,1.7-2.5,2.6-2.6C192.2,20.5,191.3,21.3,190.3,22z"/>
		<path class="st9" d="M155,67.2c-0.5-0.2-0.5-0.2-0.4-1.1c-0.3-0.2-0.6,0.5-1,0.1c0.2-0.6,0.6-0.9,1.1-0.7
			C155.5,65.9,154.9,66.7,155,67.2z"/>
		<path class="st10" d="M94.9,92.9c0.6,0.2,1,0.4,1.5,0.5c0.2,0,0.6,0.2,0.7-0.2c0.1-0.3,0-0.6-0.2-0.8c0,0-0.1-0.1-0.1-0.1
			c-2.2-2.7-2.2-3.9,0.4-6.3c2.8-2.6,6.2-4.1,9.7-5.6c5.6-2.4,11.3-4,17.4-4.3c6.7-0.3,15.6,2,21.1,7.1c-1.7,0.8-3.4,1.7-5,2.5
			c-6.6,3.1-13.4,5.9-20.6,7.5c-3.9,0.9-7.9,1.6-12,1.1c-3.9-0.5-7.4-1.8-9.2-5.7c-0.2-0.4-0.4-0.6-0.8-0.5
			c-0.4,0.1-0.5,0.5-0.4,0.9c0.1,1.5,1,2.7,2.1,3.7c2.5,2.2,5.5,3.5,8.7,4c9.9,1.5,19.4-0.1,28.5-3.9c4.1-1.7,8.1-3.7,11.9-6.1
			c0.3-0.2,0.6-0.5,0.9,0c1.9,2.5,3.8,5,3.4,8.4c-0.3,2.5-1.9,4.3-3.8,5.9c-3.9,3.1-8.3,5-13.2,5.9c-7.9,1.4-15.7,0.9-23.3-2.1
			c-6.6-2.5-12.2-6.5-17.3-11.4C95.2,93.2,95.1,93.1,94.9,92.9z"/>
		<path class="st10" d="M146.1,34.4c1.2-1.9,2.1-3.7,2.5-5.8c0.6-4.1-1-7.5-3.2-10.7c-1.1-1.7-2.5-3.2-4-4.5
			c7.9-5.5,16.7-9.3,26.1-11.1c6.4-1.2,12.8-0.6,18.8,2.3c1.5,0.8,3,1.8,4.1,3.1c3.2,3.5,3.2,7.1,0,10.7c-2.9,3.3-6.6,5.4-10.4,7.3
			c-8.6,4.1-17.6,6.8-27,8.1C150.8,34.1,148.6,34.2,146.1,34.4z"/>
		<path class="st10" d="M81.3,41.8c-2.7-1.6-5.2-3.4-7.2-5.9c-2.2-2.8-3.4-5.9-3.1-9.4c0.2-2.2,1.4-4.1,2.8-5.8
			c3.9-4.7,9-7.2,14.9-8.3c1.7-0.3,3.5-0.3,5.3-0.2c0.6,0,0.8,0.2,0.4,0.8c-1.9,3.2-1.6,6.4,0.4,9.4c2.3,3.3,5.4,5.6,8.9,7.4
			c2.7,1.4,5.7,2.5,8.7,3.6c-0.9,1.2-2,2.1-3,3.1c-3.2,3.2-6.5,6.4-9.9,9.4c-0.5,0.5-1,0.7-1.8,0.6C93,46.4,88.5,45,84,43.2
			C83,42.9,82.1,42.6,81.3,41.8z"/>
		<path class="st10" d="M207.5,66.8c-3.3-0.1-6.3-0.4-9.2-1.7c-0.7-0.3-1.3-0.7-1.9-1.2c-1.8-1.6-2.2-3.2-1.4-5.4
			c1.5-4.4,8.3-9.9,15.1-7.9c6.2,1.8,10.5,5.6,12.7,11.7c0.3,0.9,0.2,1.3-0.8,1.6C217.3,65.3,212.4,66.7,207.5,66.8z"/>
		<path class="st10" d="M68.9,61.7c-3.2,0.9-6.5,1.3-9.8,1.6c-5.4,0.4-10.3-1-14.7-3.9c-2.7-1.8-4.9-4-5.8-7.2
			c-0.2-0.6-0.3-1.2-0.4-1.9c-0.1-1.6,0.6-2.7,2.3-3.2c2.9-0.9,5.9-0.6,8.8,0c8.6,1.9,15.1,6.8,19.6,14.3
			C68.9,61.5,68.9,61.5,68.9,61.7z"/>
		<path class="st10" d="M135,12.4c-5.3,3.7-9.9,8-14.3,12.5c-0.3,0.3-0.5,1-1.1,0.1c-4.2-7.3-10.4-12-18.6-13.8
			C110.2,5.7,126,6.5,135,12.4z"/>
		<path class="st10" d="M121.3,33.3c2.2-2.5,4.3-4.9,6.4-7.2c3.1-3.4,6.1-6.8,9.4-9.9c0.8-0.8,1.3-0.8,2.2,0
			c2.8,2.7,5.1,5.6,5.9,9.5c0.7,3.3-0.4,6.1-2.5,8.6c-0.3,0.4-0.7,0.5-1.2,0.5c-6.4,0-12.9-0.2-19.2-1.2
			C122.1,33.6,121.8,33.5,121.3,33.3z"/>
		<path class="st10" d="M99,13.1c6,0.9,10.9,3.4,15.2,7.3c1.8,1.6,3.2,3.5,4.3,5.7c0.2,0.4,0.3,0.8-0.1,1.2c-1.2,1.3-2.3,2.7-3.4,4
			c-0.3,0.3-0.5,0.6-1.1,0.4c-5.2-1.5-10-3.7-14.1-7.3c-1.7-1.5-3-3.3-3.4-5.6c-0.3-1.9,0.3-3.6,1.5-5.1C98.2,13.2,98.7,13,99,13.1z
			"/>
		<path class="st10" d="M140.5,36.5c-4.1,3.9-19.8,8.9-31.6,10.3c0.8-0.7,1.4-1.3,2-1.8c3.1-2.8,5.8-5.9,8.5-9.1
			c0.5-0.6,0.9-0.7,1.7-0.6c6,1.1,12.1,1.3,18.2,1.3C139.7,36.5,140.1,36.5,140.5,36.5z"/>
		<path class="st11" d="M166,43.6c-2.9,3.8-6.8,6.2-10.7,8.7C158.5,49,162,46,166,43.6z"/>
		<path class="st12" d="M81.3,41.8c0.9,0.5,1.8,0.9,2.7,1.4C83,43.4,81.5,42.7,81.3,41.8z"/>
		<path class="st13" d="M182.8,129.7c1,3.3,2,6.4,3,9.7c-1.9,0-3.8,0-5.7,0c-0.6,0-0.3-0.4-0.2-0.7
			C180.8,135.8,181.8,132.9,182.8,129.7z"/>
	</g>
</g>
</svg>
