<?xml version="1.0" encoding="utf-8"?>
<!-- Generator: Adobe Illustrator 16.0.4, SVG Export Plug-In . SVG Version: 6.00 Build 0)  -->
<!DOCTYPE svg PUBLIC "-//W3C//DTD SVG 1.1//EN" "http://www.w3.org/Graphics/SVG/1.1/DTD/svg11.dtd">
<svg version="1.1" id="Layer_1" xmlns="http://www.w3.org/2000/svg" xmlns:xlink="http://www.w3.org/1999/xlink" x="0px" y="0px"
	 width="394.875px" height="78.293px" viewBox="0 0 394.875 78.293" enable-background="new 0 0 394.875 78.293"
	 xml:space="preserve">
<rect fill="#DEB408" width="56.583" height="4.955"/>
<path d="M56.578,6.525v59.663c0,2.769-2.482,3.574-2.629,3.637c-0.045,0.019-25.657,8.469-25.657,8.469S2.675,69.843,2.63,69.825
	C2.483,69.762,0,68.957,0,66.188V6.525H56.578z"/>
<path fill="#DEB408" d="M34.222,43.743v-2.705h2.629c1.562,0,1.906-0.648,1.906-2.211V18.513L28.62,43.743h-3.164L15.204,18.552
	v19.894c0,1.562,0.688,2.592,2.211,2.592h2.326v2.705H7.354v-2.705h2.324c1.525,0,2.211-1.029,2.211-2.592V19.619
	c0-1.525-0.646-2.516-2.211-2.516H7.354v-2.706h12.424l8.652,21.342l8.381-21.342h12.234v2.706h-2.516
	c-1.562,0-1.867,0.647-1.867,2.173v19.55c0,1.562,0.305,2.211,1.867,2.211h2.516v2.705H34.222z"/>
<path fill="#FFFFFF" d="M18.257,66.954c-7.312,0-11.07-4.812-11.07-10.479c0-5.457,3.843-10.348,11.127-10.348
	c3.188,0,5.15,1.346,5.892,1.424c0.513,0.051,0.796-0.285,0.91-1.139h2.106v7.684h-2.362v-0.621c0-2.924-2.533-5.277-6.091-5.277
	c-4.125,0-6.373,2.664-6.373,8.227s2.076,8.512,6.459,8.512c3.813,0,6.033-2.018,6.232-5.77l0.028-0.543h2.362v0.518
	C27.478,63.797,23.978,66.954,18.257,66.954"/>
<path fill="#FFFFFF" d="M39.996,66.954c-7.314,0-11.069-4.812-11.069-10.479c0-5.457,3.841-10.348,11.126-10.348
	c3.188,0,5.15,1.346,5.891,1.424c0.512,0.051,0.797-0.285,0.91-1.139h2.105v7.684h-2.361v-0.621c0-2.924-2.533-5.277-6.09-5.277
	c-4.127,0-6.375,2.664-6.375,8.227s2.078,8.512,6.461,8.512c3.812,0,6.031-2.018,6.232-5.77l0.027-0.543h2.361v0.518
	C49.214,63.797,45.714,66.954,39.996,66.954"/>
<g>
	<path fill="#808285" d="M80.965,56.007h0.53v2.479h-0.55c-0.12-0.68-0.29-1.049-0.619-1.359c-0.37-0.34-0.91-0.529-1.56-0.529
		c-0.899,0-1.589,0.51-1.589,1.158c0,0.371,0.199,0.631,0.59,0.76c0.18,0.061,0.389,0.111,0.619,0.141l0.33,0.051l0.319,0.049
		l0.33,0.051c0.819,0.119,1.31,0.25,1.659,0.449c0.49,0.27,0.799,0.84,0.799,1.469c0,1.289-1.02,2.18-2.498,2.18
		c-0.609,0-1.26-0.15-1.659-0.381c-0.19-0.109-0.34-0.219-0.659-0.5l-0.25,0.711h-0.54v-2.67h0.62c0.07,0.73,0.24,1.131,0.649,1.5
		c0.439,0.4,1.089,0.641,1.719,0.641c0.909,0,1.56-0.49,1.56-1.18c0-0.34-0.12-0.58-0.38-0.74c-0.28-0.18-0.62-0.26-1.509-0.379
		c-1.061-0.15-1.43-0.23-1.869-0.451c-0.54-0.27-0.82-0.77-0.82-1.449c0-1.27,1-2.107,2.499-2.107c0.829,0,1.349,0.18,2.049,0.689
		L80.965,56.007z"/>
	<path fill="#808285" d="M84.449,58.595v-2.527h6.126v2.527h-0.559c-0.011-0.529-0.061-0.959-0.17-1.248
		c-0.09-0.26-0.32-0.5-0.58-0.6c-0.13-0.051-0.3-0.07-0.63-0.07h-0.56v4.896c0,0.49,0.119,0.59,0.66,0.59h0.51v0.57h-3.429v-0.57
		h0.489c0.54,0,0.66-0.1,0.66-0.59v-4.896h-0.52c-0.49,0-0.68,0.039-0.91,0.209c-0.27,0.189-0.379,0.41-0.459,0.949
		c-0.041,0.301-0.061,0.451-0.061,0.76H84.449z"/>
	<path fill="#808285" d="M94.677,60.515l-0.34,0.859c-0.05,0.129-0.09,0.33-0.09,0.439c0,0.26,0.14,0.35,0.55,0.35h0.529v0.57
		h-2.958v-0.57h0.35c0.47,0,0.64-0.18,0.95-0.93l2.068-5.166h1.049l2.27,5.307c0.27,0.539,0.199,0.389,0.229,0.449
		c0.14,0.26,0.271,0.34,0.62,0.34h0.359v0.57h-3.238v-0.57h0.561c0.359,0,0.479-0.061,0.479-0.23c0-0.068-0.029-0.148-0.1-0.309
		l-0.47-1.109H94.677z M96.016,57.046l-1.109,2.859h2.34L96.016,57.046z"/>
	<path fill="#808285" d="M102.059,58.595v-2.527h6.126v2.527h-0.56c-0.01-0.529-0.061-0.959-0.17-1.248
		c-0.09-0.26-0.32-0.5-0.58-0.6c-0.129-0.051-0.299-0.07-0.629-0.07h-0.561v4.896c0,0.49,0.12,0.59,0.66,0.59h0.51v0.57h-3.428
		v-0.57h0.489c0.54,0,0.659-0.1,0.659-0.59v-4.896h-0.52c-0.49,0-0.68,0.039-0.909,0.209c-0.271,0.189-0.38,0.41-0.46,0.949
		c-0.04,0.301-0.061,0.451-0.061,0.76H102.059z"/>
	<path fill="#808285" d="M112.797,58.986h0.969c0.54,0,0.811-0.27,0.811-0.83v-0.439h0.59v3.148h-0.59v-0.34
		c0-0.68-0.24-0.971-0.79-0.971h-0.989v2.57h1.879c1.039,0,1.499-0.191,1.699-0.701c0.13-0.328,0.17-0.6,0.189-1.539h0.609v2.85
		h-6.557v-0.57h0.44c0.54,0,0.659-0.1,0.659-0.59v-4.348c0-0.49-0.119-0.59-0.659-0.59h-0.44v-0.568h6.447v2.488h-0.59v-0.221
		c0-1.068-0.479-1.658-1.359-1.658h-2.318V58.986z"/>
	<path fill="#808285" d="M126.637,60.625c0,0.58,0.149,0.93,0.5,1.17c0.319,0.229,0.749,0.35,1.248,0.35
		c0.57,0,1.061-0.17,1.359-0.471c0.311-0.309,0.43-0.719,0.43-1.469v-2.979c0-0.49-0.119-0.59-0.659-0.59h-0.439v-0.568h2.828v0.568
		h-0.38c-0.539,0-0.659,0.1-0.659,0.59v3.398c0,0.709-0.21,1.229-0.68,1.658c-0.489,0.451-1.05,0.621-1.999,0.621
		c-0.92,0-1.629-0.23-2.1-0.68c-0.398-0.391-0.568-0.891-0.568-1.66v-3.338c0-0.49-0.121-0.59-0.66-0.59h-0.38v-0.568h3.198v0.568
		h-0.38c-0.54,0-0.659,0.1-0.659,0.59V60.625z"/>
	<path fill="#808285" d="M140.375,61.064v-3.838c0-0.49-0.121-0.59-0.66-0.59h-0.439v-0.568h2.748v0.568h-0.3
		c-0.54,0-0.659,0.1-0.659,0.59v5.508h-0.811l-4.127-5.527v4.367c0,0.49,0.119,0.59,0.659,0.59h0.44v0.57h-2.829v-0.57h0.38
		c0.54,0,0.66-0.1,0.66-0.59v-4.348c0-0.49-0.12-0.59-0.66-0.59h-0.38v-0.568h2.278L140.375,61.064z"/>
	<path fill="#808285" d="M146.797,61.574c0,0.49,0.119,0.59,0.659,0.59h0.439v0.57h-3.278v-0.57h0.439c0.54,0,0.66-0.1,0.66-0.59
		v-4.348c0-0.49-0.12-0.59-0.66-0.59h-0.439v-0.568h3.278v0.568h-0.439c-0.54,0-0.659,0.1-0.659,0.59V61.574z"/>
	<path fill="#808285" d="M155.755,57.585c0.11-0.279,0.17-0.51,0.17-0.629c0-0.199-0.17-0.32-0.46-0.32h-0.58v-0.568h2.68v0.568
		h-0.281c-0.309,0-0.449,0.121-0.619,0.57l-2.168,5.527h-0.99l-2.199-5.307c-0.289-0.68-0.409-0.791-0.898-0.791h-0.301v-0.568
		h3.219v0.568h-0.63c-0.29,0-0.399,0.061-0.399,0.25c0,0.061,0.02,0.141,0.06,0.24l1.859,4.537L155.755,57.585z"/>
	<path fill="#808285" d="M161.937,58.986h0.97c0.539,0,0.809-0.27,0.809-0.83v-0.439h0.59v3.148h-0.59v-0.34
		c0-0.68-0.239-0.971-0.789-0.971h-0.989v2.57h1.879c1.04,0,1.499-0.191,1.698-0.701c0.131-0.328,0.17-0.6,0.19-1.539h0.61v2.85
		h-6.557v-0.57h0.439c0.539,0,0.66-0.1,0.66-0.59v-4.348c0-0.49-0.121-0.59-0.66-0.59h-0.439v-0.568h6.446v2.488h-0.59v-0.221
		c0-1.068-0.479-1.658-1.359-1.658h-2.318V58.986z"/>
	<path fill="#808285" d="M176.553,60.744v0.73c0,0.59-0.1,0.889-0.359,1.1c-0.209,0.17-0.52,0.27-0.85,0.27
		c-0.77,0-1.109-0.4-1.148-1.369c-0.051-0.939-0.091-1.18-0.23-1.459c-0.16-0.311-0.49-0.471-0.979-0.471h-1.579v2.029
		c0,0.49,0.119,0.59,0.66,0.59h0.439v0.57h-3.219v-0.57h0.38c0.54,0,0.659-0.1,0.659-0.59v-4.348c0-0.49-0.119-0.59-0.659-0.59
		h-0.38v-0.568h4.518c0.68,0,1.06,0.109,1.39,0.379c0.319,0.279,0.54,0.779,0.54,1.24c0,0.949-0.59,1.549-1.6,1.648
		c0.449,0.119,0.689,0.26,0.879,0.539c0.17,0.24,0.23,0.529,0.25,1.221c0.021,0.52,0.03,0.648,0.09,0.779
		c0.061,0.148,0.16,0.219,0.301,0.219c0.25,0,0.359-0.189,0.359-0.619v-0.73H176.553z M173.356,58.935
		c0.76,0,1.209-0.42,1.209-1.148c0-0.74-0.42-1.109-1.27-1.109h-1.889v2.258H173.356z"/>
	<path fill="#808285" d="M183.905,56.007h0.529v2.479h-0.549c-0.121-0.68-0.291-1.049-0.62-1.359c-0.37-0.34-0.909-0.529-1.56-0.529
		c-0.898,0-1.589,0.51-1.589,1.158c0,0.371,0.2,0.631,0.59,0.76c0.18,0.061,0.39,0.111,0.62,0.141l0.329,0.051l0.319,0.049
		l0.33,0.051c0.82,0.119,1.31,0.25,1.66,0.449c0.489,0.27,0.799,0.84,0.799,1.469c0,1.289-1.02,2.18-2.498,2.18
		c-0.61,0-1.26-0.15-1.66-0.381c-0.189-0.109-0.34-0.219-0.659-0.5l-0.249,0.711h-0.541v-2.67h0.62c0.07,0.73,0.24,1.131,0.649,1.5
		c0.439,0.4,1.09,0.641,1.719,0.641c0.91,0,1.561-0.49,1.561-1.18c0-0.34-0.121-0.58-0.381-0.74c-0.279-0.18-0.619-0.26-1.509-0.379
		c-1.06-0.15-1.429-0.23-1.869-0.451c-0.54-0.27-0.819-0.77-0.819-1.449c0-1.27,1-2.107,2.498-2.107c0.83,0,1.35,0.18,2.049,0.689
		L183.905,56.007z"/>
	<path fill="#808285" d="M189.737,61.574c0,0.49,0.12,0.59,0.659,0.59h0.44v0.57h-3.279v-0.57h0.44c0.54,0,0.659-0.1,0.659-0.59
		v-4.348c0-0.49-0.119-0.59-0.659-0.59h-0.44v-0.568h3.279v0.568h-0.44c-0.539,0-0.659,0.1-0.659,0.59V61.574z"/>
	<path fill="#808285" d="M193.277,58.595v-2.527h6.127v2.527h-0.56c-0.01-0.529-0.061-0.959-0.17-1.248
		c-0.09-0.26-0.32-0.5-0.58-0.6c-0.13-0.051-0.3-0.07-0.629-0.07h-0.561v4.896c0,0.49,0.12,0.59,0.66,0.59h0.51v0.57h-3.429v-0.57
		h0.49c0.54,0,0.659-0.1,0.659-0.59v-4.896h-0.52c-0.489,0-0.68,0.039-0.909,0.209c-0.27,0.189-0.38,0.41-0.46,0.949
		c-0.04,0.301-0.06,0.451-0.06,0.76H193.277z"/>
	<path fill="#808285" d="M207.094,57.416c0.23-0.35,0.28-0.459,0.29-0.568c0.01-0.141-0.12-0.221-0.359-0.221h-0.63v-0.559h2.679
		v0.559h-0.311c-0.319,0-0.379,0.061-0.759,0.631l-1.829,2.777v1.539c0,0.49,0.109,0.59,0.649,0.59h0.56v0.57h-3.478v-0.57h0.529
		c0.54,0,0.659-0.1,0.659-0.59v-1.469l-2.139-2.988c-0.29-0.4-0.42-0.49-0.739-0.49h-0.31v-0.559h3.288v0.559h-0.649
		c-0.271,0-0.36,0.061-0.36,0.221c0,0.08,0.01,0.119,0.13,0.289l1.539,2.17L207.094,57.416z"/>
	<path fill="#808285" d="M221.515,56.427c0.93,0.58,1.479,1.689,1.479,2.969c0,1.199-0.48,2.248-1.33,2.877
		c-0.578,0.42-1.289,0.631-2.188,0.631c-0.939,0-1.67-0.23-2.27-0.711c-0.799-0.629-1.238-1.607-1.238-2.738
		c0-1.27,0.539-2.408,1.428-2.998c0.551-0.369,1.25-0.559,2.049-0.559C220.265,55.898,220.964,56.078,221.515,56.427z
		 M217.796,57.287c-0.41,0.48-0.619,1.199-0.619,2.119c0,1.01,0.17,1.619,0.6,2.129c0.41,0.479,1.02,0.748,1.68,0.748
		c1.469,0,2.328-1.068,2.328-2.918c0-1.02-0.291-1.789-0.869-2.309c-0.391-0.359-0.859-0.539-1.381-0.539
		C218.816,56.517,218.216,56.777,217.796,57.287z"/>
	<path fill="#808285" d="M228.007,58.966h0.959c0.539,0,0.77-0.271,0.77-0.9v-0.4h0.609v3.229h-0.609v-0.43
		c0-0.629-0.23-0.889-0.779-0.889h-0.949v1.998c0,0.49,0.119,0.59,0.658,0.59h0.441v0.57h-3.279v-0.57h0.439
		c0.541,0,0.66-0.1,0.66-0.59v-4.348c0-0.49-0.119-0.59-0.66-0.59h-0.439v-0.568h6.348v2.559h-0.59c0.01-0.102,0.01-0.191,0.01-0.23
		c0-1.139-0.529-1.719-1.58-1.719h-2.008V58.966z"/>
	<path fill="#808285" d="M245.015,61.064v-3.838c0-0.49-0.121-0.59-0.66-0.59h-0.439v-0.568h2.748v0.568h-0.299
		c-0.541,0-0.66,0.1-0.66,0.59v5.508h-0.811l-4.127-5.527v4.367c0,0.49,0.119,0.59,0.66,0.59h0.439v0.57h-2.828v-0.57h0.379
		c0.539,0,0.66-0.1,0.66-0.59v-4.348c0-0.49-0.121-0.59-0.66-0.59h-0.379v-0.568h2.277L245.015,61.064z"/>
	<path fill="#808285" d="M251.447,58.986h0.969c0.539,0,0.811-0.27,0.811-0.83v-0.439h0.588v3.148h-0.588v-0.34
		c0-0.68-0.24-0.971-0.791-0.971h-0.988v2.57h1.879c1.039,0,1.498-0.191,1.699-0.701c0.129-0.328,0.17-0.6,0.189-1.539h0.609v2.85
		h-6.557v-0.57h0.439c0.541,0,0.66-0.1,0.66-0.59v-4.348c0-0.49-0.119-0.59-0.66-0.59h-0.439v-0.568h6.447v2.488h-0.59v-0.221
		c0-1.068-0.48-1.658-1.359-1.658h-2.318V58.986z"/>
	<path fill="#808285" d="M267.414,57.496c0.1-0.309,0.129-0.43,0.129-0.559c0-0.201-0.129-0.291-0.42-0.291h-0.6v-0.578h2.68v0.578
		h-0.33c-0.33,0-0.439,0.131-0.699,0.85l-1.83,5.238h-0.979l-1.58-4.299l-1.52,4.299h-0.988l-1.92-5.418
		c-0.189-0.539-0.33-0.67-0.699-0.67h-0.32v-0.578h3.02v0.568h-0.471c-0.359,0-0.5,0.09-0.5,0.301c0,0.059,0.031,0.18,0.07,0.299
		l1.52,4.277l1.43-4.018l-0.141-0.439c-0.1-0.289-0.27-0.42-0.59-0.42h-0.559v-0.568h3.248v0.568h-0.551
		c-0.33,0-0.42,0.051-0.42,0.221c0,0.08,0.041,0.26,0.08,0.379l1.58,4.277L267.414,57.496z"/>
	<path fill="#808285" d="M280.666,57.416c0.23-0.35,0.279-0.459,0.289-0.568c0.01-0.141-0.119-0.221-0.359-0.221h-0.629v-0.559
		h2.678v0.559h-0.311c-0.318,0-0.379,0.061-0.758,0.631l-1.83,2.777v1.539c0,0.49,0.109,0.59,0.65,0.59h0.559v0.57h-3.477v-0.57
		h0.529c0.539,0,0.658-0.1,0.658-0.59v-1.469l-2.139-2.988c-0.289-0.4-0.42-0.49-0.738-0.49h-0.311v-0.559h3.289v0.559h-0.65
		c-0.27,0-0.359,0.061-0.359,0.221c0,0.08,0.01,0.119,0.129,0.289l1.539,2.17L280.666,57.416z"/>
	<path fill="#808285" d="M290.345,56.427c0.93,0.58,1.479,1.689,1.479,2.969c0,1.199-0.48,2.248-1.33,2.877
		c-0.578,0.42-1.289,0.631-2.188,0.631c-0.939,0-1.67-0.23-2.27-0.711c-0.799-0.629-1.238-1.607-1.238-2.738
		c0-1.27,0.539-2.408,1.428-2.998c0.551-0.369,1.25-0.559,2.049-0.559C289.095,55.898,289.794,56.078,290.345,56.427z
		 M286.626,57.287c-0.41,0.48-0.619,1.199-0.619,2.119c0,1.01,0.17,1.619,0.6,2.129c0.41,0.479,1.02,0.748,1.68,0.748
		c1.469,0,2.328-1.068,2.328-2.918c0-1.02-0.291-1.789-0.869-2.309c-0.391-0.359-0.859-0.539-1.381-0.539
		C287.646,56.517,287.046,56.777,286.626,57.287z"/>
	<path fill="#808285" d="M301.923,60.744v0.73c0,0.59-0.1,0.889-0.359,1.1c-0.209,0.17-0.52,0.27-0.85,0.27
		c-0.77,0-1.109-0.4-1.148-1.369c-0.051-0.939-0.09-1.18-0.23-1.459c-0.16-0.311-0.49-0.471-0.98-0.471h-1.578v2.029
		c0,0.49,0.119,0.59,0.66,0.59h0.439v0.57h-3.219v-0.57h0.381c0.539,0,0.658-0.1,0.658-0.59v-4.348c0-0.49-0.119-0.59-0.658-0.59
		h-0.381v-0.568h4.518c0.68,0,1.061,0.109,1.389,0.379c0.32,0.279,0.541,0.779,0.541,1.24c0,0.949-0.59,1.549-1.6,1.648
		c0.449,0.119,0.689,0.26,0.879,0.539c0.17,0.24,0.23,0.529,0.25,1.221c0.02,0.52,0.031,0.648,0.09,0.779
		c0.061,0.148,0.16,0.219,0.301,0.219c0.25,0,0.359-0.189,0.359-0.619v-0.73H301.923z M298.726,58.935
		c0.76,0,1.209-0.42,1.209-1.148c0-0.74-0.42-1.109-1.27-1.109h-1.889v2.258H298.726z"/>
	<path fill="#808285" d="M306.416,60.404v1.17c0,0.49,0.121,0.59,0.66,0.59h0.381v0.57h-3.158v-0.57h0.379
		c0.539,0,0.66-0.1,0.66-0.59v-4.348c0-0.49-0.121-0.59-0.66-0.59h-0.379v-0.568h3.158v0.568h-0.381c-0.539,0-0.66,0.1-0.66,0.59
		v2.369l2.23-1.988l0.129-0.121c0.539-0.49,0.58-0.539,0.59-0.689c0-0.129-0.07-0.17-0.27-0.17h-0.76v-0.559h3.379v0.568h-0.33
		c-0.311,0-0.58,0.051-0.74,0.141c-0.09,0.039-0.221,0.141-0.379,0.27l-0.102,0.08l-0.1,0.09l-0.1,0.08l-1.379,1.209l2.229,3.068
		c0.391,0.551,0.449,0.59,0.83,0.59h0.26v0.57h-3.258v-0.57h0.609c0.25,0,0.369-0.061,0.359-0.18c0-0.109-0.01-0.119-0.369-0.619
		l-1.52-2.119L306.416,60.404z"/>
</g>
<g>
	<path d="M343.146,43.919V22.956h3.599v20.963H343.146z"/>
	<path d="M349.504,43.919V22.956h3.599v20.963H349.504z"/>
	<path d="M358.443,36.951c0.058,3.137,1.452,4.355,3.135,4.355c1.684,0,2.469-0.754,3.368-1.8l2.614,1.626
		c-1.394,2.148-3.429,3.078-6.33,3.078c-3.92,0-6.389-3.049-6.389-7.84s2.469-7.84,6.562-7.84c3.947-0.028,6.156,3.31,6.156,6.94
		v1.48H358.443z M364.25,34.512c-0.059-2.09-1.162-3.31-2.904-3.31c-1.741,0-2.845,1.219-2.902,3.31H364.25z"/>
	<path d="M381.958,30.971c-0.842,0-1.771,0-2.323,0.347c0.465,0.64,0.813,1.511,0.813,2.672c0,2.845-1.916,4.878-5.691,4.878
		c-1.567,0-2.816,0.057-2.816,0.929c0,2.438,9.932-0.872,9.932,5.167c0,2.148-2.178,4.472-6.997,4.472
		c-4.066,0-6.736-1.219-6.736-3.601c0-1.887,1.422-2.787,2.728-2.787v-0.058c-0.696-0.437-2.234-0.813-2.234-2.438
		c0-1.453,1.683-2.557,2.353-2.76c-1.25-1.015-2.237-2.176-2.237-4.006c0-2.642,2.032-5.255,5.953-5.255
		c1.277,0,2.788,0.523,3.717,1.336c0.696-0.929,1.828-1.394,3.541-1.336V30.971z M371.448,45.373c0,1.16,0.986,1.683,4.006,1.683
		c2.322,0,3.107-1.161,3.107-1.683c0-0.697-1.073-1.744-4.558-1.744C372.028,43.628,371.448,44.732,371.448,45.373z M374.669,31.203
		c-1.539,0-2.613,1.103-2.613,2.497c0,1.394,1.074,2.497,2.613,2.497c1.365,0,2.469-1.103,2.469-2.497
		C377.138,32.306,376.035,31.203,374.669,31.203z"/>
	<path d="M385.757,36.951c0.059,3.137,1.453,4.355,3.137,4.355c1.685,0,2.467-0.754,3.368-1.8l2.613,1.626
		c-1.394,2.148-3.427,3.078-6.331,3.078c-3.92,0-6.387-3.049-6.387-7.84s2.467-7.84,6.562-7.84c3.949-0.028,6.155,3.31,6.155,6.94
		v1.48H385.757z M391.564,34.512c-0.056-2.09-1.161-3.31-2.901-3.31c-1.743,0-2.847,1.219-2.905,3.31H391.564z"/>
	<g>
		<path d="M323.396,29.054c-0.581-1.771-1.829-3.02-3.804-3.02c-2.671,0-4.297,2.497-4.297,7.404
			c-0.059,4.907,1.394,7.403,4.413,7.403c1.8,0,2.903-0.639,4.093-3.106l3.718,0.987c-1.249,3.63-3.979,5.488-7.811,5.488
			c-5.342,0-8.42-3.92-8.42-10.772s3.078-10.772,8.42-10.772c4.006,0,6.329,1.801,7.316,5.517L323.396,29.054z"/>
		<path d="M334.893,28.531c4.093,0,6.562,3.049,6.562,7.84s-2.47,7.84-6.562,7.84s-6.562-3.049-6.562-7.84
			S330.8,28.531,334.893,28.531z M334.893,31.436c-2.003,0-2.961,1.567-2.961,4.935c0,3.367,0.958,4.936,2.961,4.936
			c2.002,0,2.961-1.568,2.961-4.936C337.854,33.002,336.895,31.436,334.893,31.436z"/>
	</g>
	<path d="M76.6,43.891V22.917h5.635l4.039,14.641h0.058l4.065-14.641h5.695v20.974h-3.486V27.39h-0.058l-4.705,16.501h-3.051
		L80.144,27.39h-0.058v16.501H76.6z"/>
	<path d="M104.241,28.495c4.097,0,6.564,3.051,6.564,7.842c0,4.795-2.468,7.844-6.564,7.844c-4.096,0-6.564-3.049-6.564-7.844
		C97.676,31.546,100.145,28.495,104.241,28.495z M104.241,31.399c-2.005,0-2.963,1.569-2.963,4.938c0,3.371,0.958,4.938,2.963,4.938
		s2.963-1.567,2.963-4.938C107.204,32.969,106.246,31.399,104.241,31.399z"/>
	<path d="M112.521,43.891V28.786h3.311v1.626c1.337-0.929,2.876-1.917,4.648-1.917c3.021,0,4.473,1.975,4.473,5.053v10.343h-3.602
		v-9.82c0-2.032-0.639-2.672-1.859-2.672c-1.569,0-2.759,0.902-3.37,1.599v10.893H112.521z"/>
	<path d="M127.128,43.891V28.786h3.312v2.584h0.058c0.871-1.8,2.091-2.816,4.241-2.875v3.806c-0.175-0.029-0.379-0.029-0.64-0.029
		c-1.801,0-3.369,2.061-3.369,2.439v9.18H127.128z"/>
	<path d="M141.567,28.495c4.095,0,6.564,3.051,6.564,7.842c0,4.795-2.47,7.844-6.564,7.844c-4.097,0-6.566-3.049-6.566-7.844
		C135,31.546,137.47,28.495,141.567,28.495z M141.567,31.399c-2.006,0-2.964,1.569-2.964,4.938c0,3.371,0.958,4.938,2.964,4.938
		c2.003,0,2.962-1.567,2.962-4.938C144.529,32.969,143.57,31.399,141.567,31.399z"/>
	<path d="M152.867,36.919c0.057,3.137,1.452,4.356,3.137,4.356c1.686,0,2.47-0.755,3.369-1.8l2.615,1.626
		c-1.396,2.149-3.429,3.079-6.334,3.079c-3.92,0-6.39-3.049-6.39-7.844c0-4.792,2.47-7.842,6.564-7.842
		c3.951-0.029,6.159,3.311,6.159,6.942v1.482H152.867z M158.675,34.479c-0.058-2.092-1.161-3.312-2.903-3.312
		c-1.743,0-2.849,1.22-2.905,3.312H158.675z"/>
	<path d="M183.222,29.018c-0.581-1.772-1.83-3.021-3.806-3.021c-2.672,0-4.299,2.498-4.299,7.407
		c-0.058,4.909,1.394,7.407,4.415,7.407c1.802,0,2.904-0.638,4.097-3.107l3.718,0.987c-1.249,3.631-3.979,5.49-7.814,5.49
		c-5.345,0-8.424-3.922-8.424-10.777c0-6.854,3.079-10.776,8.424-10.776c4.01,0,6.333,1.8,7.321,5.518L183.222,29.018z"/>
	<path d="M194.406,28.495c4.097,0,6.566,3.051,6.566,7.842c0,4.795-2.47,7.844-6.566,7.844c-4.095,0-6.563-3.049-6.563-7.844
		C187.842,31.546,190.311,28.495,194.406,28.495z M194.406,31.399c-2.004,0-2.963,1.569-2.963,4.938
		c0,3.371,0.959,4.938,2.963,4.938c2.005,0,2.963-1.567,2.963-4.938C197.369,32.969,196.411,31.399,194.406,31.399z"/>
	<path d="M202.656,43.891V28.786h3.283v1.626c1.365-1.249,2.47-1.917,4.532-1.917c1.568,0,3.049,0.755,3.718,2.208
		c1.249-1.249,2.701-2.208,5.199-2.208c1.568,0,3.719,0.929,3.719,4.532v10.864h-3.603V33.345c0-1.219-0.494-1.888-1.801-1.946
		c-0.93,0-2.179,0.843-3.021,1.627v10.864h-3.601V33.345c0-1.219-0.495-1.888-1.803-1.946c-0.929,0-2.178,0.843-3.02,1.627v10.864
		H202.656z"/>
	<path d="M225.387,43.891V28.786h3.282v1.626c1.367-1.249,2.469-1.917,4.532-1.917c1.569,0,3.05,0.755,3.718,2.208
		c1.25-1.249,2.701-2.208,5.199-2.208c1.569,0,3.719,0.929,3.719,4.532v10.864h-3.601V33.345c0-1.219-0.494-1.888-1.802-1.946
		c-0.93,0-2.179,0.843-3.021,1.627v10.864h-3.601V33.345c0-1.219-0.494-1.888-1.802-1.946c-0.929,0-2.18,0.843-3.021,1.627v10.864
		H225.387z"/>
	<path d="M260.396,28.786v15.105h-3.312v-1.628c-1.335,0.931-2.874,1.918-4.646,1.918c-3.021,0-4.474-1.975-4.474-5.055V28.786
		h3.602v9.817c0,2.034,0.639,2.673,1.859,2.673c1.569,0,2.76-0.899,3.37-1.597V28.786H260.396z"/>
	<path d="M262.803,43.891V28.786h3.312v1.626c1.335-0.929,2.876-1.917,4.648-1.917c3.021,0,4.474,1.975,4.474,5.053v10.343h-3.603
		v-9.82c0-2.032-0.639-2.672-1.859-2.672c-1.569,0-2.759,0.902-3.369,1.599v10.893H262.803z"/>
	<path d="M277.378,25.997v-3.369h3.603v3.369H277.378z M280.981,43.891h-3.603V28.786h3.603V43.891z"/>
	<path d="M285.253,28.786v-4.997h3.603v4.997h2.964v2.905h-2.964v8.542c0,0.812,0.406,1.044,1.309,1.044
		c0.55,0,1.133-0.174,1.655-0.292v2.966c-0.988,0.115-1.861,0.231-2.848,0.231c-2.673,0-3.719-1.336-3.719-3.485V31.69h-2.091
		v-2.905H285.253z"/>
	<path d="M292.902,46.332c0.551,0.115,0.988,0.115,1.509,0.115c1.25,0,1.947-0.348,2.383-1.191c0.349-0.727,0.582-1.161,0.582-1.771
		c0-0.551-0.291-1.191-0.466-1.801l-4.037-12.897h3.631l2.498,9.295h0.06l2.584-9.295h3.603l-4.765,15.135
		c-1.599,4.327-2.875,5.489-5.837,5.489c-0.873,0-1.309-0.057-1.744-0.116V46.332z"/>
</g>
</svg>
