<?xml version="1.0" encoding="utf-8"?>
<!-- Generator: Adobe Illustrator 16.0.4, SVG Export Plug-In . SVG Version: 6.00 Build 0)  -->
<!DOCTYPE svg PUBLIC "-//W3C//DTD SVG 1.1//EN" "http://www.w3.org/Graphics/SVG/1.1/DTD/svg11.dtd">
<svg version="1.1" id="Layer_1" xmlns="http://www.w3.org/2000/svg" xmlns:xlink="http://www.w3.org/1999/xlink" x="0px" y="0px"
	 width="339.885px" height="133.57px" viewBox="0 0 339.885 133.57" enable-background="new 0 0 339.885 133.57"
	 xml:space="preserve">
<rect x="141.65" fill="#DEB408" width="56.583" height="4.955"/>
<path d="M198.228,6.525v59.663c0,2.769-2.482,3.574-2.629,3.637c-0.045,0.019-25.657,8.469-25.657,8.469s-25.617-8.45-25.662-8.469
	c-0.146-0.062-2.63-0.868-2.63-3.637V6.525H198.228z"/>
<path fill="#DEB408" d="M175.872,43.743v-2.705h2.629c1.562,0,1.906-0.648,1.906-2.211V18.513l-10.138,25.23h-3.164l-10.252-25.191
	v19.894c0,1.562,0.688,2.592,2.211,2.592h2.326v2.705h-12.387v-2.705h2.324c1.525,0,2.211-1.029,2.211-2.592V19.619
	c0-1.525-0.646-2.516-2.211-2.516h-2.324v-2.706h12.424l8.652,21.343l8.381-21.343h12.234v2.706h-2.516
	c-1.562,0-1.867,0.647-1.867,2.173v19.55c0,1.562,0.305,2.211,1.867,2.211h2.516v2.705H175.872z"/>
<path fill="#FFFFFF" d="M159.907,66.954c-7.312,0-11.07-4.812-11.07-10.479c0-5.457,3.843-10.348,11.127-10.348
	c3.188,0,5.15,1.346,5.892,1.424c0.513,0.051,0.796-0.285,0.91-1.139h2.106v7.684h-2.362v-0.621c0-2.924-2.533-5.277-6.091-5.277
	c-4.125,0-6.373,2.664-6.373,8.227s2.076,8.512,6.459,8.512c3.813,0,6.033-2.018,6.232-5.77l0.028-0.543h2.362v0.518
	C169.127,63.797,165.627,66.954,159.907,66.954"/>
<path fill="#FFFFFF" d="M181.646,66.954c-7.314,0-11.069-4.812-11.069-10.479c0-5.457,3.841-10.348,11.126-10.348
	c3.188,0,5.15,1.346,5.891,1.424c0.512,0.051,0.797-0.285,0.91-1.139h2.105v7.684h-2.361v-0.621c0-2.924-2.533-5.277-6.09-5.277
	c-4.127,0-6.375,2.664-6.375,8.227s2.078,8.512,6.461,8.512c3.812,0,6.031-2.018,6.232-5.77l0.027-0.543h2.361v0.518
	C190.864,63.797,187.364,66.954,181.646,66.954"/>
<g>
	<path fill="#808285" d="M56.862,126.673h0.53v2.479h-0.55c-0.12-0.68-0.29-1.049-0.62-1.358c-0.37-0.34-0.91-0.53-1.559-0.53
		c-0.899,0-1.589,0.51-1.589,1.159c0,0.37,0.2,0.63,0.59,0.76c0.18,0.061,0.39,0.11,0.62,0.14l0.33,0.051l0.32,0.05l0.33,0.05
		c0.819,0.12,1.309,0.25,1.659,0.449c0.49,0.271,0.799,0.84,0.799,1.47c0,1.289-1.02,2.179-2.499,2.179
		c-0.61,0-1.259-0.15-1.659-0.38c-0.19-0.109-0.34-0.22-0.66-0.5l-0.25,0.71h-0.54v-2.669h0.62c0.07,0.73,0.24,1.13,0.65,1.5
		c0.439,0.399,1.089,0.64,1.719,0.64c0.91,0,1.56-0.49,1.56-1.18c0-0.34-0.12-0.58-0.38-0.739c-0.28-0.181-0.62-0.261-1.509-0.38
		c-1.06-0.15-1.429-0.23-1.869-0.45c-0.54-0.27-0.819-0.77-0.819-1.449c0-1.27,1-2.108,2.499-2.108c0.83,0,1.349,0.18,2.049,0.689
		L56.862,126.673z"/>
	<path fill="#808285" d="M60.345,129.262v-2.528h6.126v2.528h-0.56c-0.01-0.529-0.06-0.96-0.17-1.249c-0.09-0.26-0.32-0.5-0.58-0.6
		c-0.13-0.051-0.3-0.07-0.63-0.07h-0.56v4.897c0,0.489,0.12,0.59,0.66,0.59h0.51v0.569h-3.428v-0.569h0.49
		c0.54,0,0.66-0.101,0.66-0.59v-4.897h-0.52c-0.49,0-0.679,0.04-0.909,0.21c-0.27,0.189-0.38,0.41-0.46,0.949
		c-0.04,0.3-0.06,0.45-0.06,0.76H60.345z"/>
	<path fill="#808285" d="M70.573,131.181l-0.34,0.859c-0.05,0.13-0.09,0.33-0.09,0.439c0,0.261,0.14,0.351,0.55,0.351h0.53v0.569
		h-2.958v-0.569h0.35c0.47,0,0.64-0.181,0.95-0.93l2.069-5.167h1.049l2.269,5.307c0.27,0.54,0.2,0.39,0.229,0.45
		c0.14,0.26,0.27,0.34,0.62,0.34h0.36v0.569h-3.238v-0.569h0.56c0.36,0,0.479-0.061,0.479-0.23c0-0.069-0.03-0.149-0.1-0.31
		l-0.47-1.109H70.573z M71.913,127.713l-1.109,2.858h2.339L71.913,127.713z"/>
	<path fill="#808285" d="M77.955,129.262v-2.528h6.126v2.528h-0.56c-0.01-0.529-0.06-0.96-0.17-1.249c-0.09-0.26-0.32-0.5-0.58-0.6
		c-0.13-0.051-0.3-0.07-0.63-0.07h-0.56v4.897c0,0.489,0.12,0.59,0.66,0.59h0.51v0.569h-3.428v-0.569h0.49
		c0.54,0,0.66-0.101,0.66-0.59v-4.897h-0.52c-0.49,0-0.679,0.04-0.909,0.21c-0.27,0.189-0.38,0.41-0.46,0.949
		c-0.04,0.3-0.06,0.45-0.06,0.76H77.955z"/>
	<path fill="#808285" d="M88.693,129.652h0.969c0.54,0,0.81-0.27,0.81-0.829v-0.44h0.59v3.148h-0.59v-0.34
		c0-0.68-0.24-0.97-0.79-0.97h-0.989v2.569h1.879c1.04,0,1.499-0.19,1.699-0.7c0.13-0.329,0.17-0.6,0.19-1.539h0.61v2.849h-6.557
		v-0.569h0.44c0.54,0,0.66-0.101,0.66-0.59v-4.348c0-0.49-0.12-0.59-0.66-0.59h-0.44v-0.569h6.447v2.488h-0.59v-0.22
		c0-1.069-0.479-1.659-1.359-1.659h-2.318V129.652z"/>
	<path fill="#808285" d="M102.533,131.292c0,0.579,0.15,0.929,0.5,1.169c0.32,0.229,0.75,0.35,1.249,0.35
		c0.57,0,1.06-0.17,1.359-0.47c0.31-0.31,0.43-0.72,0.43-1.469v-2.979c0-0.49-0.12-0.59-0.66-0.59h-0.439v-0.569h2.828v0.569h-0.38
		c-0.54,0-0.659,0.1-0.659,0.59v3.398c0,0.709-0.21,1.229-0.68,1.658c-0.49,0.45-1.05,0.62-1.999,0.62
		c-0.919,0-1.629-0.229-2.099-0.68c-0.399-0.39-0.569-0.89-0.569-1.659v-3.338c0-0.49-0.12-0.59-0.66-0.59h-0.38v-0.569h3.198v0.569
		h-0.38c-0.54,0-0.66,0.1-0.66,0.59V131.292z"/>
	<path fill="#808285" d="M116.271,131.731v-3.838c0-0.49-0.12-0.59-0.66-0.59h-0.44v-0.569h2.749v0.569h-0.3
		c-0.54,0-0.66,0.1-0.66,0.59v5.507h-0.81l-4.127-5.527v4.368c0,0.489,0.12,0.59,0.659,0.59h0.44v0.569h-2.829v-0.569h0.38
		c0.54,0,0.66-0.101,0.66-0.59v-4.348c0-0.49-0.12-0.59-0.66-0.59h-0.38v-0.569h2.279L116.271,131.731z"/>
	<path fill="#808285" d="M122.693,132.241c0,0.489,0.12,0.59,0.66,0.59h0.439v0.569h-3.278v-0.569h0.44c0.54,0,0.66-0.101,0.66-0.59
		v-4.348c0-0.49-0.12-0.59-0.66-0.59h-0.44v-0.569h3.278v0.569h-0.439c-0.54,0-0.66,0.1-0.66,0.59V132.241z"/>
	<path fill="#808285" d="M131.651,128.252c0.11-0.279,0.17-0.51,0.17-0.629c0-0.2-0.17-0.32-0.46-0.32h-0.58v-0.569h2.679v0.569
		h-0.28c-0.31,0-0.45,0.12-0.62,0.569l-2.168,5.527h-0.99l-2.199-5.307c-0.29-0.68-0.41-0.79-0.899-0.79h-0.3v-0.569h3.218v0.569
		h-0.63c-0.29,0-0.399,0.06-0.399,0.25c0,0.06,0.02,0.14,0.06,0.24l1.859,4.537L131.651,128.252z"/>
	<path fill="#808285" d="M137.833,129.652h0.969c0.54,0,0.81-0.27,0.81-0.829v-0.44h0.59v3.148h-0.59v-0.34
		c0-0.68-0.24-0.97-0.79-0.97h-0.989v2.569h1.879c1.04,0,1.499-0.19,1.699-0.7c0.13-0.329,0.17-0.6,0.19-1.539h0.61v2.849h-6.557
		v-0.569h0.44c0.54,0,0.66-0.101,0.66-0.59v-4.348c0-0.49-0.12-0.59-0.66-0.59h-0.44v-0.569h6.447v2.488h-0.59v-0.22
		c0-1.069-0.479-1.659-1.359-1.659h-2.318V129.652z"/>
	<path fill="#808285" d="M152.45,131.411v0.729c0,0.59-0.1,0.89-0.36,1.1c-0.209,0.17-0.52,0.271-0.849,0.271
		c-0.77,0-1.11-0.4-1.149-1.37c-0.05-0.939-0.09-1.179-0.23-1.459c-0.16-0.31-0.49-0.47-0.979-0.47h-1.579v2.029
		c0,0.489,0.12,0.59,0.66,0.59h0.439v0.569h-3.218v-0.569h0.38c0.54,0,0.66-0.101,0.66-0.59v-4.348c0-0.49-0.12-0.59-0.66-0.59
		h-0.38v-0.569h4.518c0.68,0,1.06,0.109,1.39,0.38c0.319,0.279,0.54,0.779,0.54,1.239c0,0.949-0.59,1.549-1.599,1.648
		c0.45,0.12,0.689,0.26,0.879,0.54c0.17,0.24,0.23,0.529,0.25,1.22c0.02,0.52,0.03,0.649,0.09,0.779c0.06,0.149,0.16,0.22,0.3,0.22
		c0.25,0,0.36-0.189,0.36-0.62v-0.729H152.45z M149.251,129.602c0.76,0,1.209-0.42,1.209-1.149c0-0.739-0.42-1.109-1.27-1.109
		h-1.889v2.259H149.251z"/>
	<path fill="#808285" d="M159.801,126.673h0.53v2.479h-0.55c-0.12-0.68-0.29-1.049-0.62-1.358c-0.37-0.34-0.91-0.53-1.559-0.53
		c-0.899,0-1.589,0.51-1.589,1.159c0,0.37,0.2,0.63,0.59,0.76c0.18,0.061,0.39,0.11,0.62,0.14l0.33,0.051l0.32,0.05l0.33,0.05
		c0.819,0.12,1.309,0.25,1.659,0.449c0.49,0.271,0.799,0.84,0.799,1.47c0,1.289-1.02,2.179-2.499,2.179
		c-0.61,0-1.259-0.15-1.659-0.38c-0.19-0.109-0.34-0.22-0.66-0.5l-0.25,0.71h-0.54v-2.669h0.62c0.07,0.73,0.24,1.13,0.65,1.5
		c0.439,0.399,1.089,0.64,1.719,0.64c0.91,0,1.56-0.49,1.56-1.18c0-0.34-0.12-0.58-0.38-0.739c-0.28-0.181-0.62-0.261-1.509-0.38
		c-1.06-0.15-1.429-0.23-1.869-0.45c-0.54-0.27-0.819-0.77-0.819-1.449c0-1.27,1-2.108,2.499-2.108c0.83,0,1.349,0.18,2.049,0.689
		L159.801,126.673z"/>
	<path fill="#808285" d="M165.633,132.241c0,0.489,0.12,0.59,0.659,0.59h0.44v0.569h-3.279v-0.569h0.44
		c0.54,0,0.659-0.101,0.659-0.59v-4.348c0-0.49-0.119-0.59-0.659-0.59h-0.44v-0.569h3.279v0.569h-0.44
		c-0.539,0-0.659,0.1-0.659,0.59V132.241z"/>
	<path fill="#808285" d="M169.173,129.262v-2.528h6.127v2.528h-0.56c-0.01-0.529-0.061-0.96-0.17-1.249
		c-0.09-0.26-0.32-0.5-0.58-0.6c-0.13-0.051-0.3-0.07-0.629-0.07h-0.561v4.897c0,0.489,0.12,0.59,0.66,0.59h0.51v0.569h-3.429
		v-0.569h0.49c0.54,0,0.659-0.101,0.659-0.59v-4.897h-0.52c-0.489,0-0.68,0.04-0.909,0.21c-0.27,0.189-0.38,0.41-0.46,0.949
		c-0.04,0.3-0.06,0.45-0.06,0.76H169.173z"/>
	<path fill="#808285" d="M182.99,128.083c0.23-0.35,0.28-0.459,0.29-0.569c0.01-0.14-0.12-0.22-0.359-0.22h-0.63v-0.56h2.679v0.56
		h-0.311c-0.319,0-0.379,0.06-0.759,0.63l-1.829,2.778v1.539c0,0.489,0.109,0.59,0.649,0.59h0.56v0.569h-3.478v-0.569h0.529
		c0.54,0,0.659-0.101,0.659-0.59v-1.47l-2.139-2.988c-0.29-0.399-0.42-0.489-0.739-0.489h-0.31v-0.56h3.288v0.56h-0.649
		c-0.271,0-0.36,0.06-0.36,0.22c0,0.08,0.01,0.12,0.13,0.29l1.539,2.169L182.99,128.083z"/>
	<path fill="#808285" d="M197.411,127.093c0.93,0.58,1.479,1.689,1.479,2.969c0,1.199-0.48,2.248-1.33,2.878
		c-0.578,0.42-1.289,0.63-2.188,0.63c-0.939,0-1.67-0.229-2.27-0.71c-0.799-0.629-1.238-1.608-1.238-2.738
		c0-1.27,0.539-2.408,1.428-2.998c0.551-0.37,1.25-0.56,2.049-0.56C196.161,126.564,196.86,126.744,197.411,127.093z
		 M193.692,127.953c-0.41,0.48-0.619,1.199-0.619,2.119c0,1.01,0.17,1.619,0.6,2.129c0.41,0.479,1.02,0.749,1.68,0.749
		c1.469,0,2.328-1.069,2.328-2.918c0-1.02-0.291-1.789-0.869-2.309c-0.391-0.36-0.859-0.54-1.381-0.54
		C194.712,127.183,194.112,127.443,193.692,127.953z"/>
	<path fill="#808285" d="M203.903,129.632h0.959c0.539,0,0.77-0.271,0.77-0.899v-0.4h0.609v3.229h-0.609v-0.43
		c0-0.63-0.23-0.89-0.779-0.89h-0.949v1.999c0,0.489,0.119,0.59,0.658,0.59h0.441v0.569h-3.279v-0.569h0.439
		c0.541,0,0.66-0.101,0.66-0.59v-4.348c0-0.49-0.119-0.59-0.66-0.59h-0.439v-0.569h6.348v2.559h-0.59
		c0.01-0.101,0.01-0.19,0.01-0.23c0-1.139-0.529-1.719-1.58-1.719h-2.008V129.632z"/>
	<path fill="#808285" d="M220.911,131.731v-3.838c0-0.49-0.121-0.59-0.66-0.59h-0.439v-0.569h2.748v0.569h-0.299
		c-0.541,0-0.66,0.1-0.66,0.59v5.507h-0.811l-4.127-5.527v4.368c0,0.489,0.119,0.59,0.66,0.59h0.439v0.569h-2.828v-0.569h0.379
		c0.539,0,0.66-0.101,0.66-0.59v-4.348c0-0.49-0.121-0.59-0.66-0.59h-0.379v-0.569h2.277L220.911,131.731z"/>
	<path fill="#808285" d="M227.343,129.652h0.969c0.539,0,0.811-0.27,0.811-0.829v-0.44h0.588v3.148h-0.588v-0.34
		c0-0.68-0.24-0.97-0.791-0.97h-0.988v2.569h1.879c1.039,0,1.498-0.19,1.699-0.7c0.129-0.329,0.17-0.6,0.189-1.539h0.609v2.849
		h-6.557v-0.569h0.439c0.541,0,0.66-0.101,0.66-0.59v-4.348c0-0.49-0.119-0.59-0.66-0.59h-0.439v-0.569h6.447v2.488h-0.59v-0.22
		c0-1.069-0.48-1.659-1.359-1.659h-2.318V129.652z"/>
	<path fill="#808285" d="M243.31,128.163c0.1-0.31,0.129-0.43,0.129-0.56c0-0.2-0.129-0.29-0.42-0.29h-0.6v-0.579h2.68v0.579h-0.33
		c-0.33,0-0.439,0.13-0.699,0.85l-1.83,5.237h-0.979l-1.58-4.298l-1.52,4.298h-0.988l-1.92-5.417c-0.189-0.54-0.33-0.67-0.699-0.67
		h-0.32v-0.579h3.02v0.569h-0.471c-0.359,0-0.5,0.09-0.5,0.3c0,0.06,0.031,0.18,0.07,0.3l1.52,4.277l1.43-4.018l-0.141-0.439
		c-0.1-0.29-0.27-0.42-0.59-0.42h-0.559v-0.569h3.248v0.569h-0.551c-0.33,0-0.42,0.05-0.42,0.22c0,0.08,0.041,0.26,0.08,0.38
		l1.58,4.277L243.31,128.163z"/>
	<path fill="#808285" d="M256.562,128.083c0.23-0.35,0.279-0.459,0.289-0.569c0.01-0.14-0.119-0.22-0.359-0.22h-0.629v-0.56h2.678
		v0.56h-0.311c-0.318,0-0.379,0.06-0.758,0.63l-1.83,2.778v1.539c0,0.489,0.109,0.59,0.65,0.59h0.559v0.569h-3.477v-0.569h0.529
		c0.539,0,0.658-0.101,0.658-0.59v-1.47l-2.139-2.988c-0.289-0.399-0.42-0.489-0.738-0.489h-0.311v-0.56h3.289v0.56h-0.65
		c-0.27,0-0.359,0.06-0.359,0.22c0,0.08,0.01,0.12,0.129,0.29l1.539,2.169L256.562,128.083z"/>
	<path fill="#808285" d="M266.241,127.093c0.93,0.58,1.479,1.689,1.479,2.969c0,1.199-0.48,2.248-1.33,2.878
		c-0.578,0.42-1.289,0.63-2.188,0.63c-0.939,0-1.67-0.229-2.27-0.71c-0.799-0.629-1.238-1.608-1.238-2.738
		c0-1.27,0.539-2.408,1.428-2.998c0.551-0.37,1.25-0.56,2.049-0.56C264.991,126.564,265.69,126.744,266.241,127.093z
		 M262.522,127.953c-0.41,0.48-0.619,1.199-0.619,2.119c0,1.01,0.17,1.619,0.6,2.129c0.41,0.479,1.02,0.749,1.68,0.749
		c1.469,0,2.328-1.069,2.328-2.918c0-1.02-0.291-1.789-0.869-2.309c-0.391-0.36-0.859-0.54-1.381-0.54
		C263.542,127.183,262.942,127.443,262.522,127.953z"/>
	<path fill="#808285" d="M277.819,131.411v0.729c0,0.59-0.1,0.89-0.359,1.1c-0.209,0.17-0.52,0.271-0.85,0.271
		c-0.77,0-1.109-0.4-1.148-1.37c-0.051-0.939-0.09-1.179-0.23-1.459c-0.16-0.31-0.49-0.47-0.98-0.47h-1.578v2.029
		c0,0.489,0.119,0.59,0.66,0.59h0.439v0.569h-3.219v-0.569h0.381c0.539,0,0.658-0.101,0.658-0.59v-4.348
		c0-0.49-0.119-0.59-0.658-0.59h-0.381v-0.569h4.518c0.68,0,1.061,0.109,1.389,0.38c0.32,0.279,0.541,0.779,0.541,1.239
		c0,0.949-0.59,1.549-1.6,1.648c0.449,0.12,0.689,0.26,0.879,0.54c0.17,0.24,0.23,0.529,0.25,1.22c0.02,0.52,0.031,0.649,0.09,0.779
		c0.061,0.149,0.16,0.22,0.301,0.22c0.25,0,0.359-0.189,0.359-0.62v-0.729H277.819z M274.622,129.602c0.76,0,1.209-0.42,1.209-1.149
		c0-0.739-0.42-1.109-1.27-1.109h-1.889v2.259H274.622z"/>
	<path fill="#808285" d="M282.312,131.071v1.17c0,0.489,0.121,0.59,0.66,0.59h0.381v0.569h-3.158v-0.569h0.379
		c0.539,0,0.66-0.101,0.66-0.59v-4.348c0-0.49-0.121-0.59-0.66-0.59h-0.379v-0.569h3.158v0.569h-0.381c-0.539,0-0.66,0.1-0.66,0.59
		v2.368l2.23-1.988l0.129-0.12c0.539-0.49,0.58-0.54,0.59-0.689c0-0.13-0.07-0.17-0.27-0.17h-0.76v-0.56h3.379v0.569h-0.33
		c-0.311,0-0.58,0.05-0.74,0.14c-0.09,0.04-0.221,0.141-0.379,0.271l-0.102,0.08l-0.1,0.09l-0.1,0.08l-1.379,1.209l2.229,3.068
		c0.391,0.55,0.449,0.59,0.83,0.59h0.26v0.569h-3.258v-0.569h0.609c0.25,0,0.369-0.061,0.359-0.181c0-0.109-0.01-0.119-0.369-0.619
		l-1.52-2.119L282.312,131.071z"/>
</g>
<g>
	<path d="M284.643,114.461V92.075h3.844v22.387H284.643z"/>
	<path d="M291.434,114.461V92.075h3.844v22.387H291.434z"/>
	<path d="M300.979,107.02c0.062,3.349,1.551,4.65,3.348,4.65c1.799,0,2.637-0.806,3.598-1.922l2.791,1.736
		c-1.488,2.295-3.66,3.287-6.76,3.287c-4.186,0-6.822-3.256-6.822-8.372s2.637-8.372,7.008-8.372
		c4.217-0.03,6.574,3.535,6.574,7.411v1.581H300.979z M307.18,104.416c-0.062-2.232-1.24-3.534-3.102-3.534
		c-1.859,0-3.037,1.302-3.1,3.534H307.18z"/>
	<path d="M326.09,100.633c-0.898,0-1.891,0-2.48,0.371c0.496,0.683,0.869,1.613,0.869,2.854c0,3.038-2.047,5.209-6.078,5.209
		c-1.674,0-3.008,0.062-3.008,0.992c0,2.604,10.605-0.931,10.605,5.519c0,2.294-2.326,4.774-7.473,4.774
		c-4.342,0-7.193-1.302-7.193-3.844c0-2.016,1.52-2.977,2.914-2.977v-0.062c-0.744-0.465-2.387-0.868-2.387-2.604
		c0-1.55,1.797-2.729,2.512-2.945c-1.334-1.085-2.389-2.325-2.389-4.279c0-2.821,2.17-5.612,6.357-5.612
		c1.363,0,2.977,0.559,3.969,1.427c0.744-0.992,1.953-1.488,3.781-1.427V100.633z M314.867,116.012c0,1.24,1.053,1.798,4.277,1.798
		c2.48,0,3.318-1.24,3.318-1.798c0-0.744-1.146-1.861-4.867-1.861C315.486,114.151,314.867,115.33,314.867,116.012z
		 M318.309,100.881c-1.645,0-2.791,1.178-2.791,2.666s1.146,2.666,2.791,2.666c1.457,0,2.635-1.178,2.635-2.666
		S319.766,100.881,318.309,100.881z"/>
	<path d="M330.148,107.02c0.062,3.349,1.551,4.65,3.35,4.65s2.635-0.806,3.596-1.922l2.791,1.736
		c-1.488,2.295-3.658,3.287-6.76,3.287c-4.186,0-6.82-3.256-6.82-8.372s2.635-8.372,7.008-8.372c4.217-0.03,6.572,3.535,6.572,7.411
		v1.581H330.148z M336.35,104.416c-0.061-2.232-1.24-3.534-3.1-3.534c-1.861,0-3.039,1.302-3.102,3.534H336.35z"/>
	<g>
		<path d="M263.553,98.586c-0.621-1.892-1.953-3.225-4.062-3.225c-2.852,0-4.588,2.666-4.588,7.906
			c-0.062,5.24,1.488,7.906,4.713,7.906c1.922,0,3.1-0.682,4.371-3.317l3.969,1.055c-1.334,3.876-4.248,5.86-8.34,5.86
			c-5.705,0-8.992-4.187-8.992-11.504s3.287-11.503,8.992-11.503c4.277,0,6.758,1.923,7.812,5.892L263.553,98.586z"/>
		<path d="M275.83,98.028c4.371,0,7.008,3.256,7.008,8.372s-2.637,8.372-7.008,8.372s-7.008-3.256-7.008-8.372
			S271.459,98.028,275.83,98.028z M275.83,101.129c-2.139,0-3.162,1.674-3.162,5.271s1.023,5.271,3.162,5.271
			s3.162-1.674,3.162-5.271S277.969,101.129,275.83,101.129z"/>
	</g>
	<path d="M0,114.431V92.033h6.018l4.312,15.635h0.062l4.343-15.635h6.081v22.398h-3.723V96.81h-0.062l-5.025,17.621H8.748
		L3.785,96.81H3.723v17.621H0z"/>
	<path d="M29.518,97.99c4.374,0,7.011,3.258,7.011,8.375c0,5.119-2.637,8.377-7.011,8.377s-7.011-3.258-7.011-8.377
		C22.507,101.248,25.144,97.99,29.518,97.99z M29.518,101.091c-2.141,0-3.164,1.676-3.164,5.273c0,3.6,1.023,5.273,3.164,5.273
		c2.14,0,3.164-1.674,3.164-5.273C32.682,102.767,31.658,101.091,29.518,101.091z"/>
	<path d="M38.359,114.431V98.3h3.537v1.736c1.427-0.992,3.071-2.047,4.963-2.047c3.226,0,4.777,2.109,4.777,5.396v11.045H47.79
		v-10.486c0-2.17-0.683-2.854-1.985-2.854c-1.675,0-2.947,0.963-3.599,1.707v11.633H38.359z"/>
	<path d="M53.959,114.431V98.3h3.536v2.76h0.062c0.931-1.922,2.234-3.008,4.529-3.07v4.064c-0.186-0.031-0.403-0.031-0.683-0.031
		c-1.923,0-3.598,2.201-3.598,2.605v9.803H53.959z"/>
	<path d="M69.377,97.99c4.374,0,7.011,3.258,7.011,8.375c0,5.119-2.637,8.377-7.011,8.377s-7.011-3.258-7.011-8.377
		C62.366,101.248,65.003,97.99,69.377,97.99z M69.377,101.091c-2.141,0-3.164,1.676-3.164,5.273c0,3.6,1.023,5.273,3.164,5.273
		c2.14,0,3.164-1.674,3.164-5.273C72.541,102.767,71.517,101.091,69.377,101.091z"/>
	<path d="M81.444,106.986c0.062,3.35,1.551,4.652,3.35,4.652s2.637-0.807,3.599-1.922l2.792,1.736
		c-1.489,2.295-3.66,3.289-6.762,3.289c-4.188,0-6.825-3.258-6.825-8.377c0-5.117,2.637-8.375,7.011-8.375
		c4.219-0.031,6.576,3.535,6.576,7.414v1.582H81.444z M87.648,104.38c-0.062-2.234-1.241-3.537-3.102-3.537s-3.04,1.303-3.102,3.537
		H87.648z"/>
	<path d="M113.861,98.548c-0.62-1.893-1.954-3.227-4.063-3.227c-2.854,0-4.591,2.668-4.591,7.91c-0.062,5.242,1.489,7.91,4.715,7.91
		c1.923,0,3.102-0.682,4.374-3.318l3.971,1.055c-1.334,3.877-4.25,5.863-8.345,5.863c-5.708,0-8.996-4.189-8.996-11.51
		s3.288-11.508,8.996-11.508c4.281,0,6.763,1.922,7.817,5.893L113.861,98.548z"/>
	<path d="M125.805,97.99c4.374,0,7.011,3.258,7.011,8.375c0,5.119-2.637,8.377-7.011,8.377s-7.011-3.258-7.011-8.377
		C118.794,101.248,121.431,97.99,125.805,97.99z M125.805,101.091c-2.141,0-3.164,1.676-3.164,5.273c0,3.6,1.023,5.273,3.164,5.273
		c2.14,0,3.164-1.674,3.164-5.273C128.969,102.767,127.945,101.091,125.805,101.091z"/>
	<path d="M134.615,114.431V98.3h3.505v1.736c1.458-1.334,2.637-2.047,4.839-2.047c1.675,0,3.257,0.807,3.971,2.357
		c1.334-1.334,2.885-2.357,5.553-2.357c1.675,0,3.971,0.992,3.971,4.84v11.602h-3.847v-11.262c0-1.303-0.527-2.016-1.923-2.078
		c-0.993,0-2.327,0.9-3.226,1.738v11.602h-3.847v-11.262c0-1.303-0.527-2.016-1.923-2.078c-0.993,0-2.327,0.9-3.226,1.738v11.602
		H134.615z"/>
	<path d="M158.89,114.431V98.3h3.505v1.736c1.458-1.334,2.637-2.047,4.839-2.047c1.676,0,3.258,0.807,3.971,2.357
		c1.334-1.334,2.885-2.357,5.553-2.357c1.676,0,3.971,0.992,3.971,4.84v11.602h-3.846v-11.262c0-1.303-0.527-2.016-1.924-2.078
		c-0.992,0-2.326,0.9-3.227,1.738v11.602h-3.846v-11.262c0-1.303-0.527-2.016-1.924-2.078c-0.992,0-2.327,0.9-3.226,1.738v11.602
		H158.89z"/>
	<path d="M196.275,98.3v16.131h-3.537v-1.738c-1.426,0.994-3.07,2.049-4.963,2.049c-3.227,0-4.777-2.109-4.777-5.398V98.3h3.847
		v10.484c0,2.172,0.683,2.854,1.985,2.854c1.676,0,2.947-0.961,3.6-1.705V98.3H196.275z"/>
	<path d="M198.846,114.431V98.3h3.537v1.736c1.426-0.992,3.07-2.047,4.963-2.047c3.227,0,4.777,2.109,4.777,5.396v11.045h-3.846
		v-10.486c0-2.17-0.684-2.854-1.986-2.854c-1.676,0-2.947,0.963-3.598,1.707v11.633H198.846z"/>
	<path d="M214.41,95.322v-3.598h3.848v3.598H214.41z M218.258,114.431h-3.848V98.3h3.848V114.431z"/>
	<path d="M222.82,98.3v-5.336h3.848V98.3h3.164v3.102h-3.164v9.121c0,0.867,0.434,1.115,1.396,1.115
		c0.588,0,1.209-0.186,1.768-0.311v3.166c-1.055,0.123-1.986,0.248-3.041,0.248c-2.854,0-3.971-1.428-3.971-3.723v-9.617h-2.232
		V98.3H222.82z"/>
	<path d="M230.988,117.037c0.588,0.123,1.055,0.123,1.611,0.123c1.334,0,2.08-0.371,2.545-1.271c0.371-0.775,0.621-1.24,0.621-1.893
		c0-0.588-0.311-1.271-0.498-1.922L230.957,98.3h3.877l2.668,9.926h0.062l2.76-9.926h3.848l-5.088,16.162
		c-1.707,4.621-3.07,5.861-6.234,5.861c-0.932,0-1.396-0.061-1.861-0.123V117.037z"/>
</g>
</svg>
