<?xml version="1.0" encoding="utf-8"?>
<!-- Generator: Adobe Illustrator 17.1.0, SVG Export Plug-In . SVG Version: 6.00 Build 0)  -->
<!DOCTYPE svg PUBLIC "-//W3C//DTD SVG 1.1//EN" "http://www.w3.org/Graphics/SVG/1.1/DTD/svg11.dtd">
<svg version="1.1" id="Layer_1" xmlns="http://www.w3.org/2000/svg" xmlns:xlink="http://www.w3.org/1999/xlink" x="0px" y="0px"
	 viewBox="0 0 600 600" enable-background="new 0 0 600 600" xml:space="preserve">
<g>
	<g>
		<path d="M121.7,280.9l9.3,24.9h-5.7l-1.9-5.5h-9.3l-2,5.5h-5.5l9.4-24.9H121.7z M122,296.1l-3.1-9.1h-0.1l-3.2,9.1H122z"/>
		<path d="M137.5,287.8v2.4h0.1c0.7-0.9,1.4-1.6,2.4-2.2c0.9-0.5,2-0.8,3.2-0.8c1.1,0,2.2,0.2,3.1,0.7c0.9,0.4,1.7,1.2,2.1,2.3
			c0.5-0.8,1.3-1.5,2.2-2.1c0.9-0.6,2-0.9,3.3-0.9c0.9,0,1.8,0.1,2.6,0.3c0.8,0.2,1.5,0.6,2.1,1.1c0.6,0.5,1,1.2,1.4,2
			c0.3,0.8,0.5,1.8,0.5,3v12h-4.9v-10.2c0-0.6,0-1.2-0.1-1.7c0-0.5-0.2-1-0.4-1.4c-0.2-0.4-0.5-0.7-0.9-0.9c-0.4-0.2-1-0.3-1.7-0.3
			c-0.7,0-1.3,0.1-1.7,0.4c-0.4,0.3-0.8,0.6-1,1c-0.2,0.4-0.4,0.9-0.5,1.5c-0.1,0.5-0.1,1.1-0.1,1.7v10h-4.9v-10.1
			c0-0.5,0-1.1,0-1.6c0-0.5-0.1-1-0.3-1.4c-0.2-0.4-0.5-0.8-0.9-1.1c-0.4-0.3-1-0.4-1.8-0.4c-0.2,0-0.5,0.1-0.9,0.2
			c-0.4,0.1-0.8,0.3-1.1,0.6c-0.4,0.3-0.7,0.7-0.9,1.3c-0.3,0.5-0.4,1.3-0.4,2.1v10.4h-4.9v-18H137.5z"/>
		<path d="M169.5,301.4c0.7,0.7,1.8,1.1,3.2,1.1c1,0,1.9-0.3,2.6-0.7c0.7-0.5,1.2-1,1.3-1.6h4.4c-0.7,2.2-1.8,3.7-3.2,4.6
			c-1.4,0.9-3.2,1.4-5.2,1.4c-1.4,0-2.7-0.2-3.8-0.7c-1.1-0.5-2.1-1.1-2.9-1.9c-0.8-0.8-1.4-1.8-1.8-3c-0.4-1.2-0.6-2.4-0.6-3.8
			c0-1.3,0.2-2.6,0.7-3.8c0.4-1.2,1.1-2.2,1.9-3c0.8-0.8,1.8-1.5,2.9-2c1.1-0.5,2.4-0.7,3.7-0.7c1.5,0,2.9,0.3,4,0.9
			c1.1,0.6,2.1,1.4,2.8,2.4c0.7,1,1.3,2.1,1.6,3.4c0.3,1.3,0.4,2.6,0.3,4h-13C168.3,299.6,168.7,300.7,169.5,301.4z M175.1,292
			c-0.6-0.6-1.5-1-2.7-1c-0.8,0-1.4,0.1-2,0.4c-0.5,0.3-0.9,0.6-1.3,1c-0.3,0.4-0.5,0.8-0.7,1.3c-0.1,0.4-0.2,0.8-0.2,1.2h8
			C176.1,293.6,175.7,292.6,175.1,292z"/>
		<path d="M188.9,287.8v3.3h0.1c0.2-0.6,0.5-1.1,0.9-1.5c0.4-0.5,0.8-0.9,1.4-1.2c0.5-0.3,1.1-0.6,1.6-0.8c0.6-0.2,1.2-0.3,1.8-0.3
			c0.3,0,0.7,0.1,1.1,0.2v4.6c-0.2,0-0.5-0.1-0.8-0.1c-0.3,0-0.6-0.1-0.9-0.1c-0.9,0-1.7,0.2-2.3,0.5c-0.6,0.3-1.1,0.7-1.5,1.2
			c-0.4,0.5-0.7,1.1-0.8,1.8c-0.2,0.7-0.2,1.5-0.2,2.3v8.1h-4.9v-18H188.9z"/>
		<path d="M197.9,285v-4.1h4.9v4.1H197.9z M202.8,287.8v18h-4.9v-18H202.8z"/>
		<path d="M215.3,291c-0.8,0-1.4,0.2-2,0.5c-0.5,0.4-1,0.8-1.3,1.4c-0.3,0.6-0.6,1.2-0.7,1.9c-0.1,0.7-0.2,1.4-0.2,2
			c0,0.6,0.1,1.3,0.2,2c0.1,0.7,0.4,1.3,0.7,1.8c0.3,0.5,0.7,1,1.3,1.3c0.5,0.3,1.2,0.5,2,0.5c1.2,0,2.1-0.3,2.7-1
			c0.6-0.7,1-1.5,1.2-2.7h4.8c-0.3,2.4-1.3,4.2-2.8,5.5c-1.5,1.3-3.5,1.9-5.9,1.9c-1.3,0-2.6-0.2-3.7-0.7c-1.1-0.5-2.1-1.1-2.9-1.9
			c-0.8-0.8-1.4-1.8-1.8-2.9c-0.4-1.1-0.7-2.4-0.7-3.7c0-1.4,0.2-2.7,0.6-3.9c0.4-1.2,1-2.2,1.8-3.1c0.8-0.9,1.7-1.5,2.9-2
			c1.1-0.5,2.4-0.7,3.9-0.7c1.1,0,2.1,0.1,3.1,0.4c1,0.3,1.9,0.7,2.6,1.3c0.8,0.6,1.4,1.3,1.9,2.1c0.5,0.8,0.8,1.9,0.8,3H219
			C218.6,292,217.4,291,215.3,291z"/>
		<path d="M227.4,290.4c0.5-0.8,1.2-1.4,1.9-1.8c0.8-0.5,1.7-0.8,2.7-1c1-0.2,2-0.3,3-0.3c0.9,0,1.8,0.1,2.7,0.2
			c0.9,0.1,1.8,0.4,2.5,0.7c0.8,0.4,1.4,0.9,1.9,1.5c0.5,0.7,0.7,1.5,0.7,2.6v9.4c0,0.8,0,1.6,0.1,2.3c0.1,0.7,0.3,1.3,0.5,1.7h-5
			c-0.1-0.3-0.2-0.6-0.2-0.9c-0.1-0.3-0.1-0.6-0.1-0.9c-0.8,0.8-1.7,1.4-2.8,1.7c-1.1,0.3-2.2,0.5-3.3,0.5c-0.9,0-1.7-0.1-2.4-0.3
			c-0.7-0.2-1.4-0.5-2-1c-0.6-0.4-1-1-1.3-1.7c-0.3-0.7-0.5-1.5-0.5-2.4c0-1,0.2-1.9,0.5-2.5c0.4-0.7,0.8-1.2,1.4-1.6
			c0.6-0.4,1.2-0.7,2-0.9c0.7-0.2,1.5-0.4,2.2-0.5c0.7-0.1,1.5-0.2,2.2-0.3c0.7-0.1,1.4-0.2,1.9-0.3c0.6-0.1,1-0.3,1.3-0.6
			c0.3-0.3,0.5-0.7,0.5-1.2c0-0.5-0.1-1-0.3-1.3c-0.2-0.3-0.4-0.6-0.7-0.7c-0.3-0.2-0.6-0.3-1-0.3c-0.4-0.1-0.8-0.1-1.2-0.1
			c-1,0-1.7,0.2-2.3,0.6c-0.6,0.4-0.9,1.1-1,2.1h-4.9C226.6,292.1,226.8,291.2,227.4,290.4z M237.1,297.4c-0.3,0.1-0.7,0.2-1,0.3
			c-0.4,0.1-0.7,0.1-1.1,0.2c-0.4,0-0.8,0.1-1.2,0.2c-0.4,0.1-0.7,0.2-1.1,0.3c-0.4,0.1-0.7,0.3-0.9,0.5c-0.3,0.2-0.5,0.4-0.6,0.7
			c-0.2,0.3-0.2,0.7-0.2,1.1c0,0.4,0.1,0.8,0.2,1.1c0.2,0.3,0.4,0.5,0.7,0.7c0.3,0.2,0.6,0.3,1,0.4c0.4,0.1,0.8,0.1,1.1,0.1
			c1,0,1.7-0.2,2.3-0.5c0.5-0.3,0.9-0.7,1.2-1.2c0.3-0.5,0.4-0.9,0.5-1.4c0.1-0.5,0.1-0.8,0.1-1.1v-1.8
			C237.7,297.1,237.4,297.3,237.1,297.4z"/>
		<path d="M251.4,287.8v2.5h0.1c0.6-1,1.4-1.8,2.4-2.3c1-0.5,2-0.7,3.1-0.7c1.3,0,2.4,0.2,3.3,0.5c0.8,0.4,1.5,0.9,2,1.5
			c0.5,0.6,0.8,1.4,1,2.3c0.2,0.9,0.3,1.9,0.3,3v11.1h-4.9v-10.2c0-1.5-0.2-2.6-0.7-3.3c-0.5-0.7-1.3-1.1-2.5-1.1
			c-1.3,0-2.3,0.4-2.9,1.2c-0.6,0.8-0.9,2.1-0.9,4v9.4h-4.9v-18H251.4z"/>
		<path d="M155.5,316.1v12.3h12.9v-12.3h7v32h-7v-13.8h-12.9V348h-7v-32H155.5z"/>
		<path d="M187.8,342.5c1,0.9,2.3,1.4,4.1,1.4c1.3,0,2.4-0.3,3.3-1c0.9-0.6,1.5-1.3,1.7-2h5.6c-0.9,2.8-2.3,4.8-4.1,6
			c-1.9,1.2-4.1,1.8-6.7,1.8c-1.8,0-3.5-0.3-4.9-0.9c-1.5-0.6-2.7-1.4-3.7-2.5c-1-1.1-1.8-2.4-2.3-3.8c-0.6-1.5-0.8-3.1-0.8-4.9
			c0-1.7,0.3-3.3,0.9-4.8c0.6-1.5,1.4-2.8,2.4-3.9c1-1.1,2.3-1.9,3.7-2.6c1.4-0.6,3.1-0.9,4.8-0.9c2,0,3.7,0.4,5.1,1.1
			c1.5,0.8,2.7,1.8,3.6,3.1c0.9,1.3,1.6,2.7,2,4.4c0.4,1.6,0.6,3.4,0.4,5.1h-16.7C186.3,340.1,186.9,341.6,187.8,342.5z M195,330.3
			c-0.8-0.8-1.9-1.3-3.5-1.3c-1,0-1.9,0.2-2.5,0.5c-0.7,0.3-1.2,0.8-1.6,1.3c-0.4,0.5-0.7,1-0.9,1.6c-0.2,0.6-0.3,1.1-0.3,1.5h10.3
			C196.3,332.4,195.8,331.1,195,330.3z"/>
		<path d="M207.6,328.3c0.7-1,1.5-1.8,2.5-2.4c1-0.6,2.2-1,3.4-1.3c1.3-0.3,2.5-0.4,3.8-0.4c1.2,0,2.3,0.1,3.5,0.2
			c1.2,0.2,2.3,0.5,3.3,1c1,0.5,1.8,1.1,2.4,2c0.6,0.9,0.9,2,0.9,3.4v12c0,1,0.1,2,0.2,3c0.1,1,0.3,1.7,0.6,2.1h-6.5
			c-0.1-0.4-0.2-0.7-0.3-1.1c-0.1-0.4-0.1-0.8-0.2-1.1c-1,1-2.2,1.8-3.6,2.2c-1.4,0.4-2.8,0.6-4.2,0.6c-1.1,0-2.1-0.1-3.1-0.4
			c-1-0.3-1.8-0.7-2.5-1.3c-0.7-0.6-1.3-1.3-1.7-2.1c-0.4-0.9-0.6-1.9-0.6-3.1c0-1.3,0.2-2.4,0.7-3.2c0.5-0.9,1.1-1.5,1.8-2
			c0.7-0.5,1.6-0.9,2.5-1.1c0.9-0.3,1.9-0.5,2.8-0.6c1-0.1,1.9-0.3,2.8-0.4c0.9-0.1,1.7-0.2,2.5-0.4c0.7-0.2,1.3-0.4,1.7-0.8
			c0.4-0.3,0.6-0.8,0.6-1.5c0-0.7-0.1-1.2-0.3-1.6c-0.2-0.4-0.5-0.7-0.9-0.9c-0.4-0.2-0.8-0.4-1.3-0.4c-0.5-0.1-1-0.1-1.6-0.1
			c-1.3,0-2.2,0.3-3,0.8c-0.7,0.5-1.1,1.4-1.3,2.7h-6.4C206.5,330.5,206.9,329.3,207.6,328.3z M220.1,337.3
			c-0.4,0.1-0.8,0.2-1.3,0.3c-0.5,0.1-0.9,0.2-1.5,0.2c-0.5,0.1-1,0.1-1.5,0.2c-0.5,0.1-0.9,0.2-1.4,0.4c-0.5,0.2-0.9,0.4-1.2,0.6
			c-0.3,0.3-0.6,0.6-0.8,1c-0.2,0.4-0.3,0.9-0.3,1.5c0,0.6,0.1,1,0.3,1.4s0.5,0.7,0.9,0.9c0.4,0.2,0.8,0.4,1.3,0.5
			c0.5,0.1,1,0.1,1.5,0.1c1.3,0,2.2-0.2,2.9-0.6c0.7-0.4,1.2-0.9,1.5-1.5c0.3-0.6,0.5-1.2,0.6-1.8c0.1-0.6,0.1-1.1,0.1-1.4v-2.4
			C220.9,336.9,220.5,337.1,220.1,337.3z"/>
		<path d="M238.4,324.9v4.3h0.1c0.3-0.7,0.7-1.4,1.2-2c0.5-0.6,1.1-1.1,1.7-1.6c0.7-0.4,1.4-0.8,2.1-1c0.7-0.2,1.5-0.4,2.3-0.4
			c0.4,0,0.9,0.1,1.4,0.2v5.9c-0.3-0.1-0.7-0.1-1.1-0.2c-0.4,0-0.8-0.1-1.2-0.1c-1.2,0-2.1,0.2-3,0.6c-0.8,0.4-1.5,0.9-1.9,1.6
			c-0.5,0.7-0.8,1.5-1,2.4c-0.2,0.9-0.3,1.9-0.3,2.9V348h-6.4v-23.1H238.4z"/>
		<path d="M265,324.9v4.3h-4.7v11.5c0,1.1,0.2,1.8,0.5,2.1c0.4,0.4,1.1,0.5,2.1,0.5c0.4,0,0.7,0,1,0c0.3,0,0.6-0.1,0.9-0.1v4.9
			c-0.5,0.1-1.1,0.2-1.8,0.2c-0.7,0-1.3,0-1.9,0c-1,0-1.9-0.1-2.8-0.2c-0.9-0.1-1.7-0.4-2.3-0.8c-0.7-0.4-1.2-0.9-1.6-1.7
			c-0.4-0.7-0.6-1.7-0.6-2.8v-13.7h-3.9v-4.3h3.9v-6.9h6.4v6.9H265z"/>
		<path d="M85.9,358l9.3,24.9h-5.7l-1.9-5.5h-9.3l-2,5.5h-5.5l9.4-24.9H85.9z M86.2,373.2l-3.1-9.1H83l-3.2,9.1H86.2z"/>
		<path d="M101,378.4c0.2,0.4,0.5,0.7,0.9,0.9c0.3,0.2,0.7,0.4,1.2,0.5c0.5,0.1,0.9,0.2,1.4,0.2c0.3,0,0.7,0,1.1-0.1
			c0.4-0.1,0.7-0.2,1-0.4c0.3-0.2,0.6-0.4,0.8-0.7c0.2-0.3,0.3-0.7,0.3-1.1c0-0.7-0.5-1.3-1.5-1.7c-1-0.4-2.4-0.7-4.1-1.1
			c-0.7-0.2-1.4-0.4-2.1-0.6c-0.7-0.2-1.3-0.5-1.8-0.9c-0.5-0.4-1-0.8-1.3-1.4c-0.3-0.5-0.5-1.2-0.5-2c0-1.2,0.2-2.1,0.7-2.9
			c0.5-0.7,1-1.3,1.8-1.8c0.7-0.4,1.6-0.7,2.5-0.9c0.9-0.2,1.9-0.3,2.9-0.3c1,0,1.9,0.1,2.8,0.3c0.9,0.2,1.7,0.5,2.5,0.9
			c0.7,0.4,1.3,1,1.8,1.8c0.5,0.7,0.8,1.7,0.9,2.8h-4.7c-0.1-1-0.4-1.6-1.1-1.9c-0.7-0.3-1.4-0.5-2.3-0.5c-0.3,0-0.6,0-0.9,0.1
			c-0.3,0-0.6,0.1-0.9,0.2c-0.3,0.1-0.5,0.3-0.7,0.5c-0.2,0.2-0.3,0.5-0.3,0.9c0,0.4,0.2,0.8,0.5,1.1c0.3,0.3,0.7,0.5,1.3,0.7
			c0.5,0.2,1.1,0.3,1.8,0.5c0.7,0.1,1.4,0.3,2.1,0.5c0.7,0.2,1.4,0.4,2.1,0.6c0.7,0.2,1.3,0.5,1.8,0.9c0.5,0.4,1,0.9,1.3,1.4
			c0.3,0.6,0.5,1.3,0.5,2.1c0,1.2-0.2,2.2-0.7,3c-0.5,0.8-1.1,1.4-1.9,1.9c-0.8,0.5-1.6,0.8-2.6,1c-1,0.2-2,0.3-3,0.3
			c-1,0-2.1-0.1-3.1-0.3c-1-0.2-1.9-0.6-2.7-1c-0.8-0.5-1.4-1.1-1.9-1.9c-0.5-0.8-0.8-1.8-0.8-3h4.7
			C100.6,377.5,100.7,378,101,378.4z"/>
		<path d="M119.7,378.4c0.2,0.4,0.5,0.7,0.9,0.9c0.3,0.2,0.8,0.4,1.2,0.5c0.5,0.1,0.9,0.2,1.4,0.2c0.3,0,0.7,0,1.1-0.1
			c0.4-0.1,0.7-0.2,1-0.4c0.3-0.2,0.6-0.4,0.8-0.7c0.2-0.3,0.3-0.7,0.3-1.1c0-0.7-0.5-1.3-1.5-1.7c-1-0.4-2.4-0.7-4.1-1.1
			c-0.7-0.2-1.4-0.4-2.1-0.6c-0.7-0.2-1.3-0.5-1.8-0.9c-0.5-0.4-1-0.8-1.3-1.4c-0.3-0.5-0.5-1.2-0.5-2c0-1.2,0.2-2.1,0.7-2.9
			c0.5-0.7,1-1.3,1.8-1.8c0.7-0.4,1.6-0.7,2.5-0.9c0.9-0.2,1.9-0.3,2.9-0.3c1,0,1.9,0.1,2.8,0.3c0.9,0.2,1.7,0.5,2.5,0.9
			c0.7,0.4,1.3,1,1.8,1.8c0.5,0.7,0.8,1.7,0.9,2.8h-4.7c-0.1-1-0.4-1.6-1.1-1.9c-0.7-0.3-1.4-0.5-2.3-0.5c-0.3,0-0.6,0-0.9,0.1
			c-0.3,0-0.6,0.1-0.9,0.2c-0.3,0.1-0.5,0.3-0.7,0.5c-0.2,0.2-0.3,0.5-0.3,0.9c0,0.4,0.2,0.8,0.5,1.1c0.3,0.3,0.7,0.5,1.3,0.7
			c0.5,0.2,1.1,0.3,1.8,0.5c0.7,0.1,1.4,0.3,2.1,0.5c0.7,0.2,1.4,0.4,2.1,0.6c0.7,0.2,1.3,0.5,1.8,0.9c0.5,0.4,1,0.9,1.3,1.4
			c0.3,0.6,0.5,1.3,0.5,2.1c0,1.2-0.2,2.2-0.7,3c-0.5,0.8-1.1,1.4-1.9,1.9c-0.8,0.5-1.6,0.8-2.6,1c-1,0.2-2,0.3-3,0.3
			c-1,0-2.1-0.1-3.1-0.3c-1-0.2-1.9-0.6-2.7-1c-0.8-0.5-1.4-1.1-1.9-1.9c-0.5-0.8-0.8-1.8-0.8-3h4.7
			C119.3,377.5,119.4,378,119.7,378.4z"/>
		<path d="M134.3,370c0.4-1.2,1.1-2.2,1.9-3c0.8-0.8,1.8-1.5,2.9-1.9c1.1-0.5,2.4-0.7,3.8-0.7c1.4,0,2.7,0.2,3.9,0.7
			c1.1,0.5,2.1,1.1,2.9,1.9c0.8,0.8,1.4,1.8,1.9,3c0.4,1.2,0.7,2.5,0.7,3.9c0,1.4-0.2,2.7-0.7,3.9c-0.4,1.2-1.1,2.2-1.9,3
			c-0.8,0.8-1.8,1.5-2.9,1.9c-1.2,0.4-2.4,0.7-3.9,0.7c-1.4,0-2.7-0.2-3.8-0.7c-1.1-0.4-2.1-1.1-2.9-1.9c-0.8-0.8-1.4-1.8-1.9-3
			c-0.4-1.2-0.7-2.5-0.7-3.9C133.6,372.4,133.9,371.1,134.3,370z M138.8,376c0.1,0.7,0.4,1.3,0.7,1.8c0.3,0.5,0.8,1,1.3,1.3
			c0.6,0.3,1.3,0.5,2.1,0.5c0.8,0,1.5-0.2,2.1-0.5c0.6-0.3,1-0.8,1.4-1.3c0.3-0.5,0.6-1.2,0.7-1.8c0.1-0.7,0.2-1.4,0.2-2.1
			c0-0.7-0.1-1.4-0.2-2.1c-0.1-0.7-0.4-1.3-0.7-1.8c-0.3-0.5-0.8-1-1.4-1.3c-0.6-0.3-1.3-0.5-2.1-0.5c-0.8,0-1.5,0.2-2.1,0.5
			c-0.6,0.3-1,0.8-1.3,1.3c-0.3,0.5-0.6,1.1-0.7,1.8c-0.1,0.7-0.2,1.4-0.2,2.1C138.6,374.6,138.7,375.3,138.8,376z"/>
		<path d="M164.1,368.1c-0.8,0-1.4,0.2-2,0.5c-0.5,0.4-1,0.8-1.3,1.4c-0.3,0.6-0.6,1.2-0.7,1.9c-0.1,0.7-0.2,1.4-0.2,2
			c0,0.7,0.1,1.3,0.2,2c0.1,0.7,0.4,1.3,0.7,1.8c0.3,0.5,0.7,1,1.3,1.3c0.5,0.3,1.2,0.5,2,0.5c1.2,0,2.1-0.3,2.7-1
			c0.6-0.7,1-1.5,1.2-2.7h4.8c-0.3,2.4-1.3,4.2-2.8,5.5c-1.5,1.3-3.5,1.9-5.9,1.9c-1.3,0-2.6-0.2-3.7-0.7c-1.1-0.5-2.1-1.1-2.9-1.9
			c-0.8-0.8-1.4-1.8-1.8-2.9c-0.4-1.1-0.7-2.4-0.7-3.7c0-1.4,0.2-2.7,0.6-3.9c0.4-1.2,1-2.2,1.8-3.1c0.8-0.9,1.7-1.5,2.9-2
			c1.1-0.5,2.4-0.7,3.9-0.7c1.1,0,2.1,0.1,3.1,0.4c1,0.3,1.9,0.7,2.6,1.3c0.8,0.6,1.4,1.3,1.9,2.1c0.5,0.8,0.8,1.9,0.8,3h-4.8
			C167.4,369.1,166.2,368.1,164.1,368.1z"/>
		<path d="M175.6,362.1V358h4.9v4.1H175.6z M180.5,364.8v18h-4.9v-18H180.5z"/>
		<path d="M185.1,367.5c0.5-0.8,1.2-1.4,1.9-1.8c0.8-0.5,1.7-0.8,2.7-1c1-0.2,2-0.3,3-0.3c0.9,0,1.8,0.1,2.7,0.2
			c0.9,0.1,1.8,0.4,2.5,0.8c0.8,0.4,1.4,0.9,1.9,1.5c0.5,0.7,0.7,1.5,0.7,2.6v9.4c0,0.8,0,1.6,0.1,2.3c0.1,0.7,0.3,1.3,0.5,1.7h-5
			c-0.1-0.3-0.2-0.6-0.2-0.9c-0.1-0.3-0.1-0.6-0.1-0.9c-0.8,0.8-1.7,1.4-2.8,1.7c-1.1,0.3-2.2,0.5-3.3,0.5c-0.9,0-1.7-0.1-2.4-0.3
			c-0.7-0.2-1.4-0.5-2-1c-0.6-0.4-1-1-1.3-1.7c-0.3-0.7-0.5-1.5-0.5-2.4c0-1,0.2-1.9,0.5-2.5c0.4-0.7,0.8-1.2,1.4-1.6
			c0.6-0.4,1.2-0.7,2-0.9c0.7-0.2,1.5-0.4,2.2-0.5c0.7-0.1,1.5-0.2,2.2-0.3c0.7-0.1,1.4-0.2,1.9-0.3c0.6-0.1,1-0.3,1.3-0.6
			c0.3-0.3,0.5-0.7,0.5-1.2c0-0.5-0.1-1-0.3-1.3c-0.2-0.3-0.4-0.6-0.7-0.7c-0.3-0.2-0.6-0.3-1-0.3c-0.4-0.1-0.8-0.1-1.2-0.1
			c-1,0-1.7,0.2-2.3,0.6c-0.6,0.4-0.9,1.1-1,2.1h-4.9C184.3,369.2,184.6,368.3,185.1,367.5z M194.9,374.5c-0.3,0.1-0.7,0.2-1,0.3
			c-0.4,0.1-0.7,0.1-1.1,0.2c-0.4,0-0.8,0.1-1.2,0.2c-0.4,0.1-0.7,0.2-1.1,0.3c-0.4,0.1-0.7,0.3-0.9,0.5c-0.3,0.2-0.5,0.4-0.6,0.8
			c-0.2,0.3-0.2,0.7-0.2,1.1c0,0.4,0.1,0.8,0.2,1.1c0.2,0.3,0.4,0.5,0.7,0.7c0.3,0.2,0.6,0.3,1,0.4c0.4,0.1,0.8,0.1,1.1,0.1
			c1,0,1.7-0.2,2.3-0.5c0.5-0.3,0.9-0.7,1.2-1.2c0.3-0.5,0.4-0.9,0.5-1.4c0.1-0.5,0.1-0.8,0.1-1.1V374
			C195.4,374.2,195.2,374.4,194.9,374.5z"/>
		<path d="M214.3,364.8v3.3h-3.6v8.9c0,0.8,0.1,1.4,0.4,1.7c0.3,0.3,0.8,0.4,1.7,0.4c0.3,0,0.5,0,0.8,0c0.3,0,0.5-0.1,0.7-0.1v3.8
			c-0.4,0.1-0.9,0.1-1.4,0.1c-0.5,0-1,0-1.5,0c-0.8,0-1.5-0.1-2.2-0.2c-0.7-0.1-1.3-0.3-1.8-0.6c-0.5-0.3-0.9-0.7-1.2-1.3
			c-0.3-0.6-0.5-1.3-0.5-2.2v-10.6h-3v-3.3h3v-5.4h4.9v5.4H214.3z"/>
		<path d="M216.8,362.1V358h4.9v4.1H216.8z M221.8,364.8v18h-4.9v-18H221.8z"/>
		<path d="M225.8,370c0.4-1.2,1.1-2.2,1.9-3c0.8-0.8,1.8-1.5,2.9-1.9c1.1-0.5,2.4-0.7,3.8-0.7c1.4,0,2.7,0.2,3.9,0.7
			c1.1,0.5,2.1,1.1,2.9,1.9c0.8,0.8,1.4,1.8,1.9,3c0.4,1.2,0.7,2.5,0.7,3.9c0,1.4-0.2,2.7-0.7,3.9c-0.4,1.2-1.1,2.2-1.9,3
			c-0.8,0.8-1.8,1.5-2.9,1.9c-1.2,0.4-2.4,0.7-3.9,0.7c-1.4,0-2.7-0.2-3.8-0.7c-1.1-0.4-2.1-1.1-2.9-1.9c-0.8-0.8-1.4-1.8-1.9-3
			c-0.4-1.2-0.7-2.5-0.7-3.9C225.1,372.4,225.3,371.1,225.8,370z M230.3,376c0.1,0.7,0.4,1.3,0.7,1.8c0.3,0.5,0.8,1,1.3,1.3
			c0.6,0.3,1.3,0.5,2.1,0.5c0.8,0,1.5-0.2,2.1-0.5c0.6-0.3,1-0.8,1.4-1.3c0.3-0.5,0.6-1.2,0.7-1.8c0.1-0.7,0.2-1.4,0.2-2.1
			c0-0.7-0.1-1.4-0.2-2.1c-0.1-0.7-0.4-1.3-0.7-1.8c-0.3-0.5-0.8-1-1.4-1.3c-0.6-0.3-1.3-0.5-2.1-0.5c-0.8,0-1.5,0.2-2.1,0.5
			c-0.6,0.3-1,0.8-1.3,1.3c-0.3,0.5-0.6,1.1-0.7,1.8c-0.1,0.7-0.2,1.4-0.2,2.1C230.1,374.6,230.1,375.3,230.3,376z"/>
		<path d="M251.6,364.8v2.5h0.1c0.6-1,1.4-1.8,2.4-2.3c1-0.5,2-0.7,3.1-0.7c1.3,0,2.4,0.2,3.3,0.5c0.8,0.4,1.5,0.9,2,1.5
			c0.5,0.6,0.8,1.4,1,2.3c0.2,0.9,0.3,1.9,0.3,3v11.1h-4.9v-10.2c0-1.5-0.2-2.6-0.7-3.3c-0.5-0.7-1.3-1.1-2.5-1.1
			c-1.3,0-2.3,0.4-2.9,1.2c-0.6,0.8-0.9,2.1-0.9,4v9.4h-4.9v-18H251.6z"/>
		<g>
			<g>
				<path fill="#ED1C24" d="M299.4,174.1c-3.4,2.1-6.1,7-4.8,12c4.6-6.8,18.7-0.7,23.3-16.3c-3.1,2.5-7.2,3.2-9.2,3
					c7.7-3.2,12-14.4,5.2-22.1c2,9.1-9.5,9.9-18.6,11.6c-17,3.2-19.8,19-12.1,27C282.4,179.7,290,174,299.4,174.1L299.4,174.1z"/>
				<path fill="#ED1C24" d="M295.2,228.6c0.6-7.9,0.8-15.1,2.5-20.4h-14.3c1.7,5.2,1.9,12.4,2.5,20.4c0.7,9.8,2.5,37.9,2.5,37.9h4.4
					C292.8,266.4,294.5,238.4,295.2,228.6L295.2,228.6L295.2,228.6z M269.6,197.6c0,0,1.3,3.1,1.4,6.2h39.3c0-3.1,1.4-6.2,1.4-6.2
					l-18.7,0c2.5-4.2,8.6-11,21.4-11c14,0,29.6,11.3,29.7,31.4c0.1,30-31.3,51.5-53.6,65.5c-22-14-53.5-35.5-53.4-65.5
					c0.1-20.1,15.7-31.4,29.7-31.4c12.8,0,18.9,6.8,21.4,11L269.6,197.6L269.6,197.6L269.6,197.6z"/>
			</g>
			<path fill="#FFFFFF" d="M295.3,228.6c0.6-7.9,0.8-15.2,2.5-20.4h-14.4c1.7,5.2,1.9,12.5,2.5,20.4c0.7,9.8,2.5,37.9,2.5,37.9h4.4
				C292.8,266.6,294.6,238.4,295.3,228.6L295.3,228.6z"/>
			<path fill="#FFFFFF" d="M269.6,197.6c0,0,1.4,3.1,1.4,6.3h39.3c0-3.2,1.4-6.3,1.4-6.3H269.6L269.6,197.6z"/>
		</g>
	</g>
	<g>
		<g>
			<path d="M333,281l9.3,24.9h-5.7l-1.9-5.5h-9.3l-1.9,5.5H318l9.4-24.9H333z M333.3,296.3l-3.1-9.1h-0.1l-3.2,9.1H333.3z"/>
			<path d="M348.7,287.9v2.4h0.1c0.6-0.9,1.4-1.6,2.4-2.2c0.9-0.5,2-0.8,3.2-0.8c1.1,0,2.2,0.2,3.1,0.7c0.9,0.4,1.7,1.2,2.1,2.3
				c0.5-0.8,1.3-1.5,2.2-2.1c0.9-0.6,2-0.9,3.3-0.9c1,0,1.8,0.1,2.6,0.3c0.8,0.2,1.5,0.6,2.1,1.1c0.6,0.5,1,1.2,1.4,2
				c0.3,0.8,0.5,1.8,0.5,3v12h-4.9v-10.2c0-0.6,0-1.2-0.1-1.7c0-0.5-0.2-1-0.4-1.4c-0.2-0.4-0.5-0.7-0.9-0.9c-0.4-0.2-1-0.3-1.7-0.3
				c-0.7,0-1.3,0.1-1.7,0.4c-0.4,0.3-0.8,0.6-1,1c-0.2,0.4-0.4,0.9-0.5,1.5c-0.1,0.5-0.1,1.1-0.1,1.7v10h-4.9v-10.1
				c0-0.5,0-1.1,0-1.6c0-0.5-0.1-1-0.3-1.4c-0.2-0.4-0.5-0.8-0.9-1.1c-0.4-0.3-1-0.4-1.8-0.4c-0.2,0-0.5,0.1-0.9,0.2
				c-0.4,0.1-0.8,0.3-1.1,0.6c-0.4,0.3-0.7,0.7-0.9,1.3c-0.3,0.5-0.4,1.3-0.4,2.1v10.4H344v-18H348.7z"/>
			<path d="M380.7,301.6c0.7,0.7,1.8,1.1,3.2,1.1c1,0,1.9-0.2,2.6-0.7c0.7-0.5,1.2-1,1.3-1.6h4.4c-0.7,2.2-1.8,3.7-3.2,4.6
				c-1.4,0.9-3.2,1.4-5.2,1.4c-1.4,0-2.7-0.2-3.8-0.7c-1.1-0.5-2.1-1.1-2.9-1.9c-0.8-0.8-1.4-1.8-1.8-3c-0.4-1.2-0.6-2.4-0.6-3.8
				c0-1.3,0.2-2.6,0.7-3.8c0.4-1.2,1.1-2.2,1.9-3c0.8-0.8,1.8-1.5,2.9-2c1.1-0.5,2.4-0.7,3.7-0.7c1.5,0,2.9,0.3,4,0.9
				c1.1,0.6,2.1,1.4,2.8,2.4c0.7,1,1.3,2.1,1.6,3.4c0.3,1.3,0.4,2.6,0.3,4h-13C379.6,299.7,380,300.8,380.7,301.6z M386.3,292.1
				c-0.6-0.7-1.5-1-2.7-1c-0.8,0-1.4,0.1-2,0.4c-0.5,0.3-0.9,0.6-1.3,1c-0.3,0.4-0.5,0.8-0.7,1.3c-0.1,0.4-0.2,0.8-0.2,1.2h8
				C387.3,293.7,386.9,292.7,386.3,292.1z"/>
			<path d="M400.1,287.9v3.3h0.1c0.2-0.6,0.5-1.1,0.9-1.5c0.4-0.5,0.9-0.9,1.4-1.2c0.5-0.3,1.1-0.6,1.6-0.8c0.6-0.2,1.2-0.3,1.8-0.3
				c0.3,0,0.7,0.1,1.1,0.2v4.6c-0.2,0-0.5-0.1-0.8-0.1c-0.3,0-0.6-0.1-0.9-0.1c-0.9,0-1.7,0.2-2.3,0.5c-0.6,0.3-1.1,0.7-1.5,1.2
				c-0.4,0.5-0.7,1.1-0.8,1.8c-0.2,0.7-0.2,1.4-0.2,2.3v8.1h-4.9v-18H400.1z"/>
			<path d="M409.1,285.1V281h4.9v4.1H409.1z M414.1,287.9v18h-4.9v-18H414.1z"/>
			<path d="M426.6,291.1c-0.8,0-1.5,0.2-2,0.5c-0.5,0.4-1,0.8-1.3,1.4c-0.3,0.6-0.6,1.2-0.7,1.9c-0.1,0.7-0.2,1.4-0.2,2
				c0,0.7,0.1,1.3,0.2,2c0.1,0.7,0.4,1.3,0.7,1.8c0.3,0.5,0.7,1,1.3,1.3c0.5,0.3,1.2,0.5,2,0.5c1.2,0,2.1-0.3,2.7-1
				c0.6-0.7,1-1.5,1.2-2.7h4.8c-0.3,2.4-1.3,4.2-2.8,5.5c-1.5,1.3-3.5,1.9-5.9,1.9c-1.3,0-2.6-0.2-3.7-0.7c-1.1-0.5-2.1-1.1-2.9-1.9
				c-0.8-0.8-1.4-1.8-1.8-2.9c-0.4-1.1-0.7-2.4-0.7-3.7c0-1.4,0.2-2.7,0.6-3.9c0.4-1.2,1-2.2,1.8-3.1c0.8-0.9,1.8-1.5,2.9-2
				c1.1-0.5,2.4-0.7,3.9-0.7c1.1,0,2.1,0.1,3.1,0.4c1,0.3,1.9,0.7,2.6,1.3c0.8,0.6,1.4,1.3,1.9,2.1c0.5,0.8,0.8,1.9,0.8,3h-4.8
				C429.9,292.1,428.7,291.1,426.6,291.1z"/>
			<path d="M438.6,290.5c0.5-0.8,1.2-1.4,2-1.8c0.8-0.5,1.7-0.8,2.7-1c1-0.2,2-0.3,3-0.3c0.9,0,1.8,0.1,2.7,0.2
				c0.9,0.1,1.8,0.4,2.5,0.8c0.8,0.4,1.4,0.9,1.9,1.5c0.5,0.7,0.7,1.5,0.7,2.6v9.4c0,0.8,0,1.6,0.1,2.3c0.1,0.7,0.3,1.3,0.5,1.7h-5
				c-0.1-0.3-0.2-0.6-0.2-0.9c-0.1-0.3-0.1-0.6-0.1-0.9c-0.8,0.8-1.7,1.4-2.8,1.7c-1.1,0.3-2.2,0.5-3.3,0.5c-0.9,0-1.7-0.1-2.4-0.3
				c-0.7-0.2-1.4-0.5-1.9-1c-0.6-0.4-1-1-1.3-1.7c-0.3-0.7-0.5-1.5-0.5-2.4c0-1,0.2-1.9,0.5-2.5c0.4-0.7,0.8-1.2,1.4-1.6
				c0.6-0.4,1.2-0.7,1.9-0.9c0.7-0.2,1.5-0.4,2.2-0.5c0.7-0.1,1.5-0.2,2.2-0.3c0.7-0.1,1.4-0.2,1.9-0.3c0.6-0.1,1-0.3,1.3-0.6
				c0.3-0.3,0.5-0.7,0.5-1.2c0-0.5-0.1-1-0.3-1.3c-0.2-0.3-0.4-0.6-0.7-0.7c-0.3-0.2-0.6-0.3-1-0.3c-0.4-0.1-0.8-0.1-1.2-0.1
				c-1,0-1.7,0.2-2.3,0.6c-0.6,0.4-0.9,1.1-1,2.1h-4.9C437.8,292.2,438.1,291.3,438.6,290.5z M448.4,297.5c-0.3,0.1-0.7,0.2-1,0.3
				c-0.4,0.1-0.7,0.1-1.1,0.2c-0.4,0-0.8,0.1-1.2,0.2c-0.4,0.1-0.7,0.2-1.1,0.3c-0.4,0.1-0.7,0.3-0.9,0.5c-0.3,0.2-0.5,0.4-0.6,0.8
				c-0.2,0.3-0.2,0.7-0.2,1.1c0,0.4,0.1,0.8,0.2,1.1c0.2,0.3,0.4,0.5,0.7,0.7c0.3,0.2,0.6,0.3,1,0.4c0.4,0.1,0.8,0.1,1.1,0.1
				c1,0,1.7-0.2,2.3-0.5c0.5-0.3,0.9-0.7,1.2-1.2c0.3-0.5,0.4-0.9,0.5-1.4c0.1-0.5,0.1-0.8,0.1-1.1v-1.8
				C449,297.2,448.7,297.4,448.4,297.5z"/>
			<path d="M462.6,287.9v2.5h0.1c0.6-1,1.4-1.8,2.4-2.3c1-0.5,2-0.7,3.1-0.7c1.3,0,2.4,0.2,3.3,0.5c0.9,0.4,1.5,0.9,2,1.5
				c0.5,0.6,0.8,1.4,1,2.3c0.2,0.9,0.3,1.9,0.3,3v11.1h-4.9v-10.2c0-1.5-0.2-2.6-0.7-3.3c-0.5-0.7-1.3-1.1-2.5-1.1
				c-1.3,0-2.3,0.4-2.9,1.2c-0.6,0.8-0.9,2.1-0.9,4v9.4h-4.9v-18H462.6z"/>
		</g>
		<path d="M326.6,340.3c0.4,0.7,0.9,1.4,1.5,1.8c0.6,0.5,1.4,0.8,2.3,1c0.9,0.2,1.8,0.3,2.7,0.3c0.6,0,1.3-0.1,2-0.2
			c0.7-0.1,1.4-0.3,2-0.6c0.6-0.3,1.1-0.7,1.6-1.2c0.4-0.5,0.6-1.2,0.6-2c0-0.9-0.3-1.6-0.8-2.1c-0.6-0.5-1.3-1-2.2-1.3
			c-0.9-0.4-1.9-0.7-3-0.9c-1.1-0.3-2.3-0.6-3.4-0.9c-1.2-0.3-2.4-0.7-3.5-1.1c-1.1-0.4-2.1-1-3-1.7c-0.9-0.7-1.6-1.5-2.2-2.6
			c-0.6-1-0.8-2.3-0.8-3.7c0-1.6,0.4-3.1,1.1-4.3c0.7-1.2,1.6-2.2,2.8-3c1.1-0.8,2.4-1.4,3.8-1.8c1.4-0.4,2.9-0.6,4.3-0.6
			c1.7,0,3.3,0.2,4.8,0.6c1.5,0.4,2.9,1,4.1,1.8c1.2,0.8,2.1,1.9,2.8,3.2c0.7,1.3,1.1,2.9,1.1,4.7h-6.8c-0.1-1-0.3-1.7-0.6-2.4
			c-0.3-0.6-0.8-1.1-1.4-1.5c-0.6-0.4-1.2-0.6-1.9-0.8c-0.7-0.1-1.5-0.2-2.4-0.2c-0.6,0-1.1,0.1-1.7,0.2c-0.6,0.1-1.1,0.3-1.5,0.6
			c-0.5,0.3-0.8,0.7-1.1,1.1c-0.3,0.4-0.4,1-0.4,1.7c0,0.6,0.1,1.1,0.4,1.5c0.2,0.4,0.7,0.7,1.4,1.1c0.7,0.3,1.7,0.7,2.9,1
			c1.2,0.3,2.9,0.7,4.9,1.3c0.6,0.1,1.4,0.3,2.5,0.6c1.1,0.3,2.1,0.8,3.2,1.5c1,0.7,1.9,1.6,2.7,2.8c0.8,1.1,1.1,2.6,1.1,4.4
			c0,1.5-0.3,2.8-0.9,4.1c-0.6,1.3-1.4,2.3-2.5,3.2c-1.1,0.9-2.5,1.6-4.2,2.1c-1.7,0.5-3.6,0.8-5.8,0.8c-1.8,0-3.5-0.2-5.1-0.6
			c-1.7-0.4-3.1-1.1-4.4-2c-1.3-0.9-2.3-2.1-3-3.5c-0.7-1.4-1.1-3.1-1.1-5.1h6.8C326.1,338.6,326.2,339.5,326.6,340.3z"/>
		<path d="M362.4,325v4.3h-4.7v11.5c0,1.1,0.2,1.8,0.5,2.1c0.4,0.4,1.1,0.5,2.1,0.5c0.4,0,0.7,0,1,0c0.3,0,0.6-0.1,0.9-0.1v4.9
			c-0.5,0.1-1.1,0.1-1.8,0.2c-0.7,0-1.3,0-1.9,0c-1,0-1.9-0.1-2.8-0.2c-0.9-0.1-1.7-0.4-2.3-0.8c-0.7-0.4-1.2-0.9-1.6-1.7
			c-0.4-0.7-0.6-1.7-0.6-2.8v-13.7h-3.8V325h3.8v-6.9h6.4v6.9H362.4z"/>
		<path d="M371.4,325v4.3h0.1c0.3-0.7,0.7-1.4,1.2-2c0.5-0.6,1.1-1.1,1.7-1.6c0.7-0.4,1.4-0.8,2.1-1c0.7-0.2,1.5-0.4,2.3-0.4
			c0.4,0,0.9,0.1,1.4,0.2v5.9c-0.3-0.1-0.7-0.1-1.1-0.2c-0.4,0-0.8-0.1-1.2-0.1c-1.2,0-2.1,0.2-3,0.6c-0.8,0.4-1.5,0.9-1.9,1.6
			c-0.5,0.7-0.8,1.5-1.1,2.3c-0.2,0.9-0.3,1.9-0.3,2.9v10.4h-6.4V325H371.4z"/>
		<path d="M382.2,331.6c0.6-1.5,1.4-2.8,2.4-3.8c1-1.1,2.3-1.9,3.8-2.5c1.5-0.6,3.1-0.9,4.9-0.9c1.8,0,3.5,0.3,4.9,0.9
			c1.5,0.6,2.7,1.4,3.8,2.5c1,1.1,1.9,2.3,2.4,3.8c0.6,1.5,0.9,3.2,0.9,5c0,1.9-0.3,3.5-0.9,5c-0.6,1.5-1.4,2.8-2.4,3.8
			c-1,1.1-2.3,1.9-3.8,2.4c-1.5,0.6-3.1,0.9-4.9,0.9c-1.8,0-3.5-0.3-4.9-0.9c-1.5-0.6-2.7-1.4-3.8-2.4c-1-1.1-1.9-2.3-2.4-3.8
			c-0.6-1.5-0.9-3.2-0.9-5C381.3,334.7,381.6,333.1,382.2,331.6z M388,339.3c0.2,0.9,0.5,1.7,0.9,2.4c0.4,0.7,1,1.3,1.7,1.7
			s1.6,0.6,2.7,0.6c1.1,0,2-0.2,2.7-0.6c0.7-0.4,1.3-1,1.7-1.7c0.4-0.7,0.7-1.5,0.9-2.4c0.2-0.9,0.3-1.8,0.3-2.7
			c0-0.9-0.1-1.8-0.3-2.7c-0.2-0.9-0.5-1.7-0.9-2.4c-0.4-0.7-1-1.2-1.7-1.7c-0.7-0.4-1.6-0.6-2.7-0.6c-1.1,0-2,0.2-2.7,0.6
			c-0.7,0.4-1.3,1-1.7,1.7c-0.4,0.7-0.7,1.5-0.9,2.4c-0.2,0.9-0.3,1.8-0.3,2.7C387.7,337.5,387.8,338.4,388,339.3z"/>
		<path d="M416.3,316.2v17.1l8-8.3h7.5l-8.7,8.5l9.7,14.6h-7.7l-6.4-10.3l-2.5,2.4v8H410v-32H416.3z"/>
		<path d="M440.3,342.6c1,0.9,2.3,1.4,4.1,1.4c1.3,0,2.4-0.3,3.3-1c0.9-0.6,1.5-1.3,1.7-2h5.6c-0.9,2.8-2.3,4.8-4.1,6
			c-1.9,1.2-4.1,1.8-6.7,1.8c-1.8,0-3.5-0.3-4.9-0.9c-1.5-0.6-2.7-1.4-3.7-2.5c-1-1.1-1.8-2.4-2.4-3.8c-0.6-1.5-0.8-3.1-0.8-4.9
			c0-1.7,0.3-3.3,0.9-4.8c0.6-1.5,1.4-2.8,2.4-3.9c1-1.1,2.3-1.9,3.7-2.6c1.4-0.6,3.1-0.9,4.8-0.9c2,0,3.7,0.4,5.1,1.1
			c1.5,0.8,2.7,1.8,3.6,3.1c0.9,1.3,1.6,2.7,2,4.4c0.4,1.6,0.6,3.4,0.4,5.1h-16.7C438.8,340.2,439.4,341.7,440.3,342.6z
			 M447.5,330.4c-0.8-0.8-1.9-1.3-3.5-1.3c-1,0-1.9,0.2-2.5,0.5c-0.7,0.3-1.2,0.8-1.6,1.3s-0.7,1-0.9,1.6c-0.2,0.6-0.3,1.1-0.3,1.5
			h10.3C448.8,332.5,448.3,331.3,447.5,330.4z"/>
		<path d="M333,358.1l9.3,24.9h-5.7l-1.9-5.5h-9.3l-1.9,5.5H318l9.4-24.9H333z M333.3,373.4l-3.1-9.1h-0.1l-3.2,9.1H333.3z"/>
		<path d="M348.1,378.5c0.2,0.4,0.5,0.7,0.9,0.9c0.3,0.2,0.8,0.4,1.2,0.5c0.5,0.1,0.9,0.2,1.4,0.2c0.3,0,0.7,0,1.1-0.1
			c0.4-0.1,0.7-0.2,1-0.4s0.6-0.4,0.8-0.7c0.2-0.3,0.3-0.7,0.3-1.1c0-0.7-0.5-1.3-1.5-1.7c-1-0.4-2.4-0.7-4.1-1.1
			c-0.7-0.2-1.4-0.4-2.1-0.6c-0.7-0.2-1.3-0.5-1.8-0.9c-0.5-0.4-1-0.8-1.3-1.4c-0.3-0.5-0.5-1.2-0.5-2c0-1.2,0.2-2.1,0.7-2.9
			c0.5-0.7,1-1.3,1.8-1.8c0.7-0.4,1.6-0.7,2.5-0.9c0.9-0.2,1.9-0.3,2.9-0.3s1.9,0.1,2.8,0.3c0.9,0.2,1.7,0.5,2.5,0.9
			c0.7,0.4,1.3,1,1.8,1.8c0.5,0.7,0.8,1.7,0.9,2.8h-4.7c-0.1-1-0.4-1.6-1.1-1.9c-0.6-0.3-1.4-0.5-2.3-0.5c-0.3,0-0.6,0-0.9,0.1
			c-0.3,0-0.6,0.1-0.9,0.2c-0.3,0.1-0.5,0.3-0.7,0.5c-0.2,0.2-0.3,0.5-0.3,0.9c0,0.4,0.2,0.8,0.5,1.1c0.3,0.3,0.8,0.5,1.3,0.7
			c0.5,0.2,1.1,0.3,1.8,0.5c0.7,0.1,1.4,0.3,2.1,0.5c0.7,0.2,1.4,0.4,2.1,0.6c0.7,0.2,1.3,0.5,1.8,0.9c0.5,0.4,1,0.9,1.3,1.4
			c0.3,0.6,0.5,1.3,0.5,2.1c0,1.2-0.2,2.2-0.7,3c-0.5,0.8-1.1,1.4-1.9,1.9c-0.8,0.5-1.6,0.8-2.6,1c-1,0.2-2,0.3-3,0.3
			c-1,0-2.1-0.1-3.1-0.3c-1-0.2-1.9-0.6-2.7-1c-0.8-0.5-1.4-1.1-1.9-1.9c-0.5-0.8-0.8-1.8-0.8-3h4.7
			C347.7,377.7,347.8,378.1,348.1,378.5z"/>
		<path d="M366.8,378.5c0.2,0.4,0.5,0.7,0.9,0.9c0.3,0.2,0.7,0.4,1.2,0.5c0.5,0.1,0.9,0.2,1.4,0.2c0.3,0,0.7,0,1.1-0.1
			c0.4-0.1,0.7-0.2,1-0.4c0.3-0.2,0.6-0.4,0.8-0.7c0.2-0.3,0.3-0.7,0.3-1.1c0-0.7-0.5-1.3-1.5-1.7c-1-0.4-2.4-0.7-4.1-1.1
			c-0.7-0.2-1.4-0.4-2.1-0.6c-0.7-0.2-1.3-0.5-1.8-0.9c-0.5-0.4-1-0.8-1.3-1.4c-0.3-0.5-0.5-1.2-0.5-2c0-1.2,0.2-2.1,0.7-2.9
			c0.5-0.7,1-1.3,1.8-1.8c0.7-0.4,1.6-0.7,2.5-0.9c0.9-0.2,1.9-0.3,2.9-0.3c1,0,1.9,0.1,2.8,0.3c0.9,0.2,1.7,0.5,2.5,0.9
			c0.7,0.4,1.3,1,1.8,1.8c0.5,0.7,0.8,1.7,0.9,2.8h-4.7c-0.1-1-0.4-1.6-1.1-1.9c-0.6-0.3-1.4-0.5-2.3-0.5c-0.3,0-0.6,0-0.9,0.1
			c-0.3,0-0.6,0.1-0.9,0.2c-0.3,0.1-0.5,0.3-0.7,0.5c-0.2,0.2-0.3,0.5-0.3,0.9c0,0.4,0.2,0.8,0.5,1.1c0.3,0.3,0.8,0.5,1.3,0.7
			c0.5,0.2,1.1,0.3,1.8,0.5c0.7,0.1,1.4,0.3,2.1,0.5c0.7,0.2,1.4,0.4,2.1,0.6c0.7,0.2,1.3,0.5,1.8,0.9c0.5,0.4,1,0.9,1.3,1.4
			c0.3,0.6,0.5,1.3,0.5,2.1c0,1.2-0.2,2.2-0.7,3c-0.5,0.8-1.1,1.4-1.9,1.9c-0.8,0.5-1.6,0.8-2.6,1c-1,0.2-2,0.3-3,0.3
			c-1,0-2.1-0.1-3.1-0.3c-1-0.2-1.9-0.6-2.7-1c-0.8-0.5-1.4-1.1-1.9-1.9c-0.5-0.8-0.8-1.8-0.8-3h4.7
			C366.4,377.7,366.5,378.1,366.8,378.5z"/>
		<path d="M381.4,370.1c0.4-1.2,1.1-2.2,1.9-3c0.8-0.8,1.8-1.5,2.9-1.9c1.1-0.5,2.4-0.7,3.8-0.7c1.4,0,2.7,0.2,3.8,0.7
			c1.1,0.5,2.1,1.1,2.9,1.9c0.8,0.8,1.4,1.8,1.9,3c0.4,1.2,0.7,2.5,0.7,3.9c0,1.4-0.2,2.7-0.7,3.9c-0.4,1.2-1.1,2.2-1.9,3
			c-0.8,0.8-1.8,1.5-2.9,1.9c-1.2,0.4-2.4,0.7-3.8,0.7c-1.4,0-2.7-0.2-3.8-0.7c-1.1-0.4-2.1-1.1-2.9-1.9c-0.8-0.8-1.4-1.8-1.9-3
			c-0.4-1.2-0.7-2.5-0.7-3.9C380.7,372.5,381,371.2,381.4,370.1z M385.9,376.1c0.1,0.7,0.4,1.3,0.7,1.8c0.3,0.5,0.8,1,1.3,1.3
			c0.6,0.3,1.3,0.5,2.1,0.5c0.8,0,1.5-0.2,2.1-0.5c0.6-0.3,1-0.8,1.4-1.3c0.3-0.5,0.6-1.2,0.7-1.8c0.1-0.7,0.2-1.4,0.2-2.1
			c0-0.7-0.1-1.4-0.2-2.1c-0.1-0.7-0.4-1.3-0.7-1.8c-0.3-0.5-0.8-1-1.4-1.3c-0.6-0.3-1.3-0.5-2.1-0.5c-0.8,0-1.5,0.2-2.1,0.5
			c-0.6,0.3-1,0.8-1.3,1.3c-0.3,0.5-0.6,1.1-0.7,1.8c-0.1,0.7-0.2,1.4-0.2,2.1C385.7,374.7,385.8,375.4,385.9,376.1z"/>
		<path d="M411.2,368.2c-0.8,0-1.5,0.2-2,0.5c-0.5,0.4-1,0.8-1.3,1.4c-0.3,0.6-0.6,1.2-0.7,1.9c-0.1,0.7-0.2,1.4-0.2,2
			c0,0.7,0.1,1.3,0.2,2c0.1,0.7,0.4,1.3,0.7,1.8c0.3,0.5,0.7,1,1.3,1.3c0.5,0.3,1.2,0.5,1.9,0.5c1.2,0,2.1-0.3,2.7-1
			c0.6-0.7,1-1.5,1.2-2.7h4.8c-0.3,2.4-1.3,4.2-2.8,5.5c-1.5,1.3-3.5,1.9-5.9,1.9c-1.3,0-2.6-0.2-3.7-0.7c-1.1-0.5-2.1-1.1-2.9-1.9
			c-0.8-0.8-1.4-1.8-1.8-2.9c-0.4-1.1-0.7-2.4-0.7-3.7c0-1.4,0.2-2.7,0.6-3.9c0.4-1.2,1-2.2,1.8-3.1c0.8-0.9,1.8-1.5,2.9-2
			c1.1-0.5,2.4-0.7,3.9-0.7c1.1,0,2.1,0.1,3.1,0.4c1,0.3,1.9,0.7,2.6,1.3c0.8,0.6,1.4,1.3,1.9,2.1c0.5,0.8,0.8,1.9,0.8,3h-4.8
			C414.5,369.2,413.3,368.2,411.2,368.2z"/>
		<path d="M422.7,362.2v-4.1h4.9v4.1H422.7z M427.6,365v18h-4.9v-18H427.6z"/>
		<path d="M432.2,367.6c0.5-0.8,1.2-1.4,2-1.8c0.8-0.5,1.7-0.8,2.7-1c1-0.2,2-0.3,3-0.3c0.9,0,1.8,0.1,2.7,0.2
			c0.9,0.1,1.8,0.4,2.5,0.8c0.8,0.4,1.4,0.9,1.9,1.5c0.5,0.7,0.7,1.5,0.7,2.6v9.4c0,0.8,0,1.6,0.1,2.3c0.1,0.7,0.3,1.3,0.5,1.7h-5
			c-0.1-0.3-0.2-0.6-0.2-0.9c-0.1-0.3-0.1-0.6-0.1-0.9c-0.8,0.8-1.7,1.4-2.8,1.7c-1.1,0.3-2.2,0.5-3.3,0.5c-0.9,0-1.7-0.1-2.4-0.3
			c-0.7-0.2-1.4-0.5-1.9-1c-0.6-0.4-1-1-1.3-1.7c-0.3-0.7-0.5-1.5-0.5-2.4c0-1,0.2-1.9,0.5-2.5c0.4-0.7,0.8-1.2,1.4-1.6
			c0.6-0.4,1.2-0.7,1.9-0.9c0.7-0.2,1.5-0.4,2.2-0.5c0.7-0.1,1.5-0.2,2.2-0.3c0.7-0.1,1.4-0.2,1.9-0.3c0.6-0.1,1-0.3,1.3-0.6
			c0.3-0.3,0.5-0.7,0.5-1.2c0-0.5-0.1-1-0.3-1.3c-0.2-0.3-0.4-0.6-0.7-0.7c-0.3-0.2-0.6-0.3-1-0.3c-0.4-0.1-0.8-0.1-1.2-0.1
			c-1,0-1.7,0.2-2.3,0.6c-0.6,0.4-0.9,1.1-1,2.1h-4.9C431.4,369.3,431.7,368.4,432.2,367.6z M442,374.6c-0.3,0.1-0.7,0.2-1,0.3
			c-0.4,0.1-0.7,0.1-1.1,0.2c-0.4,0-0.8,0.1-1.2,0.2c-0.4,0.1-0.7,0.2-1.1,0.3c-0.4,0.1-0.7,0.3-0.9,0.5c-0.3,0.2-0.5,0.4-0.6,0.8
			c-0.2,0.3-0.2,0.7-0.2,1.1c0,0.4,0.1,0.8,0.2,1.1c0.2,0.3,0.4,0.5,0.7,0.7c0.3,0.2,0.6,0.3,1,0.4c0.4,0.1,0.8,0.1,1.1,0.1
			c1,0,1.7-0.2,2.3-0.5c0.5-0.3,0.9-0.7,1.2-1.2c0.3-0.5,0.4-0.9,0.5-1.4c0.1-0.5,0.1-0.8,0.1-1.1v-1.8
			C442.5,374.3,442.3,374.5,442,374.6z"/>
		<path d="M461.4,365v3.3h-3.6v8.9c0,0.8,0.1,1.4,0.4,1.7c0.3,0.3,0.8,0.4,1.7,0.4c0.3,0,0.5,0,0.8,0c0.3,0,0.5-0.1,0.7-0.1v3.8
			c-0.4,0.1-0.9,0.1-1.4,0.1c-0.5,0-1,0-1.5,0c-0.8,0-1.5-0.1-2.2-0.2c-0.7-0.1-1.3-0.3-1.8-0.6c-0.5-0.3-0.9-0.7-1.2-1.3
			c-0.3-0.6-0.5-1.3-0.5-2.2v-10.6h-3V365h3v-5.4h4.9v5.4H461.4z"/>
		<path d="M463.9,362.2v-4.1h4.9v4.1H463.9z M468.9,365v18h-4.9v-18H468.9z"/>
		<path d="M472.9,370.1c0.4-1.2,1.1-2.2,1.9-3c0.8-0.8,1.8-1.5,2.9-1.9c1.1-0.5,2.4-0.7,3.8-0.7c1.4,0,2.7,0.2,3.8,0.7
			c1.1,0.5,2.1,1.1,2.9,1.9c0.8,0.8,1.4,1.8,1.9,3c0.4,1.2,0.7,2.5,0.7,3.9c0,1.4-0.2,2.7-0.7,3.9c-0.4,1.2-1.1,2.2-1.9,3
			c-0.8,0.8-1.8,1.5-2.9,1.9c-1.2,0.4-2.4,0.7-3.8,0.7c-1.4,0-2.7-0.2-3.8-0.7c-1.1-0.4-2.1-1.1-2.9-1.9c-0.8-0.8-1.4-1.8-1.9-3
			c-0.4-1.2-0.7-2.5-0.7-3.9C472.2,372.5,472.4,371.2,472.9,370.1z M477.4,376.1c0.1,0.7,0.4,1.3,0.7,1.8c0.3,0.5,0.8,1,1.3,1.3
			c0.6,0.3,1.3,0.5,2.1,0.5c0.8,0,1.5-0.2,2.1-0.5c0.6-0.3,1-0.8,1.4-1.3c0.3-0.5,0.6-1.2,0.7-1.8c0.1-0.7,0.2-1.4,0.2-2.1
			c0-0.7-0.1-1.4-0.2-2.1c-0.1-0.7-0.4-1.3-0.7-1.8c-0.3-0.5-0.8-1-1.4-1.3c-0.6-0.3-1.3-0.5-2.1-0.5c-0.8,0-1.5,0.2-2.1,0.5
			c-0.6,0.3-1,0.8-1.3,1.3c-0.3,0.5-0.6,1.1-0.7,1.8c-0.1,0.7-0.2,1.4-0.2,2.1C477.2,374.7,477.2,375.4,477.4,376.1z"/>
		<path d="M498.7,365v2.5h0.1c0.6-1,1.4-1.8,2.4-2.3c1-0.5,2-0.7,3.1-0.7c1.3,0,2.4,0.2,3.3,0.5c0.9,0.4,1.5,0.9,2,1.5
			c0.5,0.6,0.8,1.4,1,2.3c0.2,0.9,0.3,1.9,0.3,3V383H506v-10.2c0-1.5-0.2-2.6-0.7-3.3c-0.5-0.7-1.3-1.1-2.5-1.1
			c-1.3,0-2.3,0.4-2.9,1.2c-0.6,0.8-0.9,2.1-0.9,4v9.4H494v-18H498.7z"/>
	</g>
	<line fill="none" stroke="#000000" stroke-width="0.75" x1="291" y1="308.3" x2="291" y2="383.1"/>
	<g>
		<path d="M523.7,383c-3.2,0-5.5-2.4-5.5-5.6c0-3.4,2.5-5.6,5.5-5.6c2.9,0,5.5,2.2,5.5,5.6C529.1,380.8,526.6,383,523.7,383z
			 M523.7,372.8c-2.4,0-4.3,1.9-4.3,4.6c0,2.5,1.6,4.6,4.3,4.6c2.4,0,4.3-1.9,4.3-4.6C527.9,374.7,526.1,372.8,523.7,372.8z
			 M522.6,380.6h-1v-6.2h2.3c1.5,0,2.3,0.5,2.3,1.8c0,1.1-0.7,1.6-1.6,1.7l1.7,2.7h-1.1l-1.6-2.6h-1V380.6z M523.7,377.1
			c0.8,0,1.4-0.1,1.4-1c0-0.7-0.7-0.8-1.3-0.8h-1.2v1.8H523.7z"/>
	</g>
	<g>
		<g>
			<path fill="#ED1C24" d="M204.4,412.1h4.7v29.4h-4.7V412.1z"/>
			<path fill="#ED1C24" d="M214.3,412.1h4.7v4.4h-4.7V412.1z M214.3,420.2h4.7v21.3h-4.7V420.2z"/>
			<path fill="#ED1C24" d="M221.9,420.2h3.5v-1.8c0-5.4,2.8-6.3,5.9-6.3c1.5,0,2.6,0.1,3.3,0.3v3.7c-0.6-0.2-1.2-0.2-2.2-0.2
				c-1.3,0-2.3,0.5-2.3,2.2v2.2h4v3.5h-4v17.8h-4.7v-17.8h-3.5V420.2z"/>
			<path fill="#ED1C24" d="M240.6,432c0,3.3,1.8,6.3,5.7,6.3c2.7,0,4.4-1.2,5.2-3.5h4.4c-1,4.6-5,7.2-9.6,7.2
				c-6.7,0-10.4-4.6-10.4-11.2c0-6,3.9-11.2,10.3-11.2c6.7,0,10.8,6,10,12.4H240.6z M251.6,429c-0.2-3-2.2-5.6-5.3-5.6
				c-3.2,0-5.5,2.5-5.6,5.6H251.6z"/>
			<path d="M271.3,412.1h2.6v4.2h-2.6V412.1z M271.3,420.2h2.6v21.2h-2.6V420.2z"/>
			<path d="M291.6,426.5c-0.1-3.2-2.6-4.6-5.5-4.6c-2.3,0-5,0.9-5,3.7c0,2.3,2.6,3.1,4.4,3.6l3.5,0.8c3,0.5,6,2.2,6,5.9
				c0,4.6-4.6,6.4-8.5,6.4c-4.9,0-8.3-2.3-8.7-7.5h2.6c0.2,3.5,2.8,5.3,6.2,5.3c2.4,0,5.8-1.1,5.8-4c0-2.5-2.3-3.3-4.6-3.9l-3.3-0.7
				c-3.4-0.9-5.9-2.1-5.9-5.7c0-4.3,4.2-6,8-6c4.2,0,7.6,2.2,7.8,6.8H291.6z"/>
			<path d="M307.9,420.2h2.8l5.4,18.2h0.1l5.2-18.2h2.9l5.2,18.2h0.1l5.4-18.2h2.8l-6.8,21.2h-2.8l-5.2-17.8h-0.1l-5.2,17.8h-2.8
				L307.9,420.2z"/>
			<path d="M340.5,412.1h2.6v11.8h0.1c0.9-2.5,3.8-4.3,6.8-4.3c6,0,7.8,3.1,7.8,8.2v13.7h-2.6v-13.2c0-3.7-1.2-6.4-5.4-6.4
				c-4.1,0-6.6,3.1-6.7,7.3v12.4h-2.6V412.1z"/>
			<path d="M360.2,420.2h2.8l7,18.1l6.5-18.1h2.6l-9.2,24.5c-1.5,3.6-2.3,4.6-5.6,4.6c-1,0-1.6,0-2-0.2v-2.2
				c0.6,0.1,1.2,0.2,1.8,0.2c2.3,0,2.8-1.4,3.7-3.3l0.9-2.4L360.2,420.2z"/>
		</g>
	</g>
	<g>
		<path d="M385.1,420.9h-1.6v4.5h-0.9v-4.5H381v-0.7h4.1V420.9z M391.9,425.4H391v-4.3h0l-1.7,4.3h-0.5l-1.7-4.3h0v4.3h-0.9v-5.2
			h1.3l1.5,3.9l1.5-3.9h1.3V425.4z"/>
	</g>
</g>
</svg>
