<?xml version="1.0" encoding="utf-8"?>
<!-- Generator: Adobe Illustrator 16.0.4, SVG Export Plug-In . SVG Version: 6.00 Build 0)  -->
<!DOCTYPE svg PUBLIC "-//W3C//DTD SVG 1.1//EN" "http://www.w3.org/Graphics/SVG/1.1/DTD/svg11.dtd">
<svg version="1.1" id="Layer_1" xmlns="http://www.w3.org/2000/svg" xmlns:xlink="http://www.w3.org/1999/xlink" x="0px" y="0px"
	 width="309.061px" height="103.746px" viewBox="0 0 309.061 103.746" enable-background="new 0 0 309.061 103.746"
	 xml:space="preserve">
<g>
	<g>
		<path d="M99.074,51.209c0,2.965,0,4.924,2.021,7.768c-1.137,0.25-2.336,0.379-3.539,0.379c-1.132,0-2.269-0.129-3.407-0.316
			c1.199-2.023,2.275-4.17,2.275-8.653v-24.76c-0.067-0.888-0.067-1.769-0.067-2.714c-0.125-2.717-2.021-4.739-5.874-7.33
			c2.463-1.386,5.307-1.386,5.434-1.386c1.517,0,2.02,0.507,3.223,1.701l27.979,29.311c2.082,2.082,3.157,3.092,3.913,3.092
			c1.076,0,1.076-0.883,1.076-2.904V22.344c-0.06-2.528-0.252-4.803-2.339-6.697c0.695-0.568,2.087-1.45,3.791-1.45
			c1.388,0,2.719,0.507,3.662,1.321c-2.464,2.531-2.464,4.61-2.464,9.917v31.015c0,1.703-0.062,3.219-0.822,3.219
			c-0.189,0-0.505-0.188-0.505-0.312l-32.212-33.477c0,0-0.944-1.201-1.514-1.201c-0.631,0-0.631,0.692-0.631,2.087V51.209z"/>
		<path d="M140.515,33.332c-0.062-1.895-0.062-3.224-1.26-5.303c0.315-0.253,1.704-1.203,4.104-1.203
			c1.388,0,2.649,0.316,3.851,1.139c-0.885,1.137-1.451,1.958-1.517,3.663v20.524c0,1.451,0.127,4.484,1.455,6.758
			c-1.455,0.379-2.908,0.508-4.293,0.508c-1.204,0-2.34-0.191-3.414-0.508c0.695-2.082,1.012-3.662,1.074-6.064V33.332z"/>
		<path d="M175.631,46.85l3.031,6.503c0.887,1.708,1.768,3.476,2.719,5.241c-1.141,0.762-2.846,0.762-4.807,0.762
			c-1.006,0-2.018-0.254-2.967-0.633c0.254-0.633,0.508-1.646,0.508-2.273c0-0.691-0.191-1.324-0.443-1.895l-3.408-6.887
			c-0.887-1.764-1.012-1.957-3.1-2.021h-8.021c-0.879,0-1.135,0-1.387,0.445c-0.375,0.632-4.676,8.082-4.676,10.42
			c0,0.945,0.129,1.449,0.379,2.211c-0.439,0.633-1.956,0.633-2.334,0.633c-0.948,0-3.347,0-3.347-0.633
			c1.324-2.336,2.651-4.738,3.852-7.265l1.39-2.845l11.053-22.229c0.189-0.317,0.504-0.442,0.758-0.506
			c0.441,0,0.758,0.315,1.012,0.759l2.65,5.369L175.631,46.85z M164.83,36.301c0-0.062-0.508-1.073-0.633-1.265
			c-0.254-0.253-0.379-0.316-0.506-0.316s-0.189,0-0.254,0.063c-0.314,0-3.533,6.51-3.533,6.825c0,0.82,0.631,0.82,1.453,0.82h2.65
			c2.34,0,3.223,0,3.223-0.695c0-0.189,0-0.317-0.066-0.44L164.83,36.301z"/>
		<path d="M194.117,59.605c-5.303,0-15.662-4.736-15.662-16.296c0-8.021,5.496-17.051,18.062-17.051
			c4.17,0,7.074,0.758,10.867,1.896c1.195,0.315,1.574,0.379,1.574,1.326c0,0.187-0.758,3.726-1.764,3.726
			c-0.189,0-1.646-1.453-1.963-1.706c-2.082-1.577-4.736-2.651-8.082-2.651c-7.012,0-13.516,4.736-13.516,13.074
			c0,9.286,5.996,14.78,14.777,14.78c2.777,0,5.43-1.012,6.189-1.391c1.264-0.568,1.643-2.151,1.643-4.104
			c0-1.519-0.82-3.162-1.77-3.792c0.633-0.506,2.215-1.451,4.609-1.451c1.582,0,3.035,0.44,4.23,1.135
			c-1.383,1.768-1.889,2.778-1.889,4.292c-0.127,4.488-0.189,5.057-1.33,5.057c-8.967,2.969-10.549,3.219-14.082,3.219
			L194.117,59.605z"/>
		<path d="M239.338,46.85l3.035,6.503c0.883,1.708,1.766,3.476,2.711,5.241c-1.135,0.762-2.84,0.762-4.795,0.762
			c-1.014,0-2.023-0.254-2.971-0.633c0.254-0.633,0.506-1.646,0.506-2.273c0-0.691-0.191-1.324-0.443-1.895l-3.41-6.887
			c-0.883-1.764-1.01-1.957-3.098-2.021h-8.018c-0.887,0-1.139,0-1.389,0.445c-0.381,0.632-4.676,8.082-4.676,10.42
			c0,0.945,0.125,1.449,0.379,2.211c-0.441,0.633-1.957,0.633-2.336,0.633c-0.947,0-3.348,0-3.348-0.633
			c1.328-2.336,2.652-4.738,3.855-7.265l1.387-2.845l11.051-22.229c0.191-0.317,0.508-0.442,0.76-0.506
			c0.443,0,0.758,0.315,1.014,0.759l2.648,5.369L239.338,46.85z M228.539,36.301c0-0.062-0.506-1.073-0.631-1.265
			c-0.254-0.253-0.381-0.316-0.508-0.316s-0.189,0-0.25,0.063c-0.318,0-3.537,6.51-3.537,6.825c0,0.82,0.631,0.82,1.453,0.82h2.65
			c2.336,0,3.223,0,3.223-0.695c0-0.189,0-0.317-0.066-0.44L228.539,36.301z"/>
		<path d="M246.732,34.53c0-3.218,0-4.927-1.52-6.754c1.266-0.76,2.719-1.077,4.047-1.077c0.879,0,1.766,0.127,2.523,0.38h5.434
			c3.789,0,6.316,0.19,8.525,1.454c1.832,0.881,3.916,3.474,3.916,6.755c0,3.347-1.578,4.736-4.674,7.452
			c-0.506,0.509-0.822,0.821-0.822,1.329c0,0.82,8.402,10.991,14.527,13.642c-0.947,1.266-2.336,1.957-3.6,1.957
			c-1.58,0-1.834-0.125-4.23-1.324c-4.422-3.283-6.697-5.938-11.686-11.748c-1.703-2.085-2.02-2.464-4.043-2.464
			c-3.156,0-3.156,0.632-3.219,1.707v6.249c0,3.604,0.252,4.928,1.514,6.635c-1.389,0.379-2.779,0.566-4.105,0.566
			c-1.514,0-2.209-0.125-3.6-0.379c0.633-1.578,1.012-2.84,1.012-5.62V34.53z M264.289,34.72c0-2.651-2.27-4.862-6.818-4.862
			c-1.961,0-5.559,0-5.559,1.455v6.945l0.062,1.073c0,1.897,2.461,1.897,3.598,1.897C259.867,41.229,264.289,38.319,264.289,34.72z"
			/>
		<path d="M300.496,46.85l3.029,6.503c0.885,1.708,1.77,3.476,2.719,5.241c-1.137,0.762-2.842,0.762-4.801,0.762
			c-1.012,0-2.023-0.254-2.969-0.633c0.254-0.633,0.506-1.646,0.506-2.273c0-0.691-0.189-1.324-0.443-1.895l-3.41-6.887
			c-0.887-1.764-1.008-1.957-3.094-2.021h-8.02c-0.887,0-1.141,0-1.391,0.445c-0.381,0.632-4.676,8.082-4.676,10.42
			c0,0.945,0.129,1.449,0.381,2.211c-0.443,0.633-1.961,0.633-2.338,0.633c-0.945,0-3.348,0-3.348-0.633
			c1.328-2.336,2.652-4.738,3.85-7.265l1.393-2.845l11.053-22.229c0.189-0.317,0.506-0.442,0.758-0.506
			c0.441,0,0.756,0.315,1.01,0.759l2.656,5.369L300.496,46.85z M289.695,36.301c0-0.062-0.506-1.073-0.631-1.265
			c-0.25-0.253-0.375-0.316-0.508-0.316c-0.121,0-0.186,0-0.248,0.063c-0.318,0-3.539,6.51-3.539,6.825
			c0,0.82,0.627,0.82,1.451,0.82h2.652c2.338,0,3.223,0,3.223-0.695c0-0.189,0-0.317-0.062-0.44L289.695,36.301z"/>
	</g>
	<g>
		<path d="M119.639,87.121c0,6.102,0,15.492-13.148,15.492c-0.679,0-6.469-0.207-9.912-3.648c-1.146-1.41-2.977-3.809-2.977-9.184
			V70.527c-0.053-3.078-0.053-3.129-1.617-5.371c1.462-0.891,3.186-0.941,4.019-0.941c0.99,0,2.296,0.051,3.651,0.992
			c-1.773,1.773-1.773,2.973-1.773,7.098v16.121c0.104,4.852,0.104,11.426,9.287,11.426c9.914,0,10.018-7.621,10.018-10.484V71.676
			c0-2.867-0.053-4.902-1.616-6.469c0.885-0.68,1.93-0.992,2.923-0.992c1.092,0,2.033,0.418,2.71,1.047
			c-1.41,2.137-1.563,2.918-1.563,8.238V87.121z"/>
		<path d="M130.373,85.188c-1.356-1.355-2.817-2.816-3.702-3.184c-0.366,0.105-0.523,0.418-0.523,0.992v12.418
			c0,1.93,0,3.758,0.889,5.844c-0.785,0.262-1.567,0.367-2.352,0.367c-0.625,0-1.248-0.055-1.824-0.211
			c0.156-0.418,0.365-0.832,0.523-1.305c0.154-0.414,0.467-2.66,0.52-3.078V80.598c0-2.82-2.192-4.07-3.81-5.008
			c1.044-0.367,2.871-0.734,3.966-0.734c1.46,0,2.245,0.316,4.643,2.715l5.166,5.219l8.818,8.352l2.348,2.031
			c0.469,0.312,0.836,0.312,0.993-0.105V80.754c0-2.664,0-3.703-1.254-4.957c0.626-0.574,1.567-0.988,2.348-0.988
			c0.938,0,1.773,0.414,2.244,0.938c-0.679,0.781-1.098,2.605-1.098,4.59v10.277l-0.053,10.852c0,0.16,0,0.316-0.104,0.473
			c-0.052,0.051-0.157,0.105-0.313,0.051l-0.157-0.051c-0.156-0.105-0.313-0.207-1.613-1.355l-2.977-2.82L130.373,85.188z"/>
		<path d="M153.393,80.184c-0.053-1.57-0.053-2.66-1.044-4.387c0.263-0.207,1.407-0.988,3.396-0.988c1.141,0,2.188,0.258,3.18,0.938
			c-0.73,0.941-1.199,1.617-1.254,3.027V95.73c0,1.199,0.105,3.703,1.203,5.578c-1.203,0.316-2.4,0.422-3.547,0.422
			c-0.992,0-1.934-0.16-2.82-0.422c0.574-1.719,0.834-3.023,0.887-5.008V80.184z"/>
		<path d="M163.475,82.582c-1.355-3.238-2.348-5.164-3.652-6.73c1.41-1.043,2.766-1.098,3.445-1.098
			c1.096,0,2.086,0.363,2.922,0.887c-0.105,0.262-0.156,1.047-0.156,1.309c0,1.297,1.719,5.16,2.398,6.727l3.863,8.816
			c0.156,0.473,0.781,1.828,1.148,1.828c0.049,0,0.311-0.156,0.311-0.156c0.627-0.941,3.078-5.898,3.65-7.199l3.551-7.254
			c1.043-2.086,1.146-3.184,1.043-4.227c0.57-0.629,1.094-0.73,1.668-0.73c0.42,0,0.785,0.102,1.148,0.211l1.512,0.625
			c-1.668,1.98-2.922,4.227-3.758,6.309l-8.344,17.691c-1.047,2.086-1.148,2.293-1.566,2.293c-0.262,0-0.363-0.102-0.469-0.312
			L163.475,82.582z"/>
		<path d="M189.533,101.57c-0.732,0-1.516-0.051-2.242-0.207c0.57-0.887,1.197-2.922,1.197-5.422v-16.23
			c-0.053-1.512-0.523-2.922-1.305-4.016c1.305-0.578,2.611-0.84,3.914-0.84c0.521,0,0.99,0,1.459,0.109h8.766
			c1.934,0,2.453,0,2.453,2.293c0,0.52-0.211,0.988-0.418,1.355c-1.771-1.09-4.174-1.09-8.453-1.09c-0.781,0-2.137,0-2.137,0.938
			v5.371c0,1.25,0.207,1.723,0.781,1.875l4.227,0.055c3.234,0,3.6,0,4.438-0.465c0.414-0.262,0.57-0.367,0.83-0.367
			c0.471,0,0.471,1.039,0.471,1.301c0,2.09-0.053,2.297-0.312,3.234c-0.158-0.098-0.781-0.52-1.043-0.574
			c-0.469-0.312-1.096-0.465-2.453-0.57h-6.051c-0.73,0-0.941,0.367-0.887,0.832v8.609c0.051,0.68,0.102,1.203,0.992,1.309h3.963
			c3.182-0.105,4.592-0.211,6.836-1.203c0.26-0.156,1.354-0.68,1.512-0.68c0.104,0,0.314,0.051,0.314,0.156
			c0.104,0.055,0.209,0.262,0.209,0.367c0,0.262-0.625,1.879-1.045,2.766c-0.26,0.625-0.52,1.355-1.357,1.148L189.533,101.57z"/>
		<path d="M209.826,81.176c0-2.664,0-4.07-1.25-5.586c1.043-0.625,2.24-0.887,3.34-0.887c0.73,0,1.459,0.105,2.086,0.312h4.484
			c3.133,0,5.221,0.156,7.043,1.199c1.516,0.734,3.236,2.871,3.236,5.582c0,2.77-1.303,3.91-3.861,6.16
			c-0.416,0.418-0.676,0.676-0.676,1.094c0,0.676,6.938,9.078,11.998,11.27c-0.783,1.043-1.932,1.617-2.975,1.617
			c-1.301,0-1.51-0.105-3.496-1.098c-3.652-2.711-5.527-4.898-9.648-9.699c-1.41-1.723-1.672-2.039-3.34-2.039
			c-2.611,0-2.611,0.523-2.66,1.41v5.164c0,2.973,0.203,4.07,1.25,5.477c-1.148,0.312-2.297,0.473-3.391,0.473
			c-1.254,0-1.828-0.105-2.973-0.316c0.52-1.301,0.832-2.344,0.832-4.641V81.176z M224.33,81.332c0-2.195-1.879-4.02-5.633-4.02
			c-1.617,0-4.59,0-4.59,1.199v5.742l0.049,0.887c0,1.562,2.037,1.562,2.979,1.562C220.678,86.703,224.33,84.305,224.33,81.332z"/>
		<path d="M233.229,80.547c0-1.934,1.041-6.207,7.305-6.207c2.137,0.047,4.223,0.469,6.102,1.25
			c0.207,0.676,0.312,0.938,0.312,1.516c0,0.312-0.156,1.043-0.156,1.043c0,0.051-0.104,0.727-0.574,0.727
			c-0.211,0-1.406-0.676-1.668-0.832c-0.469-0.266-2.088-1.199-4.225-1.199c-1.047,0-3.916,0.414-3.916,3.023
			c0,1.828,1.512,2.504,6.312,4.645c4.07,2.293,7.408,4.176,7.408,9.18c0,5.008-4.174,8.504-10.225,8.504
			c-1.148,0-4.539-0.363-6.676-1.562c-1.047-0.367-1.203-0.938-1.203-1.934c0-1.199,0-2.656,0.781-2.656
			c0.266,0,0.629,0.312,0.682,0.363c0,0,3.287,3.289,7.201,3.289c3.336,0,6.207-2.508,6.207-5.062c0-2.871-3.078-4.539-5.373-5.531
			C234.686,86.129,233.229,83.258,233.229,80.547z"/>
		<path d="M254.461,80.184c-0.053-1.57-0.053-2.66-1.045-4.387c0.262-0.207,1.41-0.988,3.391-0.988c1.148,0,2.195,0.258,3.184,0.938
			c-0.73,0.941-1.199,1.617-1.25,3.027V95.73c0,1.199,0.105,3.703,1.199,5.578c-1.199,0.316-2.402,0.422-3.549,0.422
			c-0.994,0-1.93-0.16-2.818-0.422c0.574-1.719,0.836-3.023,0.889-5.008V80.184z"/>
		<path d="M275.707,93.902c0,4.434,0.314,5.742,0.838,7.305c-1.098,0.312-2.246,0.469-3.342,0.469c-0.938,0-1.826-0.105-2.715-0.312
			c0.627-1.668,0.838-3.758,0.939-6.992v-13.93c0-2.141,0-2.918-1.879-2.918h-3.91c-1.672,0-3.289,0.203-4.854,0.566
			c0.209-1.039,1.045-3.441,2.4-3.441c0.156,0,0.312,0.055,0.469,0.105c0.104,0.102,1.359,0.211,1.621,0.211h5.787
			c0.418-0.109,1.203-0.156,1.619-0.262c0.883,0,1.617,0,2.139,0.051c0.627,0.156,1.615,0.262,1.982,0.262h7.359
			c1.145,0,2.762,0,2.762,0.938c0,0.473-1.41,2.66-1.877,2.66c-0.053,0-0.365-0.102-0.365-0.152
			c-1.199-0.938-1.984-0.938-4.852-0.938c-3.285,0-4.07,0.047-4.123,1.77V93.902z"/>
		<path d="M294.189,88.84c0-1.145,0-1.25-0.156-1.773c0-0.211-0.312-0.574-3.076-4.02l-3.34-4.121
			c-0.889-1.094-1.826-2.188-2.766-3.18c1.303-0.629,2.713-0.891,4.018-0.891c2.035,0,2.764,0.262,2.764,1.359
			c0,1.355,3.447,5.117,3.654,5.375l1.301,1.617c0.367,0.363,0.732,0.73,1.152,0.73c0.416,0,1.252-0.836,1.562-1.148l3.498-4.016
			c0.939-0.941,1.562-2.086,1.615-3.184c0.68-0.418,1.516-0.68,2.297-0.68c0.473,0,2.348,0.262,2.348,0.992
			c0,0.156-0.053,0.207-0.105,0.207c-0.418,0.418-2.449,2.352-2.867,2.816l-6.264,6.836c-1.354,1.359-1.354,1.777-1.354,4.227v6.16
			c0.051,2.086,0.26,3.336,0.988,4.848c-0.467,0.262-1.199,0.629-3.027,0.629c-0.988,0-2.031-0.16-2.973-0.367
			c0.68-2.559,0.73-3.859,0.73-5.059V88.84z"/>
	</g>
	<g>
		<path fill="#FFFFFF" d="M36.208,32.33l-0.558-0.308l2.62-4.762h-6.103l2.094-2.927h1.615c0.129-0.59,0.518-1.389,1.315-1.877
			c-0.184-0.087-0.328-0.187-0.437-0.271l-0.291-0.227l0.269-0.254c0.387-0.379,0.799-0.803,1.224-1.432
			c0.222-0.33,0.43-0.731,0.611-1.156c-0.381-0.097-0.726-0.339-0.971-0.541c-0.082,0.146-0.188,0.266-0.323,0.344
			c-0.165,0.101-0.455,0.189-0.88,0.033c-0.39-0.144-0.712-0.487-0.922-0.751c-0.245,0.181-0.488,0.215-0.669,0.19
			c-0.372-0.041-0.749-0.348-1.092-0.821c0.007,0.243,0.021,0.502,0.035,0.78c0.035,0.584,0.067,1.227,0.067,1.863
			c0,1.132-0.107,2.257-0.535,3.082c-0.425,0.828-1.165,1.482-1.87,1.382c-0.38,0.693-0.968,1.122-1.444,1.283
			c-0.28,0.104-0.542,0.092-0.77,0.042c-0.745,0.886-1.83,1.323-2.627,1.352c-0.274,0.006-0.638-0.03-0.828-0.261l-0.19-0.231
			l0.217-0.208c2.101-1.984,2.057-3.581,2.006-5.6c-0.02-0.719-0.14-1.578-0.263-2.489c-0.402-2.91-0.897-6.531,1.002-9.888
			c2.041-3.595,4.885-4.259,5.744-4.311c0.632-0.039,1.396,0.101,1.878,0.57c0.947,0.92,0.281,2.242-0.104,3.174
			c-0.254,0.589-0.217,1.265,0,1.636c0.223,0.386,0.645,0.558,0.827,0.583c0.027-0.362,0.07-0.735,0.133-1.114l0.074-0.442
			l0.331,0.299c0.376,0.334,1.099,0.613,1.93,0.693c0.096-0.081,0.167-0.197,0.214-0.348c0.116-0.358,0.039-0.802-0.211-1.213
			c-0.043-0.073-0.047-0.157-0.008-0.234c0.035-0.076,0.106-0.125,0.188-0.133c0.27-0.039,0.627-0.142,0.797-0.428
			c0.131-0.221,0.131-0.528,0-0.883c-0.026-0.062-0.007-0.135,0.018-0.195c0.029-0.056,0.093-0.109,0.155-0.134
			c0.458-0.169,0.927-0.347,0.753-1.324c-0.156-0.014-0.305-0.034-0.447-0.059l-0.61-0.095c-0.749-0.11-1.401-0.202-1.96-0.66
			C38.2,4.051,38.19,4.036,38.179,4.017C38.138,4.069,38.1,4.128,38.07,4.198c-0.032,0.09-0.121,0.146-0.215,0.154
			c-0.093,0.004-0.185-0.051-0.229-0.134c-0.11-0.222-0.167-0.48-0.167-0.751c0-0.312,0.073-0.639,0.219-0.939
			c0.292-0.593,0.848-0.998,1.56-1.15c0.522-0.6,1.618-1.199,3.133-1.018l1.013,0.145c0.822,0.125,1.316,0.202,1.998,0.033
			c0.073-0.015,0.144-0.002,0.203,0.044c0.06,0.039,0.095,0.108,0.101,0.177c0.002,0.012,0.004,0.051,0.004,0.114
			c0,0.235-0.051,0.788-0.344,1.224c0.28,0.335,0.52,1.016,0.52,1.764c0,0.068-0.002,0.133-0.006,0.202
			c-0.005,0.104-0.005,0.202-0.005,0.307c0,0.87,0.217,1.546,0.358,1.629c0.064,0.046,0.107,0.114,0.113,0.192
			c0,0.01,0,0.015,0,0.018c0,0.076-0.034,0.146-0.089,0.19c-0.286,0.237-0.55,0.575-0.55,1.028c0,0.282,0.1,0.609,0.363,0.978
			c0.026,0.038,0.042,0.088,0.042,0.138c0,0.021-0.003,0.05-0.012,0.072c-0.021,0.068-0.075,0.13-0.143,0.156
			c-0.028,0.023-0.124,0.164-0.146,0.397c-0.003,0.029-0.005,0.057-0.005,0.097c0,0.129,0.031,0.312,0.155,0.475
			c0.73-0.104,1.363-0.361,1.7-0.665l0.333-0.299l0.07,0.442c0.067,0.425,0.114,0.84,0.145,1.245
			c0.204-0.042,0.832-0.295,0.91-0.675c0.119-0.605,0.081-1.09-0.24-1.617c-0.923-1.526-0.771-2.52-0.326-3.104
			c0.4-0.52,1.259-0.664,2.286-0.544c0.851,0.1,3.602,0.609,5.641,4.195c1.889,3.326,1.39,6.939,0.993,9.845
			c-0.124,0.913-0.24,1.772-0.261,2.494c-0.056,2.037-0.102,3.642,2.027,5.655l0.167,0.156l-0.148,0.179
			c-0.171,0.207-0.512,0.238-0.767,0.233c-0.791-0.025-1.873-0.461-2.601-1.355c-0.23,0.061-0.485,0.073-0.776-0.031
			c-0.473-0.161-1.064-0.597-1.427-1.302c-0.68,0.133-1.432-0.526-1.849-1.331c-0.418-0.808-0.521-1.925-0.521-3.045
			c0-0.637,0.033-1.274,0.067-1.863c0.019-0.372-0.01-0.535-0.004-0.844c-0.348,0.428-0.731,0.764-1.139,0.813
			c-0.184,0.022-0.429-0.012-0.676-0.222c-0.226,0.274-0.607,0.695-0.946,0.79c-0.344,0.096-0.623,0.064-0.845-0.08
			c-0.117-0.084-0.212-0.21-0.281-0.362c-0.382,0.317-0.756,0.523-1.104,0.589c0.188,0.454,0.41,0.885,0.644,1.237
			c0.423,0.629,0.841,1.053,1.229,1.432l0.268,0.254l-0.296,0.227c-0.108,0.084-0.257,0.184-0.441,0.271
			c0.801,0.488,1.181,1.291,1.312,1.877h3.012l-2.094,2.927h-3.145l2.625,4.762l-0.562,0.308c-3.988-1.496-6.395-3.553-6.395-3.553
			c-2.976,2.629-6.064,3.541-6.064,3.541"/>
		<polygon fill="none" stroke="#4F2683" stroke-width="0.6418" points="49.896,26.964 32.844,26.964 34.483,24.676 51.529,24.676 		
			"/>
		<path fill="#4F2683" d="M30.362,12.216c-0.861,0.584-0.934,3.037-0.594,6.137c0.402,3.593,0.14,5.873-0.828,7.186
			c-0.077,0.108-0.057,0.264,0.053,0.346c0.109,0.079,0.263,0.057,0.34-0.055c1.045-1.416,1.339-3.808,0.926-7.533
			C29.927,15.318,29.962,13.327,30.362,12.216z"/>
		<path fill="#4F2683" d="M32.064,13.59c-0.648,0.265-0.655,2.914-0.543,4.751c0.225,3.644-0.085,4.994-0.451,5.908
			c-0.049,0.126,0.015,0.268,0.141,0.319c0.123,0.05,0.267-0.015,0.317-0.136c0.385-0.971,0.712-2.385,0.486-6.124
			C31.878,16.176,31.9,14.236,32.064,13.59z"/>
		<path fill="#4F2683" d="M35.196,16.46c-0.239,0.479,0.142,1.377,0.155,1.402c0.065,0.115,0.212,0.153,0.333,0.094
			c0.116-0.067,0.157-0.219,0.092-0.337C35.776,17.615,35.362,16.957,35.196,16.46z"/>
		<path fill="#4F2683" d="M36.893,16.749c-0.092,0.331,0.121,0.979,0.415,1.442c0.072,0.114,0.242,0.114,0.344,0.024
			c0.104-0.084,0.114-0.241,0.026-0.343C37.301,17.439,36.896,16.752,36.893,16.749z"/>
		<path fill="#4F2683" d="M31.345,6.865c-0.25,0.163-0.362,0.573-0.269,0.775c0.14,0.308,0.452,0.458,0.775,0.512
			c0.389,0.062,0.705,0.062,1.042,0c0.063,0.305,0.139,0.442,0.327,0.656c0.354,0.394,1.269,0.466,1.738-0.084
			c-0.597,0.186-1.111,0-1.371-0.245c-0.204-0.183-0.285-0.511-0.227-0.839c-0.241,0.062-0.854,0.202-1.428,0.062
			c-0.278-0.069-0.405-0.161-0.491-0.269C31.313,7.273,31.313,6.95,31.345,6.865"/>
		<path fill="#4F2683" d="M29.994,8.297c-0.265,0.26-0.177,0.649,0.034,0.819c0.23,0.179,0.694,0.204,1.083,0.086
			c0.002,0.44,0.187,0.883,0.548,1.044c0.398,0.184,0.887,0.133,1.354-0.111c0.039,0.218,0.127,0.324,0.297,0.454
			c0.413,0.311,1.179,0.26,1.648-0.393c-0.515,0.215-1.023,0.263-1.317,0.031c-0.229-0.181-0.28-0.484-0.339-0.812
			c-0.518,0.436-1.129,0.555-1.447,0.386c-0.372-0.196-0.432-0.752-0.35-1.201c-0.355,0.226-1.044,0.327-1.308,0.145
			C30.026,8.622,29.989,8.343,29.994,8.297z"/>
		<path fill="#4F2683" d="M34.878,6.938c-0.622,0.122-1.083,0.015-1.363-0.23c-0.212-0.19-0.357-0.6-0.212-0.948
			c-0.448,0.349-0.448,0.943-0.146,1.281C33.469,7.388,34.221,7.541,34.878,6.938z"/>
		<path fill="#4F2683" d="M29.874,9.945c-0.328,0.208-0.353,0.675-0.205,0.922c0.145,0.249,0.296,0.385,0.579,0.452
			c0.387,0.091,0.788,0,1.035-0.08c-0.011,0.789,0.604,1.122,0.896,1.188c0.525,0.117,1.084,0.054,1.696-0.494
			c0.108,0.359,0.266,0.564,0.556,0.737c0.364,0.215,1.079,0.114,1.307-0.496c-0.43,0.245-0.819,0.187-1.053,0.074
			c-0.323-0.151-0.585-0.542-0.585-1.053c-0.626,0.625-1.199,0.951-1.813,0.756c-0.579-0.184-0.62-0.919-0.62-1.306
			c-0.006,0-0.713,0.324-1.3,0.199c-0.232-0.053-0.378-0.211-0.455-0.345C29.836,10.368,29.769,10.115,29.874,9.945z"/>
		<path fill="#4F2683" d="M32.894,12.972c-0.145,0.572,0.247,1.227,0.975,1.318c0.539,0.063,1.07-0.256,1.113-0.93
			c-0.208,0.354-0.699,0.475-1.029,0.448C33.322,13.75,32.973,13.385,32.894,12.972z"/>
		<path fill="#4F2683" d="M37.368,15.73c-0.714,0.286-1.409-0.186-1.608-0.898c-0.009,0.007-0.326,0.813-1.005,0.794
			c-0.528-0.014-0.758-0.471-0.827-0.825c-0.153,0.256-0.055,1.077,0.721,1.253c0.454,0.107,0.897-0.15,1.111-0.443
			c0.14,0.241,0.36,0.504,0.852,0.571C36.919,16.222,37.244,16.119,37.368,15.73"/>
		<path fill="#4F2683" d="M54.785,12.212c0.855,0.588,0.938,3.041,0.59,6.141c-0.398,3.589-0.136,5.873,0.832,7.186
			c0.08,0.108,0.057,0.264-0.055,0.341c-0.105,0.084-0.259,0.058-0.343-0.05c-1.041-1.416-1.334-3.809-0.921-7.533
			C55.22,15.318,55.186,13.327,54.785,12.212z"/>
		<path fill="#4F2683" d="M53.062,13.552c0.645,0.257,0.655,2.907,0.539,4.744c-0.223,3.646,0.087,4.99,0.451,5.909
			c0.052,0.127-0.011,0.269-0.133,0.317c-0.125,0.055-0.27-0.013-0.322-0.137c-0.385-0.969-0.718-2.381-0.484-6.123
			C53.244,16.134,53.223,14.195,53.062,13.552z"/>
		<path fill="#4F2683" d="M49.958,16.448c0.24,0.479-0.136,1.431-0.149,1.453c-0.065,0.118-0.219,0.106-0.339,0.043
			c-0.117-0.069-0.158-0.217-0.095-0.339C49.377,17.604,49.792,16.944,49.958,16.448z"/>
		<path fill="#4F2683" d="M48.268,16.732c0.097,0.337-0.135,1.036-0.426,1.502c-0.074,0.112-0.234,0.062-0.335-0.031
			c-0.102-0.088-0.114-0.245-0.024-0.347C47.856,17.428,48.263,16.74,48.268,16.732z"/>
		<path fill="#4F2683" d="M53.742,6.865c0.247,0.163,0.362,0.573,0.268,0.775c-0.145,0.308-0.452,0.458-0.777,0.512
			c-0.389,0.062-0.7,0.062-1.042,0c-0.061,0.305-0.138,0.442-0.327,0.656c-0.353,0.394-1.264,0.466-1.736-0.084
			c0.59,0.186,1.112,0,1.373-0.245c0.199-0.183,0.282-0.511,0.219-0.839c0.246,0.062,0.858,0.202,1.429,0.062
			c0.286-0.069,0.409-0.161,0.495-0.269C53.772,7.273,53.772,6.95,53.742,6.865"/>
		<path fill="#4F2683" d="M54.887,8.744C54.622,8.927,53.935,8.825,53.58,8.6c0.083,0.449,0.021,1.005-0.351,1.201
			c-0.318,0.169-0.931,0.05-1.447-0.386c-0.063,0.328-0.112,0.632-0.335,0.812c-0.298,0.231-0.812,0.184-1.32-0.031
			c0.473,0.652,1.238,0.703,1.649,0.393c0.169-0.13,0.257-0.236,0.29-0.454c0.472,0.244,0.959,0.295,1.361,0.111
			c0.36-0.161,0.542-0.604,0.551-1.044c0.383,0.118,0.848,0.093,1.074-0.086c0.213-0.17,0.302-0.56,0.032-0.819
			C55.097,8.343,55.058,8.622,54.887,8.744z"/>
		<path fill="#4F2683" d="M50.208,6.938c0.626,0.122,1.084,0.015,1.36-0.23c0.214-0.19,0.359-0.6,0.214-0.948
			c0.449,0.349,0.449,0.943,0.146,1.281C51.617,7.388,50.865,7.541,50.208,6.938z"/>
		<path fill="#4F2683" d="M55.218,9.945c0.32,0.208,0.344,0.675,0.2,0.922c-0.141,0.249-0.302,0.385-0.582,0.452
			c-0.385,0.091-0.789,0-1.033-0.08c0.013,0.789-0.605,1.122-0.898,1.188c-0.523,0.117-1.085,0.054-1.694-0.494
			c-0.108,0.359-0.268,0.564-0.555,0.737c-0.362,0.215-1.078,0.114-1.303-0.496c0.429,0.245,0.815,0.187,1.048,0.074
			c0.316-0.151,0.585-0.542,0.585-1.053c0.626,0.625,1.196,0.951,1.813,0.756c0.579-0.184,0.618-0.919,0.618-1.306
			c0.002,0,0.717,0.324,1.302,0.199c0.233-0.053,0.378-0.211,0.454-0.345C55.25,10.368,55.317,10.115,55.218,9.945z"/>
		<path fill="#4F2683" d="M52.19,12.972c0.142,0.572-0.245,1.227-0.975,1.318c-0.534,0.063-1.068-0.256-1.107-0.93
			c0.202,0.354,0.695,0.475,1.029,0.448C51.762,13.75,52.111,13.385,52.19,12.972z"/>
		<path fill="#4F2683" d="M47.716,15.73c0.715,0.286,1.412-0.186,1.617-0.898c0.005,0.007,0.322,0.813,0.998,0.794
			c0.528-0.014,0.755-0.471,0.826-0.825c0.155,0.256,0.053,1.077-0.72,1.253c-0.449,0.107-0.895-0.15-1.104-0.443
			c-0.146,0.241-0.362,0.504-0.861,0.571C48.165,16.222,47.842,16.119,47.716,15.73"/>
		<circle fill="#4F2683" cx="41.671" cy="2.226" r="0.292"/>
		<path fill="#4F2683" d="M42.83,1.915c-0.478-0.232-1.276-0.063-1.741-0.026c-0.233,0.013-0.424-0.062-0.43-0.056l0,0
			c0.038,0.264,0.325,0.423,0.632,0.43c0.482,0.012,0.591-0.178,1.203-0.147C42.628,2.127,42.805,2.054,42.83,1.915L42.83,1.915z
			 M40.128,6.149L40.128,6.149c0.143,0.554,0.019,0.858-0.103,1.091c-0.098,0.193-0.39,0.462-0.94,0.585
			c0.243,0.428,0.344,1.243,0.091,1.59c0,0,0.018-0.033,0,0c-0.704-0.011-1.471-0.163-2.313-0.785l0,0l0,0
			c0,0-0.252,0.572-0.275,1.233c-0.102-0.069-0.207-0.152-0.278-0.279c-0.081-0.138-0.131-0.352-0.131-0.604
			c0-0.233,0.044-0.488,0.153-0.74l0.078-0.194c0.233-0.543,0.538-1.25,0.538-1.946c0-0.488-0.152-0.977-0.586-1.396
			c-0.479-0.47-1.277-0.719-2.126-0.662c-0.367,0.021-3.659,0.337-6.012,4.478c-1.948,3.444-1.444,7.134-1.042,10.095
			c0.126,0.899,0.243,1.75,0.258,2.449c0.057,2.017,0.096,3.47-1.897,5.354l-0.443,0.421l0,0c0.301,0.603,0.983,0.858,1.478,0.843
			c0.735-0.02,1.861-0.4,2.73-1.334c0.262,0.032,0.513,0.013,0.771-0.075c0.586-0.202,1.13-0.668,1.502-1.259
			c0.825-0.017,1.578-0.764,1.993-1.564c0.388-0.755,0.569-1.781,0.569-3.232c0,0-0.056-1.628-0.066-1.793
			c0.228,0.171,0.459,0.27,0.694,0.296c0.214,0.026,0.429-0.022,0.64-0.118c0.286,0.313,0.57,0.551,0.868,0.661
			c0.547,0.202,0.94,0.076,1.169-0.066c0.082-0.044,0.155-0.108,0.224-0.174c0.152,0.105,0.306,0.198,0.457,0.267
			c-0.141,0.291-0.29,0.573-0.443,0.804c-0.402,0.605-0.806,1.014-1.182,1.375l-0.535,0.518l0.589,0.46c0,0,0.031,0.021,0.077,0.051
			c-0.584,0.512-0.873,1.105-0.999,1.513c-0.35,0-1.541,0-1.541,0l-2.558,3.582c0,0,5.266,0,6.181,0
			c-0.431,0.782-2.509,4.561-2.509,4.561l0.844,0.465l0.319-0.568c0,0-0.143-0.081-0.276-0.155c0.276-0.506,2.727-4.957,2.727-4.957
			s-4.993,0-6.018,0c0.475-0.663,1.484-2.071,1.625-2.273c0.272,0,1.709,0,1.709,0l0.059-0.257c0.076-0.331,0.34-1.164,1.165-1.673
			l0.452-0.274l-0.48-0.296c0,0-0.355-0.22-0.367-0.229c0.397-0.388,0.825-0.823,1.264-1.477c0.228-0.343,0.448-0.759,0.638-1.21
			l0.066-0.149c0.227,0.004,0.459-0.067,0.69-0.244c0.914,1.019,1.945,1.723,2.871,2.047l0.076,0.03l0.087-0.03
			c0.916-0.323,1.932-1.012,2.841-2.02c0.161,0.122,0.344,0.188,0.544,0.206l0.03,0.074c0.198,0.481,0.43,0.932,0.673,1.296
			c0.44,0.653,0.862,1.089,1.267,1.477c-0.019,0.009-0.832,0.508-0.832,0.508l0.426,0.296c0.823,0.511,1.089,1.337,1.163,1.668
			l0.059,0.257c0,0,1.848,0,2.635,0c-0.471,0.66-1.48,2.069-1.627,2.273c-0.295,0-3.525,0-3.525,0s2.453,4.451,2.732,4.957
			c-0.069,0.041-0.088,0.051-0.14,0.074c-3.801-1.449-6.143-3.417-6.163-3.441l-0.214-0.183l-0.215,0.183
			c-2.883,2.556-5.913,3.473-5.94,3.486l0.185,0.623c0.124-0.036,3.049-0.936,5.972-3.44c0.658,0.522,2.88,2.172,6.283,3.442
			l0.138,0.057l0.982-0.542c0,0-2.081-3.778-2.513-4.561c0.748,0,2.756,0,2.756,0s2.217-3.098,2.221-3.104
			c0.339,0.271,0.72,0.454,1.111,0.448c0.421,0.687,1.023,1.109,1.479,1.27c0.261,0.088,0.515,0.102,0.774,0.066
			c0.849,0.935,1.969,1.314,2.702,1.335c0.473,0.016,1.073-0.058,1.423-0.475l0,0l0,0c-2.33-2.093-2.416-4.034-2.363-6.066
			c0.021-0.699,0.138-1.553,0.254-2.451c0.408-2.959,0.914-6.629-1.03-10.056c-2.015-3.55-4.786-4.23-5.885-4.358
			c-1.245-0.146-2.138,0.084-2.582,0.67c-0.199,0.255-0.421,0.683-0.421,1.3c0,0.56,0.183,1.281,0.725,2.175
			c0.177,0.283,0.252,0.55,0.252,0.87c0,0.151-0.018,0.321-0.055,0.51c-0.016,0.084-0.157,0.194-0.312,0.278
			c-0.048-0.643-0.305-1.414-0.305-1.414l0,0l0,0c-0.681,0.615-1.53,0.905-2.011,0.923c-0.009-0.043-0.037-0.224-0.037-0.245
			c0,0-0.037-0.475,0.333-0.778l0,0c-0.264-0.316-0.435-0.814-0.435-1.06c0-0.278,0.106-0.745,0.644-1.138
			c-0.336-0.528-0.48-1.169-0.48-1.92L46.19,3.86c0-0.672-0.181-1.333-0.471-1.782c0.259-0.498,0.351-1.356,0.104-1.689
			c-0.98,0.226-2.021-0.184-3.403-0.355c-1.483-0.182-2.738,0.409-3.345,1.055c-0.771,0.195-1.37,0.645-1.689,1.299
			c-0.164,0.34-0.256,0.709-0.256,1.081c0,0.329,0.054,0.656,0.208,0.901c0.137,0.213,0.284,0.312,0.347,0.319
			c0,0,0.19-0.156,0.569-0.217c0.568,0.37,1.205,0.478,1.874,0.576l0.601,0.092c-0.002,0,0.098,0.012,0.202,0.026
			c0.006,0.031,0.013,0.076,0.013,0.111C40.943,5.678,40.657,5.986,40.128,6.149 M41.754,3.002
			c-1.303-0.208-1.837-1.062-2.028-1.357c0.46-0.474,1.379-0.931,2.643-0.778l0.995,0.141c0.704,0.107,1.338,0.237,1.972,0.143
			c0.01,0.255-0.233,0.797-0.472,1.037c0.117,0.074,0.567,0.841,0.567,1.685c0,0.059-0.002,0.119-0.002,0.184
			c-0.012,0.106-0.013,0.214-0.013,0.324c0,0.716,0.136,1.443,0.393,1.832c-0.36,0.361-0.551,0.784-0.551,1.238
			c0,0.344,0.124,0.703,0.339,1.058C45.5,8.63,45.442,8.771,45.416,8.854c-0.042,0.126-0.062,0.275-0.062,0.428
			c0,0.172,0.033,0.35,0.109,0.524c-0.921,0.03-1.933-0.202-2.728-0.896l-0.165-0.14l-0.156,0.14
			c-0.713,0.615-1.592,0.872-2.428,0.896c0.053-0.076,0.097-0.164,0.127-0.254c0.039-0.133,0.061-0.271,0.061-0.416
			c0-0.267-0.093-0.562-0.23-0.863c0.376-0.109,0.666-0.305,0.841-0.591c0.088-0.146,0.168-0.358,0.168-0.638
			c0-0.131-0.025-0.275-0.068-0.434c0.405-0.166,0.93-0.479,0.93-1.334c0-0.115-0.014-0.237-0.032-0.366
			c0.662-0.039,1.332-0.379,1.214-1.342c-0.218,0.787-0.912,0.99-2.072,0.786L40.3,4.259c-0.635-0.093-1.15-0.169-1.576-0.451
			c0.304-0.043,0.873-0.033,1.396,0.041c0.584,0.08,1.676,0.206,1.774-0.299c-0.57,0.077-1.229-0.019-1.891-0.125
			c-0.67-0.107-1.518-0.122-1.99,0.16c0-0.035-0.007-0.068-0.007-0.104c0-0.217,0.05-0.467,0.17-0.714
			c0.153-0.31,0.474-0.702,1.126-0.871C39.791,2.569,41.068,3.391,41.754,3.002 M33.406,16.1c-0.288,0.431-0.212,1.483-0.166,2.303
			c0.082,1.562,0.19,3.505-0.404,4.654c-0.355,0.684-1.011,1.271-1.427,1.062c-0.063-0.026-0.132-0.031-0.195-0.007
			c-0.064,0.021-0.114,0.071-0.141,0.133c-0.283,0.671-0.824,1.063-1.234,1.206c-0.236,0.082-0.454,0.088-0.581,0.021
			c-0.106-0.058-0.247-0.028-0.317,0.067c-0.612,0.835-1.567,1.204-2.2,1.263c-0.106,0.013-0.184,0.006-0.254,0.002
			c1.672-1.708,1.919-3.202,1.919-4.812c0-0.305-0.008-0.614-0.015-0.931c-0.021-0.749-0.139-1.62-0.269-2.548
			c-0.173-1.258-0.363-2.652-0.363-4.098c0-1.797,0.299-3.666,1.302-5.435c1.944-3.422,4.329-3.96,5.015-4.041
			c0.739-0.09,1.379,0.062,1.701,0.409c0.536,0.562,0.211,1.359-0.163,2.284L35.436,8.07c-0.382,0.995-0.024,1.914,0.284,2.255
			c0.376,0.417,0.812,0.593,1.161,0.607c-0.108,3.181,0.982,5.772,2.421,7.543c-0.431,0.309-0.922,0.024-1.508-0.509l-0.146-0.129
			c-0.072-0.057-0.161-0.069-0.248-0.037c-0.087,0.031-0.141,0.112-0.152,0.2c-0.026,0.229-0.105,0.393-0.208,0.456
			c-0.093,0.056-0.225,0.053-0.397-0.011c-0.365-0.138-0.752-0.653-0.871-0.841c-0.039-0.066-0.12-0.108-0.196-0.11
			c-0.08-0.006-0.158,0.036-0.203,0.102c-0.215,0.286-0.388,0.266-0.44,0.255C34.549,17.811,33.774,16.998,33.406,16.1
			 M42.57,20.406c-1.842-0.702-5.212-3.752-5.212-8.985c0-0.546,0.047-0.908,0.129-1.498c1.031,0.609,3.339,0.763,5.083-0.529
			c1.696,1.329,3.989,1.087,5.093,0.529c0.083,0.59,0.128,0.952,0.128,1.498C47.791,16.654,44.415,19.704,42.57,20.406z
			 M49.333,24.008c-0.126-0.407-0.418-1.001-1.003-1.513c0.025-0.012,0.088-0.051,0.088-0.051l0.585-0.46l-0.535-0.518
			c-0.374-0.361-0.775-0.77-1.18-1.375c-0.165-0.247-0.322-0.549-0.468-0.872c0.184-0.075,0.372-0.183,0.562-0.314
			c0.062,0.066,0.125,0.131,0.195,0.181c0.299,0.196,0.674,0.239,1.106,0.12c0.28-0.075,0.591-0.334,0.925-0.7
			c0.247,0.121,0.482,0.159,0.657,0.139c0.26-0.03,0.512-0.157,0.771-0.354c0,0.006,0,0.047,0,0.047l-0.067,1.879
			c0,1.436,0.181,2.455,0.561,3.197c0.106,0.206,0.241,0.403,0.396,0.595H49.333z M55.602,25.512
			c-0.085-0.004-0.188-0.024-0.296-0.062c-0.406-0.143-0.947-0.535-1.232-1.201l-0.556-0.088c-0.402-0.028-0.911-0.531-1.204-1.104
			c-0.595-1.149-0.494-3.093-0.406-4.654c0.045-0.819,0.091-2.055-0.094-2.622c-0.33,1.003-1.117,2.095-1.592,2.071
			c-0.049-0.002-0.183,0.021-0.345-0.143l-0.502-0.104c-0.225,0.314-0.63,0.77-0.85,0.835c-0.198,0.053-0.345,0.046-0.438-0.018
			c-0.095-0.062-0.168-0.166-0.171-0.315l-0.435-0.251c-0.253,0.256-1.091,1.011-1.665,0.656c1.446-1.769,2.551-4.357,2.452-7.545
			c0.436-0.056,1.175-0.462,1.359-1.04c0.178-0.543,0.071-1.265-0.278-1.927l-0.106-0.196c-0.445-0.834-0.954-1.778-0.367-2.41
			c0.336-0.354,1.062-0.519,1.902-0.42c0.765,0.092,3.396,0.642,5.308,4.006c1.004,1.769,1.303,3.638,1.303,5.435
			c0,1.445-0.196,2.84-0.369,4.098c-0.125,0.928-0.245,1.799-0.264,2.548c-0.009,0.316-0.013,0.626-0.013,0.931
			c0,1.609,0.32,3.18,1.99,4.892l0,0c-1.596,0.065-2.527-1.345-2.527-1.345"/>
		<path fill="none" stroke="#4F2683" stroke-width="0.6418" d="M36.201,24.706c0,0,0.164-1.935,2.114-2.303"/>
		<path fill="#4F2683" d="M39.27,24.676l0.636-0.086c-0.006-0.047-0.123-1.051,0.924-1.521l-0.266-0.586
			C39.367,23.024,39.193,24.153,39.27,24.676z"/>
		<path fill="none" stroke="#4F2683" stroke-width="0.6418" d="M46.023,18.905c0.196,0.535,0.468,1.097,0.782,1.566
			c0.447,0.673,0.899,1.122,1.27,1.481c-0.409,0.317-1.135,0.636-2.132,0.317"/>
		<path fill="#4F2683" d="M44.419,19.417c0.133,0.413,0.72,1.928,1.447,2.841c-0.333,0.069-0.875,0.073-1.406-0.028l-0.126,0.628
			c0.586,0.116,1.81,0.212,2.288-0.269l0.233-0.234l-0.239-0.229c-0.706-0.658-1.592-2.021-1.696-2.685L44.419,19.417z"/>
		<path fill="none" stroke="#4F2683" stroke-width="0.6418" d="M39.062,18.905c-0.198,0.535-0.467,1.097-0.783,1.566
			c-0.448,0.673-0.897,1.122-1.27,1.481c0.406,0.317,1.135,0.636,2.134,0.317"/>
		<path fill="#4F2683" d="M38.472,22.125l-0.243,0.229l0.231,0.234c0.479,0.48,1.709,0.385,2.287,0.269l-0.125-0.628
			c-0.531,0.102-1.074,0.098-1.404,0.028c0.728-0.913,1.318-2.428,1.441-2.841l-0.5,0.074C39.98,20.032,39.343,21.281,38.472,22.125
			z"/>
		<path fill="#4F2683" d="M43.297,20.204c0,0.026,0.086,0.625,0.396,1.413c0.091,0.242,0.242,0.544,0.444,0.816
			c-0.505,0.028-1.194-0.033-1.515-0.184c0,0-0.009,0.051-0.01,0.062c-0.005-0.022-0.022-0.088-0.022-0.088h-0.097
			c0,0-0.017,0.065-0.021,0.088c-0.002-0.011-0.018-0.062-0.018-0.062c-0.316,0.15-1.01,0.212-1.51,0.184
			c0.199-0.272,0.351-0.574,0.448-0.816c0.307-0.788,0.393-1.387,0.393-1.413l-0.498,0.054c-0.004,0.004-0.03,0.21-0.311,0.92
			c-0.126,0.322-0.527,0.958-0.851,1.199l-0.413,0.313l0.464,0.233c0.524,0.261,1.739,0.172,2.362-0.028
			c0.625,0.2,1.837,0.289,2.363,0.028l0.468-0.233l-0.416-0.313c-0.326-0.241-0.674-0.775-0.807-1.096
			c-0.277-0.712-0.354-1.02-0.354-1.023L43.297,20.204z"/>
		<path fill="none" stroke="#4F2683" stroke-width="0.6418" d="M48.873,24.706c0,0-0.162-1.935-2.116-2.303"/>
		<path fill="#4F2683" d="M44.245,23.069c1.048,0.47,0.931,1.474,0.926,1.521l0.637,0.086c0.073-0.522-0.101-1.651-1.299-2.192
			L44.245,23.069z"/>
		<g>
			<line fill="none" stroke="#4F2683" stroke-width="0.6418" x1="35.689" y1="26.964" x2="37.319" y2="24.676"/>
			<line fill="none" stroke="#4F2683" stroke-width="0.6418" x1="38.53" y1="26.964" x2="40.167" y2="24.676"/>
			<line fill="none" stroke="#4F2683" stroke-width="0.6418" x1="41.37" y1="26.964" x2="43.006" y2="24.676"/>
			<line fill="none" stroke="#4F2683" stroke-width="0.6418" x1="44.215" y1="26.964" x2="45.849" y2="24.676"/>
			<path fill="none" stroke="#4F2683" stroke-width="0.6418" d="M47.268,24.676"/>
			<path fill="none" stroke="#4F2683" stroke-width="0.6418" d="M45.635,26.964"/>
			<line fill="none" stroke="#4F2683" stroke-width="0.6418" x1="47.052" y1="26.964" x2="48.692" y2="24.676"/>
		</g>
		<path fill="#4F2683" d="M42.016,24.562c0,0,0-1.214,0.425-1.818h0.299c0,0,0.486,0.725,0.425,1.753L42.016,24.562z"/>
		<path fill="#4F2683" d="M37.585,9.487l-0.398,0.575c-0.023,0.214-0.038,0.433-0.051,0.646l0.739-1.065
			C37.771,9.597,37.673,9.546,37.585,9.487z"/>
		<path fill="#4F2683" d="M36.474,10.325c-0.204,3.178,0.617,8.501,6.103,10.956v-0.615c-2.933-0.767-5.945-5.422-5.384-10.236
			L36.474,10.325z"/>
		<path fill="#4F2683" d="M48.681,10.325c0.204,3.178-0.615,8.501-6.104,10.956v-0.615c2.931-0.767,5.952-5.422,5.388-10.236
			L48.681,10.325z"/>
		<path fill="#4F2683" d="M39.7,9.562c0.413-0.009,1.916-0.206,2.876-1.075c0.552,0.41,1.835,1.332,3.266,0.972l0.102,0.465
			c0,0-2.278,0.049-3.363-0.824c-0.166,0.257-1.855,1.227-2.937,0.923L39.7,9.562z"/>
		<path fill="#FFFFFF" stroke="#4F2683" stroke-width="1.564" d="M42.537,21.181c0.862-0.382,3.834-2.484,5.175-5.75
			c0.883-2.126,0.9-4.556-0.765-5.555c-1.44-0.868-3.447,0-4.41,1.627c-0.958-1.627-2.972-2.495-4.41-1.627
			c-1.662,0.999-1.645,3.429-0.767,5.555C38.702,18.696,41.672,20.799,42.537,21.181z"/>
		<g>
			<path fill="none" stroke="#4F2683" stroke-width="0.9554" d="M1.237,26.948l3.836,2.372l4.694-2.372
				c0,0-9.041,54.45,32.759,67.778c41.788-13.5,32.569-67.778,32.569-67.778l4.395,2.694l4.323-2.694c0,0,6.894,67.669-41.287,76.31
				C-8.601,91.414,1.237,26.948,1.237,26.948z"/>
			<path fill="#4F2683" d="M4.113,32.531c-0.588-0.019-0.824,0.004-1.098,0.118c-0.509,0.219-0.842,0.811-0.868,1.588
				c-0.025,0.719,0.234,1.316,0.7,1.594c0.254,0.146,0.495,0.193,1.076,0.214l1.697,0.063c0.632,0.017,0.688,0.01,0.813-0.093
				c0.103-0.075,0.163-0.239,0.169-0.447l0.007-0.212l0.224,0.007l-0.072,1.979l-0.219-0.007l0.004-0.176
				c0.007-0.207-0.038-0.376-0.137-0.458c-0.121-0.111-0.166-0.119-0.805-0.152l-1.811-0.066c-0.609-0.021-0.961-0.109-1.287-0.338
				c-0.6-0.418-0.898-1.193-0.859-2.231c0.032-0.958,0.365-1.654,0.946-2.024c0.35-0.224,0.721-0.296,1.422-0.267l1.764,0.06
				c0.644,0.016,0.691,0.013,0.817-0.09c0.101-0.074,0.158-0.237,0.166-0.44l0.007-0.127l0.22,0.007l-0.083,2.329l-0.225-0.005
				l0.009-0.154c0.007-0.206-0.042-0.375-0.138-0.456c-0.119-0.112-0.164-0.119-0.804-0.155L4.113,32.531z"/>
			<path fill="#4F2683" d="M6.922,38.93l0.01,0.23c-0.112,0.057-0.125,0.109-0.111,0.531l0.134,3.461
				c0.016,0.42,0.034,0.473,0.149,0.522l0.012,0.229l-1.408,0.198l-0.01-0.237c0.797-0.152,0.902-0.256,0.877-0.859l-0.045-1.114
				l-3.648,0.142c-0.46,0.019-0.535,0.025-0.632,0.101c-0.147,0.111-0.202,0.299-0.188,0.685l0.011,0.188L1.85,43.012l-0.111-2.789
				l0.221-0.009l0.011,0.185c0.015,0.429,0.102,0.623,0.301,0.701c0.088,0.034,0.17,0.038,0.575,0.024l3.65-0.144l-0.042-1.113
				c-0.023-0.604-0.148-0.707-0.941-0.792L5.501,38.84L6.922,38.93z"/>
			<path fill="#4F2683" d="M5.875,55.148c-1.589,0.238-2.943-0.848-3.198-2.57c-0.262-1.706,0.615-3.075,2.112-3.302
				c1.582-0.237,2.947,0.847,3.203,2.542C8.253,53.556,7.387,54.924,5.875,55.148z M5.12,50.233
				c-1.431,0.216-2.341,1.25-2.164,2.443c0.169,1.108,1.2,1.726,2.559,1.522c1.457-0.22,2.371-1.224,2.194-2.412
				C7.538,50.626,6.522,50.021,5.12,50.233z"/>
			<path fill="#4F2683" d="M5.776,60.754l4.096,0.676l0.376,1.477l-0.215,0.055l-0.019-0.074c-0.088-0.332-0.208-0.406-0.524-0.324
				c-0.067,0.016-0.121,0.027-0.17,0.051L6.27,63.641c-0.566,0.199-0.535,0.191-0.617,0.27c-0.097,0.082-0.119,0.219-0.058,0.465
				c0.012,0.035,0.015,0.09,0.034,0.156l-0.216,0.055l-0.57-2.242l0.215-0.059c0.15,0.566,0.318,0.676,0.84,0.543
				c0.096-0.023,0.253-0.078,0.413-0.125L9.1,61.762L4.497,60.98l-0.071-0.277l3.556-2.893l-2.865,0.525
				c-0.126,0.023-0.31,0.066-0.404,0.09c-0.454,0.113-0.539,0.27-0.435,0.801l-0.216,0.059l-0.447-1.758l0.217-0.055
				C3.979,58,4.126,58.078,4.779,57.957l2.842-0.529c0.189-0.029,0.271-0.051,0.434-0.092c0.42-0.105,0.489-0.215,0.38-0.641
				l0.216-0.059l0.374,1.477L5.776,60.754z"/>
			<path fill="#4F2683" d="M10.321,65.988l-2.787,1.078c-0.587,0.223-0.639,0.258-0.715,0.402c-0.07,0.129-0.058,0.27,0.04,0.527
				l0.074,0.188l-0.208,0.078l-0.71-1.832l0.205-0.078l0.046,0.109c0.074,0.195,0.188,0.336,0.308,0.367
				c0.151,0.055,0.202,0.043,0.799-0.176l3.197-1.238c0.081-0.254,0.069-0.438-0.021-0.73l0.225-0.086l0.529,1.367l-2.278,4.809
				l2.493-0.965c0.599-0.238,0.637-0.266,0.713-0.406c0.063-0.109,0.056-0.281-0.02-0.477l-0.088-0.223l0.21-0.078l0.711,1.84
				l-0.207,0.078l-0.051-0.133c-0.077-0.191-0.186-0.332-0.305-0.367c-0.157-0.055-0.2-0.047-0.801,0.176l-3.697,1.43l-0.152-0.402
				L10.321,65.988z"/>
			<path fill="#4F2683" d="M14.523,75.977l-0.115-0.219c0.064-0.051,0.115-0.094,0.147-0.117c0.486-0.418,0.503-0.5,0.224-1.023
				l-0.67-1.27l-1.685,0.895l0.593,1.113c0.234,0.438,0.309,0.465,0.841,0.258l0.101,0.195l-1.453,0.77l-0.099-0.191
				c0.479-0.355,0.506-0.434,0.285-0.848l-0.596-1.121l-1.312,0.695c-0.447,0.238-0.487,0.336-0.296,0.703l0.423,0.793
				c0.391,0.734,0.574,0.824,1.374,0.641l0.106,0.203l-1.191,0.492l-2.189-4.117l0.198-0.102l0.14,0.262
				c0.202,0.379,0.36,0.52,0.576,0.496c0.091-0.004,0.169-0.035,0.526-0.227l2.511-1.332c0.556-0.293,0.61-0.34,0.658-0.488
				c0.053-0.133,0.025-0.281-0.097-0.512l-0.095-0.184l0.194-0.102l1.96,3.691L14.523,75.977z"/>
			<path fill="#4F2683" d="M13.626,79.332l0.138,0.203c-0.497,0.582-0.562,1.25-0.177,1.816c0.348,0.504,0.871,0.656,1.274,0.379
				c0.362-0.254,0.444-0.543,0.431-1.488c-0.006-0.773,0.012-1.156,0.062-1.434c0.079-0.438,0.249-0.719,0.537-0.914
				c0.584-0.406,1.346-0.176,1.84,0.539c0.134,0.195,0.243,0.387,0.341,0.645c0.092,0.207,0.104,0.242,0.154,0.316
				c0.059,0.086,0.11,0.117,0.211,0.129l0.117,0.172l-0.951,0.867l-0.138-0.199c0.399-0.578,0.441-1.215,0.104-1.707
				c-0.262-0.379-0.679-0.492-0.999-0.27c-0.354,0.246-0.413,0.535-0.375,1.738c0.05,1.254-0.104,1.73-0.663,2.117
				c-0.682,0.469-1.558,0.191-2.158-0.676c-0.164-0.242-0.239-0.391-0.396-0.793c-0.02-0.07-0.054-0.133-0.084-0.172
				c-0.062-0.094-0.117-0.129-0.2-0.137l-0.11-0.16L13.626,79.332z"/>
			<path fill="#4F2683" d="M21.745,83.574l0.163,0.16c-0.038,0.117-0.009,0.168,0.295,0.457l2.502,2.395
				c0.304,0.289,0.354,0.316,0.468,0.27l0.165,0.16l-0.868,1.121l-0.17-0.16c0.467-0.664,0.469-0.812,0.027-1.227l-0.804-0.773
				l-2.528,2.637c-0.312,0.332-0.362,0.395-0.382,0.512c-0.026,0.188,0.06,0.355,0.344,0.629l0.135,0.125l-0.155,0.16l-2.016-1.93
				l0.153-0.16l0.134,0.129c0.31,0.297,0.508,0.375,0.7,0.289c0.087-0.031,0.151-0.09,0.43-0.379l2.527-2.641l-0.806-0.773
				c-0.437-0.414-0.6-0.402-1.224,0.086l-0.172-0.164L21.745,83.574z"/>
			<path fill="#4F2683" d="M29.005,91.387l-0.202-0.141c0.04-0.078,0.061-0.137,0.074-0.172c0.252-0.594,0.228-0.676-0.252-1.016
				l-1.172-0.828l-1.102,1.555l1.028,0.723c0.405,0.293,0.487,0.285,0.872-0.141l0.176,0.125l-0.95,1.344L27.3,92.711
				c0.268-0.535,0.257-0.613-0.132-0.891l-1.032-0.734l-0.859,1.215c-0.29,0.41-0.282,0.52,0.058,0.758l0.733,0.52
				c0.679,0.484,0.884,0.477,1.511-0.043l0.187,0.133l-0.84,0.977l-3.809-2.691l0.132-0.184l0.243,0.176
				c0.348,0.242,0.556,0.297,0.739,0.184c0.079-0.047,0.133-0.109,0.366-0.441l1.646-2.32c0.357-0.512,0.389-0.578,0.369-0.734
				c-0.016-0.137-0.109-0.258-0.318-0.41l-0.17-0.121l0.128-0.18l3.414,2.414L29.005,91.387z"/>
			<path fill="#4F2683" d="M35.817,98.355c-0.228,0.508-0.221,0.562,0.211,0.75l0.275,0.129l-0.137,0.312l-2.574-1.141l0.141-0.312
				l0.196,0.082c0.307,0.141,0.44,0.156,0.533,0.086c0.035-0.027,0.071-0.074,0.108-0.16l0.062-0.137l0.066-0.129l0.062-0.141
				l1.187-2.668c-0.24,0.027-0.583-0.008-0.965-0.094l0.012-0.328c0.764,0.02,1.384-0.105,2.018-0.395l0.537,0.238L35.817,98.355z"
				/>
			<path fill="#4F2683" d="M41.039,99.773c-0.282,0.863-1.176,1.25-2.166,0.922c-0.96-0.309-1.442-1.07-1.182-1.863
				c0.156-0.484,0.528-0.723,1.26-0.812c-0.46-0.629-0.566-1.027-0.407-1.512c0.262-0.801,1.142-1.18,2.056-0.883
				c0.894,0.289,1.376,0.988,1.148,1.676c-0.15,0.465-0.523,0.707-1.186,0.758C41.118,98.719,41.238,99.16,41.039,99.773z
				 M39.241,98.391c-0.256,0.133-0.491,0.441-0.597,0.766c-0.187,0.57-0.031,1.062,0.383,1.199c0.406,0.129,0.836-0.074,0.968-0.477
				c0.083-0.266,0.032-0.5-0.184-0.805c-0.039-0.055-0.072-0.105-0.111-0.148L39.56,98.77l-0.139-0.168l-0.142-0.16l-0.01-0.02
				l-0.019-0.012L39.241,98.391z M40.798,97.031c0.169-0.512,0.02-0.941-0.38-1.07c-0.354-0.117-0.685,0.051-0.8,0.406
				c-0.082,0.254-0.04,0.469,0.162,0.758c0.09,0.125,0.271,0.355,0.455,0.551c0.031,0.035,0.054,0.066,0.054,0.066
				C40.514,97.609,40.694,97.359,40.798,97.031z"/>
			<path fill="#4F2683" d="M45.367,96.719l-1.931,0.445l0.148,0.812c0.331-0.164,0.482-0.219,0.704-0.27
				c0.997-0.23,1.88,0.324,2.108,1.324c0.237,1.004-0.426,1.941-1.543,2.199c-0.755,0.176-1.345,0.004-1.442-0.418
				c-0.058-0.266,0.092-0.504,0.351-0.562c0.192-0.047,0.378,0.031,0.615,0.25c0.346,0.324,0.376,0.34,0.567,0.297
				c0.353-0.082,0.528-0.555,0.399-1.098c-0.16-0.703-0.608-1.062-1.178-0.93c-0.193,0.047-0.325,0.113-0.489,0.262l-0.311-0.094
				l-0.475-2.629l1.476-0.34c0.597-0.137,0.562-0.121,0.591-0.262l0.32-0.074L45.367,96.719z"/>
			<path fill="#4F2683" d="M49.371,94.27c-0.776,0.77-1.055,1.531-0.885,2.406c0.253-0.23,0.478-0.379,0.719-0.469
				c0.732-0.273,1.429,0.117,1.737,0.953c0.386,1.051,0.006,1.922-0.993,2.293c-1.028,0.379-1.977-0.168-2.428-1.387
				c-0.576-1.566,0.057-3.18,1.583-4.016L49.371,94.27z M48.873,98.121c0.284,0.781,0.574,1.082,0.913,0.961
				c0.341-0.129,0.361-0.461,0.062-1.266c-0.322-0.883-0.557-1.145-0.896-1.023c-0.06,0.027-0.149,0.082-0.225,0.141
				c-0.021,0.016-0.044,0.043-0.084,0.074c-0.045,0.051-0.058,0.074-0.057,0.074C48.615,97.344,48.715,97.699,48.873,98.121z"/>
			<path fill="#4F2683" d="M60.545,93.586c-0.104,0.023-0.165,0.047-0.268,0.113c-0.126,0.086-0.12,0.082-0.582,0.531
				c-0.252,0.246-0.407,0.367-0.699,0.566c-1.451,0.977-2.971,0.77-3.838-0.516c-0.934-1.387-0.565-3,0.912-3.996
				c0.269-0.18,0.529-0.324,0.813-0.438c0.1-0.039-0.097,0.031,0.619-0.223c0.069-0.027,0.158-0.07,0.196-0.098
				c0.061-0.039,0.083-0.074,0.098-0.125l0.171-0.121l0.794,1.102l-0.208,0.137c-0.71-0.527-1.536-0.551-2.271-0.055
				c-1.037,0.699-1.208,1.91-0.424,3.078c0.801,1.191,2.177,1.547,3.237,0.836c0.638-0.43,0.993-1.215,0.937-2.098l0.202-0.137
				L60.545,93.586z"/>
			<path fill="#4F2683" d="M65.021,85.895c1.129,1.141,1.047,2.875-0.191,4.098c-1.234,1.215-2.856,1.312-3.918,0.234
				c-1.12-1.141-1.048-2.883,0.17-4.086C62.333,84.906,63.952,84.805,65.021,85.895z M61.49,89.395
				c1.013,1.035,2.385,1.16,3.245,0.312c0.801-0.789,0.695-1.98-0.267-2.965c-1.039-1.051-2.389-1.203-3.242-0.359
				C60.386,87.211,60.492,88.387,61.49,89.395z"/>
			<path fill="#4F2683" d="M70.874,81.852c-0.217,0.895-0.474,1.516-0.853,2.043c-0.986,1.371-2.458,1.688-3.705,0.789
				c-1.358-0.98-1.614-2.594-0.629-3.969c0.257-0.352,0.448-0.555,0.858-0.898c0.152-0.133,0.216-0.195,0.266-0.27
				c0.064-0.086,0.082-0.148,0.053-0.227l0.133-0.184l1.224,0.879l-0.146,0.199c-0.819-0.367-1.576-0.176-2.068,0.504
				c-0.72,1-0.406,2.223,0.798,3.09c1.143,0.824,2.382,0.719,3.084-0.254c0.221-0.305,0.344-0.621,0.395-1.008l-0.625-0.449
				c-0.372-0.266-0.439-0.309-0.56-0.309c-0.185-0.004-0.346,0.109-0.57,0.426l-0.125,0.176l-0.18-0.129l1.424-1.98l0.178,0.133
				c-0.09,0.125-0.145,0.277-0.145,0.383c0.016,0.176,0.06,0.23,0.599,0.633L70.874,81.852z"/>
			<path fill="#4F2683" d="M69.316,77.066l2.649,1.379c0.556,0.289,0.617,0.305,0.78,0.27c0.141-0.031,0.237-0.137,0.363-0.379
				l0.092-0.18l0.196,0.102l-0.908,1.746l-0.195-0.105l0.058-0.105c0.097-0.184,0.126-0.359,0.073-0.473
				c-0.059-0.152-0.105-0.18-0.662-0.48l-3.043-1.586c-0.239,0.109-0.374,0.234-0.529,0.5l-0.218-0.113l0.678-1.301l5.115-1.465
				l-2.371-1.234c-0.576-0.289-0.617-0.305-0.776-0.266c-0.124,0.02-0.249,0.145-0.344,0.328l-0.11,0.211l-0.196-0.102l0.912-1.75
				l0.196,0.102l-0.069,0.129c-0.092,0.184-0.123,0.359-0.07,0.473c0.061,0.148,0.095,0.18,0.663,0.48l3.511,1.828l-0.204,0.387
				L69.316,77.066z"/>
			<path fill="#4F2683" d="M75.771,66.148c1.503,0.566,2.155,2.172,1.545,3.805c-0.605,1.617-2.038,2.387-3.453,1.855
				c-1.497-0.562-2.164-2.176-1.566-3.777C72.916,66.387,74.342,65.613,75.771,66.148z M74.037,70.816
				c1.354,0.504,2.653,0.043,3.074-1.086c0.396-1.055-0.199-2.09-1.49-2.578c-1.382-0.516-2.666-0.082-3.09,1.039
				C72.118,69.293,72.707,70.316,74.037,70.816z"/>
			<path fill="#4F2683" d="M77.645,64.391l0.065-0.238c0.771,0.008,1.324-0.371,1.506-1.035c0.165-0.59-0.054-1.086-0.525-1.215
				c-0.43-0.117-0.703,0.004-1.418,0.625c-0.591,0.5-0.895,0.734-1.136,0.871c-0.389,0.219-0.712,0.273-1.051,0.18
				c-0.685-0.188-1.002-0.918-0.767-1.758c0.063-0.23,0.143-0.438,0.271-0.676c0.102-0.203,0.125-0.238,0.147-0.316
				c0.024-0.105,0.019-0.164-0.035-0.25l0.052-0.199l1.28,0.172l-0.067,0.234c-0.7,0.062-1.215,0.441-1.377,1.016
				c-0.12,0.441,0.065,0.836,0.443,0.938c0.409,0.117,0.669-0.02,1.565-0.828c0.934-0.844,1.398-1.031,2.053-0.852
				c0.797,0.219,1.148,1.07,0.868,2.086c-0.08,0.277-0.146,0.438-0.354,0.816c-0.039,0.059-0.063,0.125-0.076,0.176
				c-0.03,0.102-0.025,0.168,0.025,0.238l-0.054,0.191L77.645,64.391z"/>
			<path fill="#4F2683" d="M81.371,54.371c-0.059,0.086-0.081,0.145-0.105,0.262c-0.029,0.152-0.028,0.145-0.041,0.787
				c-0.008,0.35-0.03,0.549-0.1,0.896c-0.342,1.715-1.564,2.637-3.082,2.336c-1.643-0.324-2.517-1.73-2.171-3.477
				c0.063-0.32,0.151-0.602,0.271-0.883c0.044-0.098-0.049,0.09,0.281-0.597c0.031-0.063,0.065-0.159,0.073-0.205
				c0.013-0.068,0.005-0.105-0.021-0.16l0.04-0.203l1.334,0.218l-0.049,0.248c-0.875,0.124-1.479,0.689-1.651,1.559
				c-0.247,1.23,0.487,2.207,1.866,2.484c1.41,0.279,2.636-0.434,2.887-1.688c0.147-0.758-0.149-1.566-0.812-2.149l0.043-0.238
				L81.371,54.371z"/>
			<path fill="#4F2683" d="M76.89,49.156l0.119-0.908l4.417-1.043c0.635-0.159,0.771-0.254,0.823-0.652l0.011-0.092l0.218,0.03
				l-0.307,2.412l-0.221-0.03l0.017-0.135c0.067-0.502,0.015-0.693-0.209-0.721c-0.073-0.01-0.223,0.009-0.438,0.066l-1.068,0.257
				l-0.232,1.858l1.021,0.529c0.133,0.073,0.249,0.111,0.342,0.121c0.228,0.029,0.334-0.122,0.394-0.609l0.019-0.158l0.221,0.025
				l-0.253,1.985l-0.217-0.027c0.059-0.537-0.012-0.648-0.636-0.973l-3.827-1.987L76.89,49.156z M79.832,48.438l-2.159,0.521
				l1.964,1.037L79.832,48.438z"/>
			<path fill="#4F2683" d="M77.974,43.262l2.979,0.183c0.628,0.037,0.69,0.027,0.818-0.072c0.118-0.085,0.167-0.22,0.18-0.493
				l0.015-0.2l0.22,0.013l-0.118,1.961l-0.221-0.012l0.005-0.124c0.015-0.205-0.029-0.374-0.125-0.456
				c-0.114-0.114-0.166-0.127-0.797-0.175l-3.43-0.209c-0.172,0.195-0.243,0.366-0.276,0.674l-0.245-0.017l0.093-1.462l4.075-3.421
				l-2.672-0.164c-0.64-0.031-0.688-0.025-0.817,0.071c-0.101,0.073-0.163,0.237-0.18,0.442l-0.012,0.237l-0.222-0.016l0.12-1.967
				l0.22,0.013l-0.006,0.145c-0.015,0.205,0.03,0.379,0.125,0.463c0.112,0.109,0.156,0.121,0.797,0.169l3.956,0.242l-0.028,0.436
				L77.974,43.262z"/>
			<path fill="#4F2683" d="M77.263,36.33v-0.229c0.112-0.054,0.128-0.109,0.128-0.526l-0.017-3.464
				c-0.003-0.42-0.02-0.475-0.131-0.527l-0.001-0.229l1.413-0.154v0.239c-0.803,0.125-0.909,0.226-0.906,0.826l0.003,1.12
				l3.654-0.016c0.459-0.005,0.535-0.012,0.632-0.082c0.153-0.108,0.216-0.29,0.215-0.681v-0.185h0.221l0.01,2.79l-0.221,0.001
				v-0.183c-0.002-0.432-0.079-0.626-0.277-0.712c-0.085-0.037-0.168-0.044-0.574-0.041l-3.654,0.016l0.006,1.115
				c0.004,0.603,0.123,0.71,0.913,0.821v0.238L77.263,36.33z"/>
		</g>
		<path fill="#4F2683" d="M17.188,30.908c-0.044-0.031-0.097-0.061-0.146-0.086c-0.039-0.027-0.08-0.05-0.126-0.075l-0.171,0.248
			c0.05,0.116,0.103,0.224,0.168,0.313L17.188,30.908"/>
		<path fill="#FFFFFF" d="M35.896,56.352L35.896,56.352 M50.826,55.908l1.551-3.389l-0.417,0.05
			c-0.647,0.073-1.41,0.227-2.153,1.063l-0.091,0.098l0.041,0.131c0.078,0.232,0.115,0.521,0.112,0.816
			c-0.167-0.295-0.38-0.533-0.639-0.668c-0.438-0.229-0.89-0.22-1.267,0.02c-0.448,0.287-0.72,0.857-0.689,1.455l0.014,0.422
			l0.351-0.234c0.272-0.18,0.479-0.254,0.729-0.109c0.124,0.07,0.214,0.197,0.274,0.365c-0.104,0.107-0.187,0.256-0.222,0.424
			c-0.016,0.061-0.024,0.119-0.024,0.18c0,0.139,0.039,0.264,0.114,0.359c0.03,0.037,0.065,0.062,0.104,0.092
			c-0.07,0.164-0.175,0.342-0.319,0.521h-0.338c-0.551-0.164-1.037-0.863-1.403-1.461l-0.186-0.307l-0.213,0.295
			c-0.352,0.496-0.789,0.863-1.741,1.473h-0.562c-0.064-0.084-0.233-0.309-0.348-0.551H43.6c0.438,0,0.787-0.354,0.787-0.789
			c0-0.41-0.317-0.74-0.722-0.777c0.022-0.137,0.101-0.32,0.232-0.457c0.095-0.094,0.19-0.137,0.289-0.125
			c0.082,0.016,0.141,0.078,0.176,0.129c0.09,0.127,0.126,0.314,0.092,0.469l-0.086,0.387l0.375-0.105
			c0.409-0.113,0.78-0.611,0.871-1.164c0.089-0.54-0.116-1.021-0.558-1.312c-0.354-0.237-0.825-0.26-1.255-0.068
			c-0.139,0.062-0.311,0.165-0.49,0.338c0.125-0.219,0.275-0.422,0.464-0.593l0.116-0.107l-0.047-0.15
			c-0.092-0.251-0.742-1.393-1.594-1.81l-0.104-0.049l-0.105,0.055c-0.948,0.484-1.478,1.49-1.587,1.804l-0.049,0.15l0.111,0.107
			c0.193,0.171,0.345,0.374,0.47,0.591c-0.178-0.171-0.35-0.274-0.493-0.336c-0.428-0.191-0.896-0.169-1.256,0.068
			c-0.442,0.29-0.638,0.771-0.555,1.312c0.088,0.553,0.467,1.051,0.868,1.164l0.379,0.105l-0.09-0.387
			c-0.029-0.154,0.004-0.342,0.092-0.469c0.037-0.051,0.096-0.113,0.18-0.129c0.096-0.012,0.192,0.031,0.286,0.125
			c0.139,0.139,0.212,0.328,0.233,0.463c-0.366,0.068-0.65,0.387-0.65,0.771c0,0.436,0.354,0.789,0.785,0.789h0.019
			c-0.146,0.281-0.373,0.518-0.377,0.518l0.031,0.033h-0.564c-0.954-0.609-1.386-0.977-1.742-1.473l-0.209-0.295l-0.188,0.307
			c-0.486,0.797-1.023,1.32-1.489,1.461h-0.223c-0.127-0.156-0.231-0.348-0.31-0.531c0.033-0.023,0.06-0.051,0.091-0.082
			c0.079-0.096,0.118-0.221,0.118-0.359c0-0.061-0.011-0.119-0.026-0.18c-0.034-0.168-0.123-0.316-0.224-0.424
			c0.063-0.168,0.151-0.295,0.274-0.365c0.254-0.145,0.462-0.07,0.729,0.109l0.352,0.234l0.021-0.422
			c0.024-0.598-0.249-1.168-0.697-1.455c-0.378-0.239-0.825-0.248-1.265-0.02c-0.262,0.135-0.476,0.367-0.642,0.658
			c0-0.293,0.034-0.578,0.113-0.807L34.6,53.73l-0.092-0.098c-0.743-0.837-1.501-0.99-2.152-1.063l-0.423-0.05l0.182,0.385
			l1.402,2.975c-0.007,0.012-0.021,0.018-0.03,0.033c-0.108,0.133-0.14,0.334-0.095,0.541c0.08,0.342,0.341,0.596,0.611,0.596h0.068
			l0.216,0.455h-0.022l1.171,2.516h13.498l1.169-2.516h-0.006l0.208-0.455h0.006c0.271,0,0.535-0.254,0.613-0.594
			c0.048-0.209,0.013-0.41-0.09-0.543C50.826,55.908,50.826,55.908,50.826,55.908z"/>
		<path fill="none" stroke="#4F2683" stroke-width="0.4718" d="M50.826,55.908l1.551-3.389l-0.417,0.05
			c-0.647,0.073-1.41,0.227-2.153,1.063l-0.091,0.098l0.041,0.131c0.078,0.232,0.115,0.521,0.112,0.816
			c-0.167-0.295-0.38-0.533-0.639-0.668c-0.438-0.229-0.89-0.22-1.267,0.02c-0.448,0.287-0.72,0.857-0.689,1.455l0.014,0.422
			l0.351-0.234c0.272-0.18,0.479-0.254,0.729-0.109c0.124,0.07,0.214,0.197,0.274,0.365c-0.104,0.107-0.187,0.256-0.222,0.424
			c-0.016,0.061-0.024,0.119-0.024,0.18c0,0.139,0.039,0.264,0.114,0.359c0.03,0.037,0.065,0.062,0.104,0.092
			c-0.07,0.164-0.175,0.342-0.319,0.521h-0.338c-0.551-0.164-1.037-0.863-1.403-1.461l-0.186-0.307l-0.213,0.295
			c-0.352,0.496-0.789,0.863-1.741,1.473h-0.562c-0.064-0.084-0.233-0.309-0.348-0.551H43.6c0.438,0,0.787-0.354,0.787-0.789
			c0-0.41-0.317-0.74-0.722-0.777c0.022-0.137,0.101-0.32,0.232-0.457c0.095-0.094,0.19-0.137,0.289-0.125
			c0.082,0.016,0.141,0.078,0.176,0.129c0.09,0.127,0.126,0.314,0.092,0.469l-0.086,0.387l0.375-0.105
			c0.409-0.113,0.78-0.611,0.871-1.164c0.089-0.54-0.116-1.021-0.558-1.312c-0.354-0.237-0.825-0.26-1.255-0.068
			c-0.139,0.062-0.311,0.165-0.49,0.338c0.125-0.219,0.275-0.422,0.464-0.593l0.116-0.107l-0.047-0.15
			c-0.092-0.251-0.742-1.393-1.594-1.81l-0.104-0.049l-0.105,0.055c-0.948,0.484-1.478,1.49-1.587,1.804l-0.049,0.15l0.111,0.107
			c0.193,0.171,0.345,0.374,0.47,0.591c-0.178-0.171-0.35-0.274-0.493-0.336c-0.428-0.191-0.896-0.169-1.256,0.068
			c-0.442,0.29-0.638,0.771-0.555,1.312c0.088,0.553,0.467,1.051,0.868,1.164l0.379,0.105l-0.09-0.387
			c-0.029-0.154,0.004-0.342,0.092-0.469c0.037-0.051,0.096-0.113,0.18-0.129c0.096-0.012,0.192,0.031,0.286,0.125
			c0.139,0.139,0.212,0.328,0.233,0.463c-0.366,0.068-0.65,0.387-0.65,0.771c0,0.436,0.354,0.789,0.785,0.789h0.019
			c-0.146,0.281-0.373,0.518-0.377,0.518l0.031,0.033h-0.564c-0.954-0.609-1.386-0.977-1.742-1.473l-0.209-0.295l-0.188,0.307
			c-0.486,0.797-1.023,1.32-1.489,1.461h-0.223c-0.127-0.156-0.231-0.348-0.31-0.531c0.033-0.023,0.06-0.051,0.091-0.082
			c0.079-0.096,0.118-0.221,0.118-0.359c0-0.061-0.011-0.119-0.026-0.18c-0.034-0.168-0.123-0.316-0.224-0.424
			c0.063-0.168,0.151-0.295,0.274-0.365c0.254-0.145,0.462-0.07,0.729,0.109l0.352,0.234l0.021-0.422
			c0.024-0.598-0.249-1.168-0.697-1.455c-0.378-0.239-0.825-0.248-1.265-0.02c-0.262,0.135-0.476,0.367-0.642,0.658
			c0-0.293,0.034-0.578,0.113-0.807L34.6,53.73l-0.092-0.098c-0.743-0.837-1.501-0.99-2.152-1.063l-0.423-0.05l0.182,0.385
			l1.402,2.975c-0.007,0.012-0.021,0.018-0.03,0.033c-0.108,0.133-0.14,0.334-0.095,0.541c0.08,0.342,0.341,0.596,0.611,0.596h0.068
			l0.216,0.455h-0.022l1.171,2.516h13.498l1.169-2.516h-0.006l0.208-0.455h0.006c0.271,0,0.535-0.254,0.613-0.594
			c0.048-0.209,0.013-0.41-0.09-0.543C50.826,55.908,50.826,55.908,50.826,55.908z"/>
		<polyline fill="#FFFFFF" points="50.297,72.828 42.234,84.469 34.169,72.832 42.234,61.188 50.297,72.828 		"/>
		<path fill="#4F2683" d="M41.845,60.914l-8.25,11.918l8.64,12.469l8.637-12.473l-8.637-12.473L41.845,60.914"/>
		<path fill="#4F2683" d="M70.05,29.46l-0.163-0.992l-0.75,0.67c-4.241,3.793-17.405,6.902-26.401-0.941l-0.359-0.314l-0.366,0.314
			c-8.996,7.844-22.164,4.734-26.403,0.941l-0.748-0.67l-0.159,0.992c-3.03,18.694,2.068,32.349,6.876,40.509
			c6.338,10.746,14.803,16.762,20.611,18.805l0.189,0.062l0.182-0.062c5.808-2.043,14.272-8.059,20.608-18.805
			C67.977,61.809,73.079,48.154,70.05,29.46 M67.688,32.938c0,0.548-0.138,1.061-0.392,1.441l-0.113,0.171l0.113,0.169
			c0.254,0.382,0.392,0.895,0.392,1.444c0,0.549-0.138,1.062-0.392,1.438l-0.113,0.173l0.113,0.167
			c0.254,0.383,0.392,0.894,0.392,1.442s-0.138,1.062-0.392,1.444l-0.113,0.171l0.113,0.169c0.254,0.381,0.392,0.894,0.392,1.439
			c0,0.55-0.138,1.063-0.392,1.442l-0.113,0.171l0.113,0.171c0.254,0.383,0.392,0.893,0.392,1.442s-0.138,1.061-0.392,1.441
			l-0.113,0.171l0.113,0.169c0.254,0.38,0.392,0.893,0.392,1.442c0,0.179-0.041,0.35-0.078,0.521h-2.861
			c-0.034-0.169-0.071-0.336-0.071-0.521c0-0.547,0.135-1.062,0.391-1.442l0.108-0.169l-0.108-0.171
			c-0.256-0.381-0.391-0.892-0.391-1.441s0.135-1.06,0.391-1.442l0.108-0.171l-0.108-0.171c-0.256-0.379-0.391-0.893-0.391-1.442
			c0-0.546,0.135-1.059,0.391-1.439l0.108-0.169l-0.108-0.171c-0.256-0.382-0.391-0.896-0.391-1.444s0.135-1.06,0.391-1.442
			l0.108-0.167l-0.108-0.173c-0.256-0.377-0.391-0.89-0.391-1.438c0-0.55,0.135-1.062,0.391-1.444l0.108-0.169l-0.108-0.171
			c-0.256-0.381-0.391-0.894-0.391-1.441c0-0.062,0.01-0.135,0.021-0.206c0.963-0.335,1.854-0.712,2.649-1.125
			C67.562,31.977,67.688,32.435,67.688,32.938z M58.688,49.058c0-0.55,0.14-1.062,0.392-1.442l0.112-0.169l-0.112-0.171
			c-0.252-0.381-0.392-0.892-0.392-1.441s0.14-1.06,0.392-1.442l0.112-0.171L59.08,44.05c-0.252-0.379-0.392-0.893-0.392-1.442
			c0-0.546,0.14-1.059,0.392-1.439l0.112-0.169l-0.112-0.171c-0.252-0.382-0.392-0.895-0.392-1.444c0-0.549,0.14-1.06,0.392-1.442
			l0.112-0.167l-0.112-0.173c-0.252-0.377-0.392-0.89-0.392-1.438c0-0.55,0.14-1.062,0.392-1.444l0.112-0.169l-0.112-0.171
			c-0.071-0.107-0.112-0.253-0.159-0.386c0.923-0.091,1.812-0.241,2.678-0.417c-0.059,0.299-0.146,0.579-0.291,0.803l-0.108,0.171
			l0.108,0.169c0.258,0.382,0.394,0.895,0.394,1.444c0,0.549-0.136,1.062-0.394,1.438l-0.108,0.173l0.108,0.167
			c0.258,0.383,0.394,0.894,0.394,1.442s-0.136,1.062-0.394,1.444l-0.108,0.171l0.108,0.169c0.258,0.381,0.394,0.894,0.394,1.439
			c0,0.55-0.136,1.063-0.394,1.442l-0.108,0.171l0.108,0.171c0.258,0.383,0.394,0.893,0.394,1.442s-0.136,1.061-0.394,1.441
			l-0.108,0.171l0.108,0.169c0.258,0.38,0.394,0.896,0.394,1.442c0,0.179-0.038,0.35-0.077,0.521h-2.862
			C58.73,49.407,58.688,49.236,58.688,49.058z M61.902,47.446c0.253-0.458,0.416-1.013,0.416-1.612c0-0.599-0.163-1.155-0.416-1.613
			c0.253-0.456,0.416-1.011,0.416-1.613c0-0.596-0.163-1.152-0.416-1.608c0.253-0.459,0.416-1.016,0.416-1.615
			c0-0.599-0.163-1.152-0.416-1.609c0.253-0.459,0.416-1.016,0.416-1.611c0-0.6-0.163-1.156-0.416-1.613
			c0.182-0.323,0.29-0.705,0.354-1.11c0.618-0.145,1.225-0.304,1.805-0.484c0,0.591,0.162,1.137,0.414,1.595
			c-0.258,0.457-0.416,1.014-0.416,1.613c0,0.596,0.158,1.152,0.416,1.611c-0.258,0.457-0.416,1.011-0.416,1.609
			c0,0.6,0.158,1.154,0.416,1.615c-0.258,0.456-0.416,1.013-0.416,1.608c0,0.603,0.158,1.157,0.416,1.613
			c-0.258,0.458-0.416,1.015-0.416,1.613c0,0.6,0.158,1.154,0.416,1.612c-0.258,0.461-0.416,1.012-0.416,1.611
			c0,0.179,0.049,0.348,0.073,0.521h-1.89c0.023-0.173,0.076-0.342,0.076-0.521C62.318,48.458,62.155,47.907,61.902,47.446z
			 M58.302,34.035c0.059,0.176,0.097,0.372,0.185,0.524c-0.26,0.456-0.412,1.006-0.412,1.604c0,0.596,0.154,1.152,0.413,1.611
			c-0.259,0.457-0.413,1.011-0.413,1.609c0,0.6,0.154,1.156,0.413,1.615c-0.259,0.456-0.413,1.013-0.413,1.608
			c0,0.603,0.154,1.157,0.413,1.613c-0.259,0.458-0.413,1.015-0.413,1.613c0,0.6,0.154,1.156,0.413,1.612
			c-0.259,0.461-0.413,1.012-0.413,1.611c0,0.179,0.047,0.348,0.072,0.521h-1.891c0.026-0.173,0.077-0.342,0.077-0.521
			c0-0.6-0.159-1.15-0.416-1.611c0.257-0.456,0.416-1.013,0.416-1.612c0-0.599-0.159-1.155-0.416-1.613
			c0.257-0.456,0.416-1.011,0.416-1.613c0-0.596-0.159-1.152-0.416-1.608c0.257-0.459,0.416-1.016,0.416-1.615
			c0-0.599-0.159-1.152-0.416-1.609c0.257-0.459,0.416-1.016,0.416-1.611c0-0.598-0.158-1.147-0.415-1.604
			c0.074-0.132,0.113-0.302,0.169-0.456C56.834,34.114,57.572,34.089,58.302,34.035z M28.757,49.058
			c0-0.547,0.141-1.062,0.392-1.442l0.113-0.169l-0.113-0.171c-0.251-0.381-0.392-0.892-0.392-1.441s0.141-1.06,0.392-1.442
			l0.113-0.171l-0.113-0.171c-0.251-0.379-0.392-0.893-0.392-1.442c0-0.546,0.141-1.059,0.392-1.439l0.113-0.169l-0.113-0.171
			c-0.251-0.382-0.392-0.896-0.392-1.444s0.141-1.06,0.392-1.442l0.113-0.167l-0.113-0.173c-0.251-0.377-0.392-0.89-0.392-1.438
			c0-0.55,0.141-1.062,0.392-1.444l0.113-0.169l-0.113-0.171c-0.05-0.077-0.083-0.18-0.122-0.275
			c0.838-0.019,1.683-0.08,2.536-0.189c-0.055,0.164-0.098,0.338-0.184,0.465l-0.11,0.171l0.11,0.169
			c0.251,0.382,0.389,0.895,0.389,1.444c0,0.549-0.138,1.062-0.389,1.438l-0.11,0.173l0.11,0.167
			c0.251,0.383,0.389,0.894,0.389,1.442s-0.138,1.062-0.389,1.444l-0.11,0.171l0.11,0.169c0.251,0.381,0.389,0.894,0.389,1.439
			c0,0.55-0.138,1.063-0.389,1.442l-0.11,0.171l0.11,0.171c0.251,0.383,0.389,0.893,0.389,1.442s-0.138,1.061-0.389,1.441
			l-0.11,0.171l0.11,0.169c0.251,0.38,0.389,0.896,0.389,1.442c0,0.179-0.041,0.35-0.072,0.521h-2.862
			C28.796,49.409,28.757,49.242,28.757,49.058z M31.97,47.446c0.259-0.458,0.417-1.013,0.417-1.612c0-0.599-0.158-1.155-0.417-1.613
			c0.259-0.456,0.417-1.011,0.417-1.613c0-0.596-0.158-1.152-0.417-1.608c0.259-0.459,0.417-1.016,0.417-1.615
			c0-0.599-0.158-1.152-0.417-1.609c0.259-0.459,0.417-1.016,0.417-1.611c0-0.598-0.158-1.149-0.417-1.604
			c0.133-0.227,0.223-0.49,0.291-0.758c0.645-0.103,1.284-0.237,1.931-0.396c0.059,0.417,0.165,0.81,0.354,1.145
			c-0.258,0.457-0.417,1.014-0.417,1.613c0,0.596,0.159,1.152,0.417,1.611c-0.258,0.457-0.417,1.011-0.417,1.609
			c0,0.6,0.159,1.154,0.417,1.615c-0.258,0.456-0.417,1.013-0.417,1.608c0,0.603,0.159,1.157,0.417,1.613
			c-0.258,0.458-0.417,1.015-0.417,1.613c0,0.6,0.159,1.154,0.417,1.612c-0.258,0.461-0.417,1.012-0.417,1.611
			c0,0.179,0.047,0.348,0.072,0.521h-1.887c0.024-0.173,0.073-0.342,0.073-0.521C32.387,48.458,32.229,47.907,31.97,47.446z
			 M37.626,32.226c0.065,0.23,0.127,0.458,0.127,0.712c0,0.548-0.136,1.061-0.387,1.441l-0.111,0.171l0.111,0.169
			c0.251,0.382,0.387,0.895,0.387,1.444c0,0.549-0.136,1.062-0.387,1.438l-0.111,0.173l0.111,0.167
			c0.251,0.383,0.387,0.894,0.387,1.442s-0.136,1.062-0.387,1.444l-0.111,0.171l0.111,0.169c0.251,0.381,0.387,0.894,0.387,1.439
			c0,0.55-0.136,1.063-0.387,1.442l-0.111,0.171l0.111,0.171c0.251,0.383,0.387,0.893,0.387,1.442s-0.136,1.061-0.387,1.441
			l-0.111,0.171l0.111,0.169c0.251,0.38,0.387,0.896,0.387,1.442c0,0.179-0.036,0.35-0.075,0.521H34.82
			c-0.038-0.169-0.076-0.336-0.076-0.521c0-0.547,0.14-1.062,0.392-1.442l0.114-0.169l-0.114-0.171
			c-0.252-0.381-0.392-0.892-0.392-1.441s0.14-1.06,0.392-1.442l0.114-0.171l-0.114-0.171c-0.252-0.379-0.392-0.893-0.392-1.442
			c0-0.546,0.14-1.059,0.392-1.439l0.114-0.169l-0.114-0.171c-0.252-0.382-0.392-0.896-0.392-1.444s0.14-1.06,0.392-1.442
			l0.114-0.167l-0.114-0.173c-0.252-0.377-0.392-0.89-0.392-1.438c0-0.55,0.14-1.062,0.392-1.444l0.114-0.169l-0.114-0.171
			c-0.203-0.301-0.306-0.702-0.348-1.125C35.746,32.985,36.688,32.641,37.626,32.226z M37.957,47.446
			c0.257-0.458,0.417-1.013,0.417-1.612c0-0.599-0.16-1.155-0.417-1.613c0.257-0.456,0.417-1.011,0.417-1.613
			c0-0.596-0.16-1.152-0.417-1.608c0.257-0.459,0.417-1.016,0.417-1.615c0-0.599-0.16-1.152-0.417-1.609
			c0.257-0.459,0.417-1.016,0.417-1.611c0-0.6-0.16-1.156-0.417-1.613c0.257-0.458,0.417-1.015,0.417-1.612
			c0-0.341-0.065-0.671-0.157-0.986c0.703-0.333,1.398-0.714,2.08-1.146c0.06,0.186,0.14,0.365,0.229,0.527
			c-0.254,0.456-0.411,1.006-0.411,1.604c0,0.598,0.158,1.151,0.415,1.612c-0.257,0.457-0.415,1.014-0.415,1.613
			c0,0.596,0.158,1.152,0.415,1.611c-0.257,0.457-0.415,1.011-0.415,1.609c0,0.6,0.158,1.154,0.415,1.615
			c-0.257,0.456-0.415,1.013-0.415,1.608c0,0.603,0.158,1.157,0.415,1.613c-0.257,0.458-0.415,1.015-0.415,1.613
			c0,0.6,0.158,1.154,0.415,1.612c-0.257,0.461-0.415,1.012-0.415,1.611c0,0.179,0.049,0.348,0.073,0.521h-1.89
			c0.024-0.173,0.075-0.342,0.075-0.521C38.374,48.458,38.214,47.907,37.957,47.446z M42.376,29.31
			c0.415,0.347,0.85,0.654,1.281,0.958c-0.056,0.335-0.149,0.65-0.309,0.89l-0.109,0.165l0.109,0.175
			c0.256,0.379,0.395,0.89,0.395,1.44c0,0.548-0.139,1.061-0.395,1.441l-0.109,0.171l0.109,0.169
			c0.256,0.382,0.395,0.895,0.395,1.444c0,0.549-0.139,1.062-0.395,1.438l-0.109,0.173l0.109,0.167
			c0.256,0.383,0.395,0.894,0.395,1.442s-0.139,1.062-0.395,1.444l-0.109,0.171l0.109,0.169c0.256,0.381,0.395,0.894,0.395,1.439
			c0,0.55-0.139,1.063-0.395,1.442l-0.109,0.171l0.109,0.171c0.256,0.383,0.395,0.893,0.395,1.442s-0.139,1.061-0.395,1.441
			l-0.109,0.171l0.109,0.169c0.256,0.38,0.395,0.893,0.395,1.442c0,0.179-0.041,0.35-0.078,0.521h-2.858
			c-0.037-0.169-0.077-0.336-0.077-0.521c0-0.547,0.14-1.062,0.39-1.442l0.114-0.169l-0.114-0.171
			c-0.25-0.381-0.39-0.892-0.39-1.441s0.14-1.06,0.39-1.442l0.114-0.171l-0.114-0.171c-0.25-0.379-0.39-0.893-0.39-1.442
			c0-0.546,0.14-1.059,0.39-1.439l0.114-0.169l-0.114-0.171c-0.25-0.382-0.39-0.896-0.39-1.444s0.14-1.06,0.39-1.442l0.114-0.167
			l-0.114-0.173c-0.25-0.377-0.39-0.89-0.39-1.438c0-0.55,0.14-1.062,0.39-1.444l0.114-0.169l-0.114-0.171
			c-0.25-0.381-0.39-0.894-0.39-1.441c0-0.551,0.14-1.06,0.39-1.44l0.114-0.175l-0.114-0.165c-0.127-0.196-0.19-0.459-0.252-0.723
			C41.378,30.083,41.882,29.716,42.376,29.31z M43.945,47.446c0.253-0.458,0.411-1.013,0.411-1.612c0-0.599-0.158-1.155-0.411-1.613
			c0.253-0.456,0.411-1.011,0.411-1.613c0-0.596-0.158-1.152-0.411-1.608c0.253-0.459,0.411-1.016,0.411-1.615
			c0-0.599-0.158-1.152-0.411-1.609c0.253-0.459,0.411-1.016,0.411-1.611c0-0.6-0.158-1.156-0.411-1.613
			c0.253-0.458,0.411-1.015,0.411-1.612c0-0.599-0.155-1.155-0.409-1.609c0.108-0.202,0.2-0.422,0.271-0.661
			c0.675,0.444,1.372,0.83,2.075,1.18c-0.114,0.342-0.194,0.707-0.194,1.091c0,0.598,0.159,1.154,0.417,1.612
			c-0.258,0.457-0.417,1.014-0.417,1.613c0,0.596,0.159,1.152,0.417,1.611c-0.258,0.457-0.417,1.011-0.417,1.609
			c0,0.6,0.159,1.156,0.417,1.615c-0.258,0.456-0.417,1.013-0.417,1.608c0,0.603,0.159,1.157,0.417,1.613
			c-0.258,0.458-0.417,1.015-0.417,1.613c0,0.6,0.159,1.154,0.417,1.612c-0.258,0.461-0.417,1.012-0.417,1.611
			c0,0.179,0.051,0.348,0.074,0.521h-1.892c0.028-0.173,0.074-0.342,0.074-0.521C44.356,48.458,44.198,47.907,43.945,47.446z
			 M49.696,33.19c-0.037,0.449-0.149,0.869-0.358,1.188l-0.114,0.171l0.114,0.169c0.252,0.382,0.391,0.895,0.391,1.444
			c0,0.549-0.139,1.062-0.391,1.438l-0.114,0.173l0.114,0.167c0.252,0.383,0.391,0.894,0.391,1.442c0,0.55-0.139,1.062-0.391,1.444
			l-0.114,0.171l0.114,0.169c0.252,0.379,0.391,0.894,0.391,1.439c0,0.555-0.139,1.063-0.391,1.442l-0.114,0.171l0.114,0.171
			c0.252,0.383,0.391,0.893,0.391,1.442s-0.139,1.061-0.391,1.441l-0.114,0.171l0.114,0.169c0.252,0.38,0.391,0.893,0.391,1.442
			c0,0.179-0.041,0.35-0.076,0.521h-2.858c-0.039-0.169-0.076-0.336-0.076-0.521c0-0.547,0.138-1.062,0.391-1.442l0.109-0.169
			l-0.109-0.171c-0.253-0.381-0.391-0.892-0.391-1.441s0.138-1.06,0.391-1.442l0.109-0.171l-0.109-0.171
			c-0.253-0.379-0.391-0.893-0.391-1.442c0-0.546,0.138-1.059,0.391-1.439l0.109-0.169l-0.109-0.171
			c-0.253-0.382-0.391-0.896-0.391-1.444s0.138-1.06,0.391-1.442l0.109-0.167l-0.109-0.173c-0.253-0.377-0.391-0.89-0.391-1.438
			c0-0.55,0.138-1.062,0.391-1.444l0.109-0.169l-0.109-0.171c-0.253-0.381-0.391-0.894-0.391-1.441c0-0.297,0.059-0.566,0.148-0.831
			C47.797,32.538,48.739,32.909,49.696,33.19z M49.93,47.446c0.257-0.456,0.414-1.013,0.414-1.612c0-0.599-0.157-1.155-0.414-1.613
			c0.257-0.456,0.414-1.011,0.414-1.613c0-0.596-0.157-1.152-0.414-1.608c0.257-0.459,0.414-1.016,0.414-1.615
			c0-0.599-0.157-1.152-0.414-1.609c0.257-0.459,0.414-1.016,0.414-1.611c0-0.6-0.157-1.156-0.414-1.613
			c0.197-0.351,0.306-0.771,0.363-1.209c0.641,0.167,1.272,0.306,1.91,0.413c0.069,0.288,0.164,0.565,0.299,0.801
			c-0.26,0.459-0.415,1.011-0.415,1.608c0,0.596,0.155,1.152,0.415,1.611c-0.26,0.457-0.415,1.014-0.415,1.609
			c0,0.598,0.155,1.154,0.415,1.615c-0.26,0.46-0.415,1.013-0.415,1.608c0,0.601,0.155,1.156,0.415,1.613
			c-0.26,0.461-0.415,1.015-0.415,1.613c0,0.596,0.155,1.154,0.415,1.612c-0.26,0.461-0.415,1.012-0.415,1.611
			c0,0.179,0.049,0.348,0.075,0.521h-1.894c0.024-0.173,0.075-0.342,0.075-0.521C50.344,48.458,50.187,47.907,49.93,47.446z
			 M55.449,34.103c-0.04,0.097-0.076,0.199-0.127,0.276l-0.104,0.171l0.104,0.169c0.255,0.382,0.391,0.895,0.391,1.444
			c0,0.549-0.136,1.062-0.391,1.438l-0.104,0.173l0.104,0.167c0.255,0.383,0.391,0.894,0.391,1.442c0,0.55-0.136,1.062-0.391,1.444
			l-0.104,0.171l0.104,0.169c0.255,0.379,0.391,0.894,0.391,1.439c0,0.555-0.136,1.063-0.391,1.442l-0.104,0.171l0.104,0.171
			c0.255,0.383,0.391,0.893,0.391,1.442s-0.136,1.061-0.391,1.441l-0.104,0.171l0.104,0.169c0.255,0.38,0.391,0.893,0.391,1.442
			c0,0.179-0.037,0.35-0.073,0.521h-2.861c-0.035-0.169-0.07-0.336-0.07-0.521c0-0.547,0.135-1.057,0.387-1.442l0.111-0.169
			l-0.111-0.171c-0.252-0.381-0.387-0.892-0.387-1.441c0-0.546,0.135-1.059,0.387-1.442l0.111-0.171l-0.111-0.171
			c-0.252-0.379-0.387-0.893-0.387-1.442c0-0.546,0.135-1.057,0.387-1.439l0.111-0.169l-0.111-0.171
			c-0.252-0.382-0.387-0.896-0.387-1.444c0-0.542,0.135-1.057,0.387-1.442l0.111-0.167l-0.111-0.173
			c-0.252-0.377-0.387-0.895-0.387-1.438c0-0.549,0.135-1.062,0.387-1.444l0.111-0.169l-0.111-0.171
			c-0.091-0.141-0.141-0.328-0.198-0.513C53.751,33.989,54.604,34.073,55.449,34.103z M28.387,34.104
			c0.056,0.154,0.095,0.324,0.164,0.456c-0.254,0.456-0.409,1.006-0.409,1.604c0,0.596,0.159,1.152,0.416,1.611
			c-0.257,0.457-0.416,1.011-0.416,1.609c0,0.6,0.159,1.154,0.416,1.615c-0.257,0.456-0.416,1.013-0.416,1.608
			c0,0.603,0.159,1.157,0.416,1.613c-0.257,0.458-0.416,1.015-0.416,1.613c0,0.6,0.159,1.154,0.416,1.612
			c-0.257,0.461-0.416,1.012-0.416,1.611c0,0.179,0.048,0.348,0.074,0.521h-1.889c0.024-0.173,0.071-0.342,0.071-0.521
			c0-0.6-0.153-1.15-0.416-1.611c0.263-0.458,0.416-1.013,0.416-1.612c0-0.599-0.153-1.155-0.416-1.613
			c0.263-0.456,0.416-1.011,0.416-1.613c0-0.596-0.153-1.152-0.416-1.608c0.263-0.459,0.416-1.016,0.416-1.615
			c0-0.599-0.153-1.152-0.416-1.609c0.263-0.459,0.416-1.016,0.416-1.611c0-0.598-0.152-1.147-0.41-1.604
			c0.088-0.157,0.124-0.36,0.189-0.543C26.903,34.08,27.639,34.104,28.387,34.104z M16.788,49.058c0-0.547,0.133-1.062,0.39-1.442
			l0.11-0.169l-0.11-0.171c-0.257-0.381-0.39-0.892-0.39-1.441s0.133-1.06,0.39-1.442l0.11-0.171l-0.11-0.171
			c-0.257-0.379-0.39-0.893-0.39-1.442c0-0.546,0.133-1.059,0.39-1.439l0.11-0.169l-0.11-0.171c-0.257-0.382-0.39-0.896-0.39-1.444
			s0.133-1.06,0.39-1.442l0.11-0.167l-0.11-0.173c-0.257-0.377-0.39-0.89-0.39-1.438c0-0.55,0.133-1.062,0.39-1.444l0.11-0.169
			l-0.11-0.171c-0.257-0.381-0.39-0.894-0.39-1.441c0-0.551,0.133-1.062,0.39-1.44l0.002-0.007c0.771,0.415,1.634,0.799,2.579,1.141
			c0.015,0.104,0.039,0.21,0.039,0.307c0,0.548-0.139,1.061-0.395,1.441l-0.11,0.171l0.11,0.169
			c0.256,0.382,0.395,0.895,0.395,1.444c0,0.549-0.139,1.062-0.395,1.438l-0.11,0.173l0.11,0.167
			c0.256,0.383,0.395,0.894,0.395,1.442s-0.139,1.062-0.395,1.444l-0.11,0.171l0.11,0.169c0.256,0.381,0.395,0.894,0.395,1.439
			c0,0.55-0.139,1.063-0.395,1.442l-0.11,0.171l0.11,0.171c0.256,0.383,0.395,0.893,0.395,1.442s-0.139,1.061-0.395,1.441
			l-0.11,0.171l0.11,0.169c0.256,0.38,0.395,0.896,0.395,1.442c0,0.179-0.039,0.35-0.074,0.521h-2.861
			C16.824,49.409,16.788,49.242,16.788,49.058z M19.995,47.446c0.261-0.458,0.418-1.013,0.418-1.612
			c0-0.599-0.157-1.155-0.418-1.613c0.261-0.456,0.418-1.011,0.418-1.613c0-0.596-0.157-1.152-0.418-1.608
			c0.261-0.459,0.418-1.016,0.418-1.615c0-0.599-0.157-1.152-0.418-1.609c0.261-0.459,0.418-1.016,0.418-1.611
			c0-0.6-0.157-1.156-0.418-1.613c0.261-0.458,0.418-1.015,0.418-1.612c0-0.025-0.008-0.056-0.012-0.08
			c0.584,0.188,1.185,0.369,1.811,0.521c0.057,0.424,0.169,0.83,0.36,1.172c-0.259,0.457-0.418,1.014-0.418,1.613
			c0,0.596,0.159,1.152,0.418,1.611c-0.259,0.457-0.418,1.011-0.418,1.609c0,0.6,0.159,1.154,0.418,1.615
			c-0.259,0.456-0.418,1.013-0.418,1.608c0,0.603,0.159,1.157,0.418,1.613c-0.259,0.458-0.418,1.015-0.418,1.613
			c0,0.6,0.159,1.154,0.418,1.612c-0.259,0.461-0.418,1.012-0.418,1.611c0,0.179,0.049,0.348,0.075,0.521h-1.895
			c0.031-0.173,0.078-0.342,0.078-0.521C20.413,48.458,20.256,47.907,19.995,47.446z M25.567,33.967
			c-0.056,0.144-0.103,0.296-0.175,0.412L25.28,34.55l0.112,0.169c0.25,0.382,0.393,0.895,0.393,1.444
			c0,0.549-0.143,1.062-0.393,1.438l-0.112,0.173l0.112,0.167c0.25,0.383,0.393,0.894,0.393,1.442s-0.143,1.062-0.393,1.444
			l-0.112,0.171l0.112,0.169c0.25,0.381,0.393,0.894,0.393,1.439c0,0.55-0.143,1.063-0.393,1.442l-0.112,0.171l0.112,0.171
			c0.25,0.383,0.393,0.893,0.393,1.442s-0.143,1.061-0.393,1.441l-0.112,0.171l0.112,0.169c0.25,0.38,0.393,0.896,0.393,1.442
			c0,0.179-0.04,0.35-0.077,0.521h-2.861c-0.037-0.169-0.073-0.336-0.073-0.521c0-0.547,0.137-1.062,0.387-1.442l0.112-0.169
			l-0.112-0.171c-0.25-0.381-0.387-0.892-0.387-1.441s0.137-1.06,0.387-1.442l0.112-0.171L23.16,44.05
			c-0.25-0.379-0.387-0.893-0.387-1.442c0-0.546,0.137-1.059,0.387-1.439l0.112-0.169l-0.112-0.171
			c-0.25-0.382-0.387-0.896-0.387-1.444s0.137-1.06,0.387-1.442l0.112-0.167l-0.112-0.173c-0.25-0.377-0.387-0.89-0.387-1.438
			c0-0.55,0.137-1.062,0.387-1.444l0.112-0.169l-0.112-0.171c-0.152-0.235-0.237-0.543-0.297-0.86
			C23.733,33.708,24.631,33.859,25.567,33.967z M15.651,30.558c0.252,0.183,0.538,0.364,0.827,0.538
			c0.037,0.08,0.056,0.174,0.099,0.246c-0.251,0.455-0.409,1.002-0.409,1.596c0,0.598,0.161,1.151,0.413,1.612
			c-0.252,0.457-0.413,1.014-0.413,1.613c0,0.596,0.161,1.152,0.413,1.611c-0.252,0.457-0.413,1.011-0.413,1.609
			c0,0.6,0.161,1.156,0.413,1.615c-0.252,0.456-0.413,1.013-0.413,1.608c0,0.603,0.161,1.157,0.413,1.613
			c-0.252,0.458-0.413,1.015-0.413,1.613c0,0.6,0.161,1.154,0.413,1.612c-0.252,0.461-0.413,1.012-0.413,1.611
			c0,0.179,0.048,0.348,0.072,0.521h-0.683c-0.422-2.822-0.67-5.848-0.67-9.072C14.888,37.38,15.136,34.056,15.651,30.558z
			 M62.217,69.41c-6.118,10.383-14.224,16.215-19.841,18.254c-5.624-2.039-13.73-7.871-19.85-18.254
			c-2.669-4.535-5.404-10.82-6.761-18.729h53.212C67.622,58.59,64.89,64.875,62.217,69.41z M69.186,49.578h-0.958
			c0.026-0.173,0.076-0.342,0.076-0.521c0-0.6-0.158-1.15-0.416-1.611c0.258-0.458,0.416-1.013,0.416-1.612
			c0-0.599-0.158-1.155-0.416-1.613c0.258-0.456,0.416-1.011,0.416-1.613c0-0.596-0.158-1.152-0.416-1.608
			c0.258-0.459,0.416-1.016,0.416-1.615c0-0.599-0.158-1.152-0.416-1.609c0.258-0.459,0.416-1.016,0.416-1.611
			c0-0.6-0.158-1.156-0.416-1.613c0.258-0.458,0.416-1.015,0.416-1.612c0-0.599-0.158-1.15-0.412-1.604
			c0.003-0.011,0.003-0.012,0.003-0.018c0.436-0.242,0.839-0.495,1.197-0.758c0.522,3.498,0.765,6.822,0.765,9.948
			C69.856,43.73,69.61,46.756,69.186,49.578z"/>
		<path fill="#FFFFFF" d="M35.555,61.973c-1.519-0.871-2.512-1.906-3.43-3.574l-0.476-0.926c-0.751-1.5-1.599-3.199-3.035-3.352
			c-0.659-0.068-1.399,0.207-2.091,0.783c-1.529,1.26-2.576,3.678-2.802,6.463c-0.045,0.594-0.065,1.164-0.065,1.715
			c0,4.098,1.22,6.961,2.158,7.977c0.176,0.191,0.351,0.301,0.521,0.367c0.757,2.758,1.723,4.156,2.949,4.262
			c0.705,1.832,1.947,2.883,2.841,2.918c0.835,1.277,1.723,1.809,2.405,1.402c0.348-0.207,0.477-0.516,0.477-0.879
			c0-0.57-0.312-1.281-0.617-1.98l-0.475-1.164l-0.196-0.539c-0.339-0.949-0.832-2.344-0.971-3.398
			c0.529-0.355,0.695-1.281,0.695-2.219c0-0.461-0.041-0.898-0.097-1.297c0.189-0.023,0.38-0.078,0.556-0.195
			c0.556-0.359,0.978-1.188,1.179-2.223c0.488-0.004,0.922-0.156,1.256-0.461c0.458-0.418,0.666-1.051,0.666-1.496
			C37.003,63.574,36.852,62.711,35.555,61.973"/>
		<path fill="#4F2683" d="M35.713,61.699c-1.467-0.84-2.425-1.84-3.314-3.449l-0.472-0.918c-0.781-1.572-1.668-3.353-3.278-3.525
			c-0.741-0.08-1.571,0.223-2.327,0.854c-1.591,1.32-2.679,3.816-2.915,6.68c-0.044,0.586-0.066,1.176-0.066,1.742
			c0,3.957,1.163,7.02,2.242,8.184c0.149,0.168,0.313,0.281,0.488,0.371c0.747,2.676,1.732,4.09,2.991,4.316
			c0.673,1.625,1.816,2.785,2.882,2.938c0.935,1.367,1.929,1.879,2.751,1.391c0.413-0.254,0.627-0.645,0.627-1.152
			c0-0.641-0.328-1.387-0.644-2.105l-0.471-1.16l-0.188-0.52c-0.275-0.766-0.77-2.148-0.934-3.199
			c0.439-0.422,0.673-1.184,0.673-2.316c0-0.328-0.026-0.672-0.071-1.051c0.141-0.043,0.271-0.094,0.389-0.176
			c0.575-0.375,1.02-1.18,1.26-2.219c0.463-0.051,0.89-0.203,1.208-0.5c0.572-0.512,0.771-1.254,0.771-1.727
			C37.313,63.117,36.789,62.312,35.713,61.699 M35.983,65.285c-0.282,0.254-0.552,0.391-1.1,0.316
			c-1.057-0.227-1.268-1.078-1.273-1.117c-0.101,0.176-0.075,1.168,0.967,1.52c-0.167,0.906-0.525,1.637-0.959,1.914
			c-0.182,0.121-0.365,0.152-0.556,0.102l-0.175-0.043l0.006-0.008c-0.417-0.125-0.74-1.195-0.633-2
			c-0.07,0.195-0.594,0.535-0.855,0.484c-0.148-0.031-0.288-0.086-0.406-0.285c-0.099-0.176-0.443-1.008,0.08-2.242
			c-0.325,0.004-0.574,0.652-0.623,0.875c-0.156,0.773,0.005,1.371,0.137,1.598c0.279,0.496,0.651,0.539,0.854,0.523
			c0.132-0.012,0.261-0.066,0.386-0.137c0.051,0.754,0.37,1.551,0.94,1.723c0.285,1.625,0.096,3.039-0.405,3.164
			c-0.456,0.07-0.795-0.152-1.128-0.746c-0.664-1.645-0.385-2.918-0.385-2.938c-0.002,0.031-0.419,0.332-0.438,1.133
			c-0.018,0.633,0.044,1.023,0.313,1.789c-0.125,0.035-0.245,0.039-0.368,0c-0.367-0.125-0.673-0.535-0.995-1.312
			c-0.572-1.898-0.363-3.859-0.363-3.883c0,0.035-0.351,0.195-0.454,1.352c-0.06,0.629,0.017,1.262,0.209,2.246
			c-0.146-0.043-0.278-0.113-0.399-0.23c-0.539-0.52-0.864-1.809-0.864-3.438v-0.195l0,0c-0.035-1.992,0.333-3.426,0.335-3.438
			c-0.229,0.055-0.527,0.691-0.638,1.332c-0.114,0.633-0.139,1.109-0.174,1.949c-0.604-0.418-0.982-1.641-0.854-3.676
			c0.111-1.754,0.787-3.479,1.022-3.631c-0.636,0.152-1.351,1.803-1.49,3.58c-0.026,0.32-0.051,0.625-0.051,0.926
			c0,1.711,0.533,3.004,1.382,3.316c0.014,0.918,0.147,2.789,1.005,3.609c0.249,0.242,0.542,0.359,0.867,0.383
			c0.274,0.625,0.709,1.352,1.315,1.555c0.24,0.078,0.475,0.066,0.714-0.023c0.206,0.328,0.605,0.82,1.283,0.82
			c0.147,1.117,0.656,2.547,1.008,3.52l0.191,0.535l0.49,1.203c0.499,1.137,0.798,1.906,0.362,2.164
			c-0.396,0.242-1.169-0.27-1.76-1.367c-1.322-2.453-1.783-4.641-1.796-5.359c0,0-0.429,0.395-0.153,1.848
			c0.153,0.816,0.552,2.004,1.14,3.188c-0.513-0.16-1.418-1.16-1.966-2.715c-0.604-1.676-0.941-3.734-0.9-4.043
			c-0.278,0.191-0.318,1.129-0.242,1.723c0.119,0.863,0.236,1.535,0.475,2.203c-0.785-0.199-1.492-1.316-2.127-3.699
			c-0.147-0.613-0.539-2.367-0.539-3.969c-0.405,0.117-0.389,1.41-0.36,1.766c0.064,0.895,0.12,1.043,0.234,1.609
			c-0.017-0.012-0.022-0.023-0.036-0.035c-0.957-1.035-2.332-4.473-1.944-9.27c0.215-2.641,1.186-4.91,2.601-6.086
			c0.578-0.48,1.179-0.711,1.684-0.656c1.14,0.119,1.915,1.674,2.598,3.051l0.486,0.945c0.971,1.762,2.025,2.859,3.64,3.781
			c1.04,0.594,1.175,1.227,1.175,1.707C36.472,64.508,36.314,64.98,35.983,65.285z M29.568,57.564
			c-0.408-1.021-1.036-1.881-1.76-1.596c0.458,0.049,0.894,0.705,1.32,1.771c0.605,1.518,1.269,3.486,2.736,4.502
			c0.436,0.258,0.894,0.348,1.148,0.164C31.264,61.809,30.243,59.258,29.568,57.564z M29.517,63.863
			c-0.287-0.531-0.034-1.996,0.188-2.609c-0.396,0.219-1.051,0.273-1.246-0.012c-0.027-0.043-0.104-0.207-0.124-0.406
			c-0.04-0.539,0.102-1.047,0.381-1.469c-0.102,0.043-0.221,0.09-0.462,0.398c-0.251,0.34-0.396,0.766-0.363,1.172
			c0.026,0.309,0.139,0.504,0.261,0.66c0.265,0.328,0.638,0.309,0.91,0.266c-0.09,0.348-0.131,0.684-0.131,1.113
			c0,0.371,0.043,0.75,0.198,1.035c0.146,0.266,0.517,0.391,0.735,0.133C29.713,64.105,29.599,64.016,29.517,63.863z"/>
		<path fill="#FFFFFF" d="M48.809,61.973c1.521-0.871,2.512-1.906,3.434-3.574l0.472-0.926c0.747-1.5,1.598-3.199,3.033-3.352
			c0.658-0.068,1.402,0.207,2.09,0.783c1.529,1.26,2.58,3.678,2.8,6.463c0.048,0.594,0.072,1.164,0.072,1.715
			c0,4.098-1.226,6.961-2.161,7.977c-0.177,0.191-0.353,0.301-0.519,0.367c-0.756,2.758-1.726,4.156-2.954,4.262
			c-0.703,1.832-1.946,2.883-2.833,2.918c-0.844,1.277-1.733,1.809-2.413,1.402c-0.344-0.207-0.473-0.516-0.473-0.879
			c0-0.57,0.31-1.281,0.614-1.98l0.477-1.164l0.193-0.539c0.343-0.949,0.836-2.344,0.972-3.398c-0.53-0.355-0.696-1.281-0.696-2.219
			c0-0.461,0.047-0.898,0.102-1.297c-0.195-0.023-0.384-0.078-0.562-0.195c-0.552-0.359-0.973-1.188-1.176-2.223
			c-0.491-0.004-0.921-0.156-1.25-0.461c-0.466-0.418-0.668-1.051-0.668-1.496C47.362,63.574,47.51,62.711,48.809,61.973"/>
		<path fill="#4F2683" d="M47.045,64.156c0,0.473,0.202,1.215,0.771,1.727c0.321,0.297,0.746,0.449,1.213,0.5
			c0.238,1.039,0.685,1.844,1.256,2.219c0.116,0.082,0.254,0.133,0.391,0.176c-0.045,0.379-0.073,0.723-0.073,1.051
			c0,1.133,0.234,1.895,0.671,2.316c-0.164,1.051-0.657,2.434-0.933,3.199l-0.183,0.52h0.001l-0.473,1.16
			c-0.317,0.719-0.644,1.465-0.644,2.105c0,0.508,0.208,0.898,0.625,1.152c0.819,0.488,1.816-0.023,2.747-1.391
			c1.07-0.152,2.215-1.312,2.884-2.938c1.261-0.227,2.243-1.641,2.992-4.316c0.173-0.09,0.341-0.203,0.491-0.371
			c1.082-1.164,2.244-4.227,2.244-8.184c0-0.566-0.026-1.156-0.073-1.742c-0.231-2.863-1.319-5.359-2.912-6.68
			c-0.76-0.631-1.586-0.934-2.327-0.854c-1.606,0.173-2.498,1.953-3.279,3.525l-0.469,0.918c-0.889,1.609-1.849,2.609-3.316,3.449
			C47.572,62.312,47.045,63.117,47.045,64.156 M47.894,64.195c0-0.48,0.137-1.113,1.169-1.707c1.614-0.922,2.671-2.02,3.646-3.781
			l0.482-0.945c0.681-1.377,1.458-2.932,2.599-3.051c0.508-0.055,1.104,0.176,1.681,0.656c1.418,1.176,2.387,3.445,2.602,6.086
			c0.386,4.797-0.985,8.234-1.947,9.27c-0.01,0.012-0.017,0.023-0.024,0.035c0.108-0.566,0.167-0.715,0.229-1.609
			c0.026-0.355,0.043-1.648-0.365-1.766c0,1.602-0.385,3.355-0.538,3.969c-0.633,2.383-1.338,3.5-2.125,3.699
			c0.237-0.668,0.355-1.34,0.472-2.203c0.082-0.594,0.038-1.531-0.236-1.723c0.043,0.309-0.299,2.367-0.901,4.043
			c-0.55,1.555-1.457,2.555-1.969,2.715c0.593-1.184,0.985-2.371,1.139-3.188c0.277-1.453-0.153-1.848-0.153-1.848
			c-0.006,0.719-0.474,2.906-1.792,5.359c-0.589,1.098-1.364,1.609-1.765,1.367c-0.429-0.258-0.132-1.027,0.364-2.164l0.49-1.203
			l0.189-0.535c0.353-0.973,0.865-2.402,1.011-3.52c0.677,0,1.081-0.492,1.285-0.82c0.234,0.09,0.477,0.102,0.711,0.023
			c0.609-0.203,1.045-0.93,1.318-1.555c0.323-0.023,0.617-0.141,0.87-0.383c0.853-0.82,0.986-2.691,1-3.609
			c0.849-0.312,1.381-1.605,1.381-3.316c0-0.301-0.025-0.605-0.049-0.926c-0.143-1.777-0.858-3.428-1.491-3.58
			c0.232,0.152,0.913,1.877,1.021,3.631c0.127,2.035-0.247,3.258-0.856,3.676c0.013-0.98-0.077-1.383-0.135-1.977
			c-0.247-1.195-0.562-1.305-0.568-1.336c0.002,0.016,0.265,1.477,0.229,3.469h-0.003v0.195c0,1.629-0.321,2.918-0.859,3.438
			c-0.125,0.117-0.256,0.188-0.403,0.23c0.196-0.984,0.271-1.617,0.21-2.246c-0.102-1.156-0.448-1.316-0.455-1.352
			c0.005,0.023,0.213,1.984-0.361,3.883c-0.327,0.777-0.623,1.188-0.995,1.312c-0.125,0.039-0.245,0.035-0.368,0
			c0.268-0.766,0.329-1.156,0.314-1.789c-0.021-0.801-0.435-1.102-0.44-1.133c0.001,0.02,0.283,1.293-0.386,2.938
			c-0.328,0.594-0.665,0.816-1.127,0.746c-0.501-0.125-0.688-1.539-0.403-3.164c0.566-0.172,0.89-0.969,0.945-1.723
			c0.119,0.07,0.246,0.125,0.388,0.137c0.194,0.016,0.566-0.027,0.848-0.523c0.133-0.227,0.294-0.824,0.134-1.598
			c-0.044-0.223-0.297-0.871-0.617-0.875c0.518,1.234,0.171,2.066,0.075,2.242c-0.116,0.199-0.252,0.254-0.406,0.285
			c-0.264,0.051-0.781-0.289-0.852-0.484c0.103,0.805-0.219,1.875-0.631,2v0.008l-0.174,0.043c-0.189,0.051-0.368,0.02-0.556-0.102
			c-0.433-0.277-0.791-1.008-0.956-1.914c1.04-0.352,1.062-1.344,0.968-1.52c-0.01,0.039-0.216,0.891-1.274,1.117
			c-0.55,0.074-0.821-0.062-1.102-0.316C48.045,64.98,47.894,64.508,47.894,64.195z M51.346,62.406L51.346,62.406
			c0.257,0.184,0.714,0.094,1.154-0.164c1.464-1.016,2.123-2.984,2.73-4.502c0.429-1.066,0.865-1.723,1.324-1.771
			c-0.726-0.285-1.352,0.574-1.761,1.596C54.114,59.258,53.095,61.809,51.346,62.406z M54.496,64.145L54.496,64.145
			c0.221,0.258,0.589,0.133,0.734-0.133c0.155-0.285,0.201-0.664,0.201-1.035c0-0.43-0.042-0.766-0.134-1.113
			c0.273,0.043,0.58,0.016,0.915-0.266c0.146-0.129,0.234-0.352,0.255-0.66c0.035-0.406-0.107-0.832-0.363-1.172
			c-0.233-0.309-0.357-0.355-0.46-0.398c0.282,0.422,0.423,0.93,0.381,1.469c-0.017,0.199-0.097,0.363-0.127,0.406
			c-0.19,0.285-0.846,0.23-1.238,0.012c0.216,0.613,0.472,2.078,0.186,2.609C54.763,64.016,54.648,64.105,54.496,64.145z"/>
		<polygon fill="none" stroke="#4F2683" stroke-width="0.4718" points="48.829,59.758 35.637,59.758 34.684,57.711 49.784,57.711 		
			"/>
		<path fill="none" stroke="#4F2683" stroke-width="0.4718" d="M44.198,56.137c0,0.307-0.249,0.551-0.55,0.551h-2.831
			c-0.305,0-0.547-0.244-0.547-0.551c0-0.301,0.242-0.549,0.547-0.549h2.831C43.949,55.588,44.198,55.836,44.198,56.137z"/>
		<path fill="none" stroke="#4F2683" stroke-width="0.4718" d="M40.626,57.609c0,0,0.425-0.43,0.536-0.875"/>
		<line fill="none" stroke="#4F2683" stroke-width="0.4718" x1="41.862" y1="56.789" x2="41.677" y2="57.637"/>
		<path fill="none" stroke="#4F2683" stroke-width="0.4718" d="M40.916,55.508c0.058-0.336-0.302-1.031-0.789-0.961
			c-0.359,0.051-0.549,0.52-0.465,0.883c-0.574-0.156-1.145-1.454-0.243-2.05c0.626-0.416,1.934-0.103,2.26,2.101"/>
		<path fill="none" stroke="#4F2683" stroke-width="0.4718" d="M43.753,57.664c0,0-0.41-0.484-0.524-0.93"/>
		<line fill="none" stroke="#4F2683" stroke-width="0.4718" x1="42.533" y1="56.789" x2="42.702" y2="57.664"/>
		<path fill="none" stroke="#4F2683" stroke-width="0.4718" d="M43.478,55.508c-0.057-0.336,0.298-1.031,0.789-0.961
			c0.356,0.051,0.547,0.52,0.468,0.883c0.57-0.156,1.145-1.454,0.243-2.05c-0.627-0.416-1.936-0.103-2.262,2.101"/>
		<path fill="none" stroke="#4F2683" stroke-width="0.4718" d="M42.633,55.557c0-0.619,0.136-2.072,1.037-2.876
			c-0.083-0.23-0.699-1.298-1.47-1.675c-0.848,0.43-1.357,1.347-1.474,1.675c0.898,0.804,1.034,2.257,1.034,2.876"/>
		<path fill="none" stroke="#4F2683" stroke-width="0.4718" d="M34.773,57.852l-2.397-5.074c0.669,0.079,1.337,0.232,2.006,0.985
			c-0.193,0.587-0.155,1.491,0.116,2.155"/>
		<path fill="none" stroke="#4F2683" stroke-width="0.4718" d="M34.668,57.586c-0.55-1.34-0.265-2.953,0.582-3.395
			c0.901-0.472,1.646,0.355,1.609,1.258c-0.238-0.156-0.576-0.354-0.982-0.117c-0.296,0.176-0.47,0.547-0.492,1.084
			c-0.006,0.318,0.229,0.869,0.511,1.219"/>
		<path fill="#FFFFFF" d="M35.716,56.371c0.051,0.229-0.033,0.414-0.19,0.414h-1.474c-0.157,0-0.328-0.186-0.376-0.414
			c-0.058-0.227,0.031-0.41,0.188-0.41h1.474C35.495,55.961,35.664,56.145,35.716,56.371"/>
		<path fill="none" stroke="#4F2683" stroke-width="0.4718" d="M35.716,56.371c0.051,0.229-0.033,0.414-0.19,0.414h-1.474
			c-0.157,0-0.328-0.186-0.376-0.414c-0.058-0.227,0.031-0.41,0.188-0.41h1.474C35.495,55.961,35.664,56.145,35.716,56.371z"/>
		<path fill="none" stroke="#4F2683" stroke-width="0.4718" d="M49.604,58.098l2.43-5.32c-0.663,0.079-1.332,0.232-2.001,0.985
			c0.2,0.587,0.155,1.491-0.118,2.155"/>
		<path fill="none" stroke="#4F2683" stroke-width="0.4718" d="M49.784,57.711c0.55-1.336,0.222-3.078-0.617-3.52
			c-0.904-0.472-1.651,0.355-1.613,1.258c0.237-0.156,0.574-0.354,0.985-0.117c0.294,0.176,0.466,0.547,0.489,1.084
			c0.007,0.318-0.152,0.791-0.51,1.219"/>
		<path fill="#FFFFFF" d="M48.696,56.371c-0.054,0.229,0.035,0.414,0.189,0.414h1.475c0.157,0,0.33-0.186,0.382-0.414
			c0.054-0.227-0.035-0.41-0.194-0.41h-1.469C48.915,55.961,48.745,56.145,48.696,56.371"/>
		<path fill="none" stroke="#4F2683" stroke-width="0.4718" d="M48.696,56.371c-0.054,0.229,0.035,0.414,0.189,0.414h1.475
			c0.157,0,0.33-0.186,0.382-0.414c0.054-0.227-0.035-0.41-0.194-0.41h-1.469C48.915,55.961,48.745,56.145,48.696,56.371z"/>
		<path fill="none" stroke="#4F2683" stroke-width="0.4718" d="M36.312,57.719c0.632-0.156,1.24-0.871,1.674-1.582
			c0.392,0.551,0.866,0.943,1.927,1.613"/>
		<path fill="none" stroke="#4F2683" stroke-width="0.4718" d="M47.987,57.719c-0.631-0.156-1.155-0.871-1.586-1.582
			c-0.392,0.551-0.864,0.943-1.927,1.613"/>
		<line fill="none" stroke="#4F2683" stroke-width="0.4718" x1="42.194" y1="57.799" x2="42.194" y2="59.637"/>
		<line fill="none" stroke="#4F2683" stroke-width="0.4718" x1="38.254" y1="57.773" x2="38.693" y2="59.637"/>
		<line fill="none" stroke="#4F2683" stroke-width="0.4718" x1="46.175" y1="57.773" x2="45.69" y2="59.637"/>
		<path fill="#FFFFFF" d="M48.043,74.461v-3.059c-1.537,0.742-4.176,0.926-5.239,0.859c-0.064-1.066,0.115-3.707,0.859-5.242h-3.06
			c0.742,1.535,0.926,4.176,0.863,5.242c-1.069,0.066-3.712-0.117-5.242-0.859v3.059c1.53-0.738,4.173-0.926,5.242-0.859
			c0.062,1.062-0.121,3.707-0.863,5.238h3.06c-0.744-1.531-0.924-4.176-0.859-5.238C43.867,73.535,46.506,73.723,48.043,74.461z"/>
	</g>
</g>
</svg>
