<?xml version="1.0" encoding="utf-8"?>
<!-- Generator: Adobe Illustrator 19.2.1, SVG Export Plug-In . SVG Version: 6.00 Build 0)  -->
<!DOCTYPE svg PUBLIC "-//W3C//DTD SVG 1.1//EN" "http://www.w3.org/Graphics/SVG/1.1/DTD/svg11.dtd">
<svg version="1.1" id="Layer_2" xmlns="http://www.w3.org/2000/svg" xmlns:xlink="http://www.w3.org/1999/xlink" x="0px" y="0px"
	 viewBox="0 0 589.2 75.9" style="enable-background:new 0 0 589.2 75.9;" xml:space="preserve">
<style type="text/css">
	.st0{fill-rule:evenodd;clip-rule:evenodd;}
</style>
<g>
	<path class="st0" d="M27.1,75.9c-4.3,0-6.5-2.3-8-4.6c-3.9-5.9-5.9-12.7-5.7-20.9c0.2-6.8,1.9-20.1,11.9-32.2
		C35.9,5.5,49.1,0.3,63.8,0c7.1-0.1,12.7,1.2,17.9,3.3c13.4,5.4,17.7,18.4,16,28.9c-1.1,6.8-5.5,13.7-12.2,19.1
		c-7,5.6-16.8,9.2-27.8,9.6c-2.8,0.1-6.2,0-8.5-0.3c-1-0.1-1.2-0.2-1.5-0.7c-0.4-0.6-0.7-1-1-1.9c-0.3-0.8,0.2-0.9,1-1
		c4.1-0.4,7.7-1.1,12-3c9.9-4.5,16.8-14.1,18.5-24.5c1.1-6.4-0.3-13.3-3.3-16.8c-3.1-3.6-6.8-5.3-11.4-5.4c-6.1-0.2-11.9,3.2-16,8.1
		c-7.3,8.7-9.4,19-7.8,31.6c1.3,10.2,6.4,18.1,12.8,26c0.6,0.8,0.8,1.6,0.5,2.2c-0.3,0.6-1,1-1.6,1H27.1z M18,19.2
		c0.3-0.6-0.1-1.2-0.7-1.2H4.5C3,18,2.3,18.5,2,19.2c-4.3,9.6-1.5,20.6,7.9,30.1c0.3,0.3,0.9,0.1,0.9-0.4c0-0.5,0.1-1.4,0.2-2
		c0.1-0.6,0.1-1.3-0.2-2c-1.2-2.2-0.9-7.4,0.3-11.1C12.6,28.3,13.8,25.5,18,19.2z M22.9,13c2.3-2.4,5.1-5,8.7-7.7
		c0.7-0.5,0.4-1.6-0.5-1.6c-1.8,0-9.8,0-12.9,0c-1.2,0-1.9,0.2-2.7,0.7C11.9,6.6,9.4,9,6.9,11.7c-1,1.1-0.9,2.1,0.6,2.1h12.7
		C21.5,13.8,22.3,13.7,22.9,13z"/>
	<g>
		<path class="st0" d="M247.7,59.9L238,28.8l-22.5,31.1h-1.1h-49.7l8.9-42h42l-2.1,9.7h-29.1l-1.4,6.7h25.9l-1.8,8.7h-25.9l-1.4,6.7
			h27.5h1.1l23.2-31.9h15.9l11.1,35.9l7.7-35.9l33.1,0c12.2,0,14.6,6.2,12.9,14.4l-0.8,3.6c-1.2,5.9-5,12.5-13,13.4l7.2,10.7h-15.1
			l-13.2-19.5c-0.1-0.2-0.1-0.3-0.1-0.5c0-0.5,0.4-1,1-1l15.1,0c3,0,4.6-2,5.1-4.5l0.3-1.6c0.6-2.8-0.4-4.5-4.3-4.5l-17.7,0
			l-6.7,31.6H247.7z M134.4,38.9c-0.5,0-1,0.4-1,1c0,0.2,0,0.3,0.1,0.5l6,9h12.7c9.1,0,13.4-7.2,14.7-13.5l0.8-3.6
			c1.7-8.2-0.6-14.4-12.9-14.4h-32.5l-8.9,42h12.9l6.7-31.6h17.1c3.9,0,4.9,1.6,4.3,4.5l-0.3,1.6c-0.5,2.5-2.1,4.5-5.1,4.5
			L134.4,38.9z M385.5,59.9h49.8l2.1-10.1H408L441.5,28l2.1-10.1h-49.1L392.4,28h28.8l-33.5,21.8L385.5,59.9z M368.6,59.9l6-28.4
			h12.9l-6,28.4H368.6z M309.5,59.9h40.8l2.3-10.8h-28l6.6-31.2h-12.9L309.5,59.9z M376.8,19.8c0.2-1.2,1.4-2.1,2.5-2.1h9.3
			c1.2,0,1.9,0.9,1.7,2.1l-1.4,6.4c-0.2,1.2-1.4,2.1-2.5,2.1h-9.3c-1.2,0-1.9-0.9-1.7-2.1L376.8,19.8z M575.6,19.8
			c0.2-1.2,1.4-2.1,2.5-2.1h9.3c1.2,0,1.9,0.9,1.6,2.1l-1.4,6.4c-0.2,1.2-1.4,2.1-2.5,2.1h-9.3c-1.2,0-1.9-0.9-1.7-2.1L575.6,19.8z
			 M504.8,17.9l-8.9,42h12.8l6.3-29.7l10.9,29.7h9.6l21.2-29.7l-6.3,29.7h12.9l8.9-42h-20.3L533.6,44l-9.2-26.1H504.8z M487.4,19.9
			c0.2-1.1,1.3-2,2.4-2l10.9,0L495,44.5c-2.2,10.4-8.7,15.4-20.5,15.4h-18.5c-11.8,0-16.2-5-14-15.4l5.7-26.6h10.9
			c1.1,0,1.8,0.9,1.6,2l-4.6,21.8c-1.1,5.3,0.3,7.4,5.6,7.4H474c5.3,0,7.6-2.1,8.8-7.4L487.4,19.9z M567.4,59.9l6-28.4h12.9l-6,28.4
			H567.4z"/>
		<path class="st0" d="M586.9,57.3c0-1.4-1.1-2.5-2.5-2.5c-1.4,0-2.5,1.1-2.5,2.5c0,1.4,1.1,2.5,2.5,2.5
			C585.8,59.8,586.9,58.7,586.9,57.3z M586.4,57.3c0,1.1-0.9,2-2,2c-1.1,0-2-0.9-2-2c0-1.1,0.9-2,2-2
			C585.6,55.3,586.4,56.2,586.4,57.3z M585.5,58.7l-0.6-1.1c0.3-0.1,0.5-0.3,0.5-0.7c0-0.4-0.4-0.8-0.9-0.8h-1v2.7h0.5v-1.1h0.3
			l0.5,1.1H585.5z M585,56.8c0,0.2-0.2,0.4-0.4,0.4h-0.5v-0.8h0.5C584.8,56.4,585,56.6,585,56.8z"/>
	</g>
</g>
</svg>
