<?xml version="1.0" encoding="utf-8"?>
<!-- Generator: Adobe Illustrator 19.2.1, SVG Export Plug-In . SVG Version: 6.00 Build 0)  -->
<!DOCTYPE svg PUBLIC "-//W3C//DTD SVG 1.1//EN" "http://www.w3.org/Graphics/SVG/1.1/DTD/svg11.dtd">
<svg version="1.1" id="Curve" xmlns="http://www.w3.org/2000/svg" xmlns:xlink="http://www.w3.org/1999/xlink" x="0px" y="0px"
	 viewBox="0 0 224.9 41.2" style="enable-background:new 0 0 224.9 41.2;" xml:space="preserve">
<style type="text/css">
	.st0{fill:#0B5ED7;}
</style>
<polygon class="st0" points="76.3,0.8 64.2,0.8 64.2,16.6 51.6,16.6 51.6,0.8 39.6,0.8 39.6,40.4 51.6,40.4 51.6,24.8 64.2,24.8 
	64.2,40.4 76.3,40.4 76.3,0.8 "/>
<polygon class="st0" points="118.3,32.4 118.3,0.8 106.2,0.8 106.2,40.4 128.1,40.4 129.9,32.4 118.3,32.4 "/>
<polygon class="st0" points="97.3,0.8 85.2,0.8 85.2,40.4 97.3,40.4 97.3,0.8 "/>
<polygon class="st0" points="146.3,0.8 134.2,0.8 134.2,40.4 146.3,40.4 146.3,0.8 "/>
<path class="st0" d="M205.8,10.9c0-2.2,2.1-3.2,5.6-3.2c3.8,0,7.9,0.8,10.8,2l-1-8.6c-3.1-0.7-6-1.2-11.1-1.2
	c-9.8,0-16.4,3.8-16.4,11.9c0,13.9,18.9,11.1,18.9,17.5c0,2.5-1.8,3.8-6.3,3.8c-4,0-10.1-1.3-13.7-3.1l1.3,9.1c3.6,1.3,8.6,2,12.6,2
	c10.1,0,18.4-3.3,18.4-13.2C224.9,14.7,205.8,17.2,205.8,10.9L205.8,10.9z"/>
<path class="st0" d="M171.8,30.9c11.3,0,18.4-5.8,18.4-15.9c0-11.1-7.6-15.1-20-15.1c-4.8,0-10.6,0.3-14.7,0.8v39.5h12.1v-9.4H171.8
	L171.8,30.9z M178.2,15.2c0,5.1-2.5,8.6-8.8,8.6h-2V7.5c0.7,0,1.4,0,2,0C175.4,7.5,178.2,10.3,178.2,15.2L178.2,15.2z"/>
<path class="st0" d="M16.4,30.9c11.3,0,18.4-5.8,18.4-15.9C34.7,4,27.1,0,14.7,0C9.9,0,4.1,0.3,0,0.8v39.5h12.1v-9.4H16.4L16.4,30.9
	z M22.8,15.2c0,5.1-2.5,8.6-8.8,8.6h-2V7.5c0.7,0,1.4,0,2,0C20,7.5,22.8,10.3,22.8,15.2L22.8,15.2z"/>
</svg>
