<?xml version="1.0" encoding="utf-8"?>
<!-- Generator: Adobe Illustrator 16.0.0, SVG Export Plug-In . SVG Version: 6.00 Build 0)  -->
<!DOCTYPE svg PUBLIC "-//W3C//DTD SVG 1.1//EN" "http://www.w3.org/Graphics/SVG/1.1/DTD/svg11.dtd">
<svg version="1.1" id="Layer_1" xmlns="http://www.w3.org/2000/svg" xmlns:xlink="http://www.w3.org/1999/xlink" x="0px" y="0px"
	 width="288px" height="144px" viewBox="0 0 288 144" enable-background="new 0 0 288 144" xml:space="preserve">
<g>
	<g>
		<path fill="#5A484F" d="M78.135,58.41v9.077h-1.502V44.989h8.752c4.473,0,6.171,3.331,6.171,6.727c0,3.429-1.698,6.694-6.27,6.694
			H78.135z M78.135,46.458V56.94h7.086c3.56,0,4.865-2.547,4.865-5.225c0-2.645-1.306-5.257-4.701-5.257H78.135z"/>
		<path fill="#5A484F" d="M118.002,60.01c0,4.734-3.559,7.836-7.869,7.836c-4.278,0-7.838-3.102-7.838-7.836V44.989h1.47V60.01
			c0,3.853,2.874,6.334,6.368,6.334s6.4-2.481,6.4-6.334V44.989h1.469V60.01z"/>
		<path fill="#5A484F" d="M132.53,58.41v9.077h-1.502V44.989h8.294c4.474,0,6.172,3.331,6.172,6.727c0,3.429-1.699,6.694-6.27,6.694
			h-0.425l6.433,9.077h-1.796l-6.433-9.077H132.53z M132.53,46.458V56.94h6.629c3.559,0,4.865-2.547,4.865-5.225
			c0-2.645-1.307-5.257-4.702-5.257H132.53z"/>
		<path fill="#5A484F" d="M158.779,58.41v9.077h-1.502V44.989h8.75c4.475,0,6.172,3.331,6.172,6.727c0,3.429-1.697,6.694-6.27,6.694
			H158.779z M158.779,46.458V56.94h7.086c3.559,0,4.865-2.547,4.865-5.225c0-2.645-1.307-5.257-4.703-5.257H158.779z"/>
		<path fill="#5A484F" d="M183.17,44.989h1.469v21.029h9.861v1.469h-11.33V44.989z"/>
		<path fill="#5A484F" d="M205.174,44.989h12.475v1.469h-11.004V55.7h9.633v1.47h-9.633v8.849h11.395v1.469h-12.865V44.989z"/>
	</g>
	<g>
		<path fill="#5A484F" d="M108.67,77.445l-2.471,7.307h-0.668l-1.432-4.9l-1.432,4.9H102l-2.471-7.307h0.742l2.047,6.203
			l1.516-5.238h0.531l1.516,5.238l2.047-6.203H108.67z"/>
		<path fill="#5A484F" d="M112.59,84.752h-0.701v-7.307h0.701V84.752z"/>
		<path fill="#5A484F" d="M121.049,84.752l-3.721-6.119v6.119h-0.701v-7.307h0.754l3.689,6.076v-6.076h0.701v7.307H121.049z"/>
		<path fill="#5A484F" d="M130.188,77.445v0.699h-3.469v2.672h3.033v0.701h-3.033v2.534h3.584v0.7h-4.283v-7.307H130.188z"/>
		<path fill="#5A484F" d="M138.909,79.049h0.668v1.824h1.836v0.668h-1.836v1.835h-0.668v-1.835h-1.824v-0.668h1.824V79.049z"/>
		<path fill="#5A484F" d="M150.791,84.158c1.104,0,1.676-0.627,1.793-1.199c0.137-0.901-0.562-1.357-1.391-1.548l-0.986-0.224
			c-1.516-0.338-1.717-1.219-1.717-1.834c0-1.188,1.123-1.994,2.291-1.994c1.293,0,2.289,0.816,2.289,2.09h-0.699
			c0-0.849-0.689-1.39-1.59-1.39c-0.807,0-1.592,0.521-1.592,1.294c0,0.382,0.139,0.923,1.166,1.156l0.998,0.223
			c1.166,0.266,2.131,0.954,1.92,2.354c-0.17,0.85-0.977,1.771-2.482,1.771c-1.441,0-2.365-1.135-2.365-2.205h0.701
			C149.127,83.383,149.773,84.158,150.791,84.158z"/>
		<path fill="#5A484F" d="M159.674,77.445c1.484,0,2.059,1.113,2.059,2.236c0,1.125-0.574,2.217-2.059,2.217h-2.162v2.854h-0.711
			v-7.307H159.674z M157.512,78.145v3.055h2.109c1.029,0,1.41-0.742,1.41-1.518c0-0.773-0.381-1.537-1.357-1.537H157.512z"/>
		<path fill="#5A484F" d="M165.789,84.752h-0.699v-7.307h0.699V84.752z"/>
		<path fill="#5A484F" d="M175.023,84.752h-0.859l-2.014-2.854h-1.23v2.854h-0.711v-7.307h2.715c1.484,0,2.025,1.113,2.025,2.236
			c0,1.104-0.52,2.175-1.939,2.217L175.023,84.752z M170.92,78.145v3.055h1.951c1.029,0,1.379-0.742,1.379-1.518
			c0-0.773-0.35-1.537-1.326-1.537H170.92z"/>
		<path fill="#5A484F" d="M179.357,84.752h-0.699v-7.307h0.699V84.752z"/>
		<path fill="#5A484F" d="M188.188,77.445v0.699h-2.342v6.607h-0.701v-6.607h-2.344v-0.699H188.188z"/>
		<path fill="#5A484F" d="M193.625,84.158c1.104,0,1.676-0.627,1.793-1.199c0.137-0.901-0.562-1.357-1.391-1.548l-0.986-0.224
			c-1.516-0.338-1.717-1.219-1.717-1.834c0-1.188,1.123-1.994,2.291-1.994c1.293,0,2.289,0.816,2.289,2.09h-0.699
			c0-0.849-0.689-1.39-1.59-1.39c-0.807,0-1.592,0.521-1.592,1.294c0,0.382,0.139,0.923,1.166,1.156l0.998,0.223
			c1.166,0.266,2.131,0.954,1.92,2.354c-0.17,0.85-0.977,1.771-2.482,1.771c-1.441,0-2.365-1.135-2.365-2.205h0.701
			C191.961,83.383,192.607,84.158,193.625,84.158z"/>
	</g>
</g>
</svg>
