<?xml version="1.0" encoding="utf-8"?>
<!-- Generator: Adobe Illustrator 19.2.1, SVG Export Plug-In . SVG Version: 6.00 Build 0)  -->
<svg version="1.1" id="Layer_1" xmlns="http://www.w3.org/2000/svg" xmlns:xlink="http://www.w3.org/1999/xlink" x="0px" y="0px"
	 viewBox="0 0 255.1 141.7" style="enable-background:new 0 0 255.1 141.7;" xml:space="preserve">
<style type="text/css">
	.st0{fill:#004987;}
	.st1{fill:#00953A;}
</style>
<g>
	<path class="st0" d="M93.4,80.4c-0.8,0.4-2.7,0.9-5.2,0.9c-7,0-10.6-4.4-10.6-10.2c0-6.9,4.9-10.8,11.1-10.8c2.4,0,4.2,0.5,5,0.9
		l-0.9,3.6c-0.9-0.4-2.2-0.8-3.9-0.8c-3.6,0-6.5,2.2-6.5,6.7c0,4.1,2.4,6.6,6.5,6.6c1.4,0,2.9-0.3,3.8-0.7L93.4,80.4"/>
	<path class="st0" d="M95.4,66.4c1.1-0.2,3.6-0.4,5.9-0.4c2.5,0,7.3,0.3,7.3,3.8c0,1.9-1.5,2.9-3,3.2v0.1c2.2,0.4,3.6,1.6,3.6,3.6
		c0,4.2-5.7,4.6-8.7,4.6c-2.1,0-4.2-0.1-5.2-0.3V66.4 M99.9,78.4c0.5,0.1,0.8,0.1,1.5,0.1c1.6,0,3.1-0.5,3.1-1.9
		c0-1.3-1.2-1.9-3.3-1.9h-1.3V78.4z M99.9,72h1.2c1.8,0,3-0.5,3-1.6c0-1-0.8-1.6-2.6-1.6c-0.6,0-1.1,0.1-1.6,0.1V72z"/>
	<path class="st0" d="M124,81h-4.5v-5.5h-0.9c-1,0-1.7,0.5-2.1,1.1c-0.8,0.8-1.1,2.1-1.6,3.3c-0.2,0.4-0.3,0.7-0.6,1.2h-4.9
		c0.4-0.5,0.6-1,0.9-1.6c0.5-1.2,1.1-3.1,2.1-4.1c0.5-0.5,1.1-0.9,1.9-1.1v-0.1c-1.7-0.2-3.8-1.3-3.8-3.6c0-1.8,1-2.9,2.5-3.6
		c1.4-0.7,3.4-0.9,5.4-0.9c2.3,0,4.3,0.2,5.6,0.3V81 M119.4,69c-0.4-0.1-0.8-0.1-1.6-0.1c-1.5,0-2.7,0.6-2.7,1.9
		c0,1.3,1.4,1.9,2.8,1.9c0.7,0,1.1,0,1.5,0V69z"/>
	<path class="st0" d="M127.9,72h2.2c1.9,0,2.8-0.6,2.8-1.4c0-0.8-0.9-1.5-2.5-1.5c-1.3,0-2.7,0.5-3.7,1.1l-0.9-2.7
		c1.7-1.1,3.9-1.5,6-1.5c2.7,0,6,0.9,6,3.9c0,1.9-1.7,2.9-3.2,3.3v0.1c1.8,0.2,3.8,1.2,3.8,3.5c0,3.6-4.3,4.5-7.3,4.5
		c-2,0-4.2-0.5-5.7-1.4l1-2.8c1,0.5,2.7,1,4.2,1c1.9,0,2.8-0.7,2.8-1.6c0-1.2-1.2-1.7-3.2-1.7h-2.2V72"/>
	<path class="st0" d="M144.4,66.3v4.4c0.6-0.1,1.5-0.2,2.3-0.2c3.4,0,7.1,1.2,7.1,5.1c0,1.9-0.8,3.1-2,3.9c-1.9,1.3-4.8,1.7-7,1.7
		c-1.7,0-3.4-0.1-4.9-0.3V66.3H144.4 M144.4,78c0.4,0,0.8,0.1,1.5,0.1c1.5,0,3.3-0.5,3.3-2.3c0-1.8-2-2.2-3.4-2.2
		c-0.6,0-1,0.1-1.5,0.2V78z"/>
	<path class="st1" d="M171.6,60.7v3.8h-8.9v3.5c0.7-0.1,1.7-0.2,2.5-0.2c2,0,4.2,0.5,5.7,1.7c1.4,1,2.4,2.6,2.4,4.9
		c0,2-0.8,3.5-1.9,4.6c-2,1.7-5.2,2.3-8.3,2.3c-2.3,0-3.9-0.1-4.9-0.3V60.7H171.6 M162.6,77.7c0.5,0.1,1.1,0.1,1.8,0.1
		c1.1,0,2.2-0.4,3-1.1c0.6-0.5,1-1.4,1-2.4c0-1-0.4-1.8-1.1-2.3c-0.8-0.6-2-0.9-3-0.9c-0.5,0-1.1,0.1-1.6,0.1V77.7z"/>
	<path class="st1" d="M187.4,77.4c0,1.4,0.1,2.8,0.2,3.6h-4.1l-0.3-1.5h-0.1c-1,1.2-2.5,1.8-4.2,1.8c-3,0-4.8-2.2-4.8-4.5
		c0-3.8,3.4-5.7,8.7-5.6V71c0-0.8-0.4-1.9-2.7-1.9c-1.5,0-3.1,0.5-4.1,1.1l-0.8-3c1-0.6,3-1.3,5.7-1.3c4.9,0,6.5,2.9,6.5,6.4V77.4
		 M182.9,74.1c-2.4,0-4.3,0.5-4.3,2.3c0,1.2,0.8,1.7,1.8,1.7c1.1,0,2.1-0.8,2.4-1.7c0.1-0.2,0.1-0.5,0.1-0.8V74.1z"/>
	<polyline class="st1" points="193.8,66.3 193.8,71.6 198.5,71.6 198.5,66.3 203.1,66.3 203.1,81 198.5,81 198.5,75.2 193.8,75.2 
		193.8,81 189.2,81 189.2,66.3 193.8,66.3 	"/>
	<path class="st1" d="M209.8,66.3v5.9h0.5l3.7-5.9h5.4l-5.4,6.3c1.7,0.3,2.8,1.9,3.7,4.1c0.5,1.2,1.1,3,1.8,4.3h-4.8
		c-0.4-0.6-0.8-1.7-1.3-3.3c-0.7-1.7-1.6-2.6-3.1-2.6h-0.5V81h-4.5V66.3H209.8"/>
	<path class="st0" d="M66.8,56.8c0.1,0,0.1,0,0.2,0v-0.4H45.2c-5.3,0-9.6,4.3-9.6,9.6c0,0,0,0.1,0,0.1h21.7
		C57.4,60.9,61.6,56.8,66.8,56.8"/>
	<path class="st1" d="M35.8,85c-0.1,0-0.1,0-0.2,0v0.4h21.7c5.3,0,9.6-4.3,9.6-9.6c0,0,0-0.1,0-0.1H45.2C45.2,80.8,41,85,35.8,85"/>
	<path class="st1" d="M66.8,75.3c0.1,0,0.1,0,0.2,0c-0.3-5-4.3-9-9.4-9.1C57.6,71.3,61.7,75.3,66.8,75.3"/>
	<path class="st0" d="M35.7,66.4c0.3,5,4.3,9,9.4,9.1c-0.1-5-4.1-9.1-9.2-9.1C35.8,66.4,35.7,66.4,35.7,66.4"/>
</g>
</svg>
