<?xml version="1.0" encoding="utf-8"?>
<!-- Generator: Adobe Illustrator 19.2.1, SVG Export Plug-In . SVG Version: 6.00 Build 0)  -->
<!DOCTYPE svg PUBLIC "-//W3C//DTD SVG 1.1//EN" "http://www.w3.org/Graphics/SVG/1.1/DTD/svg11.dtd">
<svg version="1.1" id="Layer_1" xmlns="http://www.w3.org/2000/svg" xmlns:xlink="http://www.w3.org/1999/xlink" x="0px" y="0px"
	 viewBox="0 0 146.7 23.9" style="enable-background:new 0 0 146.7 23.9;" xml:space="preserve">
<style type="text/css">
	.st0{fill:#E20074;}
	.st1{fill-rule:evenodd;clip-rule:evenodd;fill:#E20074;}
</style>
<rect x="0" y="10.8" class="st0" width="4.8" height="4.7"/>
<rect x="14.5" y="10.8" class="st0" width="4.8" height="4.7"/>
<rect x="28.9" y="10.8" class="st0" width="4.8" height="4.7"/>
<rect x="43.2" y="10.8" class="st0" width="4.8" height="4.7"/>
<path class="st0" d="M61.2,23.4l6-20.5V19c0,1.8-0.1,2.4-0.5,2.8c-0.3,0.3-1,0.5-1.8,0.5h-0.3v1.1h8.5v-1.1h-0.4
	c-0.8,0-1.5-0.2-1.8-0.5c-0.4-0.4-0.5-1-0.5-2.8V5.2c0-1.8,0.1-2.4,0.5-2.8c0.3-0.3,1-0.5,1.8-0.5h0.4V0.8h-6.6l-5,16.6L56.7,0.8
	h-6.6v1.1h0.6c1.8,0,2.2,0.4,2.2,2.7v13.1c0,2.1-0.1,2.9-0.4,3.6c-0.3,0.6-1.1,1.1-1.8,1.1h-0.5v1.1h7v-1.1h-0.4
	c-0.9,0-1.6-0.4-2-1.1c-0.4-0.7-0.5-1.3-0.5-3.6V2.9l6,20.5H61.2z"/>
<path class="st1" d="M80.4,8.5c1.2,0,2.3,0.7,2.9,2c0.5,1.2,0.8,2.8,0.8,5.1c0,4.8-1.2,7.2-3.6,7.2c-2.4,0-3.6-2.4-3.6-7.2
	c0-2.3,0.2-3.9,0.8-5.1C78.2,9.3,79.2,8.5,80.4,8.5 M80.5,7.4c-4.2,0-7,3.2-7,8.3c0,4.9,2.8,8.2,6.9,8.2c4.2,0,6.9-3.3,6.9-8.3
	C87.3,10.7,84.6,7.4,80.5,7.4"/>
<path class="st1" d="M96.6,8.7c2.2,0,3.3,2.3,3.3,6.8c0,4.7-1.2,7.1-3.4,7.1c-2.5,0-3.8-2.5-3.8-7c0-2.2,0.3-3.8,1-5
	C94.4,9.4,95.5,8.7,96.6,8.7 M93,0.6l-4.9,0.2v1h0.2c1.4,0,1.7,0.5,1.7,2.7v15.5c0,2-0.1,2.5-0.3,3.3h1.1c0.9-1.4,1.1-1.6,1.4-1.6
	c0.2,0,0.3,0.1,0.6,0.3c1.7,1.4,2.4,1.7,3.9,1.7c3.7,0,6.4-3.5,6.4-8.4c0-4.7-2.5-7.8-6.2-7.8c-1.9,0-3.3,0.9-4,2.5V0.6z"/>
<path class="st1" d="M107.9,0.7c-1.1,0-1.9,0.8-1.9,1.9c0,1,0.9,1.9,1.9,1.9c1.1,0,1.9-0.8,1.9-1.9C109.7,1.5,108.9,0.7,107.9,0.7
	 M109.5,7.6l-5,0.2v1h0.4c1.4,0,1.7,0.5,1.7,2.7v8c0,2.2-0.3,2.7-1.7,2.7h-0.5v1h7.5v-1h-0.5c-1.4,0-1.7-0.5-1.7-2.7V7.6z"/>
<path class="st0" d="M118.2,0.6l-5,0.2v1h0.4c1.4,0,1.7,0.5,1.7,2.7v15c0,2.3-0.3,2.7-1.7,2.7H113v1h7.5v-1h-0.5
	c-1.4,0-1.7-0.5-1.7-2.7V0.6z"/>
<path class="st1" d="M124.7,14.3c0-3.5,1.2-5.8,3.1-5.8c1.9,0,3,2.2,3,5.8H124.7z M134.1,15.5c-0.2-5-2.6-8.2-6.4-8.2
	c-3.6,0-6.2,3.4-6.2,8.2c0,5.1,2.6,8.4,6.5,8.4c2.6,0,4.3-1.3,5.8-4.3l-1-0.5c-1.2,2.5-2.4,3.5-4.2,3.5c-2.7,0-3.9-2.1-3.9-7H134.1z
	"/>
<rect x="138.1" y="10.8" class="st0" width="4.8" height="4.7"/>
<path class="st0" d="M144.7,7.7h0.2c0.2,0,0.3,0.1,0.3,0.3c0,0.2-0.1,0.3-0.4,0.3h-0.2V7.7z M145.2,8.4c0.2-0.1,0.4-0.3,0.4-0.5
	c0-0.2-0.1-0.3-0.2-0.4c-0.1-0.1-0.3-0.2-0.5-0.2h-0.6v1.9h0.4V8.5h0.2l0.5,0.7h0.4L145.2,8.4z M143.7,7.1c-0.3,0.3-0.5,0.7-0.5,1.2
	c0,0.5,0.2,0.9,0.5,1.2c0.3,0.3,0.8,0.5,1.2,0.5c0.5,0,0.9-0.2,1.2-0.5c0.3-0.3,0.5-0.7,0.5-1.2c0-0.5-0.2-0.9-0.5-1.2
	c-0.3-0.3-0.8-0.5-1.2-0.5C144.4,6.6,144,6.8,143.7,7.1 M143.9,9.3c-0.3-0.3-0.4-0.6-0.4-1c0-0.4,0.1-0.7,0.4-1
	c0.3-0.3,0.6-0.4,1-0.4c0.4,0,0.7,0.1,1,0.4c0.3,0.3,0.4,0.6,0.4,1c0,0.4-0.1,0.7-0.4,1c-0.3,0.3-0.6,0.4-1,0.4
	C144.5,9.8,144.2,9.6,143.9,9.3"/>
<g>
	<path class="st0" d="M11.5,1.1c3.9,0.1,6.2,2.6,6.6,7.3l1.3-0.2L19.1,0H0.2L0,8.3l1.3,0.2c0.3-4.7,2.6-7.3,6.6-7.3v17.3
		c0,3.1-0.5,3.7-4,3.7v1.3h11.6v-1.3c-3.4,0-4-0.5-4-3.7V1.1z"/>
</g>
</svg>
