<?xml version="1.0" encoding="utf-8"?>
<!-- Generator: Adobe Illustrator 16.0.4, SVG Export Plug-In . SVG Version: 6.00 Build 0)  -->
<!DOCTYPE svg PUBLIC "-//W3C//DTD SVG 1.1//EN" "http://www.w3.org/Graphics/SVG/1.1/DTD/svg11.dtd">
<svg version="1.1" id="Layer_1" xmlns="http://www.w3.org/2000/svg" xmlns:xlink="http://www.w3.org/1999/xlink" x="0px" y="0px"
	 width="319.323px" height="59.124px" viewBox="0 0 319.323 59.124" enable-background="new 0 0 319.323 59.124"
	 xml:space="preserve">
<g>
	<g>
		<path fill="#B3B5B8" d="M42.659,1.43c-5.492-2.941-11.446-1.102-19.631,3.284L4.935,14.41c-0.854,0.457-1.404,1.112-1.466,1.96
			c-0.045,0.619,0.118,1.101,0.28,1.413c0.324,0.624,0.769,1.051,1.827,1.681L27.459,7.751C34.242,4.115,39.42,1.81,44.05,2.175
			L42.659,1.43z"/>
		<path fill="#B3B5B8" d="M0,27.036c0,3.023,0.221,5.407,2.852,6.923l12.716,6.801c2.447,0.207,5.287,0.107,7.687-0.338
			c3.243-0.599,7.02-1.917,10.867-3.907L4.783,20.801c-1.208-0.648-2.028-1.436-2.437-2.254c-0.397-0.792-0.506-1.869-0.16-2.638
			C0.166,17.473,0,19.934,0,22.458V27.036z"/>
		<path fill="#B3B5B8" d="M48.014,4.298c-4.693-0.334-9.408,0.848-16.776,4.812L8.747,21.141l5.043,2.702l21.702-11.599
			c5.885-3.142,12.175-5.481,17.877-5.076L48.014,4.298z"/>
		<path fill="#B3B5B8" d="M29.197,48.059c5.494,2.941,11.447,1.1,19.632-3.283l18.093-9.695c0.853-0.459,1.404-1.113,1.466-1.96
			c0.045-0.619-0.118-1.102-0.28-1.415c-0.325-0.624-0.77-1.051-1.827-1.681L44.398,41.737c-6.783,3.637-11.961,5.942-16.59,5.576
			L29.197,48.059z"/>
		<path fill="#B3B5B8" d="M71.857,22.453c0-3.023-0.221-5.407-2.852-6.923L56.288,8.729c-2.448-0.207-5.286-0.107-7.686,0.338
			c-3.243,0.599-7.02,1.917-10.866,3.906l29.338,15.713c1.209,0.65,2.028,1.438,2.437,2.255c0.396,0.792,0.506,1.868,0.16,2.639
			c2.021-1.564,2.186-4.027,2.186-6.551V22.453z"/>
		<path fill="#B3B5B8" d="M23.842,45.189c4.695,0.334,9.409-0.847,16.777-4.812l22.491-12.03l-5.043-2.7L36.363,37.244
			c-5.883,3.142-12.173,5.481-17.875,5.078L23.842,45.189z"/>
	</g>
	<g>
		<path d="M85.174,16.426c-0.356-1.097-0.682-1.808-1.097-2.104c-0.326-0.208-0.919-0.267-1.186-0.267
			c-0.296,0-0.475-0.03-0.475-0.27c0-0.209,0.237-0.27,0.652-0.27c1.542,0,3.172,0.076,3.439,0.076c0.267,0,1.571-0.076,3.291-0.076
			c0.415,0,0.623,0.09,0.623,0.27c0,0.24-0.237,0.27-0.534,0.27c-0.237,0-0.534,0-0.741,0.119c-0.267,0.118-0.326,0.326-0.326,0.652
			c0,0.385,0.296,1.394,0.652,2.692c0.504,1.96,3.261,10.958,3.795,12.622h0.089l5.752-15.472c0.326-0.832,0.504-1.069,0.741-1.069
			c0.326,0,0.474,0.446,0.859,1.396l6.167,14.949h0.089c0.534-1.986,2.905-9.812,3.944-13.28c0.206-0.682,0.295-1.304,0.295-1.719
			c0-0.475-0.266-0.89-1.422-0.89c-0.296,0-0.504-0.09-0.504-0.27c0-0.209,0.237-0.27,0.682-0.27c1.572,0,2.817,0.076,3.083,0.076
			c0.208,0,1.482-0.076,2.461-0.076c0.326,0,0.534,0.061,0.534,0.24c0,0.21-0.148,0.3-0.415,0.3c-0.298,0-0.713,0.03-1.038,0.148
			c-0.712,0.267-1.038,1.453-1.661,3.142c-1.363,3.735-4.476,13.162-5.929,17.607c-0.326,1.038-0.475,1.393-0.86,1.393
			c-0.296,0-0.475-0.355-0.919-1.452l-6.167-14.851H98.99c-0.563,1.512-4.506,12.005-5.781,14.732
			c-0.563,1.215-0.711,1.571-1.067,1.571c-0.296,0-0.445-0.326-0.682-1.097L85.174,16.426z"/>
		<path d="M120.774,22.092c0-4.508,0-5.339-0.06-6.288c-0.059-1.008-0.355-1.513-1.008-1.661c-0.326-0.086-0.712-0.115-1.067-0.088
			c-0.297,0-0.475-0.06-0.475-0.3c0-0.18,0.237-0.24,0.712-0.24c1.127,0,2.992,0.076,3.849,0.076c0.739,0,2.485-0.076,3.613-0.076
			c0.385,0,0.622,0.061,0.622,0.24c0,0.24-0.178,0.3-0.475,0.3c-0.296,0-0.533,0.03-0.889,0.089
			c-0.802,0.148-1.038,0.653-1.099,1.691c-0.06,0.949-0.06,1.78-0.06,6.288v5.22c0,2.877,0,5.221,0.12,6.496
			c0.089,0.801,0.296,1.335,1.186,1.454c0.415,0.057,1.068,0.115,1.513,0.088c0.326,0,0.475,0.09,0.475,0.24
			c0,0.21-0.237,0.3-0.563,0.3c-1.958,0-3.822-0.076-4.621-0.076c-0.679,0-2.544,0.076-3.73,0.076c-0.386,0-0.594-0.09-0.594-0.3
			c0-0.15,0.119-0.24,0.475-0.24c0.445,0,0.801-0.059,1.068-0.088c0.593-0.119,0.771-0.623,0.86-1.483
			c0.147-1.246,0.147-3.589,0.147-6.485V22.092z"/>
		<path d="M138.587,27.338c0,3.795,0,5.841,0.624,6.375c0.506,0.444,1.278,0.652,3.596,0.652c1.574,0,2.733-0.029,3.477-0.83
			c0.355-0.385,0.713-1.216,0.772-1.779c0.028-0.267,0.087-0.445,0.316-0.463c0.202,0,0.231,0.148,0.231,0.503
			c0,0.326-0.202,2.547-0.433,3.406c-0.175,0.658-0.324,0.807-1.868,0.807c-4.279,0-6.24-0.179-8.644-0.179
			c-0.683,0-2.551,0.09-3.737,0.09c-0.386,0-0.593-0.09-0.593-0.3c0-0.15,0.118-0.24,0.474-0.24c0.445,0,0.801-0.059,1.068-0.088
			c0.593-0.119,0.741-0.771,0.859-1.631c0.149-1.246,0.149-3.589,0.149-6.337v-5.213c0-4.502,0-5.332-0.06-6.28
			c-0.06-1.007-0.297-1.48-1.275-1.688c-0.237-0.06-0.594-0.089-0.979-0.089c-0.327,0-0.504-0.06-0.504-0.27
			c0-0.209,0.207-0.27,0.651-0.27c1.395,0,3.263,0.076,4.063,0.076c0.712,0,2.879-0.076,4.038-0.076c0.416,0,0.624,0.061,0.624,0.27
			c0,0.21-0.178,0.27-0.534,0.27c-0.328,0-0.803,0.03-1.159,0.089c-0.803,0.148-1.04,0.652-1.1,1.688
			c-0.06,0.948-0.06,1.777-0.06,6.28V27.338z"/>
		<path d="M154.7,13.61c0.09-0.504,0.268-0.771,0.504-0.771c0.238,0,0.416,0.148,0.802,0.919l8.097,16.729l8.067-16.937
			c0.208-0.475,0.387-0.711,0.653-0.711s0.444,0.296,0.533,0.919l2.699,18.33c0.268,1.868,0.563,2.729,1.453,2.996
			c0.86,0.267,1.453,0.296,1.839,0.296c0.268,0,0.476,0.03,0.476,0.21c0,0.24-0.356,0.33-0.771,0.33c-0.741,0-4.835-0.09-6.021-0.18
			c-0.683-0.06-0.86-0.15-0.86-0.33c0-0.148,0.119-0.238,0.327-0.327c0.177-0.06,0.267-0.445,0.147-1.275l-1.779-13.054h-0.118
			L164.28,34.22c-0.682,1.394-0.83,1.661-1.098,1.661c-0.267,0-0.563-0.593-1.038-1.483c-0.712-1.364-3.055-5.902-3.411-6.711
			c-0.266-0.623-2.046-4.36-3.084-6.585h-0.118l-1.542,11.805c-0.061,0.534-0.09,0.919-0.09,1.394c0,0.564,0.386,0.831,0.891,0.949
			c0.533,0.118,0.948,0.147,1.245,0.13c0.237,0,0.444,0.06,0.444,0.21c0,0.27-0.267,0.33-0.711,0.33
			c-1.246,0-2.583-0.076-3.118-0.076c-0.564,0-1.989,0.076-2.938,0.076c-0.297,0-0.533-0.06-0.533-0.33
			c0-0.15,0.178-0.21,0.474-0.21c0.237,0,0.445,0,0.89-0.089c0.831-0.178,1.068-1.335,1.217-2.343L154.7,13.61z"/>
		<path d="M185.285,22.092c0-4.508,0-5.339-0.059-6.288c-0.06-1.008-0.356-1.513-1.008-1.661c-0.327-0.086-0.713-0.115-1.068-0.088
			c-0.297,0-0.475-0.06-0.475-0.3c0-0.18,0.237-0.24,0.712-0.24c1.127,0,2.992,0.076,3.849,0.076c0.739,0,2.486-0.076,3.613-0.076
			c0.386,0,0.623,0.061,0.623,0.24c0,0.24-0.179,0.3-0.475,0.3c-0.297,0-0.534,0.03-0.891,0.089
			c-0.801,0.148-1.038,0.653-1.097,1.691c-0.06,0.949-0.06,1.78-0.06,6.288v5.22c0,2.877,0,5.221,0.118,6.496
			c0.09,0.801,0.297,1.335,1.187,1.454c0.415,0.057,1.068,0.115,1.513,0.088c0.326,0,0.476,0.09,0.476,0.24
			c0,0.21-0.237,0.3-0.563,0.3c-1.958,0-3.823-0.076-4.621-0.076c-0.68,0-2.545,0.076-3.731,0.076c-0.386,0-0.593-0.09-0.593-0.3
			c0-0.15,0.118-0.24,0.475-0.24c0.444,0,0.801-0.059,1.067-0.088c0.593-0.119,0.771-0.623,0.86-1.483
			c0.147-1.246,0.147-3.589,0.147-6.485V22.092z"/>
		<path d="M201.077,31.885c0.059,2.311,0.445,3.081,1.038,3.288c0.505,0.178,1.069,0.207,1.545,0.207c0.326,0,0.505,0.06,0.497,0.24
			c0,0.24-0.268,0.3-0.684,0.3c-1.931,0-3.118-0.076-3.682-0.076c-0.268,0-1.661,0.076-3.203,0.076c-0.386,0-0.652-0.03-0.652-0.3
			c0-0.18,0.178-0.24,0.474-0.24c0.386,0,0.92-0.029,1.335-0.148c0.771-0.237,0.891-1.096,0.92-3.673l0.267-17.535
			c0-0.599,0.089-1.014,0.386-1.014c0.326,0,0.593,0.386,1.098,0.924c0.355,0.387,4.871,5.215,9.208,9.51
			c2.021,2.015,6.031,6.279,6.537,6.753h0.147l-0.297-13.299c-0.029-1.807-0.297-2.369-1.01-2.666
			c-0.445-0.178-1.158-0.178-1.574-0.178c-0.357,0-0.477-0.09-0.477-0.27c0-0.24,0.327-0.27,0.772-0.27
			c1.546,0,2.97,0.076,3.592,0.076c0.326,0,1.452-0.076,2.906-0.076c0.386,0,0.683,0.03,0.683,0.27c0,0.18-0.178,0.27-0.534,0.27
			c-0.296,0-0.534,0-0.89,0.089c-0.831,0.237-1.068,0.859-1.098,2.518l-0.326,18.69c0,0.658-0.119,0.925-0.386,0.925
			c-0.325,0-0.681-0.326-1.007-0.656c-1.87-1.78-5.673-5.66-8.763-8.711c-3.237-3.199-6.535-6.901-7.07-7.464h-0.089L201.077,31.885
			z"/>
		<path d="M244.915,33.942c0,0.8-0.03,0.859-0.387,1.067c-1.931,1.008-4.838,1.335-7.15,1.335c-7.264,0-13.693-3.439-13.693-11.627
			c0-4.75,2.457-8.074,5.154-9.707c2.847-1.714,5.484-1.92,7.976-1.92c2.046,0,4.655,0.354,5.253,0.505
			c0.623,0.119,1.661,0.296,2.344,0.326c0.357,0.03,0.416,0.148,0.416,0.355c0,0.325-0.208,1.154-0.208,4.831
			c0,0.475-0.089,0.623-0.326,0.623c-0.208,0-0.268-0.148-0.298-0.386c-0.089-0.683-0.237-1.633-1.008-2.464
			c-0.89-0.95-3.263-2.316-6.618-2.316c-1.63,0-3.795,0.119-5.87,1.841c-1.66,1.395-2.729,3.622-2.729,7.273
			c0,6.381,4.062,11.154,10.319,11.154c0.771,0,1.809,0,2.52-0.326c0.445-0.208,0.563-0.593,0.563-1.097v-2.786
			c0-1.482,0-2.609-0.029-3.498c-0.03-1.008-0.297-1.482-1.275-1.689c-0.237-0.06-0.741-0.089-1.156-0.089
			c-0.268,0-0.445-0.06-0.445-0.24c0-0.24,0.208-0.3,0.623-0.3c1.542,0,3.412,0.076,4.303,0.076c0.92,0,2.493-0.076,3.473-0.076
			c0.385,0,0.593,0.06,0.593,0.3c0,0.18-0.178,0.24-0.386,0.24c-0.237,0-0.444,0.03-0.801,0.089
			c-0.801,0.148-1.098,0.652-1.127,1.689c-0.029,0.889-0.029,2.075-0.029,3.557V33.942z"/>
		<path d="M256.375,15.174l-4.416,0.119c-1.719,0.059-2.431,0.208-2.874,0.859c-0.297,0.444-0.445,0.8-0.504,1.037
			c-0.06,0.237-0.148,0.355-0.325,0.355c-0.206,0-0.266-0.148-0.266-0.474c0-0.474,0.562-3.175,0.62-3.418
			c0.089-0.385,0.178-0.563,0.355-0.563c0.237,0,0.533,0.296,1.274,0.361c0.859,0.089,1.985,0.148,2.963,0.148h11.751
			c0.951,0,1.604-0.089,2.051-0.15c0.445-0.088,0.682-0.148,0.801-0.148c0.208,0,0.237,0.178,0.237,0.623
			c0,0.623-0.089,2.667-0.089,3.448c-0.03,0.296-0.089,0.475-0.268,0.475c-0.236,0-0.296-0.148-0.326-0.594l-0.029-0.326
			c-0.06-0.771-0.861-1.602-3.506-1.661l-3.743-0.09V27.34c0,2.729,0,5.074,0.149,6.35c0.088,0.831,0.267,1.484,1.158,1.603
			c0.416,0.057,1.069,0.115,1.516,0.088c0.326,0,0.475,0.09,0.475,0.24c0,0.21-0.238,0.3-0.564,0.3c-1.961,0-3.83-0.076-4.661-0.076
			c-0.682,0-2.551,0.076-3.735,0.076c-0.386,0-0.593-0.09-0.593-0.3c0-0.15,0.118-0.24,0.474-0.24c0.444,0,0.801-0.059,1.067-0.088
			c0.593-0.119,0.771-0.771,0.859-1.632c0.148-1.247,0.148-3.591,0.148-6.339V15.174z"/>
		<path d="M282.014,34.871c-5.689,0-9.097-4.896-9.097-11.067c0-7.388,3.882-9.287,7.289-9.287c4.86,0,8.683,4.125,8.683,10.77
			C288.889,33.862,284.088,34.871,282.014,34.871z M280.77,36.345c7.525,0,12.282-5.361,12.282-12.155
			c0-6.794-4.608-11.097-11.986-11.097c-8.889,0-12.235,6.558-12.235,11.631C268.831,29.976,272.266,36.345,280.77,36.345z"/>
		<path d="M299.497,31.885c0.06,2.311,0.445,3.081,1.038,3.288c0.505,0.178,1.069,0.207,1.544,0.207c0.327,0,0.506,0.06,0.498,0.24
			c0,0.24-0.267,0.3-0.684,0.3c-1.931,0-3.118-0.076-3.682-0.076c-0.268,0-1.661,0.076-3.203,0.076c-0.386,0-0.652-0.03-0.652-0.3
			c0-0.18,0.178-0.24,0.475-0.24c0.385,0,0.919-0.029,1.334-0.148c0.771-0.237,0.891-1.096,0.92-3.673l0.267-17.535
			c0-0.599,0.089-1.014,0.386-1.014c0.326,0,0.594,0.386,1.098,0.924c0.355,0.387,4.871,5.215,9.209,9.51
			c2.02,2.015,6.03,6.279,6.535,6.753h0.148l-0.297-13.299c-0.029-1.807-0.297-2.369-1.011-2.666
			c-0.444-0.178-1.158-0.178-1.573-0.178c-0.356,0-0.477-0.09-0.477-0.27c0-0.24,0.328-0.27,0.773-0.27
			c1.545,0,2.969,0.076,3.592,0.076c0.325,0,1.451-0.076,2.905-0.076c0.386,0,0.683,0.03,0.683,0.27c0,0.18-0.179,0.27-0.534,0.27
			c-0.297,0-0.534,0-0.89,0.089c-0.83,0.237-1.068,0.859-1.098,2.518l-0.326,18.69c0,0.658-0.119,0.925-0.386,0.925
			c-0.325,0-0.681-0.326-1.007-0.656c-1.87-1.78-5.673-5.66-8.763-8.711c-3.238-3.199-6.536-6.901-7.07-7.464h-0.089L299.497,31.885
			z"/>
	</g>
	<g>
		<path d="M90.525,43.75l-3.222,0.086c-1.254,0.043-1.773,0.151-2.098,0.625c-0.216,0.323-0.324,0.583-0.368,0.755
			c-0.042,0.172-0.105,0.259-0.232,0.259c-0.147,0-0.189-0.108-0.189-0.345c0-0.345,0.4-2.302,0.443-2.444
			c0.065-0.28,0.129-0.41,0.259-0.41c0.173,0,0.389,0.216,0.931,0.229c0.627,0.065,1.449,0.108,2.163,0.108h8.55
			c1.381,0,1.896-0.216,2.064-0.216c0.147,0,0.168,0.13,0.168,0.452c0,0.451-0.063,1.939-0.063,2.501
			c-0.021,0.217-0.063,0.346-0.19,0.346c-0.168,0-0.21-0.108-0.232-0.433l-0.021-0.238c-0.043-0.562-0.626-1.168-2.547-1.211
			l-2.719-0.064v8.866c0,1.99,0,3.698,0.108,4.628c0.064,0.606,0.194,1.082,0.842,1.168c0.302,0.042,0.777,0.084,1.099,0.084
			c0.238,0,0.346,0.063,0.346,0.168c0,0.147-0.173,0.21-0.41,0.21c-1.423,0-2.783-0.084-3.387-0.084
			c-0.496,0-1.855,0.084-2.718,0.084c-0.28,0-0.432-0.063-0.432-0.21c0-0.105,0.086-0.168,0.345-0.168
			c0.324,0,0.583-0.043,0.777-0.084c0.431-0.086,0.561-0.561,0.625-1.186c0.107-0.906,0.107-2.61,0.107-4.611V43.75z"/>
		<path d="M106.043,43.93c0-0.173,0.043-0.26,0.195-0.304c0.218-0.065,0.609-0.087,1.153-0.087c1.283,0,3.327,0.889,3.327,3.967
			c0,1.778-0.63,2.775-1.283,3.252c-0.392,0.282-0.674,0.369-1.544,0.369c-0.544,0-1.196-0.065-1.653-0.217
			c-0.152-0.065-0.195-0.152-0.195-0.39V43.93z M103.516,52.625c0,1.986,0,3.692-0.108,4.599c-0.086,0.626-0.194,1.101-0.626,1.188
			c-0.194,0.041-0.453,0.084-0.776,0.084c-0.259,0-0.345,0.063-0.345,0.168c0,0.147,0.151,0.21,0.432,0.21
			c0.863,0,2.216-0.084,2.623-0.084c0.322,0,1.916,0.084,3.177,0.084c0.283,0,0.435-0.063,0.435-0.21
			c0-0.105-0.087-0.168-0.261-0.168c-0.261,0-0.739-0.042-1.065-0.084c-0.653-0.086-0.783-0.561-0.849-1.188
			c-0.108-0.907-0.108-2.612-0.108-4.62v-0.302c0-0.13,0.065-0.174,0.174-0.174l1.892,0.044c0.152,0,0.283,0.022,0.392,0.151
			c0.282,0.324,1.283,1.792,2.153,2.98c1.2,1.66,2.015,2.675,2.938,3.171c0.561,0.296,1.1,0.401,2.308,0.401h2.049
			c0.26,0,0.41-0.042,0.41-0.21c0-0.105-0.086-0.168-0.259-0.168s-0.366-0.022-0.604-0.065c-0.324-0.065-1.208-0.216-2.417-1.468
			c-1.271-1.338-2.754-3.259-4.666-5.684c2.169-1.779,2.833-3.254,2.833-4.858c0-1.453-0.857-2.559-1.457-2.971
			c-1.157-0.795-2.615-0.921-3.985-0.921c-0.674,0-2.319,0.084-3.047,0.084c-0.45,0-1.803-0.084-2.947-0.084
			c-0.323,0-0.475,0.042-0.475,0.189s0.13,0.19,0.367,0.19c0.302,0,0.668,0.021,0.841,0.065c0.711,0.152,0.884,0.499,0.927,1.236
			c0.043,0.694,0.043,1.301,0.043,4.598V52.625z"/>
		<path d="M119.313,48.778c0-3.281,0-3.885-0.044-4.576c-0.043-0.734-0.216-1.079-0.927-1.23c-0.173-0.043-0.54-0.064-0.842-0.064
			c-0.237,0-0.367-0.042-0.367-0.19s0.151-0.189,0.475-0.189c1.144,0,2.506,0.084,3.156,0.084c0.52,0,1.881-0.084,2.658-0.084
			c0.322,0,0.474,0.042,0.474,0.189s-0.13,0.19-0.345,0.19c-0.237,0-0.366,0.021-0.625,0.064c-0.583,0.108-0.755,0.475-0.798,1.23
			c-0.043,0.69-0.043,1.295-0.043,4.576V51.8c0,3.129,0.625,4.446,1.681,5.31c0.971,0.798,1.963,0.885,2.695,0.885
			c0.949,0,2.113-0.302,2.976-1.166c1.186-1.187,1.251-3.129,1.251-5.353v-2.698c0-3.281,0-3.885-0.044-4.576
			c-0.042-0.734-0.216-1.079-0.926-1.23c-0.174-0.043-0.54-0.064-0.776-0.064c-0.238,0-0.367-0.042-0.367-0.19
			s0.15-0.189,0.452-0.189c1.101,0,2.464,0.084,2.485,0.084c0.261,0,1.625-0.084,2.466-0.084c0.302,0,0.453,0.042,0.453,0.189
			s-0.13,0.19-0.389,0.19c-0.237,0-0.366,0.021-0.626,0.064c-0.582,0.108-0.754,0.475-0.798,1.23
			c-0.043,0.69-0.043,1.295-0.043,4.576v2.309c0,2.396-0.239,4.943-2.061,6.497c-1.53,1.305-3.083,1.54-4.484,1.54
			c-1.143,0-3.212-0.064-4.791-1.475c-1.104-0.993-1.927-2.59-1.927-5.72V48.778z"/>
		<path d="M137.965,58.558c-0.345-0.152-0.409-0.261-0.409-0.736c0-1.179,0.086-2.466,0.107-2.809
			c0.021-0.322,0.087-0.557,0.259-0.557c0.194,0,0.216,0.192,0.216,0.364c0,0.279,0.086,0.729,0.193,1.094
			c0.474,1.586,1.742,2.166,3.093,2.166c1.93,0,2.873-1.308,2.873-2.445c0-1.05-0.322-2.058-2.102-3.431l-0.985-0.772
			c-2.369-1.844-3.191-3.345-3.191-5.082c0-2.359,1.989-4.07,4.971-4.07c1.394,0,2.3,0.218,2.853,0.336
			c0.194,0.043,0.303,0.108,0.303,0.259c0,0.28-0.086,0.905-0.086,2.617c0,0.472-0.065,0.643-0.239,0.643
			c-0.151,0-0.217-0.128-0.217-0.386c0-0.193-0.107-0.858-0.56-1.416c-0.322-0.407-0.946-1.051-2.333-1.051
			c-1.586,0-2.551,0.922-2.551,2.209c0,0.986,0.493,1.737,2.272,3.087l0.6,0.451c2.582,1.994,3.532,3.431,3.532,5.468
			c0,1.244-0.475,2.724-2.029,3.733c-1.074,0.697-2.274,0.893-3.428,0.893C139.859,59.124,138.891,58.971,137.965,58.558z"/>
		<path d="M155.111,43.75l-3.222,0.086c-1.254,0.043-1.773,0.151-2.099,0.627c-0.216,0.324-0.323,0.584-0.367,0.757
			c-0.042,0.173-0.104,0.259-0.231,0.259c-0.147,0-0.189-0.108-0.189-0.346c0-0.346,0.399-2.306,0.443-2.447
			c0.064-0.281,0.129-0.411,0.259-0.411c0.173,0,0.39,0.216,0.931,0.229c0.627,0.065,1.448,0.108,2.162,0.108h8.55
			c0.69,0,1.166-0.064,1.489-0.102c0.322-0.065,0.49-0.108,0.574-0.108c0.148,0,0.169,0.13,0.169,0.454
			c0,0.454-0.063,1.944-0.063,2.493c-0.021,0.217-0.063,0.346-0.189,0.346c-0.168,0-0.211-0.108-0.231-0.433l-0.021-0.238
			c-0.043-0.562-0.626-1.168-2.547-1.211l-2.72-0.064v8.866c0,1.99,0,3.698,0.108,4.628c0.065,0.606,0.194,1.082,0.842,1.168
			c0.303,0.042,0.777,0.084,1.101,0.084c0.237,0,0.346,0.063,0.346,0.168c0,0.147-0.173,0.21-0.41,0.21
			c-1.425,0-2.783-0.084-3.388-0.084c-0.496,0-1.857,0.084-2.722,0.084c-0.281,0-0.433-0.063-0.433-0.21
			c0-0.105,0.087-0.168,0.346-0.168c0.325,0,0.584-0.043,0.779-0.084c0.433-0.086,0.562-0.562,0.627-1.189
			c0.107-0.908,0.107-2.617,0.107-4.607V43.75z"/>
	</g>
</g>
</svg>
