<?xml version="1.0" standalone="no"?>
<!DOCTYPE svg PUBLIC "-//W3C//DTD SVG 20010904//EN"
 "http://www.w3.org/TR/2001/REC-SVG-20010904/DTD/svg10.dtd">
<svg version="1.0" xmlns="http://www.w3.org/2000/svg"
 width="400.000000pt" height="180.000000pt" viewBox="0 0 400.000000 180.000000"
 preserveAspectRatio="xMidYMid meet">
<metadata>
Created by potrace 1.13, written by Peter Selinger 2001-2015
</metadata>
<g transform="translate(0.000000,180.000000) scale(0.100000,-0.100000)"
fill="#000000" stroke="none">
<path d="M1580 1730 c-343 -23 -697 -68 -1015 -131 -198 -39 -471 -102 -480
-111 -3 -2 41 -271 97 -597 l102 -593 31 6 c16 3 100 21 185 40 269 62 585
110 930 143 260 24 880 24 1140 0 345 -33 661 -81 930 -143 85 -19 169 -37
185 -40 l31 -6 102 593 c67 391 98 595 91 599 -18 12 -357 88 -549 124 -217
40 -504 79 -750 102 -206 18 -831 27 -1030 14z m885 -50 c397 -27 748 -76
1110 -155 66 -14 140 -30 164 -35 23 -6 61 -15 83 -20 l39 -11 -6 -47 c-4 -26
-15 -96 -25 -157 -19 -107 -51 -297 -91 -540 -45 -275 -51 -311 -56 -334 -7
-28 -5 -28 -248 24 -162 35 -273 54 -520 89 -298 43 -531 58 -905 58 -373 0
-672 -18 -930 -58 -52 -9 -129 -20 -170 -25 -69 -9 -278 -50 -440 -85 -96 -21
-150 -28 -150 -18 -2 30 -133 830 -169 1029 -12 63 -7 69 89 90 254 55 318 69
440 91 74 13 162 28 195 34 122 19 494 61 620 69 187 12 806 12 970 1z"/>
<path d="M2145 1616 c-64 -29 -127 -99 -185 -204 -25 -45 -47 -82 -50 -82 -11
1 -78 130 -69 136 17 10 9 34 -13 34 -12 0 -18 -3 -15 -7 4 -3 2 -12 -4 -19
-8 -10 0 -33 36 -94 25 -45 45 -88 43 -96 -2 -8 -28 28 -60 81 -31 52 -52 97
-47 101 5 3 9 12 9 20 0 12 -19 13 -117 8 -118 -7 -153 -17 -121 -35 9 -5 28
-29 42 -53 15 -26 43 -54 65 -66 23 -14 49 -41 67 -72 37 -64 52 -71 104 -53
24 8 51 15 61 15 22 0 89 -40 89 -53 0 -5 -14 -22 -30 -39 -28 -27 -36 -30
-76 -25 -33 3 -50 0 -66 -13 -20 -15 -22 -26 -20 -91 2 -55 8 -81 22 -101 24
-32 27 -110 6 -131 -9 -8 -47 -17 -92 -21 -69 -6 -82 -5 -125 17 -48 23 -61
23 -37 -1 10 -10 7 -16 -12 -30 -14 -9 -34 -17 -46 -18 -31 -1 -41 -11 -39
-36 2 -28 38 -36 61 -14 8 9 13 16 9 16 -3 0 -1 9 5 20 6 11 18 20 27 20 14 0
14 -3 -3 -22 -19 -21 -6 -18 25 6 8 6 45 11 83 12 38 0 63 -3 56 -8 -7 -4 -38
-8 -68 -8 -47 -1 -52 -3 -30 -11 14 -6 41 -7 60 -3 19 4 98 10 175 13 118 5
139 8 135 21 -3 8 -6 90 -8 182 l-3 167 47 93 c71 143 172 304 215 343 49 44
98 47 149 10 19 -14 36 -25 38 -25 10 0 -10 65 -26 83 -52 59 -179 75 -267 33z"/>
<path d="M2265 1499 c-41 -37 -123 -166 -194 -307 l-51 -102 0 -167 c0 -172 5
-216 23 -210 6 2 9 73 8 191 l-2 187 57 107 c76 142 149 260 187 300 39 41 19
42 -28 1z"/>
<path d="M2326 1479 c-2 -8 -9 -175 -14 -372 -7 -238 -14 -363 -22 -372 -17
-20 -2 -25 103 -32 l94 -6 6 69 c4 38 7 87 7 109 0 32 8 48 36 78 45 48 57 41
17 -10 -28 -35 -31 -45 -35 -141 -5 -94 2 -126 20 -107 4 4 9 53 12 111 4 86
9 107 25 124 l20 20 45 -125 c24 -69 46 -129 50 -135 6 -10 207 -36 215 -28 3
3 -4 22 -15 44 -30 58 -172 425 -168 435 2 4 61 70 131 145 71 75 125 140 120
144 -11 11 -251 36 -260 27 -4 -4 -2 -12 5 -19 8 -8 -2 -26 -41 -71 -29 -33
-64 -73 -78 -90 l-25 -30 4 94 c3 71 8 97 20 107 12 9 13 15 4 24 -8 8 -16 5
-30 -12 -19 -24 -32 -111 -32 -215 0 -24 -6 -47 -12 -53 -20 -16 -11 225 9
256 8 13 13 26 10 28 -2 2 -52 7 -110 10 -87 6 -107 4 -111 -7z"/>
<path d="M1310 1469 c-109 -12 -118 -15 -98 -35 14 -14 11 -33 -29 -192 -24
-97 -46 -178 -47 -179 -1 -2 -31 72 -65 163 -46 121 -60 169 -52 177 17 17 13
27 -9 27 -11 0 -19 -3 -18 -7 0 -5 -2 -16 -6 -25 -5 -12 16 -81 63 -203 63
-163 86 -243 64 -221 -4 4 -42 98 -85 208 -56 147 -75 205 -67 214 23 27 -4
30 -118 12 -151 -23 -154 -25 -126 -47 11 -10 38 -54 58 -98 l36 -80 -26 -94
c-15 -52 -29 -101 -32 -109 -3 -9 -43 61 -95 164 -63 127 -86 182 -79 189 17
17 13 27 -11 27 -12 0 -18 -3 -15 -6 3 -4 2 -15 -4 -25 -7 -15 10 -58 86 -210
53 -105 95 -200 93 -211 -2 -13 -42 58 -106 186 -77 156 -101 213 -96 232 3
13 3 24 -1 24 -15 0 -240 -52 -245 -57 -3 -2 5 -12 16 -21 39 -31 347 -630
342 -665 -4 -26 -7 -26 101 -8 97 16 86 1 147 204 22 76 41 124 47 118 7 -7
-21 -114 -73 -273 -7 -22 -6 -28 6 -28 8 0 17 6 19 12 2 7 19 63 38 123 l34
110 52 -109 c46 -97 53 -108 74 -103 12 3 54 9 92 12 83 9 88 11 76 34 -7 13
6 81 48 244 l57 227 -40 8 c-30 5 -46 16 -63 41 -13 19 -23 40 -23 48 0 21 50
35 107 30 l53 -6 21 72 c11 40 27 79 35 88 29 32 19 34 -136 18z"/>
<path d="M2943 1357 c-35 -40 -94 -106 -132 -147 l-70 -76 80 -204 c96 -246
111 -280 125 -280 20 0 24 13 9 30 -8 8 -36 74 -63 145 -27 72 -66 170 -85
218 l-36 88 134 143 c74 79 131 146 128 150 -14 14 -31 1 -90 -67z"/>
<path d="M3060 1415 c0 -3 5 -14 12 -24 9 -15 5 -92 -21 -357 -18 -187 -33
-350 -34 -363 -2 -21 4 -26 33 -32 40 -9 428 -80 449 -82 16 -2 25 25 35 107
l8 58 -29 -6 c-25 -6 -219 27 -231 39 -5 4 8 165 13 165 22 0 150 -33 164 -42
11 -7 23 -9 27 -5 9 9 33 169 27 180 -2 4 -12 3 -23 -3 -12 -7 -43 -5 -97 6
l-79 16 9 72 c5 39 11 73 13 76 9 9 228 -40 244 -55 10 -9 21 -12 24 -7 8 13
29 153 23 158 -11 12 -498 104 -548 104 -10 0 -19 -2 -19 -5z"/>
<path d="M1470 1165 c0 -8 -4 -15 -10 -15 -5 0 -10 -3 -10 -8 0 -4 17 -6 38
-4 30 3 41 -1 57 -20 11 -13 13 -17 5 -10 -15 13 -48 16 -73 6 -13 -5 -12 -9
5 -26 18 -18 26 -20 50 -10 32 12 47 -1 27 -24 -8 -10 -24 -14 -41 -12 -22 4
-28 1 -28 -14 0 -10 11 -23 25 -30 19 -9 29 -7 50 6 15 10 34 14 45 11 23 -7
25 -2 8 28 -7 12 -12 35 -12 51 -1 24 -10 35 -46 57 -51 31 -90 37 -90 14z"/>
<path d="M1610 464 c-408 -29 -883 -99 -1200 -177 -65 -16 -62 -18 90 -51 881
-192 1780 -214 2665 -65 132 22 373 72 438 91 l42 11 -55 14 c-249 61 -647
126 -970 159 -147 15 -867 28 -1010 18z"/>
</g>
</svg>
