<?xml version="1.0" encoding="utf-8"?>
<!-- Generator: Adobe Illustrator 19.0.0, SVG Export Plug-In . SVG Version: 6.00 Build 0)  -->
<svg version="1.1" id="Layer_1" xmlns="http://www.w3.org/2000/svg" xmlns:xlink="http://www.w3.org/1999/xlink" x="0px" y="0px"
	 viewBox="0 0 612 792" style="enable-background:new 0 0 612 792;" xml:space="preserve">
<g>
	<g>
		<path d="M427.5,190c-16.6,0-30,13.4-30,30c0,16.6,13.4,30,30,30c16.6,0,30-13.4,30-30C457.5,203.4,444.1,190,427.5,190z
			 M427.5,241c-11.6,0-21-9.4-21-21s9.4-21,21-21s21,9.4,21,21S439.1,241,427.5,241z"/>
	</g>
	<g>
		<rect x="360" y="220" width="21" height="9"/>
		<path d="M360,241c-11.6,0-21-9.4-21-21s9.4-21,21-21c7.8,0,14.5,4.2,18.2,10.5l7.8-4.5c-5.2-9-14.9-15-26-15
			c-16.6,0-30,13.4-30,30c0,16.6,13.4,30,30,30c16.6,0,30-13.4,30-30h-9C381,231.6,371.6,241,360,241z"/>
	</g>
	<g>
		<rect x="270" y="190" width="10.5" height="60"/>
		<path d="M303,229h-33v-9h33c5.8,0,10.5-4.7,10.5-10.5c0-5.8-4.7-10.5-10.5-10.5h-33v-9h33c10.8,0,19.5,8.7,19.5,19.5
			S313.8,229,303,229z"/>
		<polygon points="322.5,250 310.6,224.5 299.9,224.5 311.7,250 		"/>
	</g>
	<g>
		<path d="M180,241c-11.6,0-21-9.4-21-21s9.4-21,21-21c5.8,0,11,2.4,14.8,6.2l6.4-6.4c-5.4-5.4-12.9-8.8-21.2-8.8
			c-16.6,0-30,13.4-30,30c0,16.6,13.4,30,30,30c8.3,0,15.8-3.4,21.2-8.8l-6.4-6.4C191,238.6,185.8,241,180,241z"/>
	</g>
	<g>
		<polygon points="234,185.7 204,250 214.6,250 233.9,208.5 253.3,250 264,250 		"/>
		<rect x="218.8" y="229" width="30.4" height="9"/>
	</g>
</g>
</svg>
