<?xml version="1.0" encoding="utf-8"?>
<!-- Generator: Adobe Illustrator 20.0.0, SVG Export Plug-In . SVG Version: 6.00 Build 0)  -->
<svg version="1.1" id="Layer_1" xmlns="http://www.w3.org/2000/svg" xmlns:xlink="http://www.w3.org/1999/xlink" x="0px" y="0px"
	 viewBox="0 0 147.5 62.8" style="enable-background:new 0 0 147.5 62.8;" xml:space="preserve">
<style type="text/css">
	.st0{fill:#FFFFFF;}
	.st1{fill:#00B5CC;}
</style>
<rect x="11.2" y="14.5" class="st0" width="119.8" height="35.5"/>
<g>
	<path class="st1" d="M117.3,24.9h-4.6V31h4.7c2.3,0,3.6-1.2,3.6-3v-0.1C120.9,25.9,119.5,24.9,117.3,24.9z"/>
	<path class="st1" d="M-0.1-0.6V63h147.8V-0.6H-0.1z M32.2,42.1c-6.2,0-10.8-4.8-10.8-10.8v-0.1c0-6,4.5-10.9,11-10.9
		c4,0,6.4,1.3,8.3,3.3l-3,3.4c-1.6-1.5-3.3-2.4-5.4-2.4c-3.6,0-6.1,3-6.1,6.6v0.1c0,3.6,2.5,6.6,6.1,6.6c2.4,0,3.9-1,5.5-2.5l3,3
		C38.7,40.7,36.3,42.1,32.2,42.1z M76.2,41.9h-4.1l-8.5-21.2h5.1l5.5,14.9l5.5-14.9h5L76.2,41.9z M120.8,41.8l-4.5-6.8h-3.6v6.8H108
		V20.7h9.6c5,0,8,2.6,8,7v0.1c0,3.4-1.8,5.5-4.5,6.5l5.2,7.5C126.3,41.8,120.8,41.8,120.8,41.8z"/>
</g>
</svg>
