<?xml version="1.0" encoding="utf-8"?>
<!-- Generator: Adobe Illustrator 19.2.1, SVG Export Plug-In . SVG Version: 6.00 Build 0)  -->
<svg version="1.2" baseProfile="tiny" id="Layer_1" xmlns="http://www.w3.org/2000/svg" xmlns:xlink="http://www.w3.org/1999/xlink"
	 x="0px" y="0px" viewBox="0 0 128 48" xml:space="preserve">
<path fill="#A2CB00" d="M51.7,21.6l-3.6-2.5c-0.2-0.1-0.3-0.3-0.3-0.6c0-0.3,0.1-0.5,0.3-0.6c0.2-0.1,0.4-0.2,0.6-0.2l1.2,0
	c0.6,0,1-0.3,1.3-0.8l0,0l1.3-2.4c0,0-3.2,0-3.2,0c-2.9,0-5,2.6-4.6,4.9c0.2,0.9,1.2,1.7,2.7,2.8c1.5,1.1,2.8,1.9,2.8,2
	c0.1,0.1,0.4,0.4,0.4,0.4c0.2,0.3,0.3,0.6,0.3,0.9c0,0.9-0.7,1.6-1.6,1.6l-4.7,0v3.1h4.7c2,0,3.8-1.3,4.4-3.1
	c0.1-0.2,0.2-0.5,0.2-0.7c0,0,0.1-0.4,0.1-0.7C54,24.1,53,22.5,51.7,21.6z"/>
<path fill="#A2CB00" d="M18,14.5c-0.7,0-1.4,0.2-2,0.5c0-0.6,0-1,0-1c0-0.8,0.6-1.5,1.4-1.5l1.2,0c0.6,0,1-0.3,1.3-0.8l0,0l1.3-2.3
	c0,0-3.2,0-3.2,0c-2.6,0-4.7,1.9-5.1,4.4c0,0,0,0,0,0c-0.2,0.5-0.9,0.8-1.5,0.9l-1.2,0h0c-0.6,0-1,0.3-1.3,0.8l0,0l-1.3,2.3
	c0,0,3.2,0,3.2,0c0.7,0,1.4-0.1,2.1-0.4l0,13l3.1,0l0-11c0,0,0,0,0,0c0-0.9,0.7-1.6,1.6-1.6c0.1,0,1,0,1,0c0.6,0,1-0.3,1.3-0.8l0,0
	l1.3-2.4C21.2,14.5,18,14.6,18,14.5z"/>
<path fill="#A2CB00" d="M43.1,27.1h-8c-0.8-0.1-1.5-0.8-1.4-1.6v-6.2c0-0.8,0.6-1.5,1.4-1.5l4,0c0.2,0,0.4,0.1,0.6,0.2
	c0.2,0.1,0.3,0.4,0.3,0.6c0,0.2-0.1,0.4-0.3,0.6c0,0-0.2,0.1-0.2,0.1L35.3,22c-0.5,0.3-0.7,0.8-0.7,1.3l0,0l0.2,2.7
	c0,0,5.4-3.6,5.6-3.7c1.5-1.1,2.6-1.8,2.7-2.8c0.4-2.3-1.7-4.9-4.5-4.9v0c0,0-1.3,0-1.7,0c-1.6,0-2,0.1-2,0.1
	c-2.4,0.4-4.3,2.6-4.3,5.1V25c0,2.6,1.9,4.7,4.3,5.1c0,0,0.4,0.1,2,0.1c0.3,0,3.7,0,3.7,0l0,0c0.6,0,1-0.3,1.3-0.8l0,0L43.1,27.1z"
	/>
<circle fill="#ECA500" cx="89.5" cy="11.4" r="2.1"/>
<path fill="#ECA500" d="M100.9,14.7c0,0-1.1-0.1-2-0.1c-0.1,0-5.2,0-5.2,0v15.7h3.1V17.7c0.2,0,3.8,0,3.8,0c0.8,0.1,1.4,0.7,1.4,1.5
	l0,10.9l3.1,0l0-10.4C105.2,17.2,103.4,15.1,100.9,14.7z"/>
<path fill="#ECA500" d="M85.4,19.8c0-2.6-1.9-4.7-4.4-5.1c0,0-0.3-0.1-2-0.1l-9.3,0l0,15.7l3.1,0V17.7c0.6,0,1.6,0,1.6,0
	c0.8,0.1,1.5,0.7,1.5,1.6l0,11l3.1,0l0-12.5c0.6,0,1.6,0,1.6,0c0.8,0.1,1.5,0.7,1.5,1.6l0,11l3.1,0V19.8z"/>
<path fill="#ECA500" d="M89.9,14.5L89.9,14.5c-1,0.1-1.8,0.9-1.9,1.9h0v13.7h3.1V14.5H89.9z"/>
<path fill="#ECA500" d="M120.3,9.3l-1.2,0v0c-1,0.1-1.8,0.9-1.9,1.9h0V24l0,1.5c0,0.8-0.6,1.5-1.4,1.5l-0.6,0H113l-0.6,0
	c-0.8-0.1-1.4-0.7-1.4-1.5l0-1.2c0-2,0-5.1,0-5.1c0-0.8,0.6-1.5,1.4-1.5l1.1,0c0,0,0,0,0,0c0,0,0,0,0.1,0h0l0,0c0.6,0,1-0.3,1.3-0.8
	l0,0l1.3-2.3c0,0-3.2,0-3.2,0c-2.9,0-5.2,2.3-5.2,5.2c0,0.1,0,0.1,0,0.2l0,5c0,2.6,1.8,4.7,4.3,5.2c0,0,1.1,0.1,2,0.1
	c0.9,0,2-0.1,2-0.1c2.4-0.4,4.3-2.6,4.3-5.1l0,0v0c0,0,0,0,0,0c0,0,0,0,0,0L120.3,9.3z"/>
<path fill="#A2CB00" d="M67.1,19.8c0-2.6-1.9-4.7-4.3-5.1c0,0-1.1-0.1-2-0.1c-0.2,0-2.1,0-2.1,0l0-5.2c-0.4,0-0.8,0-1.3,0
	c-1,0.1-1.8,0.9-1.9,1.9l0,19h3.1l0-12.5c0.6,0,3.7,0,3.7,0c0.8,0.1,1.4,0.7,1.4,1.5l0,11l3.1,0L67.1,19.8z"/>
<path fill="#A2CB00" d="M27.7,14.6c-0.7,0-1.4,0.2-2,0.4v-0.4l-1.2,0v0c-1,0.1-1.9,0.9-2,1.9l0,13.7l3.1,0l0-11.3
	c0.2-0.7,0.8-1.2,1.5-1.2c0.1,0,1,0,1,0c0.6,0,1-0.3,1.3-0.7l0,0l1.4-2.4C31,14.5,29.1,14.6,27.7,14.6z"/>
<g>
	<path fill="#FFFFFF" d="M16.9,38.5c-0.4,0.2-0.9,0.3-1.3,0.3c-0.7,0-1.3-0.2-1.8-0.6c-0.5-0.4-0.7-0.9-0.7-1.6
		c0-0.6,0.2-1.2,0.7-1.6c0.5-0.4,1.1-0.6,1.8-0.6c0.5,0,0.9,0.1,1.3,0.3v0.7c-0.4-0.3-0.8-0.4-1.3-0.4c-0.5,0-0.9,0.1-1.2,0.4
		c-0.3,0.3-0.5,0.7-0.5,1.2c0,0.5,0.2,0.9,0.5,1.1c0.3,0.3,0.7,0.4,1.2,0.4c0.5,0,0.9-0.1,1.3-0.4V38.5z"/>
	<path fill="#FFFFFF" d="M26.2,36.6c0,0.6-0.2,1.1-0.7,1.6c-0.5,0.4-1.1,0.6-1.8,0.6c-0.7,0-1.3-0.2-1.8-0.6
		c-0.5-0.4-0.7-0.9-0.7-1.6c0-0.6,0.2-1.1,0.7-1.6c0.5-0.4,1.1-0.6,1.8-0.6c0.7,0,1.3,0.2,1.8,0.6C26,35.4,26.2,35.9,26.2,36.6z
		 M25.4,36.6c0-0.5-0.2-0.9-0.5-1.2c-0.3-0.3-0.7-0.4-1.2-0.4c-0.5,0-0.9,0.1-1.2,0.4c-0.3,0.3-0.5,0.7-0.5,1.2
		c0,0.5,0.2,0.9,0.5,1.2c0.3,0.3,0.7,0.4,1.2,0.4c0.5,0,0.9-0.1,1.2-0.4C25.3,37.4,25.4,37,25.4,36.6z"/>
	<path fill="#FFFFFF" d="M37.3,38.6h-0.7V36c0-0.7-0.3-1.1-0.8-1.1c-0.3,0-0.6,0.1-0.8,0.3c-0.2,0.3-0.4,0.6-0.4,1v2.3h-0.7V36
		c0-0.7-0.3-1.1-0.8-1.1c-0.3,0-0.6,0.1-0.8,0.3c-0.3,0.2-0.4,0.6-0.4,1v2.3H31v-4.1h0.7v0.6c0.3-0.5,0.8-0.8,1.4-0.8
		c0.7,0,1.1,0.3,1.3,0.8c0.1-0.2,0.4-0.4,0.6-0.6c0.3-0.1,0.5-0.2,0.8-0.2c1,0,1.5,0.5,1.5,1.6V38.6z"/>
	<path fill="#FFFFFF" d="M48.7,38.6H48V36c0-0.7-0.3-1.1-0.8-1.1c-0.3,0-0.6,0.1-0.8,0.3c-0.2,0.3-0.4,0.6-0.4,1v2.3h-0.7V36
		c0-0.7-0.3-1.1-0.8-1.1c-0.3,0-0.6,0.1-0.8,0.3c-0.3,0.2-0.4,0.6-0.4,1v2.3h-0.7v-4.1h0.7v0.6c0.3-0.5,0.8-0.8,1.4-0.8
		c0.7,0,1.1,0.3,1.3,0.8c0.1-0.2,0.4-0.4,0.6-0.6c0.3-0.1,0.5-0.2,0.8-0.2c1,0,1.5,0.5,1.5,1.6V38.6z"/>
	<path fill="#FFFFFF" d="M57.5,37c0,0.5-0.1,0.9-0.4,1.3c-0.3,0.3-0.8,0.5-1.4,0.5c-0.6,0-1.1-0.2-1.4-0.5c-0.3-0.3-0.5-0.7-0.5-1.2
		v-2.5h0.8V37c0,0.8,0.4,1.2,1.1,1.2c0.8,0,1.1-0.4,1.1-1.2v-2.4h0.7V37z"/>
	<path fill="#FFFFFF" d="M66.5,38.6h-0.8v-2.4c0-0.8-0.3-1.2-1-1.2c-0.4,0-0.7,0.1-1,0.4c-0.3,0.3-0.4,0.6-0.4,1.1v2.1h-0.8v-4.1
		h0.7v0.7c0.1-0.2,0.4-0.4,0.7-0.6c0.3-0.1,0.6-0.2,0.9-0.2c0.5,0,0.9,0.1,1.2,0.4c0.3,0.3,0.4,0.7,0.4,1.3V38.6z"/>
	<path fill="#FFFFFF" d="M72.4,33.2c0,0.1-0.1,0.2-0.1,0.3c-0.1,0.1-0.2,0.1-0.4,0.1c-0.1,0-0.3,0-0.4-0.1c-0.1-0.1-0.2-0.2-0.2-0.3
		c0-0.1,0-0.3,0.2-0.3c0.1-0.1,0.2-0.1,0.4-0.1c0.1,0,0.3,0,0.4,0.1C72.4,32.9,72.4,33.1,72.4,33.2z M72.3,38.6h-0.8v-4.1h0.8V38.6z
		"/>
	<path fill="#FFFFFF" d="M80.9,38.5c-0.4,0.2-0.9,0.3-1.3,0.3c-0.7,0-1.3-0.2-1.8-0.6c-0.5-0.4-0.7-0.9-0.7-1.6
		c0-0.6,0.2-1.2,0.7-1.6c0.5-0.4,1.1-0.6,1.8-0.6c0.5,0,0.9,0.1,1.3,0.3v0.7c-0.4-0.3-0.8-0.4-1.3-0.4c-0.5,0-0.9,0.1-1.2,0.4
		c-0.3,0.3-0.5,0.7-0.5,1.2c0,0.5,0.2,0.9,0.5,1.1c0.3,0.3,0.7,0.4,1.2,0.4c0.5,0,0.9-0.1,1.3-0.4V38.5z"/>
	<path fill="#FFFFFF" d="M89.9,38.6h-0.7v-0.7c-0.4,0.6-0.9,0.8-1.6,0.8c-0.7,0-1.3-0.2-1.7-0.6c-0.4-0.4-0.6-0.9-0.6-1.6
		c0-0.6,0.2-1.1,0.6-1.6c0.4-0.4,1-0.6,1.6-0.6c0.7,0,1.3,0.3,1.6,0.8l0,0v-0.7h0.7V38.6z M89.2,36.5c0-0.4-0.1-0.8-0.4-1.1
		c-0.3-0.3-0.7-0.5-1.1-0.5c-0.5,0-0.8,0.1-1.1,0.4c-0.3,0.3-0.4,0.7-0.4,1.1c0,0.5,0.1,0.8,0.4,1.1c0.3,0.3,0.7,0.5,1.1,0.5
		c0.5,0,0.9-0.1,1.2-0.4C89,37.4,89.2,37,89.2,36.5z"/>
	<path fill="#FFFFFF" d="M96.7,35.1h-0.9v3.5H95v-3.5h-0.6v-0.6H95v-1.4h0.8v1.4h0.9V35.1z"/>
	<path fill="#FFFFFF" d="M101.8,33.2c0,0.1-0.1,0.2-0.2,0.3c-0.1,0.1-0.2,0.1-0.4,0.1c-0.1,0-0.3,0-0.4-0.1
		c-0.1-0.1-0.2-0.2-0.2-0.3c0-0.1,0.1-0.3,0.2-0.3c0.1-0.1,0.2-0.1,0.4-0.1c0.1,0,0.3,0,0.4,0.1C101.8,32.9,101.8,33.1,101.8,33.2z
		 M101.7,38.6h-0.8v-4.1h0.8V38.6z"/>
	<path fill="#FFFFFF" d="M111.4,36.6c0,0.6-0.2,1.1-0.7,1.6c-0.5,0.4-1.1,0.6-1.8,0.6c-0.7,0-1.3-0.2-1.8-0.6
		c-0.5-0.4-0.7-0.9-0.7-1.6c0-0.6,0.2-1.1,0.7-1.6c0.5-0.4,1.1-0.6,1.8-0.6c0.7,0,1.3,0.2,1.8,0.6C111.2,35.4,111.4,35.9,111.4,36.6
		z M110.6,36.6c0-0.5-0.2-0.9-0.5-1.2c-0.3-0.3-0.7-0.4-1.2-0.4c-0.5,0-0.9,0.1-1.2,0.4c-0.3,0.3-0.5,0.7-0.5,1.2
		c0,0.5,0.2,0.9,0.5,1.2c0.3,0.3,0.7,0.4,1.2,0.4c0.5,0,0.9-0.1,1.2-0.4C110.5,37.4,110.6,37,110.6,36.6z"/>
	<path fill="#FFFFFF" d="M120.1,38.6h-0.8v-2.4c0-0.8-0.3-1.2-1-1.2c-0.4,0-0.7,0.1-1,0.4c-0.3,0.3-0.4,0.6-0.4,1.1v2.1h-0.8v-4.1
		h0.7v0.7c0.1-0.2,0.4-0.4,0.6-0.6c0.3-0.1,0.6-0.2,0.9-0.2c0.5,0,0.9,0.1,1.2,0.4c0.3,0.3,0.4,0.7,0.4,1.3V38.6z"/>
</g>
</svg>
