<?xml version="1.0" encoding="utf-8"?>
<!-- Generator: Adobe Illustrator 19.2.1, SVG Export Plug-In . SVG Version: 6.00 Build 0)  -->
<!DOCTYPE svg PUBLIC "-//W3C//DTD SVG 1.1//EN" "http://www.w3.org/Graphics/SVG/1.1/DTD/svg11.dtd">
<svg version="1.1" id="Layer_1" xmlns="http://www.w3.org/2000/svg" xmlns:xlink="http://www.w3.org/1999/xlink" x="0px" y="0px"
	 viewBox="0 0 444.3 144.3" style="enable-background:new 0 0 444.3 144.3;" xml:space="preserve">
<style type="text/css">
	.st0{fill:#FFFFFF;}
	.st1{fill:#FFFFFF;stroke:#FFFFFF;stroke-width:0.35;stroke-miterlimit:10;}
</style>
<g>
	<g>
		<path class="st0" d="M363.4,120.9c0,5.7-2.7,7.7-6.4,7.7c-1.2,0-5.8,0-6.2-4.7h3c0.1,1.7,1.5,2.4,3,2.4c3.8,0,3.7-2.9,3.7-4.3
			v-2.5h-0.1c-0.7,1.6-2.4,2.6-4.3,2.6c-5.5,0-5.9-7-5.9-9.5c0-5.1,1.4-10,6.2-10c2.1,0,3.7,1.4,4.1,2.9h0.1v-2.4h2.8V120.9z
			 M353.3,112.6c0,3.1,0.5,6.9,3.4,6.9c3.3,0,3.9-3,3.9-6.9c0-3.7-0.6-7.4-3.8-7.4C354,105.2,353.3,108.1,353.3,112.6z"/>
		<path class="st0" d="M366.5,103.1h3v2.8h0.1c0.8-1.8,1.9-3.3,4.1-3.3c0.6,0,1,0.1,1.3,0.2v2.9c-0.3,0-0.6-0.1-1.6-0.1
			c-1.5,0-3.9,1.4-3.9,4.5v12h-3V103.1z"/>
		<path class="st0" d="M382.1,102.6c5.5,0,6.8,4.6,6.8,10c0,5.3-1.4,10-6.8,10c-5.5,0-6.8-4.6-6.8-10
			C375.3,107.2,376.6,102.6,382.1,102.6z M385.8,112.6c0-4.1-0.6-7.7-3.8-7.7c-3,0-3.6,3.5-3.6,7.7c0,4.1,0.6,7.7,3.6,7.7
			C385.2,120.3,385.8,116.7,385.8,112.6z"/>
		<path class="st0" d="M403.7,122.1h-2.8v-2.2h-0.1c-0.8,1.7-2.8,2.7-4.6,2.7c-5,0-5-3.8-5-6v-13.5h3v13.1c0,1.5,0.1,3.8,2.8,3.8
			c1.6,0,3.8-1.1,3.8-3.8v-13.1h3V122.1z"/>
		<path class="st0" d="M406.8,103.1h2.8v2.3h0.1c0.4-1.4,2.1-2.8,4.1-2.8c4.5,0,6.2,4,6.2,9.6c0,4.3-1.3,10.3-6.2,10.3
			c-1.7,0-3.3-1-4-2.7h-0.1v8.4h-3V103.1z M413.4,120c2.7,0,3.5-2.9,3.5-7.8c0-4.2-0.7-7.1-3.5-7.1c-3.3,0-3.8,3.1-3.8,7.4
			C409.6,116.3,410.2,120,413.4,120z"/>
	</g>
</g>
<g>
	<g>
		<path class="st0" d="M100.5,29.7h3v5.5h3.3v2.3h-3.3v12.2c0,1.5,0.4,2.1,1.9,2.1c0.7,0,1-0.1,1.3-0.1v2.4
			c-0.4,0.1-1.2,0.2-2.4,0.2c-3.1,0-3.8-1.3-3.8-3.8V37.6h-2.8v-2.3h2.8V29.7z"/>
		<path class="st0" d="M108,28.9h3v8.5h0.1c0.8-1.6,2.9-2.7,4.6-2.7c4.9,0,4.9,3.8,4.9,6v13.5h-3V41.1c0-1.5-0.1-3.8-2.8-3.8
			c-1.6,0-3.8,1.1-3.8,3.8v13.1h-3V28.9z"/>
		<path class="st0" d="M126.1,45.1c0,2.9,0,7.3,3.6,7.3c2.8,0,3.2-2.9,3.2-4.4h3c0,2-1.2,6.7-6.4,6.7c-4.7,0-6.6-3.2-6.6-9.7
			c0-4.7,0.9-10.2,6.8-10.2c5.8,0,6.3,5,6.3,9.1v1.2H126.1z M133,42.8v-1c0-2.1-0.6-4.6-3.3-4.6c-3.1,0-3.5,3.8-3.5,5v0.7H133z"/>
	</g>
</g>
<path class="st0" d="M122.7,61v29.8c0,8.4-3.7,12.3-13.1,12.3c-6.8,0-10.7-3-10.7-8.4h7.7c0,1,0.4,1.8,1.2,2.4
	c0.8,0.5,1.7,0.9,2.7,0.9c3.3,0,4.4-2.4,4.4-5.7v-4.1h-0.1c-1.6,2.3-4.1,3.9-6.7,3.9c-6.4,0-9.6-4.4-9.6-15.9c0-7.4,1.2-16,9.9-16
	c2.3,0,4.9,1.1,6.5,4.3h0.1V61H122.7z M110.6,85.9c3.4,0,4.4-3.7,4.4-9c0-7.7-1-10.5-4.2-10.5c-3.6,0-4.2,2.9-4.2,11.3
	C106.6,82,107.2,85.9,110.6,85.9z"/>
<path class="st0" d="M127.1,70.6v-0.8c0-7.2,5-9.7,11-9.7c9.6,0,11.4,4,11.4,9.6v16.5c0,3,0.2,4.2,1,6.1h-7.7c-0.5-1-0.8-2.2-1-3.3
	h-0.1c-1.9,3.3-4.1,4.1-8,4.1c-5.6,0-7.6-4.8-7.6-9c0-6,2.4-8.3,7.9-9.8l4.6-1.2c2.4-0.6,3.2-1.6,3.2-3.7c0-2.4-1-3.9-3.7-3.9
	c-2.5,0-3.7,1.6-3.7,4.1v0.9H127.1z M141.8,76.7c-1.1,0.9-2.5,1.3-3.4,1.6c-3.3,0.7-4.6,2.3-4.6,5.1c0,2.4,0.9,4.4,3,4.4
	c2.2,0,5-1.3,5-4.8V76.7z"/>
<path class="st0" d="M153.9,61h7.7v4.2h0.1c1.6-3,3.9-5,7.2-5c0.5,0,1,0.1,1.5,0.1V68c-0.9-0.1-1.6-0.1-2.5-0.1c-2.8,0-6,1.5-6,5.7
	v18.9h-8.1V61z"/>
<path class="st0" d="M172.7,61h7.7v4.2h0.1c1.6-3,3.9-5,7.2-5c0.5,0,1,0.1,1.5,0.1V68c-0.9-0.1-1.6-0.1-2.5-0.1c-2.8,0-6,1.5-6,5.7
	v18.9h-8.1V61z"/>
<path class="st0" d="M191.1,50.2h8.1v6.9h-8.1V50.2z M191.1,61h8.1v31.4h-8.1V61z"/>
<path class="st0" d="M227.1,61v29.8c0,8.4-3.7,12.3-13.1,12.3c-6.8,0-10.7-3-10.7-8.4h7.7c0,1,0.4,1.8,1.2,2.4
	C213,97.7,214,98,215,98c3.3,0,4.4-2.4,4.4-5.7v-4.1h-0.1c-1.6,2.3-4.1,3.9-6.7,3.9c-6.4,0-9.6-4.4-9.6-15.9c0-7.4,1.2-16,9.9-16
	c2.3,0,4.9,1.1,6.5,4.3h0.1V61H227.1z M215,85.9c3.4,0,4.4-3.7,4.4-9c0-7.7-1-10.5-4.2-10.5c-3.6,0-4.2,2.9-4.2,11.3
	C211,82,211.6,85.9,215,85.9z"/>
<path class="st0" d="M231.4,70.6v-0.8c0-7.2,5-9.7,11-9.7c9.6,0,11.4,4,11.4,9.6v16.5c0,3,0.2,4.2,1,6.1h-7.7c-0.5-1-0.8-2.2-1-3.3
	H246c-1.9,3.3-4.1,4.1-8,4.1c-5.6,0-7.6-4.8-7.6-9c0-6,2.4-8.3,7.9-9.8l4.6-1.2c2.4-0.6,3.2-1.6,3.2-3.7c0-2.4-1-3.9-3.7-3.9
	c-2.5,0-3.7,1.6-3.7,4.1v0.9H231.4z M246.2,76.7c-1.1,0.9-2.5,1.3-3.4,1.6c-3.3,0.7-4.6,2.3-4.6,5.1c0,2.4,0.9,4.4,3,4.4
	c2.2,0,5-1.3,5-4.8V76.7z"/>
<path class="st0" d="M258.3,61h7.7v3.7h0.1c1.7-3.1,4.6-4.5,8-4.5c5.1,0,8,2.7,8,8.9v23.3h-8.1V70.7c0-3.2-1.1-4.4-3.4-4.4
	c-2.9,0-4.3,1.8-4.3,5.2v20.9h-8.1V61z"/>
<path class="st0" d="M288.9,50.7h8.1v41.7h-8.1V50.7z"/>
<path class="st0" d="M301.3,96.7c0.7,0.1,1.4,0.2,2.1,0.2c3,0,4.1-1.6,4.3-4.4L298.9,61h8.4l4.7,21.7h0.1l4.1-21.7h8.1l-7.6,29.3
	c-2.8,10.9-4.6,12.4-12.1,12.4h-3.3V96.7z"/>
<path class="st0" d="M326.2,61h7.7v3.2h0.1c2-2.9,4.5-4,7.9-4c3.7,0,6.4,1.8,7.2,5h0.1c1.2-3.3,4.1-5,7.9-5c5.4,0,7.8,3.3,7.8,9.4
	v22.8h-8.1v-22c0-2.6-0.9-4.1-3.2-4.1c-2.6,0-4.2,1.7-4.2,5.4v20.7h-8.1v-22c0-2.6-0.9-4.1-3.2-4.1c-2.6,0-4.2,1.7-4.2,5.4v20.7
	h-8.1V61z"/>
<path class="st0" d="M369.2,70.6v-0.8c0-7.2,5-9.7,11-9.7c9.6,0,11.4,4,11.4,9.6v16.5c0,3,0.2,4.2,1,6.1h-7.7c-0.5-1-0.8-2.2-1-3.3
	h-0.1c-1.9,3.3-4.1,4.1-8,4.1c-5.6,0-7.6-4.8-7.6-9c0-6,2.4-8.3,7.9-9.8l4.6-1.2c2.4-0.6,3.2-1.6,3.2-3.7c0-2.4-1-3.9-3.7-3.9
	c-2.5,0-3.7,1.6-3.7,4.1v0.9H369.2z M383.9,76.7c-1.1,0.9-2.5,1.3-3.4,1.6c-3.3,0.7-4.6,2.3-4.6,5.1c0,2.4,0.9,4.4,3,4.4
	c2.2,0,5-1.3,5-4.8V76.7z"/>
<path class="st0" d="M396,61h7.7v3.7h0.1c1.7-3.1,4.6-4.5,8-4.5c5.1,0,8,2.7,8,8.9v23.3h-8.1V70.7c0-3.2-1.1-4.4-3.4-4.4
	c-2.9,0-4.3,1.8-4.3,5.2v20.9H396V61z"/>
<g>
	<g>
		<g>
			<path class="st0" d="M61,66.9c0.3-0.2,0-0.5-0.4-0.7c-1.1-0.5-2.4-1.1-3.3-1.4c-0.3-0.1-0.7-0.2-1-0.4c-0.6-0.1,1,1.6,2.9,2.6
				c0.2,0.1,0.4,0.2,0.6,0.3C60.3,67.4,60.6,67.2,61,66.9z"/>
			<path class="st0" d="M54.7,73.5c0,0,0.1-0.1,0.1-0.2C54.7,68.6,54,45.7,54,45.6c-0.2-1.1-2.5-1.3-4.6-0.9c-1.8,0.3-3.2,1-3.7,1.8
				c-0.2,0.3-0.2,0.6-0.2,0.8c0,0,7.5,21.7,9,26.1C54.6,73.5,54.6,73.5,54.7,73.5z"/>
			<path class="st0" d="M74.6,80.2c-0.1-0.6-1.3-1-1.8-1.1l-17.3-4.7c0,0,0,0,0,0c0,0,0,0.1,0,0.1l13.8,6.4c-1.7,2.7-8.7,3.6-18,0
				c-9.9-3.7-15.6-9-14.8-13c0.6-3.2,6.2-4.6,13.1-3.7c0.5-0.2-1.7-1.7-3.9-2.3c-6.9-0.7-12.4,0.6-13.8,4.2
				c-2.1,5.5,6.2,14.3,17.9,18.7c9.6,3.6,19.7,3.6,23.6-1.2c0,0,0,0,0-0.1C74.1,82.5,74.8,81.2,74.6,80.2z"/>
		</g>
	</g>
</g>
<line class="st1" x1="86.1" y1="35.3" x2="86.1" y2="94.9"/>
</svg>
