<?xml version="1.0" encoding="utf-8"?>
<!-- Generator: Adobe Illustrator 19.1.0, SVG Export Plug-In . SVG Version: 6.00 Build 0)  -->
<svg version="1.0" id="Livello_1" xmlns="http://www.w3.org/2000/svg" xmlns:xlink="http://www.w3.org/1999/xlink" x="0px" y="0px"
	 viewBox="-167 188.4 179.3 138.6" style="enable-background:new -167 188.4 179.3 138.6;" xml:space="preserve">
<style type="text/css">
	.st0{fill:#FFFFFF;}
</style>
<path class="st0" d="M-97,272.7l-19.3-31.6v31.6h-10.1v-51.5h10.1l19.3,31.5v-31.5h10v51.5H-97z"/>
<path class="st0" d="M-67.7,272.7L-87,241.1v31.6h-10v-51.5h10l19.3,31.5v-31.5h10.1v51.5H-67.7z"/>
<path class="st0" d="M-38.3,272.7l-19.3-31.6v31.6h-10.1v-51.5h10.1l19.3,31.5v-31.5h10.1v51.5H-38.3z"/>
<path class="st0" d="M-118.8,297.2l-5.1-7.9v7.9h-2.5v-12.9h2.2l5.1,7.9v-7.9h2.5v12.9H-118.8z"/>
<path class="st0" d="M-113.6,297.2v-12.9h8.5v2.2h-6v3h5.1v2.2h-5.1v3.1h6v2.2L-113.6,297.2L-113.6,297.2z"/>
<path class="st0" d="M-95.8,297.2l-2.5-5.1h-1.8v5.1h-2.5v-12.9h5c2.6,0,4.2,1.8,4.2,3.9c0,1.5-0.9,2.9-2.3,3.4l2.9,5.6L-95.8,297.2
	L-95.8,297.2z M-97.7,286.5h-2.3v3.4h2.3c0.9,0.1,1.7-0.7,1.8-1.6c0.1-0.9-0.7-1.7-1.6-1.8C-97.6,286.5-97.7,286.5-97.7,286.5z"/>
<path class="st0" d="M-90.8,297.2v-12.9h2.5v12.9H-90.8z"/>
<path class="st0" d="M-74.3,297.2h-2.1l-2.3-7.8l-2.3,7.8h-2.2l-3.4-12.9h2.6l2,8.1l2.3-8.1h1.9l2.3,8.1l2-8.1h2.6L-74.3,297.2z"/>
<path class="st0" d="M-61.6,295.9c-1.9,1.9-5,1.9-7,0c-1.3-1.3-1.3-2.9-1.3-5.1c0-2.2,0-3.8,1.3-5.1c1.9-1.9,5-1.9,7,0
	c1.3,1.3,1.3,2.9,1.3,5.1C-60.3,292.9-60.3,294.6-61.6,295.9z M-63.5,287.1c-0.4-0.5-1-0.7-1.6-0.7c-0.6,0-1.2,0.2-1.6,0.7
	c-0.5,0.5-0.6,1.1-0.6,3.6s0.1,3.1,0.6,3.6c0.4,0.5,1,0.7,1.6,0.7c0.6,0,1.2-0.2,1.6-0.7c0.5-0.5,0.6-1.1,0.6-3.6
	S-63,287.7-63.5,287.1L-63.5,287.1z"/>
<path class="st0" d="M-57.8,297.2v-12.9h2.5v10.6h5.9v2.2H-57.8z"/>
<path class="st0" d="M-44.9,286.5v3.2h5.1v2.2h-5.1v5.2h-2.5v-12.9h8.5v2.2L-44.9,286.5L-44.9,286.5z"/>
<path class="st0" d="M-34.2,286.5v3.2h5.1v2.2h-5.1v5.2h-2.5v-12.9h8.5v2.2L-34.2,286.5L-34.2,286.5z"/>
</svg>
