<?xml version="1.0" encoding="utf-8"?>
<!-- Generator: Adobe Illustrator 19.2.1, SVG Export Plug-In . SVG Version: 6.00 Build 0)  -->
<svg version="1.1" id="Layer_1" xmlns="http://www.w3.org/2000/svg" xmlns:xlink="http://www.w3.org/1999/xlink" x="0px" y="0px"
	 viewBox="0 0 61.6 11" style="enable-background:new 0 0 61.6 11;" xml:space="preserve">
<style type="text/css">
	.st0{display:none;}
	.st1{display:inline;}
	.st2{fill:#FFFFFF;}
	.st3{display:inline;fill:#FFFFFF;}
	.st4{fill:#1F1E21;}
</style>
<g id="BLANC" class="st0">
	<g class="st1">
		<path class="st2" d="M0,2.5h1.7v0.9h0c0.5-0.7,1.2-1.1,2-1.1c0.8,0,1.6,0.3,1.9,1.1c0.4-0.6,1.1-1.1,2-1.1c1.4,0,2.4,0.7,2.4,2.4
			v4.5H8.4V5.4c0-0.9-0.1-1.6-1.1-1.6C6.2,3.8,6,4.7,6,5.5v3.7H4.2V5.5c0-0.8,0.1-1.7-1.1-1.7C2.7,3.8,1.8,4,1.8,5.3v3.9H0V2.5z"/>
		<path class="st2" d="M11.2,4.6c0.1-1.7,1.6-2.2,3.1-2.2c1.3,0,2.9,0.3,2.9,1.9v3.5c0,0.6,0.1,1.2,0.2,1.5h-1.9
			c-0.1-0.2-0.1-0.4-0.1-0.6c-0.6,0.6-1.4,0.8-2.2,0.8c-1.3,0-2.3-0.6-2.3-2c0-1.5,1.1-1.9,2.3-2c1.1-0.2,2.2-0.1,2.2-0.9
			c0-0.8-0.5-0.9-1.2-0.9c-0.7,0-1.1,0.3-1.2,1C13,4.6,11.2,4.6,11.2,4.6z M15.4,5.9c-0.3,0.3-1,0.3-1.5,0.4c-0.6,0.1-1.1,0.3-1.1,1
			c0,0.7,0.5,0.9,1.1,0.9c1.4,0,1.5-1.1,1.5-1.5V5.9z"/>
		<path class="st2" d="M18.4,0h1.8v4.9l2.3-2.4h2.2L22.2,5L25,9.2h-2.2l-1.8-3l-0.7,0.7v2.3h-1.8L18.4,0L18.4,0z"/>
		<path class="st2" d="M25.6,0h1.8v3.5h0c0.5-0.7,1.3-1.1,2-1.1c1.9,0,2.4,1.1,2.4,2.8v4.1H30V5.4c0-1.1-0.3-1.6-1.2-1.6
			c-1,0-1.4,0.6-1.4,1.9v3.5h-1.8L25.6,0L25.6,0z"/>
		<path class="st2" d="M34.3,6.3C34.4,7.5,35,8,36,8c0.7,0,1.3-0.5,1.4-0.9H39c-0.5,1.6-1.6,2.2-3.1,2.2c-2.1,0-3.4-1.4-3.4-3.5
			c0-2,1.4-3.5,3.4-3.5c2.3,0,3.4,1.9,3.2,4H34.3z M37.3,5.2c-0.2-0.9-0.6-1.4-1.5-1.4c-1.2,0-1.5,0.9-1.5,1.4H37.3z"/>
		<path class="st2" d="M41.7,1.5h-1.8V0h1.8V1.5z M39.9,2.5h1.8v6.7h-1.8V2.5z"/>
		<path class="st2" d="M42.7,4.6c0.1-1.7,1.6-2.2,3.1-2.2c1.3,0,2.9,0.3,2.9,1.9v3.5c0,0.6,0.1,1.2,0.2,1.5h-1.9
			C47.1,9,47,8.8,47,8.6c-0.6,0.6-1.4,0.8-2.2,0.8c-1.3,0-2.3-0.6-2.3-2c0-1.5,1.1-1.9,2.3-2c1.1-0.2,2.2-0.1,2.2-0.9
			c0-0.8-0.5-0.9-1.2-0.9c-0.7,0-1.1,0.3-1.2,1C44.5,4.6,42.7,4.6,42.7,4.6z M47.2,5.9c-0.3,0.3-1,0.3-1.5,0.4
			c-0.6,0.1-1.1,0.3-1.1,1c0,0.7,0.5,0.9,1.1,0.9c1.4,0,1.5-1.1,1.5-1.5C47.2,6.6,47.2,5.9,47.2,5.9z"/>
	</g>
	<path class="st3" d="M57.4,0.9C54.6,0.4,52,2.2,51.5,5c-0.5,2.8,1.4,5.4,4.1,5.9c2.8,0.5,5.4-1.4,5.9-4.1C62,4,60.1,1.4,57.4,0.9z
		 M58,8.3l-1.3-3.7l-2.4,3l-1.1-0.2l3.9-4.9l2,5.9L58,8.3z"/>
</g>
<g id="NOIR">
	<g>
		<path class="st4" d="M0,2.5h1.7v0.9h0c0.5-0.7,1.2-1.1,2-1.1c0.8,0,1.6,0.3,1.9,1.1c0.4-0.6,1.1-1.1,2-1.1c1.4,0,2.4,0.7,2.4,2.4
			v4.5H8.4V5.4c0-0.9-0.1-1.6-1.1-1.6C6.2,3.8,6,4.7,6,5.5v3.7H4.2V5.5c0-0.8,0.1-1.7-1.1-1.7C2.7,3.8,1.8,4,1.8,5.3v3.9H0V2.5z"/>
		<path class="st4" d="M11.2,4.6c0.1-1.7,1.6-2.2,3.1-2.2c1.3,0,2.9,0.3,2.9,1.9v3.5c0,0.6,0.1,1.2,0.2,1.5h-1.9
			c-0.1-0.2-0.1-0.4-0.1-0.6c-0.6,0.6-1.4,0.8-2.2,0.8c-1.3,0-2.3-0.6-2.3-2c0-1.5,1.1-1.9,2.3-2c1.1-0.2,2.2-0.1,2.2-0.9
			c0-0.8-0.5-0.9-1.2-0.9c-0.7,0-1.1,0.3-1.2,1C13,4.6,11.2,4.6,11.2,4.6z M15.4,5.9c-0.3,0.3-1,0.3-1.5,0.4c-0.6,0.1-1.1,0.3-1.1,1
			c0,0.7,0.5,0.9,1.1,0.9c1.4,0,1.5-1.1,1.5-1.5V5.9z"/>
		<path class="st4" d="M18.4,0h1.8v4.9l2.3-2.4h2.2L22.2,5L25,9.2h-2.2l-1.8-3l-0.7,0.7v2.3h-1.8L18.4,0L18.4,0z"/>
		<path class="st4" d="M25.6,0h1.8v3.5h0c0.5-0.7,1.3-1.1,2-1.1c1.9,0,2.4,1.1,2.4,2.8v4.1H30V5.4c0-1.1-0.3-1.6-1.2-1.6
			c-1,0-1.4,0.6-1.4,1.9v3.5h-1.8L25.6,0L25.6,0z"/>
		<path class="st4" d="M34.3,6.3C34.4,7.5,35,8,36,8c0.7,0,1.3-0.5,1.4-0.9H39c-0.5,1.6-1.6,2.2-3.1,2.2c-2.1,0-3.4-1.4-3.4-3.5
			c0-2,1.4-3.5,3.4-3.5c2.3,0,3.4,1.9,3.2,4H34.3z M37.3,5.2c-0.2-0.9-0.6-1.4-1.5-1.4c-1.2,0-1.5,0.9-1.5,1.4H37.3z"/>
		<path class="st4" d="M41.7,1.5h-1.8V0h1.8V1.5z M39.9,2.5h1.8v6.7h-1.8V2.5z"/>
		<path class="st4" d="M42.7,4.6c0.1-1.7,1.6-2.2,3.1-2.2c1.3,0,2.9,0.3,2.9,1.9v3.5c0,0.6,0.1,1.2,0.2,1.5h-1.9
			C47.1,9,47,8.8,47,8.6c-0.6,0.6-1.4,0.8-2.2,0.8c-1.3,0-2.3-0.6-2.3-2c0-1.5,1.1-1.9,2.3-2c1.1-0.2,2.2-0.1,2.2-0.9
			c0-0.8-0.5-0.9-1.2-0.9c-0.7,0-1.1,0.3-1.2,1C44.5,4.6,42.7,4.6,42.7,4.6z M47.2,5.9c-0.3,0.3-1,0.3-1.5,0.4
			c-0.6,0.1-1.1,0.3-1.1,1c0,0.7,0.5,0.9,1.1,0.9c1.4,0,1.5-1.1,1.5-1.5C47.2,6.6,47.2,5.9,47.2,5.9z"/>
	</g>
	<path class="st4" d="M57.4,0.9C54.6,0.4,52,2.2,51.5,5c-0.5,2.8,1.4,5.4,4.1,5.9c2.8,0.5,5.4-1.4,5.9-4.1C62,4,60.1,1.4,57.4,0.9z
		 M58,8.3l-1.3-3.7l-2.4,3l-1.1-0.2l3.9-4.9l2,5.9L58,8.3z"/>
</g>
</svg>
