<?xml version="1.0" encoding="utf-8"?>
<!-- Generator: Adobe Illustrator 19.2.1, SVG Export Plug-In . SVG Version: 6.00 Build 0)  -->
<svg version="1.1" id="Layer_1" xmlns="http://www.w3.org/2000/svg" xmlns:xlink="http://www.w3.org/1999/xlink" x="0px" y="0px"
	 viewBox="0 0 463.3 162" style="enable-background:new 0 0 463.3 162;" xml:space="preserve">
<style type="text/css">
	.st0{fill:#6D6E71;}
	.st1{fill:#F58220;}
</style>
<g>
	<path class="st0" d="M362.5,74.9h-6V62.7l0.5-4h-0.1l-1,2.6l-2.7,4.8h-4.8l-2.6-4.7l-1.1-2.7h-0.1l0.5,4.1v12.1h-6V50.2h6.2
		l5.5,10.3l5.6-10.3h6.2v24.7H362.5z"/>
	<path class="st0" d="M382.8,50.2l7.8,24.7h-6.2l-1.5-5.2h-7.2l-1.5,5.2H368l7.8-24.7H382.8z M379.4,56.9l-2.1,7.5h4.1L379.4,56.9z"
		/>
	<path class="st0" d="M402.4,60l4.6-9.8h6.9l-8.5,15.2v9.5h-6v-9.5l-8.5-15.2h6.9L402.4,60z"/>
	<path class="st0" d="M436.5,50.2v5.6h-11.6v3.8h10.7v5.2h-10.7v4.5h12v5.5h-18V50.1L436.5,50.2L436.5,50.2z"/>
	<path class="st0" d="M452.2,67.1h-2.8v7.8h-6V50.2h10.7c4.7,0,7,2.7,7.2,6.2c0.1,1.5,0.1,2.8,0,4.3c-0.2,4.2-3,5.4-3,5.4l5,8.8
		h-7.1L452.2,67.1z M455.4,56.9c0-0.6-0.5-1.2-1.6-1.2h-4.5v5.8h4.5c1.1,0,1.5-0.7,1.6-1.2C455.5,59.1,455.5,58,455.4,56.9z"/>
	<path class="st0" d="M0.1,50.2h10.6c4.7,0,7.1,2.6,7.2,6.2c0.1,1.5,0.1,3.4,0,4.9c-0.2,3.6-2.5,6.1-7.2,6.1H6v7.5H0V50.2H0.1z
		 M12.1,56.8c0-0.4-0.4-1.1-1.5-1.1H6v6.1h4.6c1.1,0,1.4-0.6,1.5-1.1C12.2,59.7,12.2,58,12.1,56.8z"/>
	<path class="st0" d="M42.8,50.2v5.6H31.2v3.8h10.7v5.2H31.2v4.5h12v5.5h-18V50.1L42.8,50.2L42.8,50.2z"/>
	<path class="st0" d="M49.5,50.2h18.6v5.6h-6.3v19.1h-6V55.8h-6.3C49.5,55.8,49.5,50.2,49.5,50.2z"/>
	<path class="st0" d="M92.5,50.2v5.6H80.9v3.8h10.7v5.2H80.9v4.5h12v5.5h-18V50.1L92.5,50.2L92.5,50.2z"/>
	<path class="st0" d="M108.6,67.1h-2.8v7.8h-6V50.2h10.7c4.7,0,7,2.7,7.2,6.2c0.1,1.5,0.1,2.8,0,4.3c-0.2,4.2-3,5.4-3,5.4l5,8.8h-7
		L108.6,67.1z M111.8,56.9c0-0.6-0.5-1.2-1.6-1.2h-4.5v5.8h4.5c1.1,0,1.5-0.7,1.6-1.2C111.9,59.1,111.9,58,111.8,56.9z"/>
</g>
<path class="st1" d="M277.7,0c-9.4,0-17.9,3.5-24.4,9.3c-6.5-5.8-15-9.3-24.4-9.3S211,3.5,204.5,9.3C198,3.5,189.5,0,180.2,0
	c-20.2,0-36.6,16.4-36.6,36.6v32.7v5.5V150l24.4,12v-52.7c3.8,1.4,7.9,2.1,12.2,2.1c20.1,0,36.4-16.2,36.6-36.3l0,0v-0.2v-0.1V36.6
	v-0.1c0-6.7,5.5-12.2,12.2-12.2s12.2,5.4,12.2,12.2v50.4l24.3,12V36.5c0-6.7,5.5-12.2,12.2-12.2s12.2,5.4,12.2,12.2v74.4l24.4,12V75
	c0-0.1,0-0.2,0-0.3V36.5C314.2,16.4,297.9,0,277.7,0z M192.4,74.9c0,6.7-5.5,12.2-12.2,12.2S168,81.7,168,74.9V36.6
	c0-6.7,5.5-12.2,12.2-12.2s12.2,5.4,12.2,12.2V74.9z"/>
</svg>
