<!-- Generator: Adobe Illustrator 19.2.0, SVG Export Plug-In  -->
<svg version="1.1"
	 xmlns="http://www.w3.org/2000/svg" xmlns:xlink="http://www.w3.org/1999/xlink" xmlns:a="http://ns.adobe.com/AdobeSVGViewerExtensions/3.0/"
	 x="0px" y="0px" width="272.6px" height="55px" viewBox="0 0 272.6 55" style="enable-background:new 0 0 272.6 55;"
	 xml:space="preserve">
<defs>
</defs>
<polygon points="32.9,18.1 33.1,18.2 33.1,21.7 32.9,21.9 27.4,21.9 27.4,36.9 27.2,37 23.7,37 23.6,36.9 23.6,21.9 18.1,21.9 
	17.9,21.7 17.9,18.2 18.1,18.1 "/>
<polygon points="41.8,18.1 42,18.2 42,25.2 50.6,25.2 50.6,18.2 50.8,18.1 54.3,18.1 54.4,18.2 54.4,36.9 54.3,37 50.8,37 
	50.6,36.9 50.6,29 42,29 42,36.9 41.8,37 38.3,37 38.2,36.9 38.2,18.2 38.3,18.1 "/>
<polygon points="64,18.1 64.1,18.2 64.1,36.9 64,37 60.5,37 60.4,36.9 60.4,18.2 60.5,18.1 "/>
<polygon points="73.9,18.1 74.2,18.2 83.6,30.5 83.6,18.2 83.7,18.1 87.3,18.1 87.4,18.2 87.4,36.9 87.3,37 83.6,37 83.3,36.9 
	73.9,24.6 73.9,36.9 73.7,37 70.2,37 70.1,36.9 70.1,18.2 70.2,18.1 "/>
<polygon points="97,18.1 97.1,18.2 97.1,25.2 104.4,18.2 104.7,18.1 109.4,18.1 109.6,18.2 100.8,27.1 110.9,36.9 110.8,37 
	105.5,37 105.2,36.9 97.1,29 97.1,36.9 97,37 93.5,37 93.3,36.9 93.3,18.2 93.5,18.1 "/>
<polygon points="119.2,18.1 119.3,18.2 119.3,36.9 119.2,37 115.6,37 115.5,36.9 115.5,18.2 115.6,18.1 "/>
<polygon points="129,18.1 129.3,18.2 138.8,30.5 138.8,18.2 138.9,18.1 142.4,18.1 142.5,18.2 142.5,36.9 142.4,37 138.8,37 
	138.5,36.9 129,24.6 129,36.9 128.9,37 125.4,37 125.2,36.9 125.2,18.2 125.4,18.1 "/>
<path d="M164.8,23.2c-2-1.2-4.3-1.6-6.6-1.6c-3.6,0-6.1,2.7-6.1,5.9s2.4,5.9,6.2,5.9c0.9,0,2.2-0.1,2.8-0.4v-3.5h-2.8l-0.1-0.1v-3.5
	l0.1-0.1h6.5l0.1,0.1v9.9c-2,1.1-4.2,1.6-6.6,1.6c-5.8,0-10.4-4.3-10.4-9.9c0-5.4,4.5-9.9,10.3-9.9c2.6,0,4.7,0.3,6.8,1.2V23
	L164.8,23.2z"/>
<path d="M180.8,18.1l0.1,0.1v13.3c0,3.2-2,5.9-6.4,5.9c-2.4,0-4.6-1.8-5.3-4.1l3.1-1.6h0.1c0.4,1.4,1.2,2,2.3,2
	c1.9,0,2.3-1.2,2.3-3.5v-12l0.1-0.1L180.8,18.1z"/>
<path d="M191.1,18.1l0.1,0.1v9.9c0,3.6,2,5.4,4.6,5.4s4.6-1.8,4.6-5.4v-9.9l0.1-0.1h3.5l0.1,0.1v10.4c0,5.5-3.8,8.8-8.4,8.8
	c-4.6,0-8.4-3.2-8.4-8.8V18.2l0.1-0.1H191.1z"/>
<polygon points="213.8,18.1 213.9,18.2 213.9,36.9 213.8,37 210.3,37 210.1,36.9 210.1,18.2 210.3,18.1 "/>
<path d="M235.7,23.7c-1.8-1.5-3.8-2.2-6.4-2.2c-3.2,0-5.8,2.7-5.8,5.9s2.6,5.9,5.8,5.9c2.6,0,4.6-0.7,6.4-2.2l0.1,0.1v4.2
	c-1.8,1.3-3.9,1.8-6.5,1.8c-5.5,0-10-4.4-10-9.9c0-5.4,4.5-9.9,10-9.9c2.6,0,4.7,0.5,6.5,1.8v4.2L235.7,23.7z"/>
<polygon points="254.6,18.1 254.7,18.2 254.7,21.7 254.6,21.9 245.5,21.9 245.5,25.2 252.2,25.2 252.3,25.4 252.3,28.9 252.2,29 
	245.5,29 245.5,33.2 254.9,33.2 255,33.3 255,36.9 254.9,37 241.9,37 241.7,36.9 241.7,18.2 241.9,18.1 "/>
<path d="M4.1,50.9h264.3V4.1H4.1V50.9z M272.6,55H0V0h272.5L272.6,55L272.6,55z"/>
</svg>
